# MagicaVoxel @ Ephtracy

# material
mtllib girl-sits-00.mtl
usemtl palette

# normals
vn -1 0 0
vn 1 0 0
vn 0 0 1
vn 0 0 -1
vn 0 -1 0
vn 0 1 0

# texcoords
vt 0.861328 0.5
vt 0.939453 0.5
vt 0.947266 0.5

# verts
v -11.5 0 13
v -11.5 0 12
v -11.5 7 25
v -11.5 7 13
v -11.5 8 25
v -11.5 8 12
v -5.5 19 10
v -5.5 19 9
v -5.5 20 10
v -5.5 20 9
v -4.5 0 25
v -4.5 0 13
v -4.5 1 -4
v -4.5 1 -5
v -4.5 7 25
v -4.5 7 13
v -4.5 7 -5
v -4.5 7 -25
v -4.5 8 -4
v -4.5 8 -25
v -3.5 4 9
v -3.5 4 4
v -3.5 5 12
v -3.5 5 9
v -3.5 5 8
v -3.5 5 4
v -3.5 6 12
v -3.5 6 8
v -3.5 8 13
v -3.5 8 12
v -3.5 9 13
v -3.5 9 12
v -2.5 9 5
v -2.5 9 -4
v -2.5 11 5
v -2.5 11 -2
v -2.5 20 -2
v -2.5 20 -4
v -1.5 0 12
v -1.5 0 -5
v -1.5 1 -4
v -1.5 1 -5
v -1.5 3 12
v -1.5 4 9
v -1.5 4 4
v -1.5 5 12
v -1.5 5 9
v -1.5 5 8
v -1.5 5 4
v -1.5 6 12
v -1.5 6 8
v -1.5 8 12
v -1.5 8 -4
v -1.5 8 -25
v -1.5 9 13
v -1.5 9 12
v -1.5 9 5
v -1.5 9 -4
v -1.5 11 12
v -1.5 11 5
v -1.5 11 -4
v -1.5 11 -25
v -1.5 20 13
v -1.5 20 12
v -0.5 19 12
v -0.5 19 10
v -0.5 20 12
v -0.5 20 10
v 0.5 10 -5
v 0.5 10 -24
v 0.5 11 -5
v 0.5 11 -24
v 3.5 1 25
v 3.5 1 13
v 3.5 8 25
v 3.5 8 13
v -3.5 1 25
v -3.5 1 13
v -3.5 8 25
v -3.5 8 13
v -0.5 10 -5
v -0.5 10 -24
v -0.5 11 -5
v -0.5 11 -24
v 0.5 19 12
v 0.5 19 10
v 0.5 20 12
v 0.5 20 10
v 1.5 0 12
v 1.5 0 -5
v 1.5 1 -4
v 1.5 1 -5
v 1.5 3 12
v 1.5 4 9
v 1.5 4 4
v 1.5 5 12
v 1.5 5 9
v 1.5 5 8
v 1.5 5 4
v 1.5 6 12
v 1.5 6 8
v 1.5 8 12
v 1.5 8 -4
v 1.5 8 -25
v 1.5 9 13
v 1.5 9 12
v 1.5 9 5
v 1.5 9 -4
v 1.5 11 12
v 1.5 11 5
v 1.5 11 -4
v 1.5 11 -25
v 1.5 20 13
v 1.5 20 12
v 2.5 9 5
v 2.5 9 -4
v 2.5 11 5
v 2.5 11 -2
v 2.5 20 -2
v 2.5 20 -4
v 3.5 4 9
v 3.5 4 4
v 3.5 5 12
v 3.5 5 9
v 3.5 5 8
v 3.5 5 4
v 3.5 6 12
v 3.5 6 8
v 3.5 8 13
v 3.5 8 12
v 3.5 9 13
v 3.5 9 12
v 4.5 0 25
v 4.5 0 13
v 4.5 1 -4
v 4.5 1 -5
v 4.5 7 25
v 4.5 7 13
v 4.5 7 -5
v 4.5 7 -25
v 4.5 8 -4
v 4.5 8 -25
v 5.5 19 10
v 5.5 19 9
v 5.5 20 10
v 5.5 20 9
v 11.5 0 13
v 11.5 0 12
v 11.5 7 25
v 11.5 7 13
v 11.5 8 25
v 11.5 8 12
v -11.5 7 25
v -11.5 8 25
v -4.5 0 25
v -4.5 7 25
v -3.5 1 25
v -3.5 8 25
v 3.5 1 25
v 3.5 8 25
v 4.5 0 25
v 4.5 7 25
v 11.5 7 25
v 11.5 8 25
v -11.5 0 13
v -11.5 7 13
v -4.5 0 13
v -4.5 7 13
v -3.5 1 13
v -3.5 8 13
v -3.5 9 13
v -2.5 3 13
v -2.5 5 13
v -2.5 6 13
v -2.5 8 13
v -1.5 9 13
v -1.5 20 13
v -0.5 11 13
v -0.5 20 13
v 0.5 11 13
v 0.5 20 13
v 1.5 9 13
v 1.5 20 13
v 2.5 3 13
v 2.5 5 13
v 2.5 6 13
v 2.5 8 13
v 3.5 1 13
v 3.5 8 13
v 3.5 9 13
v 4.5 0 13
v 4.5 7 13
v 11.5 0 13
v 11.5 7 13
v -5.5 19 10
v -5.5 20 10
v -0.5 19 10
v -0.5 20 10
v 0.5 19 10
v 0.5 20 10
v 5.5 19 10
v 5.5 20 10
v -3.5 4 9
v -3.5 5 9
v -1.5 4 9
v -1.5 5 9
v 1.5 4 9
v 1.5 5 9
v 3.5 4 9
v 3.5 5 9
v -2.5 9 5
v -2.5 11 5
v -1.5 9 5
v -1.5 11 5
v 1.5 9 5
v 1.5 11 5
v 2.5 9 5
v 2.5 11 5
v -2.5 11 -2
v -2.5 20 -2
v 2.5 11 -2
v 2.5 20 -2
v -4.5 1 -4
v -4.5 8 -4
v -1.5 1 -4
v -1.5 8 -4
v 1.5 1 -4
v 1.5 8 -4
v 4.5 1 -4
v 4.5 8 -4
v -0.5 10 -24
v -0.5 11 -24
v 0.5 10 -24
v 0.5 11 -24
v -11.5 0 12
v -11.5 8 12
v -3.5 5 12
v -3.5 6 12
v -3.5 8 12
v -3.5 9 12
v -2.5 3 12
v -2.5 5 12
v -2.5 6 12
v -2.5 8 12
v -1.5 0 12
v -1.5 3 12
v -1.5 5 12
v -1.5 6 12
v -1.5 8 12
v -1.5 9 12
v -1.5 11 12
v -1.5 20 12
v -0.5 11 12
v -0.5 19 12
v -0.5 20 12
v 0.5 11 12
v 0.5 19 12
v 0.5 20 12
v 1.5 0 12
v 1.5 3 12
v 1.5 5 12
v 1.5 6 12
v 1.5 8 12
v 1.5 9 12
v 1.5 11 12
v 1.5 20 12
v 2.5 3 12
v 2.5 5 12
v 2.5 6 12
v 2.5 8 12
v 3.5 5 12
v 3.5 6 12
v 3.5 8 12
v 3.5 9 12
v 11.5 0 12
v 11.5 8 12
v -5.5 19 9
v -5.5 20 9
v 5.5 19 9
v 5.5 20 9
v -3.5 5 8
v -3.5 6 8
v -1.5 5 8
v -1.5 6 8
v 1.5 5 8
v 1.5 6 8
v 3.5 5 8
v 3.5 6 8
v -3.5 4 4
v -3.5 5 4
v -1.5 4 4
v -1.5 5 4
v 1.5 4 4
v 1.5 5 4
v 3.5 4 4
v 3.5 5 4
v -2.5 9 -4
v -2.5 20 -4
v -1.5 9 -4
v -1.5 11 -4
v 1.5 9 -4
v 1.5 11 -4
v 2.5 9 -4
v 2.5 20 -4
v -4.5 1 -5
v -4.5 7 -5
v -1.5 0 -5
v -1.5 1 -5
v -0.5 10 -5
v -0.5 11 -5
v 0.5 10 -5
v 0.5 11 -5
v 1.5 0 -5
v 1.5 1 -5
v 4.5 1 -5
v 4.5 7 -5
v -4.5 7 -25
v -4.5 8 -25
v -1.5 8 -25
v -1.5 11 -25
v -0.5 8 -25
v -0.5 10 -25
v 0.5 8 -25
v 0.5 10 -25
v 1.5 8 -25
v 1.5 11 -25
v 4.5 7 -25
v 4.5 8 -25
v -4.5 0 25
v 4.5 0 25
v -11.5 0 13
v -4.5 0 13
v 4.5 0 13
v 11.5 0 13
v -11.5 0 12
v -1.5 0 12
v 1.5 0 12
v 11.5 0 12
v -1.5 0 -5
v 1.5 0 -5
v -4.5 1 -4
v -1.5 1 -4
v 1.5 1 -4
v 4.5 1 -4
v -4.5 1 -5
v -1.5 1 -5
v 1.5 1 -5
v 4.5 1 -5
v -3.5 4 9
v -1.5 4 9
v 1.5 4 9
v 3.5 4 9
v -3.5 4 4
v -1.5 4 4
v 1.5 4 4
v 3.5 4 4
v -3.5 5 12
v -2.5 5 12
v -1.5 5 12
v 1.5 5 12
v 2.5 5 12
v 3.5 5 12
v -3.5 5 9
v -1.5 5 9
v 1.5 5 9
v 3.5 5 9
v -11.5 7 25
v -4.5 7 25
v 4.5 7 25
v 11.5 7 25
v -11.5 7 13
v -4.5 7 13
v 4.5 7 13
v 11.5 7 13
v -4.5 7 -5
v 4.5 7 -5
v -4.5 7 -25
v 4.5 7 -25
v -2.5 9 5
v -1.5 9 5
v 1.5 9 5
v 2.5 9 5
v -2.5 9 -4
v -1.5 9 -4
v 1.5 9 -4
v 2.5 9 -4
v -0.5 19 12
v 0.5 19 12
v -5.5 19 10
v -0.5 19 10
v 0.5 19 10
v 5.5 19 10
v -5.5 19 9
v 5.5 19 9
v -3.5 1 25
v 3.5 1 25
v -3.5 1 13
v 3.5 1 13
v -3.5 5 8
v -1.5 5 8
v 1.5 5 8
v 3.5 5 8
v -3.5 5 4
v -1.5 5 4
v 1.5 5 4
v 3.5 5 4
v -3.5 6 12
v -2.5 6 12
v -1.5 6 12
v 1.5 6 12
v 2.5 6 12
v 3.5 6 12
v -3.5 6 8
v -1.5 6 8
v 1.5 6 8
v 3.5 6 8
v -11.5 8 25
v -3.5 8 25
v 3.5 8 25
v 11.5 8 25
v -3.5 8 13
v 3.5 8 13
v -11.5 8 12
v -3.5 8 12
v 3.5 8 12
v 11.5 8 12
v -4.5 8 -4
v -1.5 8 -4
v 1.5 8 -4
v 4.5 8 -4
v -4.5 8 -25
v -1.5 8 -25
v 1.5 8 -25
v 4.5 8 -25
v -3.5 9 13
v -1.5 9 13
v 1.5 9 13
v 3.5 9 13
v -3.5 9 12
v -1.5 9 12
v 1.5 9 12
v 3.5 9 12
v -0.5 10 -5
v 0.5 10 -5
v -0.5 10 -24
v 0.5 10 -24
v -1.5 11 12
v -0.5 11 12
v 0.5 11 12
v 1.5 11 12
v -2.5 11 5
v -1.5 11 5
v 1.5 11 5
v 2.5 11 5
v -2.5 11 -2
v 2.5 11 -2
v -1.5 11 -4
v 1.5 11 -4
v -0.5 11 -5
v 0.5 11 -5
v -0.5 11 -24
v 0.5 11 -24
v -1.5 11 -25
v 1.5 11 -25
v -1.5 20 13
v -0.5 20 13
v 0.5 20 13
v 1.5 20 13
v -1.5 20 12
v -0.5 20 12
v 0.5 20 12
v 1.5 20 12
v -5.5 20 10
v -0.5 20 10
v 0.5 20 10
v 5.5 20 10
v -5.5 20 9
v 5.5 20 9
v -2.5 20 -2
v 2.5 20 -2
v -2.5 20 -4
v 2.5 20 -4

# faces
f 4/3/1 2/3/1 1/3/1
f 5/3/1 4/3/1 3/3/1
f 6/3/1 2/3/1 4/3/1
f 6/3/1 4/3/1 5/3/1
f 9/2/1 8/2/1 7/2/1
f 10/2/1 8/2/1 9/2/1
f 15/3/1 12/3/1 11/3/1
f 16/3/1 12/3/1 15/3/1
f 17/3/1 14/3/1 13/3/1
f 19/3/1 18/3/1 17/3/1
f 19/3/1 17/3/1 13/3/1
f 20/3/1 18/3/1 19/3/1
f 24/3/1 22/3/1 21/3/1
f 25/3/1 22/3/1 24/3/1
f 26/3/1 22/3/1 25/3/1
f 27/3/1 24/3/1 23/3/1
f 27/3/1 25/3/1 24/3/1
f 28/3/1 25/3/1 27/3/1
f 31/3/1 30/3/1 29/3/1
f 32/3/1 30/3/1 31/3/1
f 35/2/1 34/2/1 33/2/1
f 36/2/1 34/2/1 35/2/1
f 37/2/1 34/2/1 36/2/1
f 38/2/1 34/2/1 37/2/1
f 41/3/1 40/3/1 39/3/1
f 42/3/1 40/3/1 41/3/1
f 43/3/1 41/3/1 39/3/1
f 44/3/1 41/3/1 43/3/1
f 45/3/1 41/3/1 44/3/1
f 46/3/1 44/3/1 43/3/1
f 47/3/1 44/3/1 46/3/1
f 49/3/1 41/3/1 45/3/1
f 51/3/1 49/3/1 48/3/1
f 52/3/1 51/3/1 50/3/1
f 53/3/1 41/3/1 49/3/1
f 53/3/1 51/3/1 52/3/1
f 53/3/1 49/3/1 51/3/1
f 56/3/1 53/3/1 52/3/1
f 56/3/1 54/3/1 53/3/1
f 57/3/1 54/3/1 56/3/1
f 58/3/1 54/3/1 57/3/1
f 59/3/1 56/3/1 55/3/1
f 59/3/1 57/3/1 56/3/1
f 60/3/1 57/3/1 59/3/1
f 61/3/1 54/3/1 58/3/1
f 62/3/1 54/3/1 61/3/1
f 63/3/1 59/3/1 55/3/1
f 64/3/1 59/3/1 63/3/1
f 67/2/1 66/2/1 65/2/1
f 68/2/1 66/2/1 67/2/1
f 71/3/1 70/3/1 69/3/1
f 72/3/1 70/3/1 71/3/1
f 75/3/1 74/3/1 73/3/1
f 76/3/1 74/3/1 75/3/1
f 77/3/2 78/3/2 79/3/2
f 79/3/2 78/3/2 80/3/2
f 81/3/2 82/3/2 83/3/2
f 83/3/2 82/3/2 84/3/2
f 85/2/2 86/2/2 87/2/2
f 87/2/2 86/2/2 88/2/2
f 89/3/2 90/3/2 91/3/2
f 91/3/2 90/3/2 92/3/2
f 89/3/2 91/3/2 93/3/2
f 93/3/2 91/3/2 94/3/2
f 94/3/2 91/3/2 95/3/2
f 93/3/2 94/3/2 96/3/2
f 96/3/2 94/3/2 97/3/2
f 95/3/2 91/3/2 99/3/2
f 98/3/2 99/3/2 101/3/2
f 100/3/2 101/3/2 102/3/2
f 99/3/2 91/3/2 103/3/2
f 102/3/2 101/3/2 103/3/2
f 101/3/2 99/3/2 103/3/2
f 102/3/2 103/3/2 106/3/2
f 103/3/2 104/3/2 106/3/2
f 106/3/2 104/3/2 107/3/2
f 107/3/2 104/3/2 108/3/2
f 105/3/2 106/3/2 109/3/2
f 106/3/2 107/3/2 109/3/2
f 109/3/2 107/3/2 110/3/2
f 108/3/2 104/3/2 111/3/2
f 111/3/2 104/3/2 112/3/2
f 105/3/2 109/3/2 113/3/2
f 113/3/2 109/3/2 114/3/2
f 115/2/2 116/2/2 117/2/2
f 117/2/2 116/2/2 118/2/2
f 118/2/2 116/2/2 119/2/2
f 119/2/2 116/2/2 120/2/2
f 121/3/2 122/3/2 124/3/2
f 124/3/2 122/3/2 125/3/2
f 125/3/2 122/3/2 126/3/2
f 123/3/2 124/3/2 127/3/2
f 124/3/2 125/3/2 127/3/2
f 127/3/2 125/3/2 128/3/2
f 129/3/2 130/3/2 131/3/2
f 131/3/2 130/3/2 132/3/2
f 133/3/2 134/3/2 137/3/2
f 137/3/2 134/3/2 138/3/2
f 135/3/2 136/3/2 139/3/2
f 139/3/2 140/3/2 141/3/2
f 135/3/2 139/3/2 141/3/2
f 141/3/2 140/3/2 142/3/2
f 143/2/2 144/2/2 145/2/2
f 145/2/2 144/2/2 146/2/2
f 147/3/2 148/3/2 150/3/2
f 149/3/2 150/3/2 151/3/2
f 150/3/2 148/3/2 152/3/2
f 151/3/2 150/3/2 152/3/2
f 156/3/3 154/3/3 153/3/3
f 157/3/3 156/3/3 155/3/3
f 158/3/3 154/3/3 156/3/3
f 158/3/3 156/3/3 157/3/3
f 159/3/3 157/3/3 155/3/3
f 161/3/3 159/3/3 155/3/3
f 161/3/3 160/3/3 159/3/3
f 162/3/3 160/3/3 161/3/3
f 163/3/3 160/3/3 162/3/3
f 164/3/3 160/3/3 163/3/3
f 167/3/3 166/3/3 165/3/3
f 168/3/3 166/3/3 167/3/3
f 172/3/3 170/3/3 169/3/3
f 172/3/3 171/3/3 170/3/3
f 173/3/3 171/3/3 172/3/3
f 174/3/3 171/3/3 173/3/3
f 175/3/3 171/3/3 174/3/3
f 176/3/3 171/3/3 175/3/3
f 178/3/3 177/3/3 176/3/3
f 179/3/3 177/3/3 178/3/3
f 180/3/3 178/3/3 176/3/3
f 180/2/3 179/2/3 178/2/3
f 181/2/3 179/2/3 180/2/3
f 182/3/3 176/3/3 175/3/3
f 182/3/3 180/3/3 176/3/3
f 182/3/3 181/3/3 180/3/3
f 183/3/3 181/3/3 182/3/3
f 184/3/3 172/3/3 169/3/3
f 184/1/3 173/1/3 172/1/3
f 185/3/3 174/3/3 173/3/3
f 185/1/3 173/1/3 184/1/3
f 186/1/3 175/1/3 174/1/3
f 186/3/3 174/3/3 185/3/3
f 187/3/3 182/3/3 175/3/3
f 187/1/3 175/1/3 186/1/3
f 188/3/3 186/3/3 185/3/3
f 188/3/3 184/3/3 169/3/3
f 188/3/3 187/3/3 186/3/3
f 188/3/3 185/3/3 184/3/3
f 189/3/3 182/3/3 187/3/3
f 189/3/3 187/3/3 188/3/3
f 190/3/3 182/3/3 189/3/3
f 193/3/3 192/3/3 191/3/3
f 194/3/3 192/3/3 193/3/3
f 197/2/3 196/2/3 195/2/3
f 198/2/3 196/2/3 197/2/3
f 201/2/3 200/2/3 199/2/3
f 202/2/3 200/2/3 201/2/3
f 205/3/3 204/3/3 203/3/3
f 206/3/3 204/3/3 205/3/3
f 209/3/3 208/3/3 207/3/3
f 210/3/3 208/3/3 209/3/3
f 213/2/3 212/2/3 211/2/3
f 214/2/3 212/2/3 213/2/3
f 217/2/3 216/2/3 215/2/3
f 218/2/3 216/2/3 217/2/3
f 221/2/3 220/2/3 219/2/3
f 222/2/3 220/2/3 221/2/3
f 225/3/3 224/3/3 223/3/3
f 226/3/3 224/3/3 225/3/3
f 229/3/3 228/3/3 227/3/3
f 230/3/3 228/3/3 229/3/3
f 233/3/3 232/3/3 231/3/3
f 234/3/3 232/3/3 233/3/3
f 235/3/4 236/3/4 237/3/4
f 237/3/4 236/3/4 238/3/4
f 238/3/4 236/3/4 239/3/4
f 235/3/4 237/3/4 241/3/4
f 241/3/4 237/3/4 242/3/4
f 239/3/4 240/3/4 243/3/4
f 238/3/4 239/3/4 243/3/4
f 243/3/4 240/3/4 244/3/4
f 235/3/4 241/3/4 245/3/4
f 241/1/4 242/1/4 246/1/4
f 245/3/4 241/3/4 246/3/4
f 246/1/4 242/1/4 247/1/4
f 243/1/4 244/1/4 248/1/4
f 244/3/4 240/3/4 249/3/4
f 248/1/4 244/1/4 249/1/4
f 249/3/4 240/3/4 250/3/4
f 251/3/4 252/3/4 253/3/4
f 253/3/4 252/3/4 254/3/4
f 254/3/4 252/3/4 255/3/4
f 253/2/4 254/2/4 256/2/4
f 256/2/4 254/2/4 257/2/4
f 256/3/4 257/3/4 265/3/4
f 257/3/4 258/3/4 265/3/4
f 265/3/4 258/3/4 266/3/4
f 259/3/4 260/3/4 267/3/4
f 260/1/4 261/1/4 267/1/4
f 267/1/4 261/1/4 268/1/4
f 262/1/4 263/1/4 269/1/4
f 263/3/4 264/3/4 270/3/4
f 269/1/4 263/1/4 270/1/4
f 267/3/4 268/3/4 271/3/4
f 269/3/4 270/3/4 272/3/4
f 270/3/4 264/3/4 273/3/4
f 272/3/4 270/3/4 273/3/4
f 273/3/4 264/3/4 274/3/4
f 271/3/4 272/3/4 275/3/4
f 259/3/4 267/3/4 275/3/4
f 272/3/4 273/3/4 275/3/4
f 267/3/4 271/3/4 275/3/4
f 275/3/4 273/3/4 276/3/4
f 277/2/4 278/2/4 279/2/4
f 279/2/4 278/2/4 280/2/4
f 281/3/4 282/3/4 283/3/4
f 283/3/4 282/3/4 284/3/4
f 285/3/4 286/3/4 287/3/4
f 287/3/4 286/3/4 288/3/4
f 289/3/4 290/3/4 291/3/4
f 291/3/4 290/3/4 292/3/4
f 293/3/4 294/3/4 295/3/4
f 295/3/4 294/3/4 296/3/4
f 297/2/4 298/2/4 299/2/4
f 299/2/4 298/2/4 300/2/4
f 300/2/4 298/2/4 302/2/4
f 301/2/4 302/2/4 303/2/4
f 302/2/4 298/2/4 304/2/4
f 303/2/4 302/2/4 304/2/4
f 305/3/4 306/3/4 308/3/4
f 309/3/4 310/3/4 311/3/4
f 311/3/4 310/3/4 312/3/4
f 307/3/4 308/3/4 313/3/4
f 308/3/4 306/3/4 314/3/4
f 313/3/4 308/3/4 314/3/4
f 314/3/4 306/3/4 315/3/4
f 315/3/4 306/3/4 316/3/4
f 317/3/4 318/3/4 319/3/4
f 317/3/4 319/3/4 321/3/4
f 319/3/4 320/3/4 321/3/4
f 321/3/4 320/3/4 322/3/4
f 317/3/4 321/3/4 323/3/4
f 321/1/4 322/1/4 323/1/4
f 322/3/4 320/3/4 324/3/4
f 323/1/4 322/1/4 324/1/4
f 317/3/4 323/3/4 325/3/4
f 323/3/4 324/3/4 325/3/4
f 324/3/4 320/3/4 326/3/4
f 325/3/4 324/3/4 326/3/4
f 317/3/4 325/3/4 327/3/4
f 327/3/4 325/3/4 328/3/4
f 332/3/5 330/3/5 329/3/5
f 333/3/5 330/3/5 332/3/5
f 335/3/5 332/3/5 331/3/5
f 335/3/5 334/3/5 333/3/5
f 335/3/5 333/3/5 332/3/5
f 336/3/5 334/3/5 335/3/5
f 337/3/5 334/3/5 336/3/5
f 338/3/5 334/3/5 337/3/5
f 339/3/5 337/3/5 336/3/5
f 340/3/5 337/3/5 339/3/5
f 345/3/5 342/3/5 341/3/5
f 346/3/5 342/3/5 345/3/5
f 347/3/5 344/3/5 343/3/5
f 348/3/5 344/3/5 347/3/5
f 353/3/5 350/3/5 349/3/5
f 354/3/5 350/3/5 353/3/5
f 355/3/5 352/3/5 351/3/5
f 356/3/5 352/3/5 355/3/5
f 363/3/5 358/3/5 357/3/5
f 363/3/5 359/3/5 358/3/5
f 364/3/5 359/3/5 363/3/5
f 365/3/5 362/3/5 361/3/5
f 365/3/5 361/3/5 360/3/5
f 366/3/5 362/3/5 365/3/5
f 371/3/5 368/3/5 367/3/5
f 372/3/5 368/3/5 371/3/5
f 373/3/5 370/3/5 369/3/5
f 374/3/5 370/3/5 373/3/5
f 377/3/5 376/3/5 375/3/5
f 378/3/5 376/3/5 377/3/5
f 383/2/5 380/2/5 379/2/5
f 384/2/5 380/2/5 383/2/5
f 385/2/5 382/2/5 381/2/5
f 386/2/5 382/2/5 385/2/5
f 390/2/5 388/2/5 387/2/5
f 391/2/5 388/2/5 390/2/5
f 393/2/5 390/2/5 389/2/5
f 393/2/5 392/2/5 391/2/5
f 393/2/5 391/2/5 390/2/5
f 394/2/5 392/2/5 393/2/5
f 395/3/6 396/3/6 397/3/6
f 397/3/6 396/3/6 398/3/6
f 399/3/6 400/3/6 403/3/6
f 403/3/6 400/3/6 404/3/6
f 401/3/6 402/3/6 405/3/6
f 405/3/6 402/3/6 406/3/6
f 407/3/6 408/3/6 413/3/6
f 408/3/6 409/3/6 413/3/6
f 413/3/6 409/3/6 414/3/6
f 411/3/6 412/3/6 415/3/6
f 410/3/6 411/3/6 415/3/6
f 415/3/6 412/3/6 416/3/6
f 417/3/6 418/3/6 421/3/6
f 419/3/6 420/3/6 422/3/6
f 417/3/6 421/3/6 423/3/6
f 423/3/6 421/3/6 424/3/6
f 422/3/6 420/3/6 425/3/6
f 425/3/6 420/3/6 426/3/6
f 427/3/6 428/3/6 431/3/6
f 431/3/6 428/3/6 432/3/6
f 429/3/6 430/3/6 433/3/6
f 433/3/6 430/3/6 434/3/6
f 435/3/6 436/3/6 439/3/6
f 439/3/6 436/3/6 440/3/6
f 437/3/6 438/3/6 441/3/6
f 441/3/6 438/3/6 442/3/6
f 443/3/6 444/3/6 445/3/6
f 445/3/6 444/3/6 446/3/6
f 447/3/6 448/3/6 452/3/6
f 449/3/6 450/3/6 452/3/6
f 448/3/6 449/3/6 452/3/6
f 452/3/6 450/3/6 453/3/6
f 451/2/6 452/2/6 455/2/6
f 453/2/6 454/2/6 455/2/6
f 452/2/6 453/2/6 455/2/6
f 455/2/6 454/2/6 456/2/6
f 457/3/6 458/3/6 459/3/6
f 459/3/6 458/3/6 460/3/6
f 457/3/6 459/3/6 461/3/6
f 460/3/6 458/3/6 462/3/6
f 457/3/6 461/3/6 463/3/6
f 461/3/6 462/3/6 463/3/6
f 462/3/6 458/3/6 464/3/6
f 463/3/6 462/3/6 464/3/6
f 465/3/6 466/3/6 469/3/6
f 466/2/6 467/2/6 470/2/6
f 469/3/6 466/3/6 470/3/6
f 467/3/6 468/3/6 471/3/6
f 470/2/6 467/2/6 471/2/6
f 471/3/6 468/3/6 472/3/6
f 470/2/6 471/2/6 474/2/6
f 474/2/6 471/2/6 475/2/6
f 474/2/6 475/2/6 477/2/6
f 475/2/6 476/2/6 477/2/6
f 473/2/6 474/2/6 477/2/6
f 477/2/6 476/2/6 478/2/6
f 479/2/6 480/2/6 481/2/6
f 481/2/6 480/2/6 482/2/6
