# MagicaVoxel @ Ephtracy

# material
mtllib spaceport.mtl
usemtl palette

# normals
vn -1 0 0
vn 1 0 0
vn 0 0 1
vn 0 0 -1
vn 0 -1 0
vn 0 1 0

# texcoords
vt 0.861328 0.5
vt 0.939453 0.5
vt 0.947266 0.5

# verts
v -40 0 40
v -40 0 -40
v -40 10 40
v -40 10 -40
v -38 10 38
v -38 10 32
v -38 10 28
v -38 10 22
v -38 10 18
v -38 10 12
v -38 10 8
v -38 10 2
v -38 10 -2
v -38 10 -8
v -38 10 -12
v -38 10 -18
v -38 10 -22
v -38 10 -28
v -38 10 -32
v -38 10 -38
v -38 11 38
v -38 11 32
v -38 11 28
v -38 11 22
v -38 11 18
v -38 11 12
v -38 11 8
v -38 11 2
v -38 11 -2
v -38 11 -8
v -38 11 -12
v -38 11 -18
v -38 11 -22
v -38 11 -28
v -38 11 -32
v -38 11 -38
v -30 10 30
v -30 10 -30
v -30 11 30
v -30 11 -30
v -28 10 38
v -28 10 32
v -28 10 -32
v -28 10 -38
v -28 11 38
v -28 11 32
v -28 11 -32
v -28 11 -38
v -18 10 38
v -18 10 32
v -18 10 -32
v -18 10 -38
v -18 11 38
v -18 11 32
v -18 11 -32
v -18 11 -38
v -8 10 38
v -8 10 32
v -8 10 -32
v -8 10 -38
v -8 11 38
v -8 11 32
v -8 11 -32
v -8 11 -38
v 2 10 38
v 2 10 32
v 2 10 -32
v 2 10 -38
v 2 11 38
v 2 11 32
v 2 11 -32
v 2 11 -38
v 12 10 38
v 12 10 32
v 12 10 -32
v 12 10 -38
v 12 11 38
v 12 11 32
v 12 11 -32
v 12 11 -38
v 22 10 38
v 22 10 32
v 22 10 -32
v 22 10 -38
v 22 11 38
v 22 11 32
v 22 11 -32
v 22 11 -38
v 32 10 38
v 32 10 32
v 32 10 28
v 32 10 22
v 32 10 18
v 32 10 12
v 32 10 8
v 32 10 2
v 32 10 -2
v 32 10 -8
v 32 10 -12
v 32 10 -18
v 32 10 -22
v 32 10 -28
v 32 10 -32
v 32 10 -38
v 32 11 38
v 32 11 32
v 32 11 28
v 32 11 22
v 32 11 18
v 32 11 12
v 32 11 8
v 32 11 2
v 32 11 -2
v 32 11 -8
v 32 11 -12
v 32 11 -18
v 32 11 -22
v 32 11 -28
v 32 11 -32
v 32 11 -38
v -32 10 38
v -32 10 32
v -32 10 28
v -32 10 22
v -32 10 18
v -32 10 12
v -32 10 8
v -32 10 2
v -32 10 -2
v -32 10 -8
v -32 10 -12
v -32 10 -18
v -32 10 -22
v -32 10 -28
v -32 10 -32
v -32 10 -38
v -32 11 38
v -32 11 32
v -32 11 28
v -32 11 22
v -32 11 18
v -32 11 12
v -32 11 8
v -32 11 2
v -32 11 -2
v -32 11 -8
v -32 11 -12
v -32 11 -18
v -32 11 -22
v -32 11 -28
v -32 11 -32
v -32 11 -38
v -22 10 38
v -22 10 32
v -22 10 -32
v -22 10 -38
v -22 11 38
v -22 11 32
v -22 11 -32
v -22 11 -38
v -12 10 38
v -12 10 32
v -12 10 -32
v -12 10 -38
v -12 11 38
v -12 11 32
v -12 11 -32
v -12 11 -38
v -2 10 38
v -2 10 32
v -2 10 -32
v -2 10 -38
v -2 11 38
v -2 11 32
v -2 11 -32
v -2 11 -38
v 8 10 38
v 8 10 32
v 8 10 -32
v 8 10 -38
v 8 11 38
v 8 11 32
v 8 11 -32
v 8 11 -38
v 18 10 38
v 18 10 32
v 18 10 -32
v 18 10 -38
v 18 11 38
v 18 11 32
v 18 11 -32
v 18 11 -38
v 28 10 38
v 28 10 32
v 28 10 -32
v 28 10 -38
v 28 11 38
v 28 11 32
v 28 11 -32
v 28 11 -38
v 30 10 30
v 30 10 -30
v 30 11 30
v 30 11 -30
v 38 10 38
v 38 10 32
v 38 10 28
v 38 10 22
v 38 10 18
v 38 10 12
v 38 10 8
v 38 10 2
v 38 10 -2
v 38 10 -8
v 38 10 -12
v 38 10 -18
v 38 10 -22
v 38 10 -28
v 38 10 -32
v 38 10 -38
v 38 11 38
v 38 11 32
v 38 11 28
v 38 11 22
v 38 11 18
v 38 11 12
v 38 11 8
v 38 11 2
v 38 11 -2
v 38 11 -8
v 38 11 -12
v 38 11 -18
v 38 11 -22
v 38 11 -28
v 38 11 -32
v 38 11 -38
v 40 0 40
v 40 0 -40
v 40 10 40
v 40 10 -40
v -40 0 40
v -40 10 40
v 40 0 40
v 40 10 40
v -38 10 38
v -38 11 38
v -32 10 38
v -32 11 38
v -28 10 38
v -28 11 38
v -22 10 38
v -22 11 38
v -18 10 38
v -18 11 38
v -12 10 38
v -12 11 38
v -8 10 38
v -8 11 38
v -2 10 38
v -2 11 38
v 2 10 38
v 2 11 38
v 8 10 38
v 8 11 38
v 12 10 38
v 12 11 38
v 18 10 38
v 18 11 38
v 22 10 38
v 22 11 38
v 28 10 38
v 28 11 38
v 32 10 38
v 32 11 38
v 38 10 38
v 38 11 38
v -30 10 30
v -30 11 30
v 30 10 30
v 30 11 30
v -38 10 28
v -38 11 28
v -32 10 28
v -32 11 28
v 32 10 28
v 32 11 28
v 38 10 28
v 38 11 28
v -38 10 18
v -38 11 18
v -32 10 18
v -32 11 18
v 32 10 18
v 32 11 18
v 38 10 18
v 38 11 18
v -38 10 8
v -38 11 8
v -32 10 8
v -32 11 8
v 32 10 8
v 32 11 8
v 38 10 8
v 38 11 8
v -38 10 -2
v -38 11 -2
v -32 10 -2
v -32 11 -2
v 32 10 -2
v 32 11 -2
v 38 10 -2
v 38 11 -2
v -38 10 -12
v -38 11 -12
v -32 10 -12
v -32 11 -12
v 32 10 -12
v 32 11 -12
v 38 10 -12
v 38 11 -12
v -38 10 -22
v -38 11 -22
v -32 10 -22
v -32 11 -22
v 32 10 -22
v 32 11 -22
v 38 10 -22
v 38 11 -22
v -38 10 -32
v -38 11 -32
v -32 10 -32
v -32 11 -32
v -28 10 -32
v -28 11 -32
v -22 10 -32
v -22 11 -32
v -18 10 -32
v -18 11 -32
v -12 10 -32
v -12 11 -32
v -8 10 -32
v -8 11 -32
v -2 10 -32
v -2 11 -32
v 2 10 -32
v 2 11 -32
v 8 10 -32
v 8 11 -32
v 12 10 -32
v 12 11 -32
v 18 10 -32
v 18 11 -32
v 22 10 -32
v 22 11 -32
v 28 10 -32
v 28 11 -32
v 32 10 -32
v 32 11 -32
v 38 10 -32
v 38 11 -32
v -38 10 32
v -38 11 32
v -32 10 32
v -32 11 32
v -28 10 32
v -28 11 32
v -22 10 32
v -22 11 32
v -18 10 32
v -18 11 32
v -12 10 32
v -12 11 32
v -8 10 32
v -8 11 32
v -2 10 32
v -2 11 32
v 2 10 32
v 2 11 32
v 8 10 32
v 8 11 32
v 12 10 32
v 12 11 32
v 18 10 32
v 18 11 32
v 22 10 32
v 22 11 32
v 28 10 32
v 28 11 32
v 32 10 32
v 32 11 32
v 38 10 32
v 38 11 32
v -38 10 22
v -38 11 22
v -32 10 22
v -32 11 22
v 32 10 22
v 32 11 22
v 38 10 22
v 38 11 22
v -38 10 12
v -38 11 12
v -32 10 12
v -32 11 12
v 32 10 12
v 32 11 12
v 38 10 12
v 38 11 12
v -38 10 2
v -38 11 2
v -32 10 2
v -32 11 2
v 32 10 2
v 32 11 2
v 38 10 2
v 38 11 2
v -38 10 -8
v -38 11 -8
v -32 10 -8
v -32 11 -8
v 32 10 -8
v 32 11 -8
v 38 10 -8
v 38 11 -8
v -38 10 -18
v -38 11 -18
v -32 10 -18
v -32 11 -18
v 32 10 -18
v 32 11 -18
v 38 10 -18
v 38 11 -18
v -38 10 -28
v -38 11 -28
v -32 10 -28
v -32 11 -28
v 32 10 -28
v 32 11 -28
v 38 10 -28
v 38 11 -28
v -30 10 -30
v -30 11 -30
v 30 10 -30
v 30 11 -30
v -38 10 -38
v -38 11 -38
v -32 10 -38
v -32 11 -38
v -28 10 -38
v -28 11 -38
v -22 10 -38
v -22 11 -38
v -18 10 -38
v -18 11 -38
v -12 10 -38
v -12 11 -38
v -8 10 -38
v -8 11 -38
v -2 10 -38
v -2 11 -38
v 2 10 -38
v 2 11 -38
v 8 10 -38
v 8 11 -38
v 12 10 -38
v 12 11 -38
v 18 10 -38
v 18 11 -38
v 22 10 -38
v 22 11 -38
v 28 10 -38
v 28 11 -38
v 32 10 -38
v 32 11 -38
v 38 10 -38
v 38 11 -38
v -40 0 -40
v -40 10 -40
v 40 0 -40
v 40 10 -40
v -40 0 40
v 40 0 40
v -40 0 -40
v 40 0 -40
v -40 10 40
v 40 10 40
v -38 10 38
v -32 10 38
v -28 10 38
v -22 10 38
v -18 10 38
v -12 10 38
v -8 10 38
v -2 10 38
v 2 10 38
v 8 10 38
v 12 10 38
v 18 10 38
v 22 10 38
v 28 10 38
v 32 10 38
v 38 10 38
v -38 10 32
v -32 10 32
v -28 10 32
v -22 10 32
v -18 10 32
v -12 10 32
v -8 10 32
v -2 10 32
v 2 10 32
v 8 10 32
v 12 10 32
v 18 10 32
v 22 10 32
v 28 10 32
v 32 10 32
v 38 10 32
v -30 10 30
v 30 10 30
v -38 10 28
v -32 10 28
v 32 10 28
v 38 10 28
v -38 10 22
v -32 10 22
v 32 10 22
v 38 10 22
v -38 10 18
v -32 10 18
v 32 10 18
v 38 10 18
v -38 10 12
v -32 10 12
v 32 10 12
v 38 10 12
v -38 10 8
v -32 10 8
v 32 10 8
v 38 10 8
v -38 10 2
v -32 10 2
v 32 10 2
v 38 10 2
v -38 10 -2
v -32 10 -2
v 32 10 -2
v 38 10 -2
v -38 10 -8
v -32 10 -8
v 32 10 -8
v 38 10 -8
v -38 10 -12
v -32 10 -12
v 32 10 -12
v 38 10 -12
v -38 10 -18
v -32 10 -18
v 32 10 -18
v 38 10 -18
v -38 10 -22
v -32 10 -22
v 32 10 -22
v 38 10 -22
v -38 10 -28
v -32 10 -28
v 32 10 -28
v 38 10 -28
v -30 10 -30
v 30 10 -30
v -38 10 -32
v -32 10 -32
v -28 10 -32
v -22 10 -32
v -18 10 -32
v -12 10 -32
v -8 10 -32
v -2 10 -32
v 2 10 -32
v 8 10 -32
v 12 10 -32
v 18 10 -32
v 22 10 -32
v 28 10 -32
v 32 10 -32
v 38 10 -32
v -38 10 -38
v -32 10 -38
v -28 10 -38
v -22 10 -38
v -18 10 -38
v -12 10 -38
v -8 10 -38
v -2 10 -38
v 2 10 -38
v 8 10 -38
v 12 10 -38
v 18 10 -38
v 22 10 -38
v 28 10 -38
v 32 10 -38
v 38 10 -38
v -40 10 -40
v 40 10 -40
v -38 11 38
v -32 11 38
v -28 11 38
v -22 11 38
v -18 11 38
v -12 11 38
v -8 11 38
v -2 11 38
v 2 11 38
v 8 11 38
v 12 11 38
v 18 11 38
v 22 11 38
v 28 11 38
v 32 11 38
v 38 11 38
v -38 11 32
v -32 11 32
v -28 11 32
v -22 11 32
v -18 11 32
v -12 11 32
v -8 11 32
v -2 11 32
v 2 11 32
v 8 11 32
v 12 11 32
v 18 11 32
v 22 11 32
v 28 11 32
v 32 11 32
v 38 11 32
v -30 11 30
v 30 11 30
v -38 11 28
v -32 11 28
v 32 11 28
v 38 11 28
v -38 11 22
v -32 11 22
v 32 11 22
v 38 11 22
v -38 11 18
v -32 11 18
v 32 11 18
v 38 11 18
v -38 11 12
v -32 11 12
v 32 11 12
v 38 11 12
v -38 11 8
v -32 11 8
v 32 11 8
v 38 11 8
v -5 11 7
v 5 11 7
v -5 11 5
v 3 11 5
v -5 11 3
v 1 11 3
v 7 11 3
v 9 11 3
v -38 11 2
v -32 11 2
v 32 11 2
v 38 11 2
v -3 11 1
v -1 11 1
v 7 11 1
v 9 11 1
v 7 11 -1
v 9 11 -1
v -38 11 -2
v -32 11 -2
v 32 11 -2
v 38 11 -2
v -1 11 -3
v 1 11 -3
v 7 11 -3
v 9 11 -3
v -3 11 -5
v 3 11 -5
v 7 11 -5
v 9 11 -5
v -5 11 -7
v 5 11 -7
v 7 11 -7
v 9 11 -7
v -38 11 -8
v -32 11 -8
v 32 11 -8
v 38 11 -8
v -38 11 -12
v -32 11 -12
v 32 11 -12
v 38 11 -12
v -38 11 -18
v -32 11 -18
v 32 11 -18
v 38 11 -18
v -38 11 -22
v -32 11 -22
v 32 11 -22
v 38 11 -22
v -38 11 -28
v -32 11 -28
v 32 11 -28
v 38 11 -28
v -30 11 -30
v 30 11 -30
v -38 11 -32
v -32 11 -32
v -28 11 -32
v -22 11 -32
v -18 11 -32
v -12 11 -32
v -8 11 -32
v -2 11 -32
v 2 11 -32
v 8 11 -32
v 12 11 -32
v 18 11 -32
v 22 11 -32
v 28 11 -32
v 32 11 -32
v 38 11 -32
v -38 11 -38
v -32 11 -38
v -28 11 -38
v -22 11 -38
v -18 11 -38
v -12 11 -38
v -8 11 -38
v -2 11 -38
v 2 11 -38
v 8 11 -38
v 12 11 -38
v 18 11 -38
v 22 11 -38
v 28 11 -38
v 32 11 -38
v 38 11 -38

# faces
f 3/2/1 2/2/1 1/2/1
f 4/2/1 2/2/1 3/2/1
f 21/3/1 6/3/1 5/3/1
f 22/3/1 6/3/1 21/3/1
f 23/3/1 8/3/1 7/3/1
f 24/3/1 8/3/1 23/3/1
f 25/3/1 10/3/1 9/3/1
f 26/3/1 10/3/1 25/3/1
f 27/3/1 12/3/1 11/3/1
f 28/3/1 12/3/1 27/3/1
f 29/3/1 14/3/1 13/3/1
f 30/3/1 14/3/1 29/3/1
f 31/3/1 16/3/1 15/3/1
f 32/3/1 16/3/1 31/3/1
f 33/3/1 18/3/1 17/3/1
f 34/3/1 18/3/1 33/3/1
f 35/3/1 20/3/1 19/3/1
f 36/3/1 20/3/1 35/3/1
f 39/3/1 38/3/1 37/3/1
f 40/3/1 38/3/1 39/3/1
f 45/3/1 42/3/1 41/3/1
f 46/3/1 42/3/1 45/3/1
f 47/3/1 44/3/1 43/3/1
f 48/3/1 44/3/1 47/3/1
f 53/3/1 50/3/1 49/3/1
f 54/3/1 50/3/1 53/3/1
f 55/3/1 52/3/1 51/3/1
f 56/3/1 52/3/1 55/3/1
f 61/3/1 58/3/1 57/3/1
f 62/3/1 58/3/1 61/3/1
f 63/3/1 60/3/1 59/3/1
f 64/3/1 60/3/1 63/3/1
f 69/3/1 66/3/1 65/3/1
f 70/3/1 66/3/1 69/3/1
f 71/3/1 68/3/1 67/3/1
f 72/3/1 68/3/1 71/3/1
f 77/3/1 74/3/1 73/3/1
f 78/3/1 74/3/1 77/3/1
f 79/3/1 76/3/1 75/3/1
f 80/3/1 76/3/1 79/3/1
f 85/3/1 82/3/1 81/3/1
f 86/3/1 82/3/1 85/3/1
f 87/3/1 84/3/1 83/3/1
f 88/3/1 84/3/1 87/3/1
f 105/3/1 90/3/1 89/3/1
f 106/3/1 90/3/1 105/3/1
f 107/3/1 92/3/1 91/3/1
f 108/3/1 92/3/1 107/3/1
f 109/3/1 94/3/1 93/3/1
f 110/3/1 94/3/1 109/3/1
f 111/3/1 96/3/1 95/3/1
f 112/3/1 96/3/1 111/3/1
f 113/3/1 98/3/1 97/3/1
f 114/3/1 98/3/1 113/3/1
f 115/3/1 100/3/1 99/3/1
f 116/3/1 100/3/1 115/3/1
f 117/3/1 102/3/1 101/3/1
f 118/3/1 102/3/1 117/3/1
f 119/3/1 104/3/1 103/3/1
f 120/3/1 104/3/1 119/3/1
f 121/3/2 122/3/2 137/3/2
f 137/3/2 122/3/2 138/3/2
f 123/3/2 124/3/2 139/3/2
f 139/3/2 124/3/2 140/3/2
f 125/3/2 126/3/2 141/3/2
f 141/3/2 126/3/2 142/3/2
f 127/3/2 128/3/2 143/3/2
f 143/3/2 128/3/2 144/3/2
f 129/3/2 130/3/2 145/3/2
f 145/3/2 130/3/2 146/3/2
f 131/3/2 132/3/2 147/3/2
f 147/3/2 132/3/2 148/3/2
f 133/3/2 134/3/2 149/3/2
f 149/3/2 134/3/2 150/3/2
f 135/3/2 136/3/2 151/3/2
f 151/3/2 136/3/2 152/3/2
f 153/3/2 154/3/2 157/3/2
f 157/3/2 154/3/2 158/3/2
f 155/3/2 156/3/2 159/3/2
f 159/3/2 156/3/2 160/3/2
f 161/3/2 162/3/2 165/3/2
f 165/3/2 162/3/2 166/3/2
f 163/3/2 164/3/2 167/3/2
f 167/3/2 164/3/2 168/3/2
f 169/3/2 170/3/2 173/3/2
f 173/3/2 170/3/2 174/3/2
f 171/3/2 172/3/2 175/3/2
f 175/3/2 172/3/2 176/3/2
f 177/3/2 178/3/2 181/3/2
f 181/3/2 178/3/2 182/3/2
f 179/3/2 180/3/2 183/3/2
f 183/3/2 180/3/2 184/3/2
f 185/3/2 186/3/2 189/3/2
f 189/3/2 186/3/2 190/3/2
f 187/3/2 188/3/2 191/3/2
f 191/3/2 188/3/2 192/3/2
f 193/3/2 194/3/2 197/3/2
f 197/3/2 194/3/2 198/3/2
f 195/3/2 196/3/2 199/3/2
f 199/3/2 196/3/2 200/3/2
f 201/3/2 202/3/2 203/3/2
f 203/3/2 202/3/2 204/3/2
f 205/3/2 206/3/2 221/3/2
f 221/3/2 206/3/2 222/3/2
f 207/3/2 208/3/2 223/3/2
f 223/3/2 208/3/2 224/3/2
f 209/3/2 210/3/2 225/3/2
f 225/3/2 210/3/2 226/3/2
f 211/3/2 212/3/2 227/3/2
f 227/3/2 212/3/2 228/3/2
f 213/3/2 214/3/2 229/3/2
f 229/3/2 214/3/2 230/3/2
f 215/3/2 216/3/2 231/3/2
f 231/3/2 216/3/2 232/3/2
f 217/3/2 218/3/2 233/3/2
f 233/3/2 218/3/2 234/3/2
f 219/3/2 220/3/2 235/3/2
f 235/3/2 220/3/2 236/3/2
f 237/2/2 238/2/2 239/2/2
f 239/2/2 238/2/2 240/2/2
f 243/2/3 242/2/3 241/2/3
f 244/2/3 242/2/3 243/2/3
f 247/3/3 246/3/3 245/3/3
f 248/3/3 246/3/3 247/3/3
f 251/3/3 250/3/3 249/3/3
f 252/3/3 250/3/3 251/3/3
f 255/3/3 254/3/3 253/3/3
f 256/3/3 254/3/3 255/3/3
f 259/3/3 258/3/3 257/3/3
f 260/3/3 258/3/3 259/3/3
f 263/3/3 262/3/3 261/3/3
f 264/3/3 262/3/3 263/3/3
f 267/3/3 266/3/3 265/3/3
f 268/3/3 266/3/3 267/3/3
f 271/3/3 270/3/3 269/3/3
f 272/3/3 270/3/3 271/3/3
f 275/3/3 274/3/3 273/3/3
f 276/3/3 274/3/3 275/3/3
f 279/3/3 278/3/3 277/3/3
f 280/3/3 278/3/3 279/3/3
f 283/3/3 282/3/3 281/3/3
f 284/3/3 282/3/3 283/3/3
f 287/3/3 286/3/3 285/3/3
f 288/3/3 286/3/3 287/3/3
f 291/3/3 290/3/3 289/3/3
f 292/3/3 290/3/3 291/3/3
f 295/3/3 294/3/3 293/3/3
f 296/3/3 294/3/3 295/3/3
f 299/3/3 298/3/3 297/3/3
f 300/3/3 298/3/3 299/3/3
f 303/3/3 302/3/3 301/3/3
f 304/3/3 302/3/3 303/3/3
f 307/3/3 306/3/3 305/3/3
f 308/3/3 306/3/3 307/3/3
f 311/3/3 310/3/3 309/3/3
f 312/3/3 310/3/3 311/3/3
f 315/3/3 314/3/3 313/3/3
f 316/3/3 314/3/3 315/3/3
f 319/3/3 318/3/3 317/3/3
f 320/3/3 318/3/3 319/3/3
f 323/3/3 322/3/3 321/3/3
f 324/3/3 322/3/3 323/3/3
f 327/3/3 326/3/3 325/3/3
f 328/3/3 326/3/3 327/3/3
f 331/3/3 330/3/3 329/3/3
f 332/3/3 330/3/3 331/3/3
f 335/3/3 334/3/3 333/3/3
f 336/3/3 334/3/3 335/3/3
f 339/3/3 338/3/3 337/3/3
f 340/3/3 338/3/3 339/3/3
f 343/3/3 342/3/3 341/3/3
f 344/3/3 342/3/3 343/3/3
f 347/3/3 346/3/3 345/3/3
f 348/3/3 346/3/3 347/3/3
f 351/3/3 350/3/3 349/3/3
f 352/3/3 350/3/3 351/3/3
f 355/3/3 354/3/3 353/3/3
f 356/3/3 354/3/3 355/3/3
f 359/3/3 358/3/3 357/3/3
f 360/3/3 358/3/3 359/3/3
f 361/3/4 362/3/4 363/3/4
f 363/3/4 362/3/4 364/3/4
f 365/3/4 366/3/4 367/3/4
f 367/3/4 366/3/4 368/3/4
f 369/3/4 370/3/4 371/3/4
f 371/3/4 370/3/4 372/3/4
f 373/3/4 374/3/4 375/3/4
f 375/3/4 374/3/4 376/3/4
f 377/3/4 378/3/4 379/3/4
f 379/3/4 378/3/4 380/3/4
f 381/3/4 382/3/4 383/3/4
f 383/3/4 382/3/4 384/3/4
f 385/3/4 386/3/4 387/3/4
f 387/3/4 386/3/4 388/3/4
f 389/3/4 390/3/4 391/3/4
f 391/3/4 390/3/4 392/3/4
f 393/3/4 394/3/4 395/3/4
f 395/3/4 394/3/4 396/3/4
f 397/3/4 398/3/4 399/3/4
f 399/3/4 398/3/4 400/3/4
f 401/3/4 402/3/4 403/3/4
f 403/3/4 402/3/4 404/3/4
f 405/3/4 406/3/4 407/3/4
f 407/3/4 406/3/4 408/3/4
f 409/3/4 410/3/4 411/3/4
f 411/3/4 410/3/4 412/3/4
f 413/3/4 414/3/4 415/3/4
f 415/3/4 414/3/4 416/3/4
f 417/3/4 418/3/4 419/3/4
f 419/3/4 418/3/4 420/3/4
f 421/3/4 422/3/4 423/3/4
f 423/3/4 422/3/4 424/3/4
f 425/3/4 426/3/4 427/3/4
f 427/3/4 426/3/4 428/3/4
f 429/3/4 430/3/4 431/3/4
f 431/3/4 430/3/4 432/3/4
f 433/3/4 434/3/4 435/3/4
f 435/3/4 434/3/4 436/3/4
f 437/3/4 438/3/4 439/3/4
f 439/3/4 438/3/4 440/3/4
f 441/3/4 442/3/4 443/3/4
f 443/3/4 442/3/4 444/3/4
f 445/3/4 446/3/4 447/3/4
f 447/3/4 446/3/4 448/3/4
f 449/3/4 450/3/4 451/3/4
f 451/3/4 450/3/4 452/3/4
f 453/3/4 454/3/4 455/3/4
f 455/3/4 454/3/4 456/3/4
f 457/3/4 458/3/4 459/3/4
f 459/3/4 458/3/4 460/3/4
f 461/3/4 462/3/4 463/3/4
f 463/3/4 462/3/4 464/3/4
f 465/3/4 466/3/4 467/3/4
f 467/3/4 466/3/4 468/3/4
f 469/3/4 470/3/4 471/3/4
f 471/3/4 470/3/4 472/3/4
f 473/3/4 474/3/4 475/3/4
f 475/3/4 474/3/4 476/3/4
f 477/2/4 478/2/4 479/2/4
f 479/2/4 478/2/4 480/2/4
f 483/2/5 482/2/5 481/2/5
f 484/2/5 482/2/5 483/2/5
f 485/2/6 486/2/6 487/2/6
f 487/2/6 486/2/6 488/2/6
f 488/2/6 486/2/6 489/2/6
f 489/2/6 486/2/6 490/2/6
f 490/2/6 486/2/6 491/2/6
f 491/2/6 486/2/6 492/2/6
f 492/2/6 486/2/6 493/2/6
f 493/2/6 486/2/6 494/2/6
f 494/2/6 486/2/6 495/2/6
f 495/2/6 486/2/6 496/2/6
f 496/2/6 486/2/6 497/2/6
f 497/2/6 486/2/6 498/2/6
f 498/2/6 486/2/6 499/2/6
f 499/2/6 486/2/6 500/2/6
f 500/2/6 486/2/6 501/2/6
f 501/2/6 486/2/6 502/2/6
f 485/2/6 487/2/6 503/2/6
f 488/2/6 489/2/6 504/2/6
f 504/2/6 489/2/6 505/2/6
f 490/2/6 491/2/6 506/2/6
f 506/2/6 491/2/6 507/2/6
f 492/2/6 493/2/6 508/2/6
f 508/2/6 493/2/6 509/2/6
f 494/2/6 495/2/6 510/2/6
f 510/2/6 495/2/6 511/2/6
f 496/2/6 497/2/6 512/2/6
f 512/2/6 497/2/6 513/2/6
f 498/2/6 499/2/6 514/2/6
f 514/2/6 499/2/6 515/2/6
f 500/2/6 501/2/6 516/2/6
f 516/2/6 501/2/6 517/2/6
f 502/2/6 486/2/6 518/2/6
f 516/2/6 517/2/6 519/2/6
f 517/2/6 518/2/6 519/2/6
f 514/2/6 515/2/6 519/2/6
f 512/2/6 513/2/6 519/2/6
f 515/2/6 516/2/6 519/2/6
f 504/2/6 505/2/6 519/2/6
f 513/2/6 514/2/6 519/2/6
f 510/2/6 511/2/6 519/2/6
f 511/2/6 512/2/6 519/2/6
f 506/2/6 507/2/6 519/2/6
f 509/2/6 510/2/6 519/2/6
f 508/2/6 509/2/6 519/2/6
f 507/2/6 508/2/6 519/2/6
f 503/2/6 504/2/6 519/2/6
f 505/2/6 506/2/6 519/2/6
f 519/2/6 518/2/6 520/2/6
f 485/2/6 503/2/6 521/2/6
f 503/2/6 519/2/6 521/2/6
f 521/2/6 519/2/6 522/2/6
f 520/2/6 518/2/6 523/2/6
f 518/2/6 486/2/6 524/2/6
f 523/2/6 518/2/6 524/2/6
f 485/2/6 521/2/6 525/2/6
f 522/2/6 519/2/6 526/2/6
f 520/2/6 523/2/6 527/2/6
f 524/2/6 486/2/6 528/2/6
f 525/2/6 526/2/6 529/2/6
f 485/2/6 525/2/6 529/2/6
f 526/2/6 519/2/6 530/2/6
f 529/2/6 526/2/6 530/2/6
f 527/2/6 528/2/6 531/2/6
f 520/2/6 527/2/6 531/2/6
f 528/2/6 486/2/6 532/2/6
f 531/2/6 528/2/6 532/2/6
f 485/2/6 529/2/6 533/2/6
f 530/2/6 519/2/6 534/2/6
f 520/2/6 531/2/6 535/2/6
f 532/2/6 486/2/6 536/2/6
f 485/2/6 533/2/6 537/2/6
f 533/2/6 534/2/6 537/2/6
f 534/2/6 519/2/6 538/2/6
f 537/2/6 534/2/6 538/2/6
f 535/2/6 536/2/6 539/2/6
f 520/2/6 535/2/6 539/2/6
f 536/2/6 486/2/6 540/2/6
f 539/2/6 536/2/6 540/2/6
f 485/2/6 537/2/6 541/2/6
f 538/2/6 519/2/6 542/2/6
f 520/2/6 539/2/6 543/2/6
f 540/2/6 486/2/6 544/2/6
f 485/2/6 541/2/6 545/2/6
f 541/2/6 542/2/6 545/2/6
f 542/2/6 519/2/6 546/2/6
f 545/2/6 542/2/6 546/2/6
f 543/2/6 544/2/6 547/2/6
f 520/2/6 543/2/6 547/2/6
f 544/2/6 486/2/6 548/2/6
f 547/2/6 544/2/6 548/2/6
f 485/2/6 545/2/6 549/2/6
f 546/2/6 519/2/6 550/2/6
f 520/2/6 547/2/6 551/2/6
f 548/2/6 486/2/6 552/2/6
f 485/2/6 549/2/6 553/2/6
f 549/2/6 550/2/6 553/2/6
f 550/2/6 519/2/6 554/2/6
f 553/2/6 550/2/6 554/2/6
f 551/2/6 552/2/6 555/2/6
f 520/2/6 551/2/6 555/2/6
f 552/2/6 486/2/6 556/2/6
f 555/2/6 552/2/6 556/2/6
f 485/2/6 553/2/6 557/2/6
f 554/2/6 519/2/6 558/2/6
f 520/2/6 555/2/6 559/2/6
f 556/2/6 486/2/6 560/2/6
f 485/2/6 557/2/6 561/2/6
f 557/2/6 558/2/6 561/2/6
f 558/2/6 519/2/6 562/2/6
f 561/2/6 558/2/6 562/2/6
f 559/2/6 560/2/6 563/2/6
f 520/2/6 559/2/6 563/2/6
f 560/2/6 486/2/6 564/2/6
f 563/2/6 560/2/6 564/2/6
f 485/2/6 561/2/6 565/2/6
f 562/2/6 519/2/6 566/2/6
f 520/2/6 563/2/6 567/2/6
f 564/2/6 486/2/6 568/2/6
f 565/2/6 566/2/6 569/2/6
f 566/2/6 519/2/6 569/2/6
f 567/2/6 568/2/6 570/2/6
f 520/2/6 567/2/6 570/2/6
f 485/2/6 565/2/6 571/2/6
f 569/2/6 570/2/6 571/2/6
f 565/2/6 569/2/6 571/2/6
f 571/2/6 570/2/6 572/2/6
f 572/2/6 570/2/6 573/2/6
f 573/2/6 570/2/6 574/2/6
f 574/2/6 570/2/6 575/2/6
f 575/2/6 570/2/6 576/2/6
f 576/2/6 570/2/6 577/2/6
f 577/2/6 570/2/6 578/2/6
f 578/2/6 570/2/6 579/2/6
f 579/2/6 570/2/6 580/2/6
f 580/2/6 570/2/6 581/2/6
f 581/2/6 570/2/6 582/2/6
f 582/2/6 570/2/6 583/2/6
f 583/2/6 570/2/6 584/2/6
f 570/2/6 568/2/6 585/2/6
f 584/2/6 570/2/6 585/2/6
f 568/2/6 486/2/6 586/2/6
f 585/2/6 568/2/6 586/2/6
f 485/2/6 571/2/6 587/2/6
f 572/2/6 573/2/6 588/2/6
f 588/2/6 573/2/6 589/2/6
f 574/2/6 575/2/6 590/2/6
f 590/2/6 575/2/6 591/2/6
f 576/2/6 577/2/6 592/2/6
f 592/2/6 577/2/6 593/2/6
f 578/2/6 579/2/6 594/2/6
f 594/2/6 579/2/6 595/2/6
f 580/2/6 581/2/6 596/2/6
f 596/2/6 581/2/6 597/2/6
f 582/2/6 583/2/6 598/2/6
f 598/2/6 583/2/6 599/2/6
f 584/2/6 585/2/6 600/2/6
f 600/2/6 585/2/6 601/2/6
f 586/2/6 486/2/6 602/2/6
f 600/2/6 601/2/6 603/2/6
f 601/2/6 602/2/6 603/2/6
f 598/2/6 599/2/6 603/2/6
f 596/2/6 597/2/6 603/2/6
f 599/2/6 600/2/6 603/2/6
f 594/2/6 595/2/6 603/2/6
f 597/2/6 598/2/6 603/2/6
f 485/2/6 587/2/6 603/2/6
f 595/2/6 596/2/6 603/2/6
f 592/2/6 593/2/6 603/2/6
f 593/2/6 594/2/6 603/2/6
f 588/2/6 589/2/6 603/2/6
f 591/2/6 592/2/6 603/2/6
f 590/2/6 591/2/6 603/2/6
f 589/2/6 590/2/6 603/2/6
f 587/2/6 588/2/6 603/2/6
f 602/2/6 486/2/6 604/2/6
f 603/2/6 602/2/6 604/2/6
f 605/3/6 606/3/6 621/3/6
f 621/3/6 606/3/6 622/3/6
f 607/3/6 608/3/6 623/3/6
f 623/3/6 608/3/6 624/3/6
f 609/3/6 610/3/6 625/3/6
f 625/3/6 610/3/6 626/3/6
f 611/3/6 612/3/6 627/3/6
f 627/3/6 612/3/6 628/3/6
f 613/3/6 614/3/6 629/3/6
f 629/3/6 614/3/6 630/3/6
f 615/3/6 616/3/6 631/3/6
f 631/3/6 616/3/6 632/3/6
f 617/3/6 618/3/6 633/3/6
f 633/3/6 618/3/6 634/3/6
f 619/3/6 620/3/6 635/3/6
f 635/3/6 620/3/6 636/3/6
f 639/3/6 640/3/6 643/3/6
f 643/3/6 640/3/6 644/3/6
f 641/3/6 642/3/6 645/3/6
f 645/3/6 642/3/6 646/3/6
f 647/3/6 648/3/6 651/3/6
f 651/3/6 648/3/6 652/3/6
f 649/3/6 650/3/6 653/3/6
f 653/3/6 650/3/6 654/3/6
f 637/3/6 638/3/6 659/3/6
f 659/3/6 638/3/6 660/3/6
f 637/3/6 659/3/6 661/3/6
f 659/1/6 660/1/6 661/1/6
f 661/1/6 660/1/6 662/1/6
f 637/3/6 661/3/6 663/3/6
f 661/3/6 662/3/6 663/3/6
f 663/3/6 662/3/6 664/3/6
f 660/3/6 638/3/6 665/3/6
f 665/3/6 638/3/6 666/3/6
f 655/3/6 656/3/6 667/3/6
f 667/3/6 656/3/6 668/3/6
f 657/3/6 658/3/6 669/3/6
f 669/3/6 658/3/6 670/3/6
f 663/1/6 664/1/6 671/1/6
f 671/1/6 664/1/6 672/1/6
f 660/3/6 665/3/6 673/3/6
f 665/1/6 666/1/6 673/1/6
f 666/3/6 638/3/6 674/3/6
f 673/1/6 666/1/6 674/1/6
f 660/3/6 673/3/6 675/3/6
f 673/3/6 674/3/6 675/3/6
f 674/3/6 638/3/6 676/3/6
f 675/3/6 674/3/6 676/3/6
f 672/1/6 664/1/6 681/1/6
f 671/3/6 672/3/6 681/3/6
f 664/3/6 662/3/6 682/3/6
f 681/1/6 664/1/6 682/1/6
f 660/3/6 675/3/6 683/3/6
f 675/1/6 676/1/6 683/1/6
f 676/3/6 638/3/6 684/3/6
f 683/1/6 676/1/6 684/1/6
f 671/3/6 681/3/6 685/3/6
f 663/1/6 671/1/6 685/1/6
f 681/3/6 682/3/6 685/3/6
f 682/3/6 662/3/6 686/3/6
f 685/3/6 682/3/6 686/3/6
f 662/1/6 660/1/6 686/1/6
f 660/3/6 683/3/6 687/3/6
f 683/3/6 684/3/6 687/3/6
f 684/3/6 638/3/6 688/3/6
f 687/3/6 684/3/6 688/3/6
f 663/1/6 685/1/6 689/1/6
f 637/3/6 663/3/6 689/3/6
f 685/1/6 686/1/6 689/1/6
f 660/3/6 687/3/6 690/3/6
f 689/1/6 686/1/6 690/1/6
f 686/1/6 660/1/6 690/1/6
f 687/1/6 688/1/6 691/1/6
f 690/3/6 687/3/6 691/3/6
f 688/3/6 638/3/6 692/3/6
f 691/1/6 688/1/6 692/1/6
f 677/3/6 678/3/6 693/3/6
f 693/3/6 678/3/6 694/3/6
f 679/3/6 680/3/6 695/3/6
f 695/3/6 680/3/6 696/3/6
f 697/3/6 698/3/6 701/3/6
f 701/3/6 698/3/6 702/3/6
f 699/3/6 700/3/6 703/3/6
f 703/3/6 700/3/6 704/3/6
f 705/3/6 706/3/6 709/3/6
f 709/3/6 706/3/6 710/3/6
f 707/3/6 708/3/6 711/3/6
f 711/3/6 708/3/6 712/3/6
f 690/3/6 691/3/6 713/3/6
f 637/3/6 689/3/6 713/3/6
f 689/3/6 690/3/6 713/3/6
f 691/3/6 692/3/6 713/3/6
f 692/3/6 638/3/6 714/3/6
f 713/3/6 692/3/6 714/3/6
f 715/3/6 716/3/6 731/3/6
f 731/3/6 716/3/6 732/3/6
f 717/3/6 718/3/6 733/3/6
f 733/3/6 718/3/6 734/3/6
f 719/3/6 720/3/6 735/3/6
f 735/3/6 720/3/6 736/3/6
f 721/3/6 722/3/6 737/3/6
f 737/3/6 722/3/6 738/3/6
f 723/3/6 724/3/6 739/3/6
f 739/3/6 724/3/6 740/3/6
f 725/3/6 726/3/6 741/3/6
f 741/3/6 726/3/6 742/3/6
f 727/3/6 728/3/6 743/3/6
f 743/3/6 728/3/6 744/3/6
f 729/3/6 730/3/6 745/3/6
f 745/3/6 730/3/6 746/3/6
