# MagicaVoxel @ Ephtracy

# material
mtllib storage.mtl
usemtl palette

# normals
vn -1 0 0
vn 1 0 0
vn 0 0 1
vn 0 0 -1
vn 0 -1 0
vn 0 1 0

# texcoords
vt 0.861328 0.5
vt 0.939453 0.5

# verts
v -20 0 20
v -20 0 -20
v -20 23 5
v -20 23 -5
v -20 25 3
v -20 25 -5
v -20 27 9
v -20 27 7
v -20 27 1
v -20 27 -5
v -20 29 9
v -20 29 7
v -20 29 -1
v -20 29 -3
v -20 31 9
v -20 31 7
v -20 33 9
v -20 33 7
v -20 33 1
v -20 33 -1
v -20 35 9
v -20 35 7
v -20 35 3
v -20 35 -3
v -20 37 9
v -20 37 7
v -20 37 5
v -20 37 -5
v -20 60 20
v -20 60 -20
v -12 59 18
v -12 59 12
v -12 59 8
v -12 59 2
v -12 59 -2
v -12 59 -8
v -12 59 -12
v -12 59 -18
v -12 60 18
v -12 60 12
v -12 60 8
v -12 60 2
v -12 60 -2
v -12 60 -8
v -12 60 -12
v -12 60 -18
v -2 59 18
v -2 59 12
v -2 59 8
v -2 59 2
v -2 59 -2
v -2 59 -8
v -2 59 -12
v -2 59 -18
v -2 60 18
v -2 60 12
v -2 60 8
v -2 60 2
v -2 60 -2
v -2 60 -8
v -2 60 -12
v -2 60 -18
v 8 59 18
v 8 59 12
v 8 59 8
v 8 59 2
v 8 59 -2
v 8 59 -8
v 8 59 -12
v 8 59 -18
v 8 60 18
v 8 60 12
v 8 60 8
v 8 60 2
v 8 60 -2
v 8 60 -8
v 8 60 -12
v 8 60 -18
v 18 59 18
v 18 59 12
v 18 59 8
v 18 59 2
v 18 59 -2
v 18 59 -8
v 18 59 -12
v 18 59 -18
v 18 60 18
v 18 60 12
v 18 60 8
v 18 60 2
v 18 60 -2
v 18 60 -8
v 18 60 -12
v 18 60 -18
v -18 59 18
v -18 59 12
v -18 59 8
v -18 59 2
v -18 59 -2
v -18 59 -8
v -18 59 -12
v -18 59 -18
v -18 60 18
v -18 60 12
v -18 60 8
v -18 60 2
v -18 60 -2
v -18 60 -8
v -18 60 -12
v -18 60 -18
v -8 59 18
v -8 59 12
v -8 59 8
v -8 59 2
v -8 59 -2
v -8 59 -8
v -8 59 -12
v -8 59 -18
v -8 60 18
v -8 60 12
v -8 60 8
v -8 60 2
v -8 60 -2
v -8 60 -8
v -8 60 -12
v -8 60 -18
v 2 59 18
v 2 59 12
v 2 59 8
v 2 59 2
v 2 59 -2
v 2 59 -8
v 2 59 -12
v 2 59 -18
v 2 60 18
v 2 60 12
v 2 60 8
v 2 60 2
v 2 60 -2
v 2 60 -8
v 2 60 -12
v 2 60 -18
v 12 59 18
v 12 59 12
v 12 59 8
v 12 59 2
v 12 59 -2
v 12 59 -8
v 12 59 -12
v 12 59 -18
v 12 60 18
v 12 60 12
v 12 60 8
v 12 60 2
v 12 60 -2
v 12 60 -8
v 12 60 -12
v 12 60 -18
v 19 5 20
v 19 5 19
v 19 55 20
v 19 55 19
v 20 0 20
v 20 0 -20
v 20 5 20
v 20 5 19
v 20 23 5
v 20 23 -5
v 20 25 5
v 20 25 -3
v 20 27 5
v 20 27 -1
v 20 27 -7
v 20 27 -9
v 20 29 3
v 20 29 1
v 20 29 -7
v 20 29 -9
v 20 31 -7
v 20 31 -9
v 20 33 1
v 20 33 -1
v 20 33 -7
v 20 33 -9
v 20 35 3
v 20 35 -3
v 20 35 -7
v 20 35 -9
v 20 37 5
v 20 37 -5
v 20 37 -7
v 20 37 -9
v 20 55 20
v 20 55 19
v 20 60 20
v 20 60 -20
v -20 0 20
v -20 60 20
v -5 23 20
v -5 25 20
v -5 27 20
v -5 37 20
v -3 29 20
v -3 35 20
v -1 29 20
v -1 33 20
v 1 27 20
v 1 33 20
v 3 25 20
v 3 35 20
v 5 23 20
v 5 37 20
v 7 27 20
v 7 29 20
v 7 31 20
v 7 33 20
v 7 35 20
v 7 37 20
v 9 27 20
v 9 29 20
v 9 31 20
v 9 33 20
v 9 35 20
v 9 37 20
v 19 5 20
v 19 55 20
v 20 0 20
v 20 5 20
v 20 55 20
v 20 60 20
v 19 5 19
v 19 55 19
v 20 5 19
v 20 55 19
v -18 59 12
v -18 60 12
v -12 59 12
v -12 60 12
v -8 59 12
v -8 60 12
v -2 59 12
v -2 60 12
v 2 59 12
v 2 60 12
v 8 59 12
v 8 60 12
v 12 59 12
v 12 60 12
v 18 59 12
v 18 60 12
v -18 59 2
v -18 60 2
v -12 59 2
v -12 60 2
v -8 59 2
v -8 60 2
v -2 59 2
v -2 60 2
v 2 59 2
v 2 60 2
v 8 59 2
v 8 60 2
v 12 59 2
v 12 60 2
v 18 59 2
v 18 60 2
v -18 59 -8
v -18 60 -8
v -12 59 -8
v -12 60 -8
v -8 59 -8
v -8 60 -8
v -2 59 -8
v -2 60 -8
v 2 59 -8
v 2 60 -8
v 8 59 -8
v 8 60 -8
v 12 59 -8
v 12 60 -8
v 18 59 -8
v 18 60 -8
v -18 59 -18
v -18 60 -18
v -12 59 -18
v -12 60 -18
v -8 59 -18
v -8 60 -18
v -2 59 -18
v -2 60 -18
v 2 59 -18
v 2 60 -18
v 8 59 -18
v 8 60 -18
v 12 59 -18
v 12 60 -18
v 18 59 -18
v 18 60 -18
v -18 59 18
v -18 60 18
v -12 59 18
v -12 60 18
v -8 59 18
v -8 60 18
v -2 59 18
v -2 60 18
v 2 59 18
v 2 60 18
v 8 59 18
v 8 60 18
v 12 59 18
v 12 60 18
v 18 59 18
v 18 60 18
v -18 59 8
v -18 60 8
v -12 59 8
v -12 60 8
v -8 59 8
v -8 60 8
v -2 59 8
v -2 60 8
v 2 59 8
v 2 60 8
v 8 59 8
v 8 60 8
v 12 59 8
v 12 60 8
v 18 59 8
v 18 60 8
v -18 59 -2
v -18 60 -2
v -12 59 -2
v -12 60 -2
v -8 59 -2
v -8 60 -2
v -2 59 -2
v -2 60 -2
v 2 59 -2
v 2 60 -2
v 8 59 -2
v 8 60 -2
v 12 59 -2
v 12 60 -2
v 18 59 -2
v 18 60 -2
v -18 59 -12
v -18 60 -12
v -12 59 -12
v -12 60 -12
v -8 59 -12
v -8 60 -12
v -2 59 -12
v -2 60 -12
v 2 59 -12
v 2 60 -12
v 8 59 -12
v 8 60 -12
v 12 59 -12
v 12 60 -12
v 18 59 -12
v 18 60 -12
v -20 0 -20
v -20 60 -20
v -9 27 -20
v -9 29 -20
v -9 31 -20
v -9 33 -20
v -9 35 -20
v -9 37 -20
v -7 27 -20
v -7 29 -20
v -7 31 -20
v -7 33 -20
v -7 35 -20
v -7 37 -20
v -5 23 -20
v -5 37 -20
v -3 25 -20
v -3 35 -20
v -1 27 -20
v -1 33 -20
v 1 29 -20
v 1 33 -20
v 3 29 -20
v 3 35 -20
v 5 23 -20
v 5 25 -20
v 5 27 -20
v 5 37 -20
v 20 0 -20
v 20 60 -20
v -20 0 20
v 20 0 20
v -20 0 -20
v 20 0 -20
v 19 55 20
v 20 55 20
v 19 55 19
v 20 55 19
v 19 5 20
v 20 5 20
v 19 5 19
v 20 5 19
v -18 59 18
v -12 59 18
v -8 59 18
v -2 59 18
v 2 59 18
v 8 59 18
v 12 59 18
v 18 59 18
v -18 59 12
v -12 59 12
v -8 59 12
v -2 59 12
v 2 59 12
v 8 59 12
v 12 59 12
v 18 59 12
v -18 59 8
v -12 59 8
v -8 59 8
v -2 59 8
v 2 59 8
v 8 59 8
v 12 59 8
v 18 59 8
v -18 59 2
v -12 59 2
v -8 59 2
v -2 59 2
v 2 59 2
v 8 59 2
v 12 59 2
v 18 59 2
v -18 59 -2
v -12 59 -2
v -8 59 -2
v -2 59 -2
v 2 59 -2
v 8 59 -2
v 12 59 -2
v 18 59 -2
v -18 59 -8
v -12 59 -8
v -8 59 -8
v -2 59 -8
v 2 59 -8
v 8 59 -8
v 12 59 -8
v 18 59 -8
v -18 59 -12
v -12 59 -12
v -8 59 -12
v -2 59 -12
v 2 59 -12
v 8 59 -12
v 12 59 -12
v 18 59 -12
v -18 59 -18
v -12 59 -18
v -8 59 -18
v -2 59 -18
v 2 59 -18
v 8 59 -18
v 12 59 -18
v 18 59 -18
v -20 60 20
v 20 60 20
v -18 60 18
v -12 60 18
v -8 60 18
v -2 60 18
v 2 60 18
v 8 60 18
v 12 60 18
v 18 60 18
v -18 60 12
v -12 60 12
v -8 60 12
v -2 60 12
v 2 60 12
v 8 60 12
v 12 60 12
v 18 60 12
v -18 60 8
v -12 60 8
v -8 60 8
v -2 60 8
v 2 60 8
v 8 60 8
v 12 60 8
v 18 60 8
v -18 60 2
v -12 60 2
v -8 60 2
v -2 60 2
v 2 60 2
v 8 60 2
v 12 60 2
v 18 60 2
v -18 60 -2
v -12 60 -2
v -8 60 -2
v -2 60 -2
v 2 60 -2
v 8 60 -2
v 12 60 -2
v 18 60 -2
v -18 60 -8
v -12 60 -8
v -8 60 -8
v -2 60 -8
v 2 60 -8
v 8 60 -8
v 12 60 -8
v 18 60 -8
v -18 60 -12
v -12 60 -12
v -8 60 -12
v -2 60 -12
v 2 60 -12
v 8 60 -12
v 12 60 -12
v 18 60 -12
v -18 60 -18
v -12 60 -18
v -8 60 -18
v -2 60 -18
v 2 60 -18
v 8 60 -18
v 12 60 -18
v 18 60 -18
v -20 60 -20
v 20 60 -20

# faces
f 3/2/1 2/2/1 1/2/1
f 4/2/1 2/2/1 3/2/1
f 5/1/1 4/1/1 3/1/1
f 6/2/1 2/2/1 4/2/1
f 6/1/1 4/1/1 5/1/1
f 7/2/1 3/2/1 1/2/1
f 8/2/1 3/2/1 7/2/1
f 9/2/1 6/2/1 5/2/1
f 10/2/1 2/2/1 6/2/1
f 10/2/1 6/2/1 9/2/1
f 11/2/1 7/2/1 1/2/1
f 11/1/1 8/1/1 7/1/1
f 12/2/1 3/2/1 8/2/1
f 12/1/1 8/1/1 11/1/1
f 13/1/1 10/1/1 9/1/1
f 14/1/1 10/1/1 13/1/1
f 15/2/1 11/2/1 1/2/1
f 15/2/1 12/2/1 11/2/1
f 16/2/1 3/2/1 12/2/1
f 16/2/1 12/2/1 15/2/1
f 17/2/1 15/2/1 1/2/1
f 17/1/1 16/1/1 15/1/1
f 18/2/1 3/2/1 16/2/1
f 18/1/1 16/1/1 17/1/1
f 19/2/1 9/2/1 5/2/1
f 19/1/1 13/1/1 9/1/1
f 20/2/1 14/2/1 13/2/1
f 20/1/1 13/1/1 19/1/1
f 21/2/1 17/2/1 1/2/1
f 21/2/1 18/2/1 17/2/1
f 22/2/1 3/2/1 18/2/1
f 22/2/1 18/2/1 21/2/1
f 23/1/1 5/1/1 3/1/1
f 23/2/1 19/2/1 5/2/1
f 23/2/1 20/2/1 19/2/1
f 24/1/1 10/1/1 14/1/1
f 24/2/1 20/2/1 23/2/1
f 24/2/1 14/2/1 20/2/1
f 25/2/1 21/2/1 1/2/1
f 25/1/1 22/1/1 21/1/1
f 26/2/1 3/2/1 22/2/1
f 26/1/1 22/1/1 25/1/1
f 27/1/1 23/1/1 3/1/1
f 27/2/1 3/2/1 26/2/1
f 27/1/1 24/1/1 23/1/1
f 28/1/1 10/1/1 24/1/1
f 28/1/1 24/1/1 27/1/1
f 28/2/1 2/2/1 10/2/1
f 29/2/1 27/2/1 26/2/1
f 29/2/1 25/2/1 1/2/1
f 29/2/1 28/2/1 27/2/1
f 29/2/1 26/2/1 25/2/1
f 30/2/1 2/2/1 28/2/1
f 30/2/1 28/2/1 29/2/1
f 39/2/1 32/2/1 31/2/1
f 40/2/1 32/2/1 39/2/1
f 41/2/1 34/2/1 33/2/1
f 42/2/1 34/2/1 41/2/1
f 43/2/1 36/2/1 35/2/1
f 44/2/1 36/2/1 43/2/1
f 45/2/1 38/2/1 37/2/1
f 46/2/1 38/2/1 45/2/1
f 55/2/1 48/2/1 47/2/1
f 56/2/1 48/2/1 55/2/1
f 57/2/1 50/2/1 49/2/1
f 58/2/1 50/2/1 57/2/1
f 59/2/1 52/2/1 51/2/1
f 60/2/1 52/2/1 59/2/1
f 61/2/1 54/2/1 53/2/1
f 62/2/1 54/2/1 61/2/1
f 71/2/1 64/2/1 63/2/1
f 72/2/1 64/2/1 71/2/1
f 73/2/1 66/2/1 65/2/1
f 74/2/1 66/2/1 73/2/1
f 75/2/1 68/2/1 67/2/1
f 76/2/1 68/2/1 75/2/1
f 77/2/1 70/2/1 69/2/1
f 78/2/1 70/2/1 77/2/1
f 87/2/1 80/2/1 79/2/1
f 88/2/1 80/2/1 87/2/1
f 89/2/1 82/2/1 81/2/1
f 90/2/1 82/2/1 89/2/1
f 91/2/1 84/2/1 83/2/1
f 92/2/1 84/2/1 91/2/1
f 93/2/1 86/2/1 85/2/1
f 94/2/1 86/2/1 93/2/1
f 95/2/2 96/2/2 103/2/2
f 103/2/2 96/2/2 104/2/2
f 97/2/2 98/2/2 105/2/2
f 105/2/2 98/2/2 106/2/2
f 99/2/2 100/2/2 107/2/2
f 107/2/2 100/2/2 108/2/2
f 101/2/2 102/2/2 109/2/2
f 109/2/2 102/2/2 110/2/2
f 111/2/2 112/2/2 119/2/2
f 119/2/2 112/2/2 120/2/2
f 113/2/2 114/2/2 121/2/2
f 121/2/2 114/2/2 122/2/2
f 115/2/2 116/2/2 123/2/2
f 123/2/2 116/2/2 124/2/2
f 117/2/2 118/2/2 125/2/2
f 125/2/2 118/2/2 126/2/2
f 127/2/2 128/2/2 135/2/2
f 135/2/2 128/2/2 136/2/2
f 129/2/2 130/2/2 137/2/2
f 137/2/2 130/2/2 138/2/2
f 131/2/2 132/2/2 139/2/2
f 139/2/2 132/2/2 140/2/2
f 133/2/2 134/2/2 141/2/2
f 141/2/2 134/2/2 142/2/2
f 143/2/2 144/2/2 151/2/2
f 151/2/2 144/2/2 152/2/2
f 145/2/2 146/2/2 153/2/2
f 153/2/2 146/2/2 154/2/2
f 147/2/2 148/2/2 155/2/2
f 155/2/2 148/2/2 156/2/2
f 149/2/2 150/2/2 157/2/2
f 157/2/2 150/2/2 158/2/2
f 159/2/2 160/2/2 161/2/2
f 161/2/2 160/2/2 162/2/2
f 163/2/2 164/2/2 165/2/2
f 165/2/2 164/2/2 166/2/2
f 166/2/2 164/2/2 167/2/2
f 167/2/2 164/2/2 168/2/2
f 166/2/2 167/2/2 169/2/2
f 167/1/2 168/1/2 169/1/2
f 169/1/2 168/1/2 170/1/2
f 166/2/2 169/2/2 171/2/2
f 169/2/2 170/2/2 171/2/2
f 171/2/2 170/2/2 172/2/2
f 168/2/2 164/2/2 173/2/2
f 173/2/2 164/2/2 174/2/2
f 171/1/2 172/1/2 175/1/2
f 175/1/2 172/1/2 176/1/2
f 168/2/2 173/2/2 177/2/2
f 173/1/2 174/1/2 177/1/2
f 174/2/2 164/2/2 178/2/2
f 177/1/2 174/1/2 178/1/2
f 168/2/2 177/2/2 179/2/2
f 177/2/2 178/2/2 179/2/2
f 178/2/2 164/2/2 180/2/2
f 179/2/2 178/2/2 180/2/2
f 176/1/2 172/1/2 181/1/2
f 175/2/2 176/2/2 181/2/2
f 172/2/2 170/2/2 182/2/2
f 181/1/2 172/1/2 182/1/2
f 168/2/2 179/2/2 183/2/2
f 179/1/2 180/1/2 183/1/2
f 180/2/2 164/2/2 184/2/2
f 183/1/2 180/1/2 184/1/2
f 175/2/2 181/2/2 185/2/2
f 181/2/2 182/2/2 185/2/2
f 171/1/2 175/1/2 185/1/2
f 170/1/2 168/1/2 186/1/2
f 185/2/2 182/2/2 186/2/2
f 182/2/2 170/2/2 186/2/2
f 183/2/2 184/2/2 187/2/2
f 168/2/2 183/2/2 187/2/2
f 184/2/2 164/2/2 188/2/2
f 187/2/2 184/2/2 188/2/2
f 171/1/2 185/1/2 189/1/2
f 166/2/2 171/2/2 189/2/2
f 185/1/2 186/1/2 189/1/2
f 168/2/2 187/2/2 190/2/2
f 189/1/2 186/1/2 190/1/2
f 186/1/2 168/1/2 190/1/2
f 187/1/2 188/1/2 191/1/2
f 190/2/2 187/2/2 191/2/2
f 188/2/2 164/2/2 192/2/2
f 191/1/2 188/1/2 192/1/2
f 166/2/2 189/2/2 194/2/2
f 190/2/2 191/2/2 194/2/2
f 191/2/2 192/2/2 194/2/2
f 189/2/2 190/2/2 194/2/2
f 193/2/2 194/2/2 195/2/2
f 192/2/2 164/2/2 196/2/2
f 195/2/2 194/2/2 196/2/2
f 194/2/2 192/2/2 196/2/2
f 199/2/3 198/2/3 197/2/3
f 200/2/3 198/2/3 199/2/3
f 201/2/3 198/2/3 200/2/3
f 202/2/3 198/2/3 201/2/3
f 203/1/3 202/1/3 201/1/3
f 204/1/3 202/1/3 203/1/3
f 205/1/3 203/1/3 201/1/3
f 205/2/3 204/2/3 203/2/3
f 206/2/3 204/2/3 205/2/3
f 207/2/3 201/2/3 200/2/3
f 207/1/3 205/1/3 201/1/3
f 207/1/3 206/1/3 205/1/3
f 208/2/3 204/2/3 206/2/3
f 208/1/3 206/1/3 207/1/3
f 209/1/3 200/1/3 199/1/3
f 209/2/3 207/2/3 200/2/3
f 209/2/3 208/2/3 207/2/3
f 210/2/3 204/2/3 208/2/3
f 210/2/3 208/2/3 209/2/3
f 210/1/3 202/1/3 204/1/3
f 211/2/3 199/2/3 197/2/3
f 211/1/3 209/1/3 199/1/3
f 211/1/3 210/1/3 209/1/3
f 212/1/3 202/1/3 210/1/3
f 212/1/3 210/1/3 211/1/3
f 212/2/3 198/2/3 202/2/3
f 213/2/3 212/2/3 211/2/3
f 214/2/3 212/2/3 213/2/3
f 215/2/3 212/2/3 214/2/3
f 216/2/3 212/2/3 215/2/3
f 217/2/3 212/2/3 216/2/3
f 218/2/3 198/2/3 212/2/3
f 218/2/3 212/2/3 217/2/3
f 219/2/3 213/2/3 211/2/3
f 219/1/3 214/1/3 213/1/3
f 220/2/3 215/2/3 214/2/3
f 220/1/3 214/1/3 219/1/3
f 221/1/3 216/1/3 215/1/3
f 221/2/3 215/2/3 220/2/3
f 222/2/3 217/2/3 216/2/3
f 222/1/3 216/1/3 221/1/3
f 223/1/3 218/1/3 217/1/3
f 223/2/3 217/2/3 222/2/3
f 224/2/3 198/2/3 218/2/3
f 224/1/3 218/1/3 223/1/3
f 225/2/3 211/2/3 197/2/3
f 225/2/3 221/2/3 220/2/3
f 225/2/3 224/2/3 223/2/3
f 225/2/3 220/2/3 219/2/3
f 225/2/3 219/2/3 211/2/3
f 225/2/3 222/2/3 221/2/3
f 225/2/3 223/2/3 222/2/3
f 226/2/3 198/2/3 224/2/3
f 226/2/3 224/2/3 225/2/3
f 227/2/3 225/2/3 197/2/3
f 228/2/3 225/2/3 227/2/3
f 229/2/3 198/2/3 226/2/3
f 230/2/3 198/2/3 229/2/3
f 233/2/3 232/2/3 231/2/3
f 234/2/3 232/2/3 233/2/3
f 237/2/3 236/2/3 235/2/3
f 238/2/3 236/2/3 237/2/3
f 241/2/3 240/2/3 239/2/3
f 242/2/3 240/2/3 241/2/3
f 245/2/3 244/2/3 243/2/3
f 246/2/3 244/2/3 245/2/3
f 249/2/3 248/2/3 247/2/3
f 250/2/3 248/2/3 249/2/3
f 253/2/3 252/2/3 251/2/3
f 254/2/3 252/2/3 253/2/3
f 257/2/3 256/2/3 255/2/3
f 258/2/3 256/2/3 257/2/3
f 261/2/3 260/2/3 259/2/3
f 262/2/3 260/2/3 261/2/3
f 265/2/3 264/2/3 263/2/3
f 266/2/3 264/2/3 265/2/3
f 269/2/3 268/2/3 267/2/3
f 270/2/3 268/2/3 269/2/3
f 273/2/3 272/2/3 271/2/3
f 274/2/3 272/2/3 273/2/3
f 277/2/3 276/2/3 275/2/3
f 278/2/3 276/2/3 277/2/3
f 281/2/3 280/2/3 279/2/3
f 282/2/3 280/2/3 281/2/3
f 285/2/3 284/2/3 283/2/3
f 286/2/3 284/2/3 285/2/3
f 289/2/3 288/2/3 287/2/3
f 290/2/3 288/2/3 289/2/3
f 293/2/3 292/2/3 291/2/3
f 294/2/3 292/2/3 293/2/3
f 297/2/3 296/2/3 295/2/3
f 298/2/3 296/2/3 297/2/3
f 299/2/4 300/2/4 301/2/4
f 301/2/4 300/2/4 302/2/4
f 303/2/4 304/2/4 305/2/4
f 305/2/4 304/2/4 306/2/4
f 307/2/4 308/2/4 309/2/4
f 309/2/4 308/2/4 310/2/4
f 311/2/4 312/2/4 313/2/4
f 313/2/4 312/2/4 314/2/4
f 315/2/4 316/2/4 317/2/4
f 317/2/4 316/2/4 318/2/4
f 319/2/4 320/2/4 321/2/4
f 321/2/4 320/2/4 322/2/4
f 323/2/4 324/2/4 325/2/4
f 325/2/4 324/2/4 326/2/4
f 327/2/4 328/2/4 329/2/4
f 329/2/4 328/2/4 330/2/4
f 331/2/4 332/2/4 333/2/4
f 333/2/4 332/2/4 334/2/4
f 335/2/4 336/2/4 337/2/4
f 337/2/4 336/2/4 338/2/4
f 339/2/4 340/2/4 341/2/4
f 341/2/4 340/2/4 342/2/4
f 343/2/4 344/2/4 345/2/4
f 345/2/4 344/2/4 346/2/4
f 347/2/4 348/2/4 349/2/4
f 349/2/4 348/2/4 350/2/4
f 351/2/4 352/2/4 353/2/4
f 353/2/4 352/2/4 354/2/4
f 355/2/4 356/2/4 357/2/4
f 357/2/4 356/2/4 358/2/4
f 359/2/4 360/2/4 361/2/4
f 361/2/4 360/2/4 362/2/4
f 363/2/4 364/2/4 365/2/4
f 365/2/4 364/2/4 366/2/4
f 366/2/4 364/2/4 367/2/4
f 367/2/4 364/2/4 368/2/4
f 368/2/4 364/2/4 369/2/4
f 369/2/4 364/2/4 370/2/4
f 363/2/4 365/2/4 371/2/4
f 365/1/4 366/1/4 371/1/4
f 366/2/4 367/2/4 372/2/4
f 371/1/4 366/1/4 372/1/4
f 367/1/4 368/1/4 373/1/4
f 372/2/4 367/2/4 373/2/4
f 368/2/4 369/2/4 374/2/4
f 373/1/4 368/1/4 374/1/4
f 369/1/4 370/1/4 375/1/4
f 374/2/4 369/2/4 375/2/4
f 370/2/4 364/2/4 376/2/4
f 375/1/4 370/1/4 376/1/4
f 374/2/4 375/2/4 377/2/4
f 373/2/4 374/2/4 377/2/4
f 375/2/4 376/2/4 377/2/4
f 372/2/4 373/2/4 377/2/4
f 371/2/4 372/2/4 377/2/4
f 363/2/4 371/2/4 377/2/4
f 376/2/4 364/2/4 378/2/4
f 377/2/4 376/2/4 378/2/4
f 377/1/4 378/1/4 379/1/4
f 379/1/4 378/1/4 380/1/4
f 379/2/4 380/2/4 381/2/4
f 381/2/4 380/2/4 382/2/4
f 381/1/4 382/1/4 383/1/4
f 382/2/4 380/2/4 384/2/4
f 383/1/4 382/1/4 384/1/4
f 381/1/4 383/1/4 385/1/4
f 383/2/4 384/2/4 385/2/4
f 380/1/4 378/1/4 386/1/4
f 385/2/4 384/2/4 386/2/4
f 384/2/4 380/2/4 386/2/4
f 363/2/4 377/2/4 387/2/4
f 377/1/4 379/1/4 387/1/4
f 379/2/4 381/2/4 388/2/4
f 387/1/4 379/1/4 388/1/4
f 385/1/4 386/1/4 389/1/4
f 388/2/4 381/2/4 389/2/4
f 381/1/4 385/1/4 389/1/4
f 386/1/4 378/1/4 390/1/4
f 389/1/4 386/1/4 390/1/4
f 378/2/4 364/2/4 390/2/4
f 388/2/4 389/2/4 391/2/4
f 363/2/4 387/2/4 391/2/4
f 389/2/4 390/2/4 391/2/4
f 387/2/4 388/2/4 391/2/4
f 390/2/4 364/2/4 392/2/4
f 391/2/4 390/2/4 392/2/4
f 395/2/5 394/2/5 393/2/5
f 396/2/5 394/2/5 395/2/5
f 399/2/5 398/2/5 397/2/5
f 400/2/5 398/2/5 399/2/5
f 401/2/6 402/2/6 403/2/6
f 403/2/6 402/2/6 404/2/6
f 405/2/6 406/2/6 413/2/6
f 413/2/6 406/2/6 414/2/6
f 407/2/6 408/2/6 415/2/6
f 415/2/6 408/2/6 416/2/6
f 409/2/6 410/2/6 417/2/6
f 417/2/6 410/2/6 418/2/6
f 411/2/6 412/2/6 419/2/6
f 419/2/6 412/2/6 420/2/6
f 421/2/6 422/2/6 429/2/6
f 429/2/6 422/2/6 430/2/6
f 423/2/6 424/2/6 431/2/6
f 431/2/6 424/2/6 432/2/6
f 425/2/6 426/2/6 433/2/6
f 433/2/6 426/2/6 434/2/6
f 427/2/6 428/2/6 435/2/6
f 435/2/6 428/2/6 436/2/6
f 437/2/6 438/2/6 445/2/6
f 445/2/6 438/2/6 446/2/6
f 439/2/6 440/2/6 447/2/6
f 447/2/6 440/2/6 448/2/6
f 441/2/6 442/2/6 449/2/6
f 449/2/6 442/2/6 450/2/6
f 443/2/6 444/2/6 451/2/6
f 451/2/6 444/2/6 452/2/6
f 453/2/6 454/2/6 461/2/6
f 461/2/6 454/2/6 462/2/6
f 455/2/6 456/2/6 463/2/6
f 463/2/6 456/2/6 464/2/6
f 457/2/6 458/2/6 465/2/6
f 465/2/6 458/2/6 466/2/6
f 459/2/6 460/2/6 467/2/6
f 467/2/6 460/2/6 468/2/6
f 469/2/6 470/2/6 471/2/6
f 471/2/6 470/2/6 472/2/6
f 472/2/6 470/2/6 473/2/6
f 473/2/6 470/2/6 474/2/6
f 474/2/6 470/2/6 475/2/6
f 475/2/6 470/2/6 476/2/6
f 476/2/6 470/2/6 477/2/6
f 477/2/6 470/2/6 478/2/6
f 469/2/6 471/2/6 479/2/6
f 472/2/6 473/2/6 480/2/6
f 480/2/6 473/2/6 481/2/6
f 474/2/6 475/2/6 482/2/6
f 482/2/6 475/2/6 483/2/6
f 476/2/6 477/2/6 484/2/6
f 484/2/6 477/2/6 485/2/6
f 478/2/6 470/2/6 486/2/6
f 484/2/6 485/2/6 487/2/6
f 485/2/6 486/2/6 487/2/6
f 482/2/6 483/2/6 487/2/6
f 469/2/6 479/2/6 487/2/6
f 483/2/6 484/2/6 487/2/6
f 480/2/6 481/2/6 487/2/6
f 481/2/6 482/2/6 487/2/6
f 479/2/6 480/2/6 487/2/6
f 487/2/6 486/2/6 488/2/6
f 488/2/6 486/2/6 489/2/6
f 489/2/6 486/2/6 490/2/6
f 490/2/6 486/2/6 491/2/6
f 491/2/6 486/2/6 492/2/6
f 492/2/6 486/2/6 493/2/6
f 486/2/6 470/2/6 494/2/6
f 493/2/6 486/2/6 494/2/6
f 469/2/6 487/2/6 495/2/6
f 488/2/6 489/2/6 496/2/6
f 496/2/6 489/2/6 497/2/6
f 490/2/6 491/2/6 498/2/6
f 498/2/6 491/2/6 499/2/6
f 492/2/6 493/2/6 500/2/6
f 500/2/6 493/2/6 501/2/6
f 494/2/6 470/2/6 502/2/6
f 498/2/6 499/2/6 503/2/6
f 501/2/6 502/2/6 503/2/6
f 500/2/6 501/2/6 503/2/6
f 496/2/6 497/2/6 503/2/6
f 499/2/6 500/2/6 503/2/6
f 469/2/6 495/2/6 503/2/6
f 497/2/6 498/2/6 503/2/6
f 495/2/6 496/2/6 503/2/6
f 503/2/6 502/2/6 504/2/6
f 504/2/6 502/2/6 505/2/6
f 505/2/6 502/2/6 506/2/6
f 506/2/6 502/2/6 507/2/6
f 507/2/6 502/2/6 508/2/6
f 508/2/6 502/2/6 509/2/6
f 502/2/6 470/2/6 510/2/6
f 509/2/6 502/2/6 510/2/6
f 469/2/6 503/2/6 511/2/6
f 504/2/6 505/2/6 512/2/6
f 512/2/6 505/2/6 513/2/6
f 506/2/6 507/2/6 514/2/6
f 514/2/6 507/2/6 515/2/6
f 508/2/6 509/2/6 516/2/6
f 516/2/6 509/2/6 517/2/6
f 510/2/6 470/2/6 518/2/6
f 514/2/6 515/2/6 519/2/6
f 517/2/6 518/2/6 519/2/6
f 516/2/6 517/2/6 519/2/6
f 512/2/6 513/2/6 519/2/6
f 515/2/6 516/2/6 519/2/6
f 469/2/6 511/2/6 519/2/6
f 513/2/6 514/2/6 519/2/6
f 511/2/6 512/2/6 519/2/6
f 519/2/6 518/2/6 520/2/6
f 520/2/6 518/2/6 521/2/6
f 521/2/6 518/2/6 522/2/6
f 522/2/6 518/2/6 523/2/6
f 523/2/6 518/2/6 524/2/6
f 524/2/6 518/2/6 525/2/6
f 518/2/6 470/2/6 526/2/6
f 525/2/6 518/2/6 526/2/6
f 469/2/6 519/2/6 527/2/6
f 520/2/6 521/2/6 528/2/6
f 528/2/6 521/2/6 529/2/6
f 522/2/6 523/2/6 530/2/6
f 530/2/6 523/2/6 531/2/6
f 524/2/6 525/2/6 532/2/6
f 532/2/6 525/2/6 533/2/6
f 526/2/6 470/2/6 534/2/6
f 530/2/6 531/2/6 535/2/6
f 533/2/6 534/2/6 535/2/6
f 532/2/6 533/2/6 535/2/6
f 528/2/6 529/2/6 535/2/6
f 531/2/6 532/2/6 535/2/6
f 469/2/6 527/2/6 535/2/6
f 529/2/6 530/2/6 535/2/6
f 527/2/6 528/2/6 535/2/6
f 534/2/6 470/2/6 536/2/6
f 535/2/6 534/2/6 536/2/6
