# MagicaVoxel @ Ephtracy

# material
mtllib kamikaze-head-01.mtl
usemtl palette

# normals
vn -1 0 0
vn 1 0 0
vn 0 0 1
vn 0 0 -1
vn 0 -1 0
vn 0 1 0

# texcoords
vt 0.861328 0.5
vt 0.970703 0.5

# verts
v -5.5 2 4.5
v -5.5 2 -4.5
v -5.5 12 4.5
v -5.5 12 -4.5
v -4.5 2 5.5
v -4.5 2 4.5
v -4.5 2 -4.5
v -4.5 2 -5.5
v -4.5 12 5.5
v -4.5 12 4.5
v -4.5 12 -4.5
v -4.5 12 -5.5
v -4.5 13 4.5
v -4.5 13 -4.5
v 4.5 2 5.5
v 4.5 2 4.5
v 4.5 2 -4.5
v 4.5 2 -5.5
v 4.5 6 5.5
v 4.5 6 4.5
v 4.5 6 -4.5
v 4.5 6 -5.5
v 4.5 7 5.5
v 4.5 7 4.5
v 4.5 7 -4.5
v 4.5 7 -5.5
v 4.5 9 3.5
v 4.5 9 2.5
v 4.5 9 -2.5
v 4.5 9 -3.5
v 4.5 10 3.5
v 4.5 10 2.5
v 4.5 10 -2.5
v 4.5 10 -3.5
v 4.5 12 5.5
v 4.5 12 4.5
v 4.5 12 -4.5
v 4.5 12 -5.5
v 4.5 13 4.5
v 4.5 13 -4.5
v 5.5 2 4.5
v 5.5 2 -4.5
v 5.5 6 4.5
v 5.5 6 -4.5
v 5.5 7 4.5
v 5.5 7 -4.5
v 5.5 9 3.5
v 5.5 9 2.5
v 5.5 9 -2.5
v 5.5 9 -3.5
v 5.5 10 3.5
v 5.5 10 2.5
v 5.5 10 -2.5
v 5.5 10 -3.5
v 5.5 12 4.5
v 5.5 12 -4.5
v -4.5 2 5.5
v -4.5 12 5.5
v 0.5 6 5.5
v 0.5 7 5.5
v 4.5 2 5.5
v 4.5 6 5.5
v 4.5 7 5.5
v 4.5 12 5.5
v -5.5 2 4.5
v -5.5 12 4.5
v -4.5 2 4.5
v -4.5 12 4.5
v -4.5 13 4.5
v 4.5 2 4.5
v 4.5 6 4.5
v 4.5 7 4.5
v 4.5 12 4.5
v 4.5 13 4.5
v 5.5 2 4.5
v 5.5 6 4.5
v 5.5 7 4.5
v 5.5 12 4.5
v 4.5 9 2.5
v 4.5 10 2.5
v 5.5 9 2.5
v 5.5 10 2.5
v 4.5 9 -3.5
v 4.5 10 -3.5
v 5.5 9 -3.5
v 5.5 10 -3.5
v 4.5 9 3.5
v 4.5 10 3.5
v 5.5 9 3.5
v 5.5 10 3.5
v 4.5 9 -2.5
v 4.5 10 -2.5
v 5.5 9 -2.5
v 5.5 10 -2.5
v -5.5 2 -4.5
v -5.5 12 -4.5
v -4.5 2 -4.5
v -4.5 12 -4.5
v -4.5 13 -4.5
v 4.5 2 -4.5
v 4.5 6 -4.5
v 4.5 7 -4.5
v 4.5 12 -4.5
v 4.5 13 -4.5
v 5.5 2 -4.5
v 5.5 6 -4.5
v 5.5 7 -4.5
v 5.5 12 -4.5
v -4.5 2 -5.5
v -4.5 12 -5.5
v 0.5 6 -5.5
v 0.5 7 -5.5
v 4.5 2 -5.5
v 4.5 6 -5.5
v 4.5 7 -5.5
v 4.5 12 -5.5
v -4.5 2 5.5
v 4.5 2 5.5
v -5.5 2 4.5
v -4.5 2 4.5
v 4.5 2 4.5
v 5.5 2 4.5
v -5.5 2 -4.5
v -4.5 2 -4.5
v 4.5 2 -4.5
v 5.5 2 -4.5
v -4.5 2 -5.5
v 4.5 2 -5.5
v 4.5 10 3.5
v 5.5 10 3.5
v 4.5 10 2.5
v 5.5 10 2.5
v 4.5 10 -2.5
v 5.5 10 -2.5
v 4.5 10 -3.5
v 5.5 10 -3.5
v 4.5 9 3.5
v 5.5 9 3.5
v 4.5 9 2.5
v 5.5 9 2.5
v 4.5 9 -2.5
v 5.5 9 -2.5
v 4.5 9 -3.5
v 5.5 9 -3.5
v -4.5 12 5.5
v 4.5 12 5.5
v -5.5 12 4.5
v -4.5 12 4.5
v 4.5 12 4.5
v 5.5 12 4.5
v -5.5 12 -4.5
v -4.5 12 -4.5
v 4.5 12 -4.5
v 5.5 12 -4.5
v -4.5 12 -5.5
v 4.5 12 -5.5
v -4.5 13 4.5
v 4.5 13 4.5
v -4.5 13 -4.5
v 4.5 13 -4.5

# faces
f 3/2/1 2/2/1 1/2/1
f 4/2/1 2/2/1 3/2/1
f 9/2/1 6/2/1 5/2/1
f 10/2/1 6/2/1 9/2/1
f 11/2/1 8/2/1 7/2/1
f 12/2/1 8/2/1 11/2/1
f 13/2/1 11/2/1 10/2/1
f 14/2/1 11/2/1 13/2/1
f 15/2/2 16/2/2 19/2/2
f 19/2/2 16/2/2 20/2/2
f 17/2/2 18/2/2 21/2/2
f 21/2/2 18/2/2 22/2/2
f 19/1/2 20/1/2 23/1/2
f 23/1/2 20/1/2 24/1/2
f 21/1/2 22/1/2 25/1/2
f 25/1/2 22/1/2 26/1/2
f 27/2/2 28/2/2 31/2/2
f 31/2/2 28/2/2 32/2/2
f 29/2/2 30/2/2 33/2/2
f 33/2/2 30/2/2 34/2/2
f 23/2/2 24/2/2 35/2/2
f 35/2/2 24/2/2 36/2/2
f 25/2/2 26/2/2 37/2/2
f 37/2/2 26/2/2 38/2/2
f 36/2/2 37/2/2 39/2/2
f 39/2/2 37/2/2 40/2/2
f 41/2/2 42/2/2 43/2/2
f 43/2/2 42/2/2 44/2/2
f 43/1/2 44/1/2 45/1/2
f 45/1/2 44/1/2 46/1/2
f 45/2/2 46/2/2 47/2/2
f 47/2/2 46/2/2 48/2/2
f 48/2/2 46/2/2 49/2/2
f 49/2/2 46/2/2 50/2/2
f 45/2/2 47/2/2 51/2/2
f 48/2/2 49/2/2 52/2/2
f 52/2/2 49/2/2 53/2/2
f 50/2/2 46/2/2 54/2/2
f 52/2/2 53/2/2 55/2/2
f 53/2/2 54/2/2 55/2/2
f 45/2/2 51/2/2 55/2/2
f 51/2/2 52/2/2 55/2/2
f 54/2/2 46/2/2 56/2/2
f 55/2/2 54/2/2 56/2/2
f 59/2/3 58/2/3 57/2/3
f 60/2/3 58/2/3 59/2/3
f 61/2/3 59/2/3 57/2/3
f 62/1/3 60/1/3 59/1/3
f 62/2/3 59/2/3 61/2/3
f 63/2/3 58/2/3 60/2/3
f 63/1/3 60/1/3 62/1/3
f 64/2/3 58/2/3 63/2/3
f 67/2/3 66/2/3 65/2/3
f 68/2/3 66/2/3 67/2/3
f 73/2/3 69/2/3 68/2/3
f 74/2/3 69/2/3 73/2/3
f 75/2/3 71/2/3 70/2/3
f 76/1/3 72/1/3 71/1/3
f 76/2/3 71/2/3 75/2/3
f 77/2/3 73/2/3 72/2/3
f 77/1/3 72/1/3 76/1/3
f 78/2/3 73/2/3 77/2/3
f 81/2/3 80/2/3 79/2/3
f 82/2/3 80/2/3 81/2/3
f 85/2/3 84/2/3 83/2/3
f 86/2/3 84/2/3 85/2/3
f 87/2/4 88/2/4 89/2/4
f 89/2/4 88/2/4 90/2/4
f 91/2/4 92/2/4 93/2/4
f 93/2/4 92/2/4 94/2/4
f 95/2/4 96/2/4 97/2/4
f 97/2/4 96/2/4 98/2/4
f 98/2/4 99/2/4 103/2/4
f 103/2/4 99/2/4 104/2/4
f 100/2/4 101/2/4 105/2/4
f 101/1/4 102/1/4 106/1/4
f 105/2/4 101/2/4 106/2/4
f 102/2/4 103/2/4 107/2/4
f 106/1/4 102/1/4 107/1/4
f 107/2/4 103/2/4 108/2/4
f 109/2/4 110/2/4 111/2/4
f 111/2/4 110/2/4 112/2/4
f 109/2/4 111/2/4 113/2/4
f 111/1/4 112/1/4 114/1/4
f 113/2/4 111/2/4 114/2/4
f 112/2/4 110/2/4 115/2/4
f 114/1/4 112/1/4 115/1/4
f 115/2/4 110/2/4 116/2/4
f 120/2/5 118/2/5 117/2/5
f 121/2/5 118/2/5 120/2/5
f 123/2/5 120/2/5 119/2/5
f 123/2/5 122/2/5 121/2/5
f 123/2/5 121/2/5 120/2/5
f 124/2/5 122/2/5 123/2/5
f 125/2/5 122/2/5 124/2/5
f 126/2/5 122/2/5 125/2/5
f 127/2/5 125/2/5 124/2/5
f 128/2/5 125/2/5 127/2/5
f 131/2/5 130/2/5 129/2/5
f 132/2/5 130/2/5 131/2/5
f 135/2/5 134/2/5 133/2/5
f 136/2/5 134/2/5 135/2/5
f 137/2/6 138/2/6 139/2/6
f 139/2/6 138/2/6 140/2/6
f 141/2/6 142/2/6 143/2/6
f 143/2/6 142/2/6 144/2/6
f 145/2/6 146/2/6 148/2/6
f 148/2/6 146/2/6 149/2/6
f 147/2/6 148/2/6 151/2/6
f 151/2/6 148/2/6 152/2/6
f 149/2/6 150/2/6 153/2/6
f 153/2/6 150/2/6 154/2/6
f 152/2/6 153/2/6 155/2/6
f 155/2/6 153/2/6 156/2/6
f 157/2/6 158/2/6 159/2/6
f 159/2/6 158/2/6 160/2/6
