# MagicaVoxel @ Ephtracy

# material
mtllib kamikaze-head-00.mtl
usemtl palette

# normals
vn -1 0 0
vn 1 0 0
vn 0 0 1
vn 0 0 -1
vn 0 -1 0
vn 0 1 0

# texcoords
vt 0.861328 0.5
vt 0.970703 0.5

# verts
v -5.5 2 4.5
v -5.5 2 -4.5
v -5.5 12 4.5
v -5.5 12 -4.5
v -4.5 2 5.5
v -4.5 2 4.5
v -4.5 2 -4.5
v -4.5 2 -5.5
v -4.5 12 5.5
v -4.5 12 4.5
v -4.5 12 -4.5
v -4.5 12 -5.5
v -4.5 13 4.5
v -4.5 13 -4.5
v 1.5 5 5.5
v 1.5 5 4.5
v 1.5 5 -4.5
v 1.5 5 -5.5
v 1.5 6 5.5
v 1.5 6 4.5
v 1.5 6 -4.5
v 1.5 6 -5.5
v 1.5 7 5.5
v 1.5 7 4.5
v 1.5 7 -4.5
v 1.5 7 -5.5
v 1.5 8 5.5
v 1.5 8 4.5
v 1.5 8 -4.5
v 1.5 8 -5.5
v 3.5 5 5.5
v 3.5 5 4.5
v 3.5 5 -4.5
v 3.5 5 -5.5
v 3.5 6 5.5
v 3.5 6 4.5
v 3.5 6 -4.5
v 3.5 6 -5.5
v 3.5 7 5.5
v 3.5 7 4.5
v 3.5 7 -4.5
v 3.5 7 -5.5
v 3.5 8 5.5
v 3.5 8 4.5
v 3.5 8 -4.5
v 3.5 8 -5.5
v 4.5 5 3.5
v 4.5 5 2.5
v 4.5 5 1.5
v 4.5 5 0.5
v 4.5 5 -0.5
v 4.5 5 -1.5
v 4.5 5 -2.5
v 4.5 5 -3.5
v 4.5 6 3.5
v 4.5 6 2.5
v 4.5 6 1.5
v 4.5 6 0.5
v 4.5 6 -0.5
v 4.5 6 -1.5
v 4.5 6 -2.5
v 4.5 6 -3.5
v 4.5 7 3.5
v 4.5 7 2.5
v 4.5 7 1.5
v 4.5 7 0.5
v 4.5 7 -0.5
v 4.5 7 -1.5
v 4.5 7 -2.5
v 4.5 7 -3.5
v 4.5 8 3.5
v 4.5 8 2.5
v 4.5 8 1.5
v 4.5 8 0.5
v 4.5 8 -0.5
v 4.5 8 -1.5
v 4.5 8 -2.5
v 4.5 8 -3.5
v 0.5 5 5.5
v 0.5 5 -5.5
v 0.5 8 5.5
v 0.5 8 -5.5
v 2.5 5 5.5
v 2.5 5 4.5
v 2.5 5 -4.5
v 2.5 5 -5.5
v 2.5 6 5.5
v 2.5 6 4.5
v 2.5 6 -4.5
v 2.5 6 -5.5
v 2.5 7 5.5
v 2.5 7 4.5
v 2.5 7 -4.5
v 2.5 7 -5.5
v 2.5 8 5.5
v 2.5 8 4.5
v 2.5 8 -4.5
v 2.5 8 -5.5
v 4.5 2 5.5
v 4.5 2 4.5
v 4.5 2 -4.5
v 4.5 2 -5.5
v 4.5 5 5.5
v 4.5 5 4.5
v 4.5 5 -4.5
v 4.5 5 -5.5
v 4.5 6 5.5
v 4.5 6 4.5
v 4.5 6 -4.5
v 4.5 6 -5.5
v 4.5 7 5.5
v 4.5 7 4.5
v 4.5 7 -4.5
v 4.5 7 -5.5
v 4.5 8 5.5
v 4.5 8 4.5
v 4.5 8 -4.5
v 4.5 8 -5.5
v 4.5 9 3.5
v 4.5 9 2.5
v 4.5 9 -2.5
v 4.5 9 -3.5
v 4.5 10 3.5
v 4.5 10 2.5
v 4.5 10 -2.5
v 4.5 10 -3.5
v 4.5 12 5.5
v 4.5 12 4.5
v 4.5 12 -4.5
v 4.5 12 -5.5
v 4.5 13 4.5
v 4.5 13 -4.5
v 5.5 2 4.5
v 5.5 2 -4.5
v 5.5 5 4.5
v 5.5 5 3.5
v 5.5 5 2.5
v 5.5 5 1.5
v 5.5 5 0.5
v 5.5 5 -0.5
v 5.5 5 -1.5
v 5.5 5 -2.5
v 5.5 5 -3.5
v 5.5 5 -4.5
v 5.5 6 3.5
v 5.5 6 2.5
v 5.5 6 1.5
v 5.5 6 0.5
v 5.5 6 -0.5
v 5.5 6 -1.5
v 5.5 6 -2.5
v 5.5 6 -3.5
v 5.5 7 3.5
v 5.5 7 2.5
v 5.5 7 1.5
v 5.5 7 0.5
v 5.5 7 -0.5
v 5.5 7 -1.5
v 5.5 7 -2.5
v 5.5 7 -3.5
v 5.5 8 4.5
v 5.5 8 3.5
v 5.5 8 2.5
v 5.5 8 1.5
v 5.5 8 0.5
v 5.5 8 -0.5
v 5.5 8 -1.5
v 5.5 8 -2.5
v 5.5 8 -3.5
v 5.5 8 -4.5
v 5.5 9 3.5
v 5.5 9 2.5
v 5.5 9 -2.5
v 5.5 9 -3.5
v 5.5 10 3.5
v 5.5 10 2.5
v 5.5 10 -2.5
v 5.5 10 -3.5
v 5.5 12 4.5
v 5.5 12 -4.5
v -4.5 2 5.5
v -4.5 12 5.5
v 0.5 5 5.5
v 0.5 8 5.5
v 1.5 5 5.5
v 1.5 6 5.5
v 1.5 7 5.5
v 1.5 8 5.5
v 2.5 5 5.5
v 2.5 6 5.5
v 2.5 7 5.5
v 2.5 8 5.5
v 3.5 5 5.5
v 3.5 6 5.5
v 3.5 7 5.5
v 3.5 8 5.5
v 4.5 2 5.5
v 4.5 5 5.5
v 4.5 6 5.5
v 4.5 7 5.5
v 4.5 8 5.5
v 4.5 12 5.5
v -5.5 2 4.5
v -5.5 12 4.5
v -4.5 2 4.5
v -4.5 12 4.5
v -4.5 13 4.5
v 4.5 2 4.5
v 4.5 5 4.5
v 4.5 8 4.5
v 4.5 12 4.5
v 4.5 13 4.5
v 5.5 2 4.5
v 5.5 5 4.5
v 5.5 8 4.5
v 5.5 12 4.5
v 4.5 5 3.5
v 4.5 6 3.5
v 4.5 7 3.5
v 4.5 8 3.5
v 5.5 5 3.5
v 5.5 6 3.5
v 5.5 7 3.5
v 5.5 8 3.5
v 4.5 9 2.5
v 4.5 10 2.5
v 5.5 9 2.5
v 5.5 10 2.5
v 4.5 5 1.5
v 4.5 6 1.5
v 4.5 7 1.5
v 4.5 8 1.5
v 5.5 5 1.5
v 5.5 6 1.5
v 5.5 7 1.5
v 5.5 8 1.5
v 4.5 5 -0.5
v 4.5 6 -0.5
v 4.5 7 -0.5
v 4.5 8 -0.5
v 5.5 5 -0.5
v 5.5 6 -0.5
v 5.5 7 -0.5
v 5.5 8 -0.5
v 4.5 5 -2.5
v 4.5 6 -2.5
v 4.5 7 -2.5
v 4.5 8 -2.5
v 5.5 5 -2.5
v 5.5 6 -2.5
v 5.5 7 -2.5
v 5.5 8 -2.5
v 4.5 9 -3.5
v 4.5 10 -3.5
v 5.5 9 -3.5
v 5.5 10 -3.5
v 1.5 5 -4.5
v 1.5 6 -4.5
v 1.5 7 -4.5
v 1.5 8 -4.5
v 2.5 5 -4.5
v 2.5 6 -4.5
v 2.5 7 -4.5
v 2.5 8 -4.5
v 3.5 5 -4.5
v 3.5 6 -4.5
v 3.5 7 -4.5
v 3.5 8 -4.5
v 4.5 5 -4.5
v 4.5 6 -4.5
v 4.5 7 -4.5
v 4.5 8 -4.5
v 1.5 5 4.5
v 1.5 6 4.5
v 1.5 7 4.5
v 1.5 8 4.5
v 2.5 5 4.5
v 2.5 6 4.5
v 2.5 7 4.5
v 2.5 8 4.5
v 3.5 5 4.5
v 3.5 6 4.5
v 3.5 7 4.5
v 3.5 8 4.5
v 4.5 5 4.5
v 4.5 6 4.5
v 4.5 7 4.5
v 4.5 8 4.5
v 4.5 9 3.5
v 4.5 10 3.5
v 5.5 9 3.5
v 5.5 10 3.5
v 4.5 5 2.5
v 4.5 6 2.5
v 4.5 7 2.5
v 4.5 8 2.5
v 5.5 5 2.5
v 5.5 6 2.5
v 5.5 7 2.5
v 5.5 8 2.5
v 4.5 5 0.5
v 4.5 6 0.5
v 4.5 7 0.5
v 4.5 8 0.5
v 5.5 5 0.5
v 5.5 6 0.5
v 5.5 7 0.5
v 5.5 8 0.5
v 4.5 5 -1.5
v 4.5 6 -1.5
v 4.5 7 -1.5
v 4.5 8 -1.5
v 5.5 5 -1.5
v 5.5 6 -1.5
v 5.5 7 -1.5
v 5.5 8 -1.5
v 4.5 9 -2.5
v 4.5 10 -2.5
v 5.5 9 -2.5
v 5.5 10 -2.5
v 4.5 5 -3.5
v 4.5 6 -3.5
v 4.5 7 -3.5
v 4.5 8 -3.5
v 5.5 5 -3.5
v 5.5 6 -3.5
v 5.5 7 -3.5
v 5.5 8 -3.5
v -5.5 2 -4.5
v -5.5 12 -4.5
v -4.5 2 -4.5
v -4.5 12 -4.5
v -4.5 13 -4.5
v 4.5 2 -4.5
v 4.5 5 -4.5
v 4.5 8 -4.5
v 4.5 12 -4.5
v 4.5 13 -4.5
v 5.5 2 -4.5
v 5.5 5 -4.5
v 5.5 8 -4.5
v 5.5 12 -4.5
v -4.5 2 -5.5
v -4.5 12 -5.5
v 0.5 5 -5.5
v 0.5 8 -5.5
v 1.5 5 -5.5
v 1.5 6 -5.5
v 1.5 7 -5.5
v 1.5 8 -5.5
v 2.5 5 -5.5
v 2.5 6 -5.5
v 2.5 7 -5.5
v 2.5 8 -5.5
v 3.5 5 -5.5
v 3.5 6 -5.5
v 3.5 7 -5.5
v 3.5 8 -5.5
v 4.5 2 -5.5
v 4.5 5 -5.5
v 4.5 6 -5.5
v 4.5 7 -5.5
v 4.5 8 -5.5
v 4.5 12 -5.5
v -4.5 2 5.5
v 4.5 2 5.5
v -5.5 2 4.5
v -4.5 2 4.5
v 4.5 2 4.5
v 5.5 2 4.5
v -5.5 2 -4.5
v -4.5 2 -4.5
v 4.5 2 -4.5
v 5.5 2 -4.5
v -4.5 2 -5.5
v 4.5 2 -5.5
v 1.5 7 5.5
v 2.5 7 5.5
v 3.5 7 5.5
v 4.5 7 5.5
v 1.5 7 4.5
v 2.5 7 4.5
v 3.5 7 4.5
v 4.5 7 4.5
v 4.5 7 3.5
v 5.5 7 3.5
v 4.5 7 2.5
v 5.5 7 2.5
v 4.5 7 1.5
v 5.5 7 1.5
v 4.5 7 0.5
v 5.5 7 0.5
v 4.5 7 -0.5
v 5.5 7 -0.5
v 4.5 7 -1.5
v 5.5 7 -1.5
v 4.5 7 -2.5
v 5.5 7 -2.5
v 4.5 7 -3.5
v 5.5 7 -3.5
v 1.5 7 -4.5
v 2.5 7 -4.5
v 3.5 7 -4.5
v 4.5 7 -4.5
v 1.5 7 -5.5
v 2.5 7 -5.5
v 3.5 7 -5.5
v 4.5 7 -5.5
v 0.5 8 5.5
v 1.5 8 5.5
v 2.5 8 5.5
v 3.5 8 5.5
v 1.5 8 4.5
v 2.5 8 4.5
v 3.5 8 4.5
v 4.5 8 4.5
v 5.5 8 4.5
v 4.5 8 3.5
v 5.5 8 3.5
v 4.5 8 2.5
v 5.5 8 2.5
v 4.5 8 1.5
v 5.5 8 1.5
v 4.5 8 0.5
v 5.5 8 0.5
v 4.5 8 -0.5
v 5.5 8 -0.5
v 4.5 8 -1.5
v 5.5 8 -1.5
v 4.5 8 -2.5
v 5.5 8 -2.5
v 4.5 8 -3.5
v 5.5 8 -3.5
v 1.5 8 -4.5
v 2.5 8 -4.5
v 3.5 8 -4.5
v 4.5 8 -4.5
v 5.5 8 -4.5
v 0.5 8 -5.5
v 1.5 8 -5.5
v 2.5 8 -5.5
v 3.5 8 -5.5
v 4.5 10 3.5
v 5.5 10 3.5
v 4.5 10 2.5
v 5.5 10 2.5
v 4.5 10 -2.5
v 5.5 10 -2.5
v 4.5 10 -3.5
v 5.5 10 -3.5
v 0.5 5 5.5
v 1.5 5 5.5
v 2.5 5 5.5
v 3.5 5 5.5
v 1.5 5 4.5
v 2.5 5 4.5
v 3.5 5 4.5
v 4.5 5 4.5
v 5.5 5 4.5
v 4.5 5 3.5
v 5.5 5 3.5
v 4.5 5 2.5
v 5.5 5 2.5
v 4.5 5 1.5
v 5.5 5 1.5
v 4.5 5 0.5
v 5.5 5 0.5
v 4.5 5 -0.5
v 5.5 5 -0.5
v 4.5 5 -1.5
v 5.5 5 -1.5
v 4.5 5 -2.5
v 5.5 5 -2.5
v 4.5 5 -3.5
v 5.5 5 -3.5
v 1.5 5 -4.5
v 2.5 5 -4.5
v 3.5 5 -4.5
v 4.5 5 -4.5
v 5.5 5 -4.5
v 0.5 5 -5.5
v 1.5 5 -5.5
v 2.5 5 -5.5
v 3.5 5 -5.5
v 1.5 6 5.5
v 2.5 6 5.5
v 3.5 6 5.5
v 4.5 6 5.5
v 1.5 6 4.5
v 2.5 6 4.5
v 3.5 6 4.5
v 4.5 6 4.5
v 4.5 6 3.5
v 5.5 6 3.5
v 4.5 6 2.5
v 5.5 6 2.5
v 4.5 6 1.5
v 5.5 6 1.5
v 4.5 6 0.5
v 5.5 6 0.5
v 4.5 6 -0.5
v 5.5 6 -0.5
v 4.5 6 -1.5
v 5.5 6 -1.5
v 4.5 6 -2.5
v 5.5 6 -2.5
v 4.5 6 -3.5
v 5.5 6 -3.5
v 1.5 6 -4.5
v 2.5 6 -4.5
v 3.5 6 -4.5
v 4.5 6 -4.5
v 1.5 6 -5.5
v 2.5 6 -5.5
v 3.5 6 -5.5
v 4.5 6 -5.5
v 4.5 9 3.5
v 5.5 9 3.5
v 4.5 9 2.5
v 5.5 9 2.5
v 4.5 9 -2.5
v 5.5 9 -2.5
v 4.5 9 -3.5
v 5.5 9 -3.5
v -4.5 12 5.5
v 4.5 12 5.5
v -5.5 12 4.5
v -4.5 12 4.5
v 4.5 12 4.5
v 5.5 12 4.5
v -5.5 12 -4.5
v -4.5 12 -4.5
v 4.5 12 -4.5
v 5.5 12 -4.5
v -4.5 12 -5.5
v 4.5 12 -5.5
v -4.5 13 4.5
v 4.5 13 4.5
v -4.5 13 -4.5
v 4.5 13 -4.5

# faces
f 3/2/1 2/2/1 1/2/1
f 4/2/1 2/2/1 3/2/1
f 9/2/1 6/2/1 5/2/1
f 10/2/1 6/2/1 9/2/1
f 11/2/1 8/2/1 7/2/1
f 12/2/1 8/2/1 11/2/1
f 13/2/1 11/2/1 10/2/1
f 14/2/1 11/2/1 13/2/1
f 19/1/1 16/1/1 15/1/1
f 20/1/1 16/1/1 19/1/1
f 21/1/1 18/1/1 17/1/1
f 22/1/1 18/1/1 21/1/1
f 27/1/1 24/1/1 23/1/1
f 28/1/1 24/1/1 27/1/1
f 29/1/1 26/1/1 25/1/1
f 30/1/1 26/1/1 29/1/1
f 35/1/1 32/1/1 31/1/1
f 36/1/1 32/1/1 35/1/1
f 37/1/1 34/1/1 33/1/1
f 38/1/1 34/1/1 37/1/1
f 43/1/1 40/1/1 39/1/1
f 44/1/1 40/1/1 43/1/1
f 45/1/1 42/1/1 41/1/1
f 46/1/1 42/1/1 45/1/1
f 55/1/1 48/1/1 47/1/1
f 56/1/1 48/1/1 55/1/1
f 57/1/1 50/1/1 49/1/1
f 58/1/1 50/1/1 57/1/1
f 59/1/1 52/1/1 51/1/1
f 60/1/1 52/1/1 59/1/1
f 61/1/1 54/1/1 53/1/1
f 62/1/1 54/1/1 61/1/1
f 71/1/1 64/1/1 63/1/1
f 72/1/1 64/1/1 71/1/1
f 73/1/1 66/1/1 65/1/1
f 74/1/1 66/1/1 73/1/1
f 75/1/1 68/1/1 67/1/1
f 76/1/1 68/1/1 75/1/1
f 77/1/1 70/1/1 69/1/1
f 78/1/1 70/1/1 77/1/1
f 79/2/2 80/2/2 81/2/2
f 81/2/2 80/2/2 82/2/2
f 83/1/2 84/1/2 87/1/2
f 87/1/2 84/1/2 88/1/2
f 85/1/2 86/1/2 89/1/2
f 89/1/2 86/1/2 90/1/2
f 91/1/2 92/1/2 95/1/2
f 95/1/2 92/1/2 96/1/2
f 93/1/2 94/1/2 97/1/2
f 97/1/2 94/1/2 98/1/2
f 99/2/2 100/2/2 103/2/2
f 103/2/2 100/2/2 104/2/2
f 101/2/2 102/2/2 105/2/2
f 105/2/2 102/2/2 106/2/2
f 103/1/2 104/1/2 107/1/2
f 107/1/2 104/1/2 108/1/2
f 105/1/2 106/1/2 109/1/2
f 109/1/2 106/1/2 110/1/2
f 111/1/2 112/1/2 115/1/2
f 115/1/2 112/1/2 116/1/2
f 113/1/2 114/1/2 117/1/2
f 117/1/2 114/1/2 118/1/2
f 119/2/2 120/2/2 123/2/2
f 123/2/2 120/2/2 124/2/2
f 121/2/2 122/2/2 125/2/2
f 125/2/2 122/2/2 126/2/2
f 115/2/2 116/2/2 127/2/2
f 127/2/2 116/2/2 128/2/2
f 117/2/2 118/2/2 129/2/2
f 129/2/2 118/2/2 130/2/2
f 128/2/2 129/2/2 131/2/2
f 131/2/2 129/2/2 132/2/2
f 133/2/2 134/2/2 135/2/2
f 135/2/2 134/2/2 136/2/2
f 136/2/2 134/2/2 137/2/2
f 137/2/2 134/2/2 138/2/2
f 138/2/2 134/2/2 139/2/2
f 139/2/2 134/2/2 140/2/2
f 140/2/2 134/2/2 141/2/2
f 141/2/2 134/2/2 142/2/2
f 142/2/2 134/2/2 143/2/2
f 143/2/2 134/2/2 144/2/2
f 136/1/2 137/1/2 145/1/2
f 145/1/2 137/1/2 146/1/2
f 138/1/2 139/1/2 147/1/2
f 147/1/2 139/1/2 148/1/2
f 140/1/2 141/1/2 149/1/2
f 149/1/2 141/1/2 150/1/2
f 142/1/2 143/1/2 151/1/2
f 151/1/2 143/1/2 152/1/2
f 153/1/2 154/1/2 162/1/2
f 162/1/2 154/1/2 163/1/2
f 155/1/2 156/1/2 164/1/2
f 164/1/2 156/1/2 165/1/2
f 157/1/2 158/1/2 166/1/2
f 166/1/2 158/1/2 167/1/2
f 159/1/2 160/1/2 168/1/2
f 168/1/2 160/1/2 169/1/2
f 168/2/2 169/2/2 171/2/2
f 169/2/2 170/2/2 171/2/2
f 167/2/2 168/2/2 171/2/2
f 166/2/2 167/2/2 171/2/2
f 165/2/2 166/2/2 171/2/2
f 162/2/2 163/2/2 171/2/2
f 163/2/2 164/2/2 171/2/2
f 164/2/2 165/2/2 171/2/2
f 161/2/2 162/2/2 171/2/2
f 171/2/2 170/2/2 172/2/2
f 172/2/2 170/2/2 173/2/2
f 173/2/2 170/2/2 174/2/2
f 161/2/2 171/2/2 175/2/2
f 172/2/2 173/2/2 176/2/2
f 176/2/2 173/2/2 177/2/2
f 174/2/2 170/2/2 178/2/2
f 176/2/2 177/2/2 179/2/2
f 177/2/2 178/2/2 179/2/2
f 161/2/2 175/2/2 179/2/2
f 175/2/2 176/2/2 179/2/2
f 178/2/2 170/2/2 180/2/2
f 179/2/2 178/2/2 180/2/2
f 183/2/3 182/2/3 181/2/3
f 184/2/3 182/2/3 183/2/3
f 185/2/3 183/2/3 181/2/3
f 188/2/3 182/2/3 184/2/3
f 189/1/3 186/1/3 185/1/3
f 189/2/3 185/2/3 181/2/3
f 190/1/3 186/1/3 189/1/3
f 191/1/3 188/1/3 187/1/3
f 192/2/3 182/2/3 188/2/3
f 192/1/3 188/1/3 191/1/3
f 193/2/3 189/2/3 181/2/3
f 196/2/3 182/2/3 192/2/3
f 197/2/3 193/2/3 181/2/3
f 198/1/3 194/1/3 193/1/3
f 198/2/3 193/2/3 197/2/3
f 199/1/3 194/1/3 198/1/3
f 200/1/3 196/1/3 195/1/3
f 201/2/3 182/2/3 196/2/3
f 201/1/3 196/1/3 200/1/3
f 202/2/3 182/2/3 201/2/3
f 205/2/3 204/2/3 203/2/3
f 206/2/3 204/2/3 205/2/3
f 211/2/3 207/2/3 206/2/3
f 212/2/3 207/2/3 211/2/3
f 213/2/3 209/2/3 208/2/3
f 214/2/3 209/2/3 213/2/3
f 215/2/3 211/2/3 210/2/3
f 216/2/3 211/2/3 215/2/3
f 221/1/3 218/1/3 217/1/3
f 222/1/3 218/1/3 221/1/3
f 223/1/3 220/1/3 219/1/3
f 224/1/3 220/1/3 223/1/3
f 227/2/3 226/2/3 225/2/3
f 228/2/3 226/2/3 227/2/3
f 233/1/3 230/1/3 229/1/3
f 234/1/3 230/1/3 233/1/3
f 235/1/3 232/1/3 231/1/3
f 236/1/3 232/1/3 235/1/3
f 241/1/3 238/1/3 237/1/3
f 242/1/3 238/1/3 241/1/3
f 243/1/3 240/1/3 239/1/3
f 244/1/3 240/1/3 243/1/3
f 249/1/3 246/1/3 245/1/3
f 250/1/3 246/1/3 249/1/3
f 251/1/3 248/1/3 247/1/3
f 252/1/3 248/1/3 251/1/3
f 255/2/3 254/2/3 253/2/3
f 256/2/3 254/2/3 255/2/3
f 261/1/3 258/1/3 257/1/3
f 262/1/3 258/1/3 261/1/3
f 263/1/3 260/1/3 259/1/3
f 264/1/3 260/1/3 263/1/3
f 269/1/3 266/1/3 265/1/3
f 270/1/3 266/1/3 269/1/3
f 271/1/3 268/1/3 267/1/3
f 272/1/3 268/1/3 271/1/3
f 273/1/4 274/1/4 277/1/4
f 277/1/4 274/1/4 278/1/4
f 275/1/4 276/1/4 279/1/4
f 279/1/4 276/1/4 280/1/4
f 281/1/4 282/1/4 285/1/4
f 285/1/4 282/1/4 286/1/4
f 283/1/4 284/1/4 287/1/4
f 287/1/4 284/1/4 288/1/4
f 289/2/4 290/2/4 291/2/4
f 291/2/4 290/2/4 292/2/4
f 293/1/4 294/1/4 297/1/4
f 297/1/4 294/1/4 298/1/4
f 295/1/4 296/1/4 299/1/4
f 299/1/4 296/1/4 300/1/4
f 301/1/4 302/1/4 305/1/4
f 305/1/4 302/1/4 306/1/4
f 303/1/4 304/1/4 307/1/4
f 307/1/4 304/1/4 308/1/4
f 309/1/4 310/1/4 313/1/4
f 313/1/4 310/1/4 314/1/4
f 311/1/4 312/1/4 315/1/4
f 315/1/4 312/1/4 316/1/4
f 317/2/4 318/2/4 319/2/4
f 319/2/4 318/2/4 320/2/4
f 321/1/4 322/1/4 325/1/4
f 325/1/4 322/1/4 326/1/4
f 323/1/4 324/1/4 327/1/4
f 327/1/4 324/1/4 328/1/4
f 329/2/4 330/2/4 331/2/4
f 331/2/4 330/2/4 332/2/4
f 332/2/4 333/2/4 337/2/4
f 337/2/4 333/2/4 338/2/4
f 334/2/4 335/2/4 339/2/4
f 339/2/4 335/2/4 340/2/4
f 336/2/4 337/2/4 341/2/4
f 341/2/4 337/2/4 342/2/4
f 343/2/4 344/2/4 345/2/4
f 345/2/4 344/2/4 346/2/4
f 343/2/4 345/2/4 347/2/4
f 346/2/4 344/2/4 350/2/4
f 347/1/4 348/1/4 351/1/4
f 343/2/4 347/2/4 351/2/4
f 351/1/4 348/1/4 352/1/4
f 349/1/4 350/1/4 353/1/4
f 350/2/4 344/2/4 354/2/4
f 353/1/4 350/1/4 354/1/4
f 343/2/4 351/2/4 355/2/4
f 354/2/4 344/2/4 358/2/4
f 343/2/4 355/2/4 359/2/4
f 355/1/4 356/1/4 360/1/4
f 359/2/4 355/2/4 360/2/4
f 360/1/4 356/1/4 361/1/4
f 357/1/4 358/1/4 362/1/4
f 358/2/4 344/2/4 363/2/4
f 362/1/4 358/1/4 363/1/4
f 363/2/4 344/2/4 364/2/4
f 368/2/5 366/2/5 365/2/5
f 369/2/5 366/2/5 368/2/5
f 371/2/5 368/2/5 367/2/5
f 371/2/5 370/2/5 369/2/5
f 371/2/5 369/2/5 368/2/5
f 372/2/5 370/2/5 371/2/5
f 373/2/5 370/2/5 372/2/5
f 374/2/5 370/2/5 373/2/5
f 375/2/5 373/2/5 372/2/5
f 376/2/5 373/2/5 375/2/5
f 381/1/5 378/1/5 377/1/5
f 382/1/5 378/1/5 381/1/5
f 383/1/5 380/1/5 379/1/5
f 384/1/5 380/1/5 383/1/5
f 387/1/5 386/1/5 385/1/5
f 388/1/5 386/1/5 387/1/5
f 391/1/5 390/1/5 389/1/5
f 392/1/5 390/1/5 391/1/5
f 395/1/5 394/1/5 393/1/5
f 396/1/5 394/1/5 395/1/5
f 399/1/5 398/1/5 397/1/5
f 400/1/5 398/1/5 399/1/5
f 405/1/5 402/1/5 401/1/5
f 406/1/5 402/1/5 405/1/5
f 407/1/5 404/1/5 403/1/5
f 408/1/5 404/1/5 407/1/5
f 413/2/5 410/2/5 409/2/5
f 414/2/5 412/2/5 411/2/5
f 415/2/5 412/2/5 414/2/5
f 418/2/5 414/2/5 413/2/5
f 418/2/5 417/2/5 416/2/5
f 418/2/5 416/2/5 415/2/5
f 418/2/5 415/2/5 414/2/5
f 419/2/5 417/2/5 418/2/5
f 420/2/5 418/2/5 413/2/5
f 422/2/5 420/2/5 413/2/5
f 422/2/5 421/2/5 420/2/5
f 423/2/5 421/2/5 422/2/5
f 424/2/5 422/2/5 413/2/5
f 426/2/5 424/2/5 413/2/5
f 426/2/5 425/2/5 424/2/5
f 427/2/5 425/2/5 426/2/5
f 428/2/5 426/2/5 413/2/5
f 430/2/5 428/2/5 413/2/5
f 430/2/5 429/2/5 428/2/5
f 431/2/5 429/2/5 430/2/5
f 432/2/5 430/2/5 413/2/5
f 434/2/5 413/2/5 409/2/5
f 434/2/5 433/2/5 432/2/5
f 434/2/5 432/2/5 413/2/5
f 435/2/5 433/2/5 434/2/5
f 436/2/5 433/2/5 435/2/5
f 437/2/5 433/2/5 436/2/5
f 438/2/5 433/2/5 437/2/5
f 439/2/5 434/2/5 409/2/5
f 440/2/5 434/2/5 439/2/5
f 441/2/5 436/2/5 435/2/5
f 442/2/5 436/2/5 441/2/5
f 445/2/5 444/2/5 443/2/5
f 446/2/5 444/2/5 445/2/5
f 449/2/5 448/2/5 447/2/5
f 450/2/5 448/2/5 449/2/5
f 451/2/6 452/2/6 455/2/6
f 453/2/6 454/2/6 456/2/6
f 456/2/6 454/2/6 457/2/6
f 455/2/6 456/2/6 460/2/6
f 458/2/6 459/2/6 460/2/6
f 457/2/6 458/2/6 460/2/6
f 456/2/6 457/2/6 460/2/6
f 460/2/6 459/2/6 461/2/6
f 455/2/6 460/2/6 462/2/6
f 455/2/6 462/2/6 464/2/6
f 462/2/6 463/2/6 464/2/6
f 464/2/6 463/2/6 465/2/6
f 455/2/6 464/2/6 466/2/6
f 455/2/6 466/2/6 468/2/6
f 466/2/6 467/2/6 468/2/6
f 468/2/6 467/2/6 469/2/6
f 455/2/6 468/2/6 470/2/6
f 455/2/6 470/2/6 472/2/6
f 470/2/6 471/2/6 472/2/6
f 472/2/6 471/2/6 473/2/6
f 455/2/6 472/2/6 474/2/6
f 451/2/6 455/2/6 476/2/6
f 474/2/6 475/2/6 476/2/6
f 455/2/6 474/2/6 476/2/6
f 476/2/6 475/2/6 477/2/6
f 477/2/6 475/2/6 478/2/6
f 478/2/6 475/2/6 479/2/6
f 479/2/6 475/2/6 480/2/6
f 451/2/6 476/2/6 481/2/6
f 481/2/6 476/2/6 482/2/6
f 477/2/6 478/2/6 483/2/6
f 483/2/6 478/2/6 484/2/6
f 485/1/6 486/1/6 489/1/6
f 489/1/6 486/1/6 490/1/6
f 487/1/6 488/1/6 491/1/6
f 491/1/6 488/1/6 492/1/6
f 493/1/6 494/1/6 495/1/6
f 495/1/6 494/1/6 496/1/6
f 497/1/6 498/1/6 499/1/6
f 499/1/6 498/1/6 500/1/6
f 501/1/6 502/1/6 503/1/6
f 503/1/6 502/1/6 504/1/6
f 505/1/6 506/1/6 507/1/6
f 507/1/6 506/1/6 508/1/6
f 509/1/6 510/1/6 513/1/6
f 513/1/6 510/1/6 514/1/6
f 511/1/6 512/1/6 515/1/6
f 515/1/6 512/1/6 516/1/6
f 517/2/6 518/2/6 519/2/6
f 519/2/6 518/2/6 520/2/6
f 521/2/6 522/2/6 523/2/6
f 523/2/6 522/2/6 524/2/6
f 525/2/6 526/2/6 528/2/6
f 528/2/6 526/2/6 529/2/6
f 527/2/6 528/2/6 531/2/6
f 531/2/6 528/2/6 532/2/6
f 529/2/6 530/2/6 533/2/6
f 533/2/6 530/2/6 534/2/6
f 532/2/6 533/2/6 535/2/6
f 535/2/6 533/2/6 536/2/6
f 537/2/6 538/2/6 539/2/6
f 539/2/6 538/2/6 540/2/6
