# MagicaVoxel @ Ephtracy

# material
mtllib spaceship_final-00.mtl
usemtl palette

# normals
vn -1 0 0
vn 1 0 0
vn 0 0 1
vn 0 0 -1
vn 0 -1 0
vn 0 1 0

# texcoords
vt 0.845703 0.5
vt 0.986328 0.5
vt 0.994141 0.5

# verts
v -40 21 -16
v -40 21 -24
v -40 29 -16
v -40 29 -24
v -25 0 20
v -25 0 -50
v -25 21 -16
v -25 21 -24
v -25 29 -16
v -25 29 -24
v -25 40 20
v -25 40 -50
v -20 40 -16
v -20 40 -50
v -20 42 -16
v -20 42 -50
v -19 42 -18
v -19 42 -20
v -19 42 -49
v -19 42 -50
v -19 43 -18
v -19 43 -20
v -19 43 -22
v -19 44 -20
v -19 44 -22
v -19 44 -24
v -19 45 -22
v -19 45 -24
v -19 45 -26
v -19 46 -24
v -19 46 -26
v -19 46 -28
v -19 47 -26
v -19 47 -28
v -19 47 -30
v -19 48 -28
v -19 48 -30
v -19 48 -32
v -19 49 -30
v -19 49 -32
v -19 49 -49
v -19 49 -50
v -19 50 -32
v -19 50 -49
v -19 50 -50
v -10 0 30
v -10 0 20
v -10 20 50
v -10 20 30
v -10 30 50
v -10 30 40
v -10 39 26
v -10 39 25
v -10 39 24
v -10 39 23
v -10 39 22
v -10 39 21
v -10 40 40
v -10 40 26
v -10 40 25
v -10 40 24
v -10 40 23
v -10 40 22
v -10 40 21
v -10 40 20
v -10 40 10
v -10 40 -0
v -10 43 10
v -10 43 -0
v -9 30 49
v -9 30 40
v -9 39 49
v -9 39 40
v -5 40 10
v -5 40 7
v -5 40 1
v -5 40 -0
v -5 42 10
v -5 42 7
v -5 42 1
v -5 42 -0
v 4 40 10
v 4 40 -0
v 4 43 10
v 4 43 -0
v 9 40 10
v 9 40 7
v 9 40 1
v 9 40 -0
v 9 42 10
v 9 42 7
v 9 42 1
v 9 42 -0
v 11 0 -44
v 11 0 -50
v 11 34 -10
v 11 34 -44
v 11 40 -10
v 11 40 -50
v 16 40 -16
v 16 40 -50
v 16 42 -16
v 16 42 -50
v 17 42 -18
v 17 42 -20
v 17 42 -49
v 17 42 -50
v 17 43 -18
v 17 43 -20
v 17 43 -22
v 17 44 -20
v 17 44 -22
v 17 44 -24
v 17 45 -22
v 17 45 -24
v 17 45 -26
v 17 46 -24
v 17 46 -26
v 17 46 -28
v 17 47 -26
v 17 47 -28
v 17 47 -30
v 17 48 -28
v 17 48 -30
v 17 48 -32
v 17 49 -30
v 17 49 -32
v 17 49 -49
v 17 49 -50
v 17 50 -32
v 17 50 -49
v 17 50 -50
v 26 9 10
v 26 9 9
v 26 9 7
v 26 9 1
v 26 9 -1
v 26 9 -7
v 26 9 -9
v 26 9 -10
v 26 10 10
v 26 10 9
v 26 10 7
v 26 10 1
v 26 10 -1
v 26 10 -7
v 26 10 -9
v 26 10 -10
v 27 8 10
v 27 8 -10
v 27 9 10
v 27 9 -10
v 28 7 10
v 28 7 -10
v 28 8 10
v 28 8 -10
v 29 6 10
v 29 6 -10
v 29 7 10
v 29 7 -10
v 30 5 10
v 30 5 -10
v 30 6 10
v 30 6 -10
v 31 4 10
v 31 4 -10
v 31 5 10
v 31 5 -10
v 32 3 10
v 32 3 -10
v 32 4 10
v 32 4 -10
v 33 2 10
v 33 2 -10
v 33 3 10
v 33 3 -10
v 34 1 10
v 34 1 -10
v 34 2 10
v 34 2 -10
v 35 0 10
v 35 0 -10
v 35 1 10
v 35 1 -10
v -17 42 -18
v -17 42 -20
v -17 42 -49
v -17 42 -50
v -17 43 -18
v -17 43 -20
v -17 43 -22
v -17 44 -20
v -17 44 -22
v -17 44 -24
v -17 45 -22
v -17 45 -24
v -17 45 -26
v -17 46 -24
v -17 46 -26
v -17 46 -28
v -17 47 -26
v -17 47 -28
v -17 47 -30
v -17 48 -28
v -17 48 -30
v -17 48 -32
v -17 49 -30
v -17 49 -32
v -17 49 -49
v -17 49 -50
v -17 50 -32
v -17 50 -49
v -17 50 -50
v -16 40 -16
v -16 40 -50
v -16 42 -16
v -16 42 -50
v -11 0 -44
v -11 0 -50
v -11 34 -10
v -11 34 -44
v -11 40 -10
v -11 40 -50
v -9 40 10
v -9 40 7
v -9 40 1
v -9 40 -0
v -9 42 10
v -9 42 7
v -9 42 1
v -9 42 -0
v -4 40 10
v -4 40 -0
v -4 43 10
v -4 43 -0
v 2 10 10
v 2 10 -10
v 2 30 10
v 2 30 -10
v 5 40 10
v 5 40 7
v 5 40 1
v 5 40 -0
v 5 42 10
v 5 42 7
v 5 42 1
v 5 42 -0
v 9 30 49
v 9 30 40
v 9 39 49
v 9 39 40
v 10 0 30
v 10 0 20
v 10 20 50
v 10 20 30
v 10 27 33
v 10 27 28
v 10 28 33
v 10 28 29
v 10 29 33
v 10 29 30
v 10 29 27
v 10 29 26
v 10 30 50
v 10 30 40
v 10 30 32
v 10 30 31
v 10 30 27
v 10 30 26
v 10 31 27
v 10 31 26
v 10 32 31
v 10 32 30
v 10 32 27
v 10 32 26
v 10 33 32
v 10 33 29
v 10 33 27
v 10 33 26
v 10 34 33
v 10 34 28
v 10 34 27
v 10 34 26
v 10 39 26
v 10 39 25
v 10 39 24
v 10 39 23
v 10 39 22
v 10 39 21
v 10 40 40
v 10 40 26
v 10 40 25
v 10 40 24
v 10 40 23
v 10 40 22
v 10 40 21
v 10 40 20
v 10 40 10
v 10 40 -0
v 10 43 10
v 10 43 -0
v 19 42 -18
v 19 42 -20
v 19 42 -49
v 19 42 -50
v 19 43 -18
v 19 43 -20
v 19 43 -22
v 19 44 -20
v 19 44 -22
v 19 44 -24
v 19 45 -22
v 19 45 -24
v 19 45 -26
v 19 46 -24
v 19 46 -26
v 19 46 -28
v 19 47 -26
v 19 47 -28
v 19 47 -30
v 19 48 -28
v 19 48 -30
v 19 48 -32
v 19 49 -30
v 19 49 -32
v 19 49 -49
v 19 49 -50
v 19 50 -32
v 19 50 -49
v 19 50 -50
v 20 40 -16
v 20 40 -50
v 20 42 -16
v 20 42 -50
v 25 0 20
v 25 0 -50
v 25 9 9
v 25 9 7
v 25 9 1
v 25 9 -1
v 25 9 -7
v 25 9 -9
v 25 10 10
v 25 10 9
v 25 10 7
v 25 10 1
v 25 10 -1
v 25 10 -7
v 25 10 -9
v 25 10 -10
v 25 21 -16
v 25 21 -24
v 25 29 -16
v 25 29 -24
v 25 30 10
v 25 30 -10
v 25 40 20
v 25 40 -50
v 28 9 10
v 28 9 -10
v 28 10 10
v 28 10 -10
v 29 8 10
v 29 8 -10
v 29 9 10
v 29 9 -10
v 30 7 10
v 30 7 -10
v 30 8 10
v 30 8 -10
v 31 6 10
v 31 6 -10
v 31 7 10
v 31 7 -10
v 32 5 10
v 32 5 -10
v 32 6 10
v 32 6 -10
v 33 4 10
v 33 4 -10
v 33 5 10
v 33 5 -10
v 34 3 10
v 34 3 -10
v 34 4 10
v 34 4 -10
v 35 2 10
v 35 2 -10
v 35 3 10
v 35 3 -10
v 36 1 10
v 36 1 -10
v 36 2 10
v 36 2 -10
v 37 0 10
v 37 0 -10
v 37 1 10
v 37 1 -10
v 40 21 -16
v 40 21 -24
v 40 29 -16
v 40 29 -24
v -10 20 50
v -10 30 50
v 10 20 50
v 10 30 50
v -9 30 49
v -9 39 49
v 9 30 49
v 9 39 49
v -10 30 40
v -10 40 40
v -9 30 40
v -9 39 40
v 9 30 40
v 9 39 40
v 10 30 40
v 10 40 40
v -10 0 30
v -10 20 30
v 10 0 30
v 10 20 30
v -25 0 20
v -25 40 20
v -19 0 20
v -19 40 20
v -17 0 20
v -17 40 20
v -10 0 20
v -10 40 20
v 10 0 20
v 10 40 20
v 17 0 20
v 17 40 20
v 19 0 20
v 19 40 20
v 25 0 20
v 25 40 20
v -10 40 10
v -10 43 10
v -9 40 10
v -9 42 10
v -5 40 10
v -5 42 10
v -4 40 10
v -4 43 10
v 4 40 10
v 4 43 10
v 5 40 10
v 5 42 10
v 9 40 10
v 9 42 10
v 10 40 10
v 10 43 10
v 26 9 10
v 26 10 10
v 27 8 10
v 27 9 10
v 28 7 10
v 28 8 10
v 28 9 10
v 28 10 10
v 29 6 10
v 29 7 10
v 29 8 10
v 29 9 10
v 30 5 10
v 30 6 10
v 30 7 10
v 30 8 10
v 31 4 10
v 31 5 10
v 31 6 10
v 31 7 10
v 32 3 10
v 32 4 10
v 32 5 10
v 32 6 10
v 33 2 10
v 33 3 10
v 33 4 10
v 33 5 10
v 34 1 10
v 34 2 10
v 34 3 10
v 34 4 10
v 35 0 10
v 35 1 10
v 35 2 10
v 35 3 10
v 36 1 10
v 36 2 10
v 37 0 10
v 37 1 10
v 25 9 9
v 25 10 9
v 26 9 9
v 26 10 9
v -9 40 7
v -9 42 7
v -5 40 7
v -5 42 7
v 5 40 7
v 5 42 7
v 9 40 7
v 9 42 7
v 25 9 1
v 25 10 1
v 26 9 1
v 26 10 1
v 25 9 -7
v 25 10 -7
v 26 9 -7
v 26 10 -7
v 2 10 -10
v 2 30 -10
v 24 10 -10
v 24 30 -10
v 25 10 -10
v 25 30 -10
v -40 21 -16
v -40 29 -16
v -25 21 -16
v -25 29 -16
v -20 40 -16
v -20 42 -16
v -19 40 -16
v -19 42 -16
v -17 40 -16
v -17 42 -16
v -16 40 -16
v -16 42 -16
v 16 40 -16
v 16 42 -16
v 17 40 -16
v 17 42 -16
v 19 40 -16
v 19 42 -16
v 20 40 -16
v 20 42 -16
v 25 21 -16
v 25 29 -16
v 40 21 -16
v 40 29 -16
v -19 42 -18
v -19 43 -18
v -17 42 -18
v -17 43 -18
v 17 42 -18
v 17 43 -18
v 19 42 -18
v 19 43 -18
v -19 43 -20
v -19 44 -20
v -17 43 -20
v -17 44 -20
v 17 43 -20
v 17 44 -20
v 19 43 -20
v 19 44 -20
v -19 44 -22
v -19 45 -22
v -17 44 -22
v -17 45 -22
v 17 44 -22
v 17 45 -22
v 19 44 -22
v 19 45 -22
v -19 45 -24
v -19 46 -24
v -17 45 -24
v -17 46 -24
v 17 45 -24
v 17 46 -24
v 19 45 -24
v 19 46 -24
v -19 46 -26
v -19 47 -26
v -17 46 -26
v -17 47 -26
v 17 46 -26
v 17 47 -26
v 19 46 -26
v 19 47 -26
v -19 47 -28
v -19 48 -28
v -17 47 -28
v -17 48 -28
v 17 47 -28
v 17 48 -28
v 19 47 -28
v 19 48 -28
v -19 48 -30
v -19 49 -30
v -17 48 -30
v -17 49 -30
v 17 48 -30
v 17 49 -30
v 19 48 -30
v 19 49 -30
v -19 49 -32
v -19 50 -32
v -17 49 -32
v -17 50 -32
v 17 49 -32
v 17 50 -32
v 19 49 -32
v 19 50 -32
v 2 10 10
v 2 30 10
v 24 10 10
v 24 30 10
v 25 10 10
v 25 30 10
v 25 9 7
v 25 10 7
v 26 9 7
v 26 10 7
v -9 40 1
v -9 42 1
v -5 40 1
v -5 42 1
v 5 40 1
v 5 42 1
v 9 40 1
v 9 42 1
v -10 40 -0
v -10 43 -0
v -9 40 -0
v -9 42 -0
v -5 40 -0
v -5 42 -0
v -4 40 -0
v -4 43 -0
v 4 40 -0
v 4 43 -0
v 5 40 -0
v 5 42 -0
v 9 40 -0
v 9 42 -0
v 10 40 -0
v 10 43 -0
v 25 9 -1
v 25 10 -1
v 26 9 -1
v 26 10 -1
v 25 9 -9
v 25 10 -9
v 26 9 -9
v 26 10 -9
v -11 34 -10
v -11 40 -10
v 11 34 -10
v 11 40 -10
v 26 9 -10
v 26 10 -10
v 27 8 -10
v 27 9 -10
v 28 7 -10
v 28 8 -10
v 28 9 -10
v 28 10 -10
v 29 6 -10
v 29 7 -10
v 29 8 -10
v 29 9 -10
v 30 5 -10
v 30 6 -10
v 30 7 -10
v 30 8 -10
v 31 4 -10
v 31 5 -10
v 31 6 -10
v 31 7 -10
v 32 3 -10
v 32 4 -10
v 32 5 -10
v 32 6 -10
v 33 2 -10
v 33 3 -10
v 33 4 -10
v 33 5 -10
v 34 1 -10
v 34 2 -10
v 34 3 -10
v 34 4 -10
v 35 0 -10
v 35 1 -10
v 35 2 -10
v 35 3 -10
v 36 1 -10
v 36 2 -10
v 37 0 -10
v 37 1 -10
v -40 21 -24
v -40 29 -24
v -25 21 -24
v -25 29 -24
v 25 21 -24
v 25 29 -24
v 40 21 -24
v 40 29 -24
v -11 0 -44
v -11 34 -44
v 11 0 -44
v 11 34 -44
v -25 0 -50
v -25 40 -50
v -20 40 -50
v -20 42 -50
v -19 0 -50
v -19 42 -50
v -19 49 -50
v -19 50 -50
v -17 0 -50
v -17 42 -50
v -17 49 -50
v -17 50 -50
v -16 40 -50
v -16 42 -50
v -11 0 -50
v -11 40 -50
v 11 0 -50
v 11 40 -50
v 16 40 -50
v 16 42 -50
v 17 0 -50
v 17 42 -50
v 17 49 -50
v 17 50 -50
v 19 0 -50
v 19 42 -50
v 19 49 -50
v 19 50 -50
v 20 40 -50
v 20 42 -50
v 25 0 -50
v 25 40 -50
v -10 0 30
v 10 0 30
v -25 0 20
v -19 0 20
v -17 0 20
v -10 0 20
v 10 0 20
v 17 0 20
v 19 0 20
v 25 0 20
v 35 0 10
v 37 0 10
v 35 0 -10
v 37 0 -10
v -11 0 -44
v 11 0 -44
v -25 0 -50
v -19 0 -50
v -17 0 -50
v -11 0 -50
v 11 0 -50
v 17 0 -50
v 19 0 -50
v 25 0 -50
v 34 1 10
v 35 1 10
v 34 1 -10
v 35 1 -10
v 33 2 10
v 34 2 10
v 33 2 -10
v 34 2 -10
v 32 3 10
v 33 3 10
v 32 3 -10
v 33 3 -10
v 31 4 10
v 32 4 10
v 31 4 -10
v 32 4 -10
v 30 5 10
v 31 5 10
v 30 5 -10
v 31 5 -10
v 29 6 10
v 30 6 10
v 29 6 -10
v 30 6 -10
v 28 7 10
v 29 7 10
v 28 7 -10
v 29 7 -10
v 27 8 10
v 28 8 10
v 27 8 -10
v 28 8 -10
v 26 9 10
v 27 9 10
v 25 9 9
v 26 9 9
v 25 9 7
v 26 9 7
v 25 9 1
v 26 9 1
v 25 9 -1
v 26 9 -1
v 25 9 -7
v 26 9 -7
v 25 9 -9
v 26 9 -9
v 26 9 -10
v 27 9 -10
v -10 20 50
v 10 20 50
v -10 20 30
v 10 20 30
v -40 21 -16
v -25 21 -16
v 25 21 -16
v 40 21 -16
v -40 21 -24
v -25 21 -24
v 25 21 -24
v 40 21 -24
v 2 30 10
v 24 30 10
v 25 30 10
v 2 30 -10
v 24 30 -10
v 25 30 -10
v -9 42 10
v -5 42 10
v 5 42 10
v 9 42 10
v -9 42 7
v -5 42 7
v 5 42 7
v 9 42 7
v -9 42 1
v -5 42 1
v 5 42 1
v 9 42 1
v -9 42 -0
v -5 42 -0
v 5 42 -0
v 9 42 -0
v 36 1 10
v 37 1 10
v 36 1 -10
v 37 1 -10
v 35 2 10
v 36 2 10
v 35 2 -10
v 36 2 -10
v 34 3 10
v 35 3 10
v 34 3 -10
v 35 3 -10
v 33 4 10
v 34 4 10
v 33 4 -10
v 34 4 -10
v 32 5 10
v 33 5 10
v 32 5 -10
v 33 5 -10
v 31 6 10
v 32 6 10
v 31 6 -10
v 32 6 -10
v 30 7 10
v 31 7 10
v 30 7 -10
v 31 7 -10
v 29 8 10
v 30 8 10
v 29 8 -10
v 30 8 -10
v 28 9 10
v 29 9 10
v 28 9 -10
v 29 9 -10
v 2 10 10
v 24 10 10
v 25 10 10
v 26 10 10
v 28 10 10
v 25 10 9
v 26 10 9
v 25 10 7
v 26 10 7
v 25 10 1
v 26 10 1
v 25 10 -1
v 26 10 -1
v 25 10 -7
v 26 10 -7
v 25 10 -9
v 26 10 -9
v 2 10 -10
v 24 10 -10
v 25 10 -10
v 26 10 -10
v 28 10 -10
v -40 29 -16
v -25 29 -16
v 25 29 -16
v 40 29 -16
v -40 29 -24
v -25 29 -24
v 25 29 -24
v 40 29 -24
v -10 30 50
v 10 30 50
v -9 30 49
v 9 30 49
v -10 30 40
v -9 30 40
v 9 30 40
v 10 30 40
v -11 34 -10
v 11 34 -10
v -11 34 -44
v 11 34 -44
v -9 39 49
v 9 39 49
v -9 39 40
v 9 39 40
v -10 40 40
v 10 40 40
v -10 40 26
v 10 40 26
v -10 40 25
v 10 40 25
v -10 40 24
v 10 40 24
v -10 40 23
v 10 40 23
v -10 40 22
v 10 40 22
v -10 40 21
v 10 40 21
v -25 40 20
v -19 40 20
v -17 40 20
v -10 40 20
v 10 40 20
v 17 40 20
v 19 40 20
v 25 40 20
v -10 40 10
v -9 40 10
v -5 40 10
v -4 40 10
v 4 40 10
v 5 40 10
v 9 40 10
v 10 40 10
v -9 40 7
v -5 40 7
v 5 40 7
v 9 40 7
v -9 40 1
v -5 40 1
v 5 40 1
v 9 40 1
v -10 40 -0
v -9 40 -0
v -5 40 -0
v -4 40 -0
v 4 40 -0
v 5 40 -0
v 9 40 -0
v 10 40 -0
v -11 40 -10
v 11 40 -10
v -20 40 -16
v -19 40 -16
v -17 40 -16
v -16 40 -16
v 16 40 -16
v 17 40 -16
v 19 40 -16
v 20 40 -16
v -25 40 -50
v -20 40 -50
v -16 40 -50
v -11 40 -50
v 11 40 -50
v 16 40 -50
v 20 40 -50
v 25 40 -50
v -20 42 -16
v -19 42 -16
v -17 42 -16
v -16 42 -16
v 16 42 -16
v 17 42 -16
v 19 42 -16
v 20 42 -16
v -19 42 -18
v -17 42 -18
v 17 42 -18
v 19 42 -18
v -19 42 -20
v -17 42 -20
v 17 42 -20
v 19 42 -20
v -19 42 -49
v -17 42 -49
v 17 42 -49
v 19 42 -49
v -20 42 -50
v -19 42 -50
v -17 42 -50
v -16 42 -50
v 16 42 -50
v 17 42 -50
v 19 42 -50
v 20 42 -50
v -10 43 10
v -4 43 10
v 4 43 10
v 10 43 10
v -10 43 -0
v -4 43 -0
v 4 43 -0
v 10 43 -0
v -19 43 -18
v -17 43 -18
v 17 43 -18
v 19 43 -18
v -19 43 -20
v -17 43 -20
v 17 43 -20
v 19 43 -20
v -19 44 -20
v -17 44 -20
v 17 44 -20
v 19 44 -20
v -19 44 -22
v -17 44 -22
v 17 44 -22
v 19 44 -22
v -19 45 -22
v -17 45 -22
v 17 45 -22
v 19 45 -22
v -19 45 -24
v -17 45 -24
v 17 45 -24
v 19 45 -24
v -19 46 -24
v -17 46 -24
v 17 46 -24
v 19 46 -24
v -19 46 -26
v -17 46 -26
v 17 46 -26
v 19 46 -26
v -19 47 -26
v -17 47 -26
v 17 47 -26
v 19 47 -26
v -19 47 -28
v -17 47 -28
v 17 47 -28
v 19 47 -28
v -19 48 -28
v -17 48 -28
v 17 48 -28
v 19 48 -28
v -19 48 -30
v -17 48 -30
v 17 48 -30
v 19 48 -30
v -19 49 -30
v -17 49 -30
v 17 49 -30
v 19 49 -30
v -19 49 -32
v -17 49 -32
v 17 49 -32
v 19 49 -32
v -19 50 -32
v -17 50 -32
v 17 50 -32
v 19 50 -32
v -19 50 -49
v -17 50 -49
v 17 50 -49
v 19 50 -49
v -19 50 -50
v -17 50 -50
v 17 50 -50
v 19 50 -50

# faces
f 3/2/1 2/2/1 1/2/1
f 4/2/1 2/2/1 3/2/1
f 7/2/1 6/2/1 5/2/1
f 8/2/1 6/2/1 7/2/1
f 9/2/1 7/2/1 5/2/1
f 10/2/1 6/2/1 8/2/1
f 11/2/1 9/2/1 5/2/1
f 11/2/1 10/2/1 9/2/1
f 12/2/1 6/2/1 10/2/1
f 12/2/1 10/2/1 11/2/1
f 15/2/1 14/2/1 13/2/1
f 16/2/1 14/2/1 15/2/1
f 21/1/1 18/1/1 17/1/1
f 22/2/1 19/2/1 18/2/1
f 22/1/1 18/1/1 21/1/1
f 23/2/1 19/2/1 22/2/1
f 24/1/1 23/1/1 22/1/1
f 25/2/1 19/2/1 23/2/1
f 25/1/1 23/1/1 24/1/1
f 26/2/1 19/2/1 25/2/1
f 27/1/1 26/1/1 25/1/1
f 28/2/1 19/2/1 26/2/1
f 28/1/1 26/1/1 27/1/1
f 29/2/1 19/2/1 28/2/1
f 30/1/1 29/1/1 28/1/1
f 31/2/1 19/2/1 29/2/1
f 31/1/1 29/1/1 30/1/1
f 32/2/1 19/2/1 31/2/1
f 33/1/1 32/1/1 31/1/1
f 34/2/1 19/2/1 32/2/1
f 34/1/1 32/1/1 33/1/1
f 35/2/1 19/2/1 34/2/1
f 36/1/1 35/1/1 34/1/1
f 37/2/1 19/2/1 35/2/1
f 37/1/1 35/1/1 36/1/1
f 38/2/1 19/2/1 37/2/1
f 39/1/1 38/1/1 37/1/1
f 40/2/1 19/2/1 38/2/1
f 40/1/1 38/1/1 39/1/1
f 41/1/1 20/1/1 19/1/1
f 41/2/1 19/2/1 40/2/1
f 42/1/1 20/1/1 41/1/1
f 43/1/1 41/1/1 40/1/1
f 44/2/1 42/2/1 41/2/1
f 44/1/1 41/1/1 43/1/1
f 45/2/1 42/2/1 44/2/1
f 49/2/1 47/2/1 46/2/1
f 50/2/1 49/2/1 48/2/1
f 51/2/1 49/2/1 50/2/1
f 52/2/1 47/2/1 49/2/1
f 52/2/1 49/2/1 51/2/1
f 53/2/1 47/2/1 52/2/1
f 54/2/1 47/2/1 53/2/1
f 55/2/1 47/2/1 54/2/1
f 56/2/1 47/2/1 55/2/1
f 57/2/1 47/2/1 56/2/1
f 58/2/1 52/2/1 51/2/1
f 59/1/1 53/1/1 52/1/1
f 59/2/1 52/2/1 58/2/1
f 60/2/1 54/2/1 53/2/1
f 60/1/1 53/1/1 59/1/1
f 61/1/1 55/1/1 54/1/1
f 61/2/1 54/2/1 60/2/1
f 62/2/1 56/2/1 55/2/1
f 62/1/1 55/1/1 61/1/1
f 63/1/1 57/1/1 56/1/1
f 63/2/1 56/2/1 62/2/1
f 64/2/1 47/2/1 57/2/1
f 64/1/1 57/1/1 63/1/1
f 65/2/1 47/2/1 64/2/1
f 68/3/1 67/3/1 66/3/1
f 69/3/1 67/3/1 68/3/1
f 72/1/1 71/1/1 70/1/1
f 73/1/1 71/1/1 72/1/1
f 78/3/1 75/3/1 74/3/1
f 79/3/1 75/3/1 78/3/1
f 80/3/1 77/3/1 76/3/1
f 81/3/1 77/3/1 80/3/1
f 84/3/1 83/3/1 82/3/1
f 85/3/1 83/3/1 84/3/1
f 90/3/1 87/3/1 86/3/1
f 91/3/1 87/3/1 90/3/1
f 92/3/1 89/3/1 88/3/1
f 93/3/1 89/3/1 92/3/1
f 97/2/1 95/2/1 94/2/1
f 98/2/1 97/2/1 96/2/1
f 99/2/1 95/2/1 97/2/1
f 99/2/1 97/2/1 98/2/1
f 102/2/1 101/2/1 100/2/1
f 103/2/1 101/2/1 102/2/1
f 108/1/1 105/1/1 104/1/1
f 109/2/1 106/2/1 105/2/1
f 109/1/1 105/1/1 108/1/1
f 110/2/1 106/2/1 109/2/1
f 111/1/1 110/1/1 109/1/1
f 112/2/1 106/2/1 110/2/1
f 112/1/1 110/1/1 111/1/1
f 113/2/1 106/2/1 112/2/1
f 114/1/1 113/1/1 112/1/1
f 115/2/1 106/2/1 113/2/1
f 115/1/1 113/1/1 114/1/1
f 116/2/1 106/2/1 115/2/1
f 117/1/1 116/1/1 115/1/1
f 118/2/1 106/2/1 116/2/1
f 118/1/1 116/1/1 117/1/1
f 119/2/1 106/2/1 118/2/1
f 120/1/1 119/1/1 118/1/1
f 121/2/1 106/2/1 119/2/1
f 121/1/1 119/1/1 120/1/1
f 122/2/1 106/2/1 121/2/1
f 123/1/1 122/1/1 121/1/1
f 124/2/1 106/2/1 122/2/1
f 124/1/1 122/1/1 123/1/1
f 125/2/1 106/2/1 124/2/1
f 126/1/1 125/1/1 124/1/1
f 127/2/1 106/2/1 125/2/1
f 127/1/1 125/1/1 126/1/1
f 128/1/1 107/1/1 106/1/1
f 128/2/1 106/2/1 127/2/1
f 129/1/1 107/1/1 128/1/1
f 130/1/1 128/1/1 127/1/1
f 131/2/1 129/2/1 128/2/1
f 131/1/1 128/1/1 130/1/1
f 132/2/1 129/2/1 131/2/1
f 141/2/1 134/2/1 133/2/1
f 142/2/1 134/2/1 141/2/1
f 143/2/1 136/2/1 135/2/1
f 144/2/1 136/2/1 143/2/1
f 145/2/1 138/2/1 137/2/1
f 146/2/1 138/2/1 145/2/1
f 147/2/1 140/2/1 139/2/1
f 148/2/1 140/2/1 147/2/1
f 151/2/1 150/2/1 149/2/1
f 152/2/1 150/2/1 151/2/1
f 155/2/1 154/2/1 153/2/1
f 156/2/1 154/2/1 155/2/1
f 159/2/1 158/2/1 157/2/1
f 160/2/1 158/2/1 159/2/1
f 163/2/1 162/2/1 161/2/1
f 164/2/1 162/2/1 163/2/1
f 167/2/1 166/2/1 165/2/1
f 168/2/1 166/2/1 167/2/1
f 171/2/1 170/2/1 169/2/1
f 172/2/1 170/2/1 171/2/1
f 175/2/1 174/2/1 173/2/1
f 176/2/1 174/2/1 175/2/1
f 179/2/1 178/2/1 177/2/1
f 180/2/1 178/2/1 179/2/1
f 183/2/1 182/2/1 181/2/1
f 184/2/1 182/2/1 183/2/1
f 185/1/2 186/1/2 189/1/2
f 186/2/2 187/2/2 190/2/2
f 189/1/2 186/1/2 190/1/2
f 190/2/2 187/2/2 191/2/2
f 190/1/2 191/1/2 192/1/2
f 191/2/2 187/2/2 193/2/2
f 192/1/2 191/1/2 193/1/2
f 193/2/2 187/2/2 194/2/2
f 193/1/2 194/1/2 195/1/2
f 194/2/2 187/2/2 196/2/2
f 195/1/2 194/1/2 196/1/2
f 196/2/2 187/2/2 197/2/2
f 196/1/2 197/1/2 198/1/2
f 197/2/2 187/2/2 199/2/2
f 198/1/2 197/1/2 199/1/2
f 199/2/2 187/2/2 200/2/2
f 199/1/2 200/1/2 201/1/2
f 200/2/2 187/2/2 202/2/2
f 201/1/2 200/1/2 202/1/2
f 202/2/2 187/2/2 203/2/2
f 202/1/2 203/1/2 204/1/2
f 203/2/2 187/2/2 205/2/2
f 204/1/2 203/1/2 205/1/2
f 205/2/2 187/2/2 206/2/2
f 205/1/2 206/1/2 207/1/2
f 206/2/2 187/2/2 208/2/2
f 207/1/2 206/1/2 208/1/2
f 187/1/2 188/1/2 209/1/2
f 208/2/2 187/2/2 209/2/2
f 209/1/2 188/1/2 210/1/2
f 208/1/2 209/1/2 211/1/2
f 209/2/2 210/2/2 212/2/2
f 211/1/2 209/1/2 212/1/2
f 212/2/2 210/2/2 213/2/2
f 214/2/2 215/2/2 216/2/2
f 216/2/2 215/2/2 217/2/2
f 218/2/2 219/2/2 221/2/2
f 220/2/2 221/2/2 222/2/2
f 221/2/2 219/2/2 223/2/2
f 222/2/2 221/2/2 223/2/2
f 224/3/2 225/3/2 228/3/2
f 228/3/2 225/3/2 229/3/2
f 226/3/2 227/3/2 230/3/2
f 230/3/2 227/3/2 231/3/2
f 232/3/2 233/3/2 234/3/2
f 234/3/2 233/3/2 235/3/2
f 236/3/2 237/3/2 238/3/2
f 238/3/2 237/3/2 239/3/2
f 240/3/2 241/3/2 244/3/2
f 244/3/2 241/3/2 245/3/2
f 242/3/2 243/3/2 246/3/2
f 246/3/2 243/3/2 247/3/2
f 248/1/2 249/1/2 250/1/2
f 250/1/2 249/1/2 251/1/2
f 252/2/2 253/2/2 255/2/2
f 254/2/2 255/2/2 256/2/2
f 255/2/2 253/2/2 257/2/2
f 256/2/2 255/2/2 257/2/2
f 254/2/2 256/2/2 258/2/2
f 256/1/2 257/1/2 258/1/2
f 258/1/2 257/1/2 259/1/2
f 254/2/2 258/2/2 260/2/2
f 258/2/2 259/2/2 260/2/2
f 260/2/2 259/2/2 261/2/2
f 257/2/2 253/2/2 262/2/2
f 262/2/2 253/2/2 263/2/2
f 254/2/2 260/2/2 264/2/2
f 264/2/2 260/2/2 265/2/2
f 260/1/2 261/1/2 266/1/2
f 266/1/2 261/1/2 267/1/2
f 257/2/2 262/2/2 268/2/2
f 262/1/2 263/1/2 268/1/2
f 263/2/2 253/2/2 269/2/2
f 268/1/2 263/1/2 269/1/2
f 257/2/2 268/2/2 270/2/2
f 268/2/2 269/2/2 270/2/2
f 269/2/2 253/2/2 271/2/2
f 270/2/2 269/2/2 271/2/2
f 267/1/2 261/1/2 272/1/2
f 266/2/2 267/2/2 272/2/2
f 261/2/2 259/2/2 273/2/2
f 272/1/2 261/1/2 273/1/2
f 257/2/2 270/2/2 274/2/2
f 270/1/2 271/1/2 274/1/2
f 271/2/2 253/2/2 275/2/2
f 274/1/2 271/1/2 275/1/2
f 266/2/2 272/2/2 276/2/2
f 272/2/2 273/2/2 276/2/2
f 260/1/2 266/1/2 276/1/2
f 259/1/2 257/1/2 277/1/2
f 276/2/2 273/2/2 277/2/2
f 273/2/2 259/2/2 277/2/2
f 257/2/2 274/2/2 278/2/2
f 274/2/2 275/2/2 278/2/2
f 275/2/2 253/2/2 279/2/2
f 278/2/2 275/2/2 279/2/2
f 260/1/2 276/1/2 280/1/2
f 265/2/2 260/2/2 280/2/2
f 276/1/2 277/1/2 280/1/2
f 257/2/2 278/2/2 281/2/2
f 280/1/2 277/1/2 281/1/2
f 277/1/2 257/1/2 281/1/2
f 278/1/2 279/1/2 282/1/2
f 281/2/2 278/2/2 282/2/2
f 279/2/2 253/2/2 283/2/2
f 282/1/2 279/1/2 283/1/2
f 281/2/2 282/2/2 284/2/2
f 283/2/2 253/2/2 284/2/2
f 282/2/2 283/2/2 284/2/2
f 280/2/2 281/2/2 284/2/2
f 284/2/2 253/2/2 285/2/2
f 285/2/2 253/2/2 286/2/2
f 286/2/2 253/2/2 287/2/2
f 287/2/2 253/2/2 288/2/2
f 288/2/2 253/2/2 289/2/2
f 265/2/2 280/2/2 290/2/2
f 280/2/2 284/2/2 290/2/2
f 284/1/2 285/1/2 291/1/2
f 290/2/2 284/2/2 291/2/2
f 285/2/2 286/2/2 292/2/2
f 291/1/2 285/1/2 292/1/2
f 286/1/2 287/1/2 293/1/2
f 292/2/2 286/2/2 293/2/2
f 287/2/2 288/2/2 294/2/2
f 293/1/2 287/1/2 294/1/2
f 288/1/2 289/1/2 295/1/2
f 294/2/2 288/2/2 295/2/2
f 289/2/2 253/2/2 296/2/2
f 295/1/2 289/1/2 296/1/2
f 296/2/2 253/2/2 297/2/2
f 298/3/2 299/3/2 300/3/2
f 300/3/2 299/3/2 301/3/2
f 302/1/2 303/1/2 306/1/2
f 303/2/2 304/2/2 307/2/2
f 306/1/2 303/1/2 307/1/2
f 307/2/2 304/2/2 308/2/2
f 307/1/2 308/1/2 309/1/2
f 308/2/2 304/2/2 310/2/2
f 309/1/2 308/1/2 310/1/2
f 310/2/2 304/2/2 311/2/2
f 310/1/2 311/1/2 312/1/2
f 311/2/2 304/2/2 313/2/2
f 312/1/2 311/1/2 313/1/2
f 313/2/2 304/2/2 314/2/2
f 313/1/2 314/1/2 315/1/2
f 314/2/2 304/2/2 316/2/2
f 315/1/2 314/1/2 316/1/2
f 316/2/2 304/2/2 317/2/2
f 316/1/2 317/1/2 318/1/2
f 317/2/2 304/2/2 319/2/2
f 318/1/2 317/1/2 319/1/2
f 319/2/2 304/2/2 320/2/2
f 319/1/2 320/1/2 321/1/2
f 320/2/2 304/2/2 322/2/2
f 321/1/2 320/1/2 322/1/2
f 322/2/2 304/2/2 323/2/2
f 322/1/2 323/1/2 324/1/2
f 323/2/2 304/2/2 325/2/2
f 324/1/2 323/1/2 325/1/2
f 304/1/2 305/1/2 326/1/2
f 325/2/2 304/2/2 326/2/2
f 326/1/2 305/1/2 327/1/2
f 325/1/2 326/1/2 328/1/2
f 326/2/2 327/2/2 329/2/2
f 328/1/2 326/1/2 329/1/2
f 329/2/2 327/2/2 330/2/2
f 331/2/2 332/2/2 333/2/2
f 333/2/2 332/2/2 334/2/2
f 335/2/2 336/2/2 337/2/2
f 337/2/2 336/2/2 338/2/2
f 338/2/2 336/2/2 339/2/2
f 339/2/2 336/2/2 340/2/2
f 340/2/2 336/2/2 341/2/2
f 341/2/2 336/2/2 342/2/2
f 335/2/2 337/2/2 343/2/2
f 343/2/2 337/2/2 344/2/2
f 338/2/2 339/2/2 345/2/2
f 345/2/2 339/2/2 346/2/2
f 340/2/2 341/2/2 347/2/2
f 347/2/2 341/2/2 348/2/2
f 342/2/2 336/2/2 349/2/2
f 349/2/2 336/2/2 350/2/2
f 350/2/2 336/2/2 351/2/2
f 351/2/2 336/2/2 352/2/2
f 350/2/2 351/2/2 353/2/2
f 352/2/2 336/2/2 354/2/2
f 335/2/2 343/2/2 355/2/2
f 353/2/2 354/2/2 356/2/2
f 350/2/2 353/2/2 356/2/2
f 335/2/2 355/2/2 357/2/2
f 355/2/2 356/2/2 357/2/2
f 356/2/2 354/2/2 358/2/2
f 357/2/2 356/2/2 358/2/2
f 354/2/2 336/2/2 358/2/2
f 359/2/2 360/2/2 361/2/2
f 361/2/2 360/2/2 362/2/2
f 363/2/2 364/2/2 365/2/2
f 365/2/2 364/2/2 366/2/2
f 367/2/2 368/2/2 369/2/2
f 369/2/2 368/2/2 370/2/2
f 371/2/2 372/2/2 373/2/2
f 373/2/2 372/2/2 374/2/2
f 375/2/2 376/2/2 377/2/2
f 377/2/2 376/2/2 378/2/2
f 379/2/2 380/2/2 381/2/2
f 381/2/2 380/2/2 382/2/2
f 383/2/2 384/2/2 385/2/2
f 385/2/2 384/2/2 386/2/2
f 387/2/2 388/2/2 389/2/2
f 389/2/2 388/2/2 390/2/2
f 391/2/2 392/2/2 393/2/2
f 393/2/2 392/2/2 394/2/2
f 395/2/2 396/2/2 397/2/2
f 397/2/2 396/2/2 398/2/2
f 399/2/2 400/2/2 401/2/2
f 401/2/2 400/2/2 402/2/2
f 405/2/3 404/2/3 403/2/3
f 406/2/3 404/2/3 405/2/3
f 409/1/3 408/1/3 407/1/3
f 410/1/3 408/1/3 409/1/3
f 413/2/3 412/2/3 411/2/3
f 414/2/3 412/2/3 413/2/3
f 416/2/3 412/2/3 414/2/3
f 417/2/3 416/2/3 415/2/3
f 418/2/3 412/2/3 416/2/3
f 418/2/3 416/2/3 417/2/3
f 421/2/3 420/2/3 419/2/3
f 422/2/3 420/2/3 421/2/3
f 425/2/3 424/2/3 423/2/3
f 426/2/3 424/2/3 425/2/3
f 427/1/3 426/1/3 425/1/3
f 428/1/3 426/1/3 427/1/3
f 429/2/3 428/2/3 427/2/3
f 430/2/3 428/2/3 429/2/3
f 433/2/3 432/2/3 431/2/3
f 434/2/3 432/2/3 433/2/3
f 435/1/3 434/1/3 433/1/3
f 436/1/3 434/1/3 435/1/3
f 437/2/3 436/2/3 435/2/3
f 438/2/3 436/2/3 437/2/3
f 441/3/3 440/3/3 439/3/3
f 442/3/3 440/3/3 441/3/3
f 444/3/3 440/3/3 442/3/3
f 445/3/3 444/3/3 443/3/3
f 446/3/3 440/3/3 444/3/3
f 446/3/3 444/3/3 445/3/3
f 449/3/3 448/3/3 447/3/3
f 450/3/3 448/3/3 449/3/3
f 452/3/3 448/3/3 450/3/3
f 453/3/3 452/3/3 451/3/3
f 454/3/3 448/3/3 452/3/3
f 454/3/3 452/3/3 453/3/3
f 458/2/3 456/2/3 455/2/3
f 460/2/3 458/2/3 457/2/3
f 461/2/3 456/2/3 458/2/3
f 461/2/3 458/2/3 460/2/3
f 462/2/3 456/2/3 461/2/3
f 464/2/3 460/2/3 459/2/3
f 464/2/3 461/2/3 460/2/3
f 465/2/3 461/2/3 464/2/3
f 466/2/3 461/2/3 465/2/3
f 468/2/3 464/2/3 463/2/3
f 468/2/3 465/2/3 464/2/3
f 469/2/3 465/2/3 468/2/3
f 470/2/3 465/2/3 469/2/3
f 472/2/3 468/2/3 467/2/3
f 472/2/3 469/2/3 468/2/3
f 473/2/3 469/2/3 472/2/3
f 474/2/3 469/2/3 473/2/3
f 476/2/3 472/2/3 471/2/3
f 476/2/3 473/2/3 472/2/3
f 477/2/3 473/2/3 476/2/3
f 478/2/3 473/2/3 477/2/3
f 480/2/3 476/2/3 475/2/3
f 480/2/3 477/2/3 476/2/3
f 481/2/3 477/2/3 480/2/3
f 482/2/3 477/2/3 481/2/3
f 484/2/3 480/2/3 479/2/3
f 484/2/3 481/2/3 480/2/3
f 485/2/3 481/2/3 484/2/3
f 486/2/3 481/2/3 485/2/3
f 488/2/3 484/2/3 483/2/3
f 488/2/3 485/2/3 484/2/3
f 489/2/3 485/2/3 488/2/3
f 490/2/3 485/2/3 489/2/3
f 491/2/3 488/2/3 487/2/3
f 491/2/3 489/2/3 488/2/3
f 492/2/3 489/2/3 491/2/3
f 493/2/3 491/2/3 487/2/3
f 494/2/3 491/2/3 493/2/3
f 497/2/3 496/2/3 495/2/3
f 498/2/3 496/2/3 497/2/3
f 501/3/3 500/3/3 499/3/3
f 502/3/3 500/3/3 501/3/3
f 505/3/3 504/3/3 503/3/3
f 506/3/3 504/3/3 505/3/3
f 509/2/3 508/2/3 507/2/3
f 510/2/3 508/2/3 509/2/3
f 513/2/3 512/2/3 511/2/3
f 514/2/3 512/2/3 513/2/3
f 517/3/3 516/3/3 515/3/3
f 518/3/3 516/3/3 517/3/3
f 519/2/3 518/2/3 517/2/3
f 520/2/3 518/2/3 519/2/3
f 523/2/3 522/2/3 521/2/3
f 524/2/3 522/2/3 523/2/3
f 527/2/3 526/2/3 525/2/3
f 528/2/3 526/2/3 527/2/3
f 529/1/3 528/1/3 527/1/3
f 530/1/3 528/1/3 529/1/3
f 531/2/3 530/2/3 529/2/3
f 532/2/3 530/2/3 531/2/3
f 535/2/3 534/2/3 533/2/3
f 536/2/3 534/2/3 535/2/3
f 537/1/3 536/1/3 535/1/3
f 538/1/3 536/1/3 537/1/3
f 539/2/3 538/2/3 537/2/3
f 540/2/3 538/2/3 539/2/3
f 543/2/3 542/2/3 541/2/3
f 544/2/3 542/2/3 543/2/3
f 547/1/3 546/1/3 545/1/3
f 548/1/3 546/1/3 547/1/3
f 551/1/3 550/1/3 549/1/3
f 552/1/3 550/1/3 551/1/3
f 555/1/3 554/1/3 553/1/3
f 556/1/3 554/1/3 555/1/3
f 559/1/3 558/1/3 557/1/3
f 560/1/3 558/1/3 559/1/3
f 563/1/3 562/1/3 561/1/3
f 564/1/3 562/1/3 563/1/3
f 567/1/3 566/1/3 565/1/3
f 568/1/3 566/1/3 567/1/3
f 571/1/3 570/1/3 569/1/3
f 572/1/3 570/1/3 571/1/3
f 575/1/3 574/1/3 573/1/3
f 576/1/3 574/1/3 575/1/3
f 579/1/3 578/1/3 577/1/3
f 580/1/3 578/1/3 579/1/3
f 583/1/3 582/1/3 581/1/3
f 584/1/3 582/1/3 583/1/3
f 587/1/3 586/1/3 585/1/3
f 588/1/3 586/1/3 587/1/3
f 591/1/3 590/1/3 589/1/3
f 592/1/3 590/1/3 591/1/3
f 595/1/3 594/1/3 593/1/3
f 596/1/3 594/1/3 595/1/3
f 599/1/3 598/1/3 597/1/3
f 600/1/3 598/1/3 599/1/3
f 603/1/3 602/1/3 601/1/3
f 604/1/3 602/1/3 603/1/3
f 607/1/3 606/1/3 605/1/3
f 608/1/3 606/1/3 607/1/3
f 609/3/4 610/3/4 611/3/4
f 611/3/4 610/3/4 612/3/4
f 611/2/4 612/2/4 613/2/4
f 613/2/4 612/2/4 614/2/4
f 615/2/4 616/2/4 617/2/4
f 617/2/4 616/2/4 618/2/4
f 619/3/4 620/3/4 621/3/4
f 621/3/4 620/3/4 622/3/4
f 623/3/4 624/3/4 625/3/4
f 625/3/4 624/3/4 626/3/4
f 627/3/4 628/3/4 629/3/4
f 629/3/4 628/3/4 630/3/4
f 630/3/4 628/3/4 632/3/4
f 631/3/4 632/3/4 633/3/4
f 632/3/4 628/3/4 634/3/4
f 633/3/4 632/3/4 634/3/4
f 635/3/4 636/3/4 637/3/4
f 637/3/4 636/3/4 638/3/4
f 638/3/4 636/3/4 640/3/4
f 639/3/4 640/3/4 641/3/4
f 640/3/4 636/3/4 642/3/4
f 641/3/4 640/3/4 642/3/4
f 643/2/4 644/2/4 645/2/4
f 645/2/4 644/2/4 646/2/4
f 647/2/4 648/2/4 649/2/4
f 649/2/4 648/2/4 650/2/4
f 651/2/4 652/2/4 653/2/4
f 653/2/4 652/2/4 654/2/4
f 655/2/4 656/2/4 658/2/4
f 657/2/4 658/2/4 660/2/4
f 658/2/4 656/2/4 661/2/4
f 660/2/4 658/2/4 661/2/4
f 661/2/4 656/2/4 662/2/4
f 659/2/4 660/2/4 664/2/4
f 660/2/4 661/2/4 664/2/4
f 664/2/4 661/2/4 665/2/4
f 665/2/4 661/2/4 666/2/4
f 663/2/4 664/2/4 668/2/4
f 664/2/4 665/2/4 668/2/4
f 668/2/4 665/2/4 669/2/4
f 669/2/4 665/2/4 670/2/4
f 667/2/4 668/2/4 672/2/4
f 668/2/4 669/2/4 672/2/4
f 672/2/4 669/2/4 673/2/4
f 673/2/4 669/2/4 674/2/4
f 671/2/4 672/2/4 676/2/4
f 672/2/4 673/2/4 676/2/4
f 676/2/4 673/2/4 677/2/4
f 677/2/4 673/2/4 678/2/4
f 675/2/4 676/2/4 680/2/4
f 676/2/4 677/2/4 680/2/4
f 680/2/4 677/2/4 681/2/4
f 681/2/4 677/2/4 682/2/4
f 679/2/4 680/2/4 684/2/4
f 680/2/4 681/2/4 684/2/4
f 684/2/4 681/2/4 685/2/4
f 685/2/4 681/2/4 686/2/4
f 683/2/4 684/2/4 688/2/4
f 684/2/4 685/2/4 688/2/4
f 688/2/4 685/2/4 689/2/4
f 689/2/4 685/2/4 690/2/4
f 687/2/4 688/2/4 691/2/4
f 688/2/4 689/2/4 691/2/4
f 691/2/4 689/2/4 692/2/4
f 687/2/4 691/2/4 693/2/4
f 693/2/4 691/2/4 694/2/4
f 695/2/4 696/2/4 697/2/4
f 697/2/4 696/2/4 698/2/4
f 699/2/4 700/2/4 701/2/4
f 701/2/4 700/2/4 702/2/4
f 703/2/4 704/2/4 705/2/4
f 705/2/4 704/2/4 706/2/4
f 707/2/4 708/2/4 709/2/4
f 707/2/4 709/2/4 711/2/4
f 709/2/4 710/2/4 711/2/4
f 711/2/4 710/2/4 712/2/4
f 711/1/4 712/1/4 715/1/4
f 712/1/4 713/1/4 715/1/4
f 715/1/4 713/1/4 716/1/4
f 713/2/4 714/2/4 717/2/4
f 716/1/4 713/1/4 717/1/4
f 717/2/4 714/2/4 718/2/4
f 715/2/4 716/2/4 719/2/4
f 719/2/4 716/2/4 720/2/4
f 715/2/4 719/2/4 721/2/4
f 721/2/4 719/2/4 722/2/4
f 723/2/4 724/2/4 725/2/4
f 723/2/4 725/2/4 727/2/4
f 725/2/4 726/2/4 727/2/4
f 727/2/4 726/2/4 728/2/4
f 727/1/4 728/1/4 731/1/4
f 728/1/4 729/1/4 731/1/4
f 731/1/4 729/1/4 732/1/4
f 729/2/4 730/2/4 733/2/4
f 732/1/4 729/1/4 733/1/4
f 733/2/4 730/2/4 734/2/4
f 731/2/4 732/2/4 735/2/4
f 735/2/4 732/2/4 736/2/4
f 731/2/4 735/2/4 737/2/4
f 737/2/4 735/2/4 738/2/4
f 744/2/5 740/2/5 739/2/5
f 745/2/5 740/2/5 744/2/5
f 751/2/5 750/2/5 749/2/5
f 752/2/5 750/2/5 751/2/5
f 753/2/5 744/2/5 743/2/5
f 753/2/5 745/2/5 744/2/5
f 753/2/5 746/2/5 745/2/5
f 754/2/5 746/2/5 753/2/5
f 755/2/5 742/2/5 741/2/5
f 756/1/5 743/1/5 742/1/5
f 756/2/5 742/2/5 755/2/5
f 757/2/5 753/2/5 743/2/5
f 757/1/5 743/1/5 756/1/5
f 758/2/5 753/2/5 757/2/5
f 759/2/5 746/2/5 754/2/5
f 760/1/5 747/1/5 746/1/5
f 760/2/5 746/2/5 759/2/5
f 761/2/5 748/2/5 747/2/5
f 761/1/5 747/1/5 760/1/5
f 762/2/5 748/2/5 761/2/5
f 765/2/5 764/2/5 763/2/5
f 766/2/5 764/2/5 765/2/5
f 769/2/5 768/2/5 767/2/5
f 770/2/5 768/2/5 769/2/5
f 773/2/5 772/2/5 771/2/5
f 774/2/5 772/2/5 773/2/5
f 777/2/5 776/2/5 775/2/5
f 778/2/5 776/2/5 777/2/5
f 781/2/5 780/2/5 779/2/5
f 782/2/5 780/2/5 781/2/5
f 785/2/5 784/2/5 783/2/5
f 786/2/5 784/2/5 785/2/5
f 789/2/5 788/2/5 787/2/5
f 790/2/5 788/2/5 789/2/5
f 793/2/5 792/2/5 791/2/5
f 794/2/5 792/2/5 793/2/5
f 798/2/5 796/2/5 795/2/5
f 799/2/5 798/2/5 797/2/5
f 800/2/5 796/2/5 798/2/5
f 800/2/5 798/2/5 799/2/5
f 802/2/5 796/2/5 800/2/5
f 803/2/5 802/2/5 801/2/5
f 804/2/5 796/2/5 802/2/5
f 804/2/5 802/2/5 803/2/5
f 806/2/5 796/2/5 804/2/5
f 807/2/5 806/2/5 805/2/5
f 808/2/5 796/2/5 806/2/5
f 808/2/5 806/2/5 807/2/5
f 809/2/5 796/2/5 808/2/5
f 810/2/5 796/2/5 809/2/5
f 813/2/5 812/2/5 811/2/5
f 814/2/5 812/2/5 813/2/5
f 819/2/5 816/2/5 815/2/5
f 820/2/5 816/2/5 819/2/5
f 821/2/5 818/2/5 817/2/5
f 822/2/5 818/2/5 821/2/5
f 826/3/5 824/3/5 823/3/5
f 827/2/5 825/2/5 824/2/5
f 827/3/5 824/3/5 826/3/5
f 828/2/5 825/2/5 827/2/5
f 833/3/5 830/3/5 829/3/5
f 834/3/5 830/3/5 833/3/5
f 835/3/5 832/3/5 831/3/5
f 836/3/5 832/3/5 835/3/5
f 841/3/5 838/3/5 837/3/5
f 842/3/5 838/3/5 841/3/5
f 843/3/5 840/3/5 839/3/5
f 844/3/5 840/3/5 843/3/5
f 845/2/6 846/2/6 847/2/6
f 847/2/6 846/2/6 848/2/6
f 849/2/6 850/2/6 851/2/6
f 851/2/6 850/2/6 852/2/6
f 853/2/6 854/2/6 855/2/6
f 855/2/6 854/2/6 856/2/6
f 857/2/6 858/2/6 859/2/6
f 859/2/6 858/2/6 860/2/6
f 861/2/6 862/2/6 863/2/6
f 863/2/6 862/2/6 864/2/6
f 865/2/6 866/2/6 867/2/6
f 867/2/6 866/2/6 868/2/6
f 869/2/6 870/2/6 871/2/6
f 871/2/6 870/2/6 872/2/6
f 873/2/6 874/2/6 875/2/6
f 875/2/6 874/2/6 876/2/6
f 877/2/6 878/2/6 879/2/6
f 879/2/6 878/2/6 880/2/6
f 882/2/6 883/2/6 886/2/6
f 884/2/6 885/2/6 887/2/6
f 882/2/6 886/2/6 888/2/6
f 886/2/6 887/2/6 888/2/6
f 887/2/6 885/2/6 889/2/6
f 888/2/6 887/2/6 889/2/6
f 882/2/6 888/2/6 890/2/6
f 889/2/6 885/2/6 891/2/6
f 882/2/6 890/2/6 892/2/6
f 890/2/6 891/2/6 892/2/6
f 891/2/6 885/2/6 893/2/6
f 892/2/6 891/2/6 893/2/6
f 882/2/6 892/2/6 894/2/6
f 893/2/6 885/2/6 895/2/6
f 882/2/6 894/2/6 896/2/6
f 894/2/6 895/2/6 896/2/6
f 895/2/6 885/2/6 897/2/6
f 896/2/6 895/2/6 897/2/6
f 881/3/6 882/3/6 898/3/6
f 882/2/6 896/2/6 899/2/6
f 898/3/6 882/3/6 899/3/6
f 899/2/6 896/2/6 900/2/6
f 897/2/6 885/2/6 901/2/6
f 901/2/6 885/2/6 902/2/6
f 903/2/6 904/2/6 907/2/6
f 907/2/6 904/2/6 908/2/6
f 905/2/6 906/2/6 909/2/6
f 909/2/6 906/2/6 910/2/6
f 911/2/6 912/2/6 913/2/6
f 913/2/6 912/2/6 914/2/6
f 911/2/6 913/2/6 915/2/6
f 915/2/6 913/2/6 916/2/6
f 914/2/6 912/2/6 917/2/6
f 917/2/6 912/2/6 918/2/6
f 919/2/6 920/2/6 921/2/6
f 921/2/6 920/2/6 922/2/6
f 923/1/6 924/1/6 925/1/6
f 925/1/6 924/1/6 926/1/6
f 927/2/6 928/2/6 929/2/6
f 929/2/6 928/2/6 930/2/6
f 929/1/6 930/1/6 931/1/6
f 931/1/6 930/1/6 932/1/6
f 931/2/6 932/2/6 933/2/6
f 933/2/6 932/2/6 934/2/6
f 933/1/6 934/1/6 935/1/6
f 935/1/6 934/1/6 936/1/6
f 935/2/6 936/2/6 937/2/6
f 937/2/6 936/2/6 938/2/6
f 937/1/6 938/1/6 939/1/6
f 939/1/6 938/1/6 940/1/6
f 939/2/6 940/2/6 944/2/6
f 944/2/6 940/2/6 945/2/6
f 944/2/6 945/2/6 949/2/6
f 943/2/6 944/2/6 949/2/6
f 945/2/6 946/2/6 949/2/6
f 949/2/6 946/2/6 950/2/6
f 950/2/6 946/2/6 951/2/6
f 951/2/6 946/2/6 952/2/6
f 952/2/6 946/2/6 953/2/6
f 953/2/6 946/2/6 954/2/6
f 954/2/6 946/2/6 955/2/6
f 955/2/6 946/2/6 956/2/6
f 950/2/6 951/2/6 957/2/6
f 957/2/6 951/2/6 958/2/6
f 954/2/6 955/2/6 959/2/6
f 959/2/6 955/2/6 960/2/6
f 943/2/6 949/2/6 965/2/6
f 961/2/6 962/2/6 966/2/6
f 966/2/6 962/2/6 967/2/6
f 952/2/6 953/2/6 968/2/6
f 968/2/6 953/2/6 969/2/6
f 963/2/6 964/2/6 970/2/6
f 970/2/6 964/2/6 971/2/6
f 956/2/6 946/2/6 972/2/6
f 968/2/6 969/2/6 973/2/6
f 971/2/6 972/2/6 973/2/6
f 970/2/6 971/2/6 973/2/6
f 969/2/6 970/2/6 973/2/6
f 966/2/6 967/2/6 973/2/6
f 967/2/6 968/2/6 973/2/6
f 943/2/6 965/2/6 973/2/6
f 965/2/6 966/2/6 973/2/6
f 972/2/6 946/2/6 974/2/6
f 973/2/6 972/2/6 974/2/6
f 941/2/6 942/2/6 975/2/6
f 942/1/6 943/1/6 976/1/6
f 975/2/6 942/2/6 976/2/6
f 943/2/6 973/2/6 977/2/6
f 976/1/6 943/1/6 977/1/6
f 977/2/6 973/2/6 978/2/6
f 974/2/6 946/2/6 979/2/6
f 946/1/6 947/1/6 980/1/6
f 979/2/6 946/2/6 980/2/6
f 947/2/6 948/2/6 981/2/6
f 980/1/6 947/1/6 981/1/6
f 981/2/6 948/2/6 982/2/6
f 941/2/6 975/2/6 983/2/6
f 983/2/6 975/2/6 984/2/6
f 978/2/6 973/2/6 985/2/6
f 985/2/6 973/2/6 986/2/6
f 974/2/6 979/2/6 987/2/6
f 987/2/6 979/2/6 988/2/6
f 982/2/6 948/2/6 989/2/6
f 989/2/6 948/2/6 990/2/6
f 991/2/6 992/2/6 999/2/6
f 992/1/6 993/1/6 999/1/6
f 993/2/6 994/2/6 1000/2/6
f 999/1/6 993/1/6 1000/1/6
f 996/1/6 997/1/6 1001/1/6
f 995/2/6 996/2/6 1001/2/6
f 997/2/6 998/2/6 1002/2/6
f 1001/1/6 997/1/6 1002/1/6
f 991/2/6 999/2/6 1003/2/6
f 1000/2/6 994/2/6 1004/2/6
f 995/2/6 1001/2/6 1005/2/6
f 1002/2/6 998/2/6 1006/2/6
f 991/2/6 1003/2/6 1007/2/6
f 1004/2/6 994/2/6 1008/2/6
f 995/2/6 1005/2/6 1009/2/6
f 1006/2/6 998/2/6 1010/2/6
f 991/2/6 1007/2/6 1011/2/6
f 1011/2/6 1007/2/6 1012/2/6
f 1008/2/6 994/2/6 1013/2/6
f 1013/2/6 994/2/6 1014/2/6
f 995/2/6 1009/2/6 1015/2/6
f 1015/2/6 1009/2/6 1016/2/6
f 1010/2/6 998/2/6 1017/2/6
f 1017/2/6 998/2/6 1018/2/6
f 1019/3/6 1020/3/6 1023/3/6
f 1023/3/6 1020/3/6 1024/3/6
f 1021/3/6 1022/3/6 1025/3/6
f 1025/3/6 1022/3/6 1026/3/6
f 1027/1/6 1028/1/6 1031/1/6
f 1031/1/6 1028/1/6 1032/1/6
f 1029/1/6 1030/1/6 1033/1/6
f 1033/1/6 1030/1/6 1034/1/6
f 1035/1/6 1036/1/6 1039/1/6
f 1039/1/6 1036/1/6 1040/1/6
f 1037/1/6 1038/1/6 1041/1/6
f 1041/1/6 1038/1/6 1042/1/6
f 1043/1/6 1044/1/6 1047/1/6
f 1047/1/6 1044/1/6 1048/1/6
f 1045/1/6 1046/1/6 1049/1/6
f 1049/1/6 1046/1/6 1050/1/6
f 1051/1/6 1052/1/6 1055/1/6
f 1055/1/6 1052/1/6 1056/1/6
f 1053/1/6 1054/1/6 1057/1/6
f 1057/1/6 1054/1/6 1058/1/6
f 1059/1/6 1060/1/6 1063/1/6
f 1063/1/6 1060/1/6 1064/1/6
f 1061/1/6 1062/1/6 1065/1/6
f 1065/1/6 1062/1/6 1066/1/6
f 1067/1/6 1068/1/6 1071/1/6
f 1071/1/6 1068/1/6 1072/1/6
f 1069/1/6 1070/1/6 1073/1/6
f 1073/1/6 1070/1/6 1074/1/6
f 1075/1/6 1076/1/6 1079/1/6
f 1079/1/6 1076/1/6 1080/1/6
f 1077/1/6 1078/1/6 1081/1/6
f 1081/1/6 1078/1/6 1082/1/6
f 1083/1/6 1084/1/6 1087/1/6
f 1087/1/6 1084/1/6 1088/1/6
f 1085/1/6 1086/1/6 1089/1/6
f 1089/1/6 1086/1/6 1090/1/6
f 1087/2/6 1088/2/6 1091/2/6
f 1091/2/6 1088/2/6 1092/2/6
f 1089/2/6 1090/2/6 1093/2/6
f 1093/2/6 1090/2/6 1094/2/6
