# MagicaVoxel @ Ephtracy

# material
mtllib spacetruck-container.mtl
usemtl palette

# normals
vn -1 0 0
vn 1 0 0
vn 0 0 1
vn 0 0 -1
vn 0 -1 0
vn 0 1 0

# texcoords
vt 0.939453 0.5
vt 0.947266 0.5

# verts
v -20 0 20
v -20 0 -20
v -20 2 18
v -20 2 1
v -20 2 -1
v -20 2 -18
v -20 19 18
v -20 19 1
v -20 19 -1
v -20 19 -18
v -20 21 18
v -20 21 1
v -20 21 -1
v -20 21 -18
v -20 38 18
v -20 38 1
v -20 38 -1
v -20 38 -18
v -20 40 20
v -20 40 -20
v -19 2 18
v -19 2 1
v -19 2 -1
v -19 2 -18
v -19 19 18
v -19 19 1
v -19 19 -1
v -19 19 -18
v -19 21 18
v -19 21 1
v -19 21 -1
v -19 21 -18
v -19 38 18
v -19 38 1
v -19 38 -1
v -19 38 -18
v -1 0 18
v -1 0 1
v -1 0 -1
v -1 0 -18
v -1 1 18
v -1 1 1
v -1 1 -1
v -1 1 -18
v -1 2 20
v -1 2 19
v -1 2 -19
v -1 2 -20
v -1 19 20
v -1 19 19
v -1 19 -19
v -1 19 -20
v -1 21 20
v -1 21 19
v -1 21 -19
v -1 21 -20
v -1 38 20
v -1 38 19
v -1 38 -19
v -1 38 -20
v -1 39 18
v -1 39 1
v -1 39 -1
v -1 39 -18
v -1 40 18
v -1 40 1
v -1 40 -1
v -1 40 -18
v 18 0 18
v 18 0 1
v 18 0 -1
v 18 0 -18
v 18 1 18
v 18 1 1
v 18 1 -1
v 18 1 -18
v 18 2 20
v 18 2 19
v 18 2 -19
v 18 2 -20
v 18 19 20
v 18 19 19
v 18 19 -19
v 18 19 -20
v 18 21 20
v 18 21 19
v 18 21 -19
v 18 21 -20
v 18 38 20
v 18 38 19
v 18 38 -19
v 18 38 -20
v 18 39 18
v 18 39 1
v 18 39 -1
v 18 39 -18
v 18 40 18
v 18 40 1
v 18 40 -1
v 18 40 -18
v -18 0 18
v -18 0 1
v -18 0 -1
v -18 0 -18
v -18 1 18
v -18 1 1
v -18 1 -1
v -18 1 -18
v -18 2 20
v -18 2 19
v -18 2 -19
v -18 2 -20
v -18 19 20
v -18 19 19
v -18 19 -19
v -18 19 -20
v -18 21 20
v -18 21 19
v -18 21 -19
v -18 21 -20
v -18 38 20
v -18 38 19
v -18 38 -19
v -18 38 -20
v -18 39 18
v -18 39 1
v -18 39 -1
v -18 39 -18
v -18 40 18
v -18 40 1
v -18 40 -1
v -18 40 -18
v 1 0 18
v 1 0 1
v 1 0 -1
v 1 0 -18
v 1 1 18
v 1 1 1
v 1 1 -1
v 1 1 -18
v 1 2 20
v 1 2 19
v 1 2 -19
v 1 2 -20
v 1 19 20
v 1 19 19
v 1 19 -19
v 1 19 -20
v 1 21 20
v 1 21 19
v 1 21 -19
v 1 21 -20
v 1 38 20
v 1 38 19
v 1 38 -19
v 1 38 -20
v 1 39 18
v 1 39 1
v 1 39 -1
v 1 39 -18
v 1 40 18
v 1 40 1
v 1 40 -1
v 1 40 -18
v 19 2 18
v 19 2 1
v 19 2 -1
v 19 2 -18
v 19 19 18
v 19 19 1
v 19 19 -1
v 19 19 -18
v 19 21 18
v 19 21 1
v 19 21 -1
v 19 21 -18
v 19 38 18
v 19 38 1
v 19 38 -1
v 19 38 -18
v 20 0 20
v 20 0 -20
v 20 2 18
v 20 2 1
v 20 2 -1
v 20 2 -18
v 20 19 18
v 20 19 1
v 20 19 -1
v 20 19 -18
v 20 21 18
v 20 21 1
v 20 21 -1
v 20 21 -18
v 20 38 18
v 20 38 1
v 20 38 -1
v 20 38 -18
v 20 40 20
v 20 40 -20
v -20 0 20
v -20 40 20
v -18 2 20
v -18 19 20
v -18 21 20
v -18 38 20
v -1 2 20
v -1 19 20
v -1 21 20
v -1 38 20
v 1 2 20
v 1 19 20
v 1 21 20
v 1 38 20
v 18 2 20
v 18 19 20
v 18 21 20
v 18 38 20
v 20 0 20
v 20 40 20
v -18 2 19
v -18 19 19
v -18 21 19
v -18 38 19
v -1 2 19
v -1 19 19
v -1 21 19
v -1 38 19
v 1 2 19
v 1 19 19
v 1 21 19
v 1 38 19
v 18 2 19
v 18 19 19
v 18 21 19
v 18 38 19
v -20 2 1
v -20 19 1
v -20 21 1
v -20 38 1
v -19 2 1
v -19 19 1
v -19 21 1
v -19 38 1
v -18 0 1
v -18 1 1
v -18 39 1
v -18 40 1
v -1 0 1
v -1 1 1
v -1 39 1
v -1 40 1
v 1 0 1
v 1 1 1
v 1 39 1
v 1 40 1
v 18 0 1
v 18 1 1
v 18 39 1
v 18 40 1
v 19 2 1
v 19 19 1
v 19 21 1
v 19 38 1
v 20 2 1
v 20 19 1
v 20 21 1
v 20 38 1
v -20 2 -18
v -20 19 -18
v -20 21 -18
v -20 38 -18
v -19 2 -18
v -19 19 -18
v -19 21 -18
v -19 38 -18
v -18 0 -18
v -18 1 -18
v -18 39 -18
v -18 40 -18
v -1 0 -18
v -1 1 -18
v -1 39 -18
v -1 40 -18
v 1 0 -18
v 1 1 -18
v 1 39 -18
v 1 40 -18
v 18 0 -18
v 18 1 -18
v 18 39 -18
v 18 40 -18
v 19 2 -18
v 19 19 -18
v 19 21 -18
v 19 38 -18
v 20 2 -18
v 20 19 -18
v 20 21 -18
v 20 38 -18
v -20 2 18
v -20 19 18
v -20 21 18
v -20 38 18
v -19 2 18
v -19 19 18
v -19 21 18
v -19 38 18
v -18 0 18
v -18 1 18
v -18 39 18
v -18 40 18
v -1 0 18
v -1 1 18
v -1 39 18
v -1 40 18
v 1 0 18
v 1 1 18
v 1 39 18
v 1 40 18
v 18 0 18
v 18 1 18
v 18 39 18
v 18 40 18
v 19 2 18
v 19 19 18
v 19 21 18
v 19 38 18
v 20 2 18
v 20 19 18
v 20 21 18
v 20 38 18
v -20 2 -1
v -20 19 -1
v -20 21 -1
v -20 38 -1
v -19 2 -1
v -19 19 -1
v -19 21 -1
v -19 38 -1
v -18 0 -1
v -18 1 -1
v -18 39 -1
v -18 40 -1
v -1 0 -1
v -1 1 -1
v -1 39 -1
v -1 40 -1
v 1 0 -1
v 1 1 -1
v 1 39 -1
v 1 40 -1
v 18 0 -1
v 18 1 -1
v 18 39 -1
v 18 40 -1
v 19 2 -1
v 19 19 -1
v 19 21 -1
v 19 38 -1
v 20 2 -1
v 20 19 -1
v 20 21 -1
v 20 38 -1
v -18 2 -19
v -18 19 -19
v -18 21 -19
v -18 38 -19
v -1 2 -19
v -1 19 -19
v -1 21 -19
v -1 38 -19
v 1 2 -19
v 1 19 -19
v 1 21 -19
v 1 38 -19
v 18 2 -19
v 18 19 -19
v 18 21 -19
v 18 38 -19
v -20 0 -20
v -20 40 -20
v -18 2 -20
v -18 19 -20
v -18 21 -20
v -18 38 -20
v -1 2 -20
v -1 19 -20
v -1 21 -20
v -1 38 -20
v 1 2 -20
v 1 19 -20
v 1 21 -20
v 1 38 -20
v 18 2 -20
v 18 19 -20
v 18 21 -20
v 18 38 -20
v 20 0 -20
v 20 40 -20
v -20 0 20
v 20 0 20
v -18 0 18
v -1 0 18
v 1 0 18
v 18 0 18
v -18 0 1
v -1 0 1
v 1 0 1
v 18 0 1
v -18 0 -1
v -1 0 -1
v 1 0 -1
v 18 0 -1
v -18 0 -18
v -1 0 -18
v 1 0 -18
v 18 0 -18
v -20 0 -20
v 20 0 -20
v -18 1 18
v -1 1 18
v 1 1 18
v 18 1 18
v -18 1 1
v -1 1 1
v 1 1 1
v 18 1 1
v -18 1 -1
v -1 1 -1
v 1 1 -1
v 18 1 -1
v -18 1 -18
v -1 1 -18
v 1 1 -18
v 18 1 -18
v -18 19 20
v -1 19 20
v 1 19 20
v 18 19 20
v -18 19 19
v -1 19 19
v 1 19 19
v 18 19 19
v -20 19 18
v -19 19 18
v 19 19 18
v 20 19 18
v -20 19 1
v -19 19 1
v 19 19 1
v 20 19 1
v -20 19 -1
v -19 19 -1
v 19 19 -1
v 20 19 -1
v -20 19 -18
v -19 19 -18
v 19 19 -18
v 20 19 -18
v -18 19 -19
v -1 19 -19
v 1 19 -19
v 18 19 -19
v -18 19 -20
v -1 19 -20
v 1 19 -20
v 18 19 -20
v -18 38 20
v -1 38 20
v 1 38 20
v 18 38 20
v -18 38 19
v -1 38 19
v 1 38 19
v 18 38 19
v -20 38 18
v -19 38 18
v 19 38 18
v 20 38 18
v -20 38 1
v -19 38 1
v 19 38 1
v 20 38 1
v -20 38 -1
v -19 38 -1
v 19 38 -1
v 20 38 -1
v -20 38 -18
v -19 38 -18
v 19 38 -18
v 20 38 -18
v -18 38 -19
v -1 38 -19
v 1 38 -19
v 18 38 -19
v -18 38 -20
v -1 38 -20
v 1 38 -20
v 18 38 -20
v -18 2 20
v -1 2 20
v 1 2 20
v 18 2 20
v -18 2 19
v -1 2 19
v 1 2 19
v 18 2 19
v -20 2 18
v -19 2 18
v 19 2 18
v 20 2 18
v -20 2 1
v -19 2 1
v 19 2 1
v 20 2 1
v -20 2 -1
v -19 2 -1
v 19 2 -1
v 20 2 -1
v -20 2 -18
v -19 2 -18
v 19 2 -18
v 20 2 -18
v -18 2 -19
v -1 2 -19
v 1 2 -19
v 18 2 -19
v -18 2 -20
v -1 2 -20
v 1 2 -20
v 18 2 -20
v -18 21 20
v -1 21 20
v 1 21 20
v 18 21 20
v -18 21 19
v -1 21 19
v 1 21 19
v 18 21 19
v -20 21 18
v -19 21 18
v 19 21 18
v 20 21 18
v -20 21 1
v -19 21 1
v 19 21 1
v 20 21 1
v -20 21 -1
v -19 21 -1
v 19 21 -1
v 20 21 -1
v -20 21 -18
v -19 21 -18
v 19 21 -18
v 20 21 -18
v -18 21 -19
v -1 21 -19
v 1 21 -19
v 18 21 -19
v -18 21 -20
v -1 21 -20
v 1 21 -20
v 18 21 -20
v -18 39 18
v -1 39 18
v 1 39 18
v 18 39 18
v -18 39 1
v -1 39 1
v 1 39 1
v 18 39 1
v -18 39 -1
v -1 39 -1
v 1 39 -1
v 18 39 -1
v -18 39 -18
v -1 39 -18
v 1 39 -18
v 18 39 -18
v -20 40 20
v 20 40 20
v -18 40 18
v -1 40 18
v 1 40 18
v 18 40 18
v -18 40 1
v -1 40 1
v 1 40 1
v 18 40 1
v -18 40 -1
v -1 40 -1
v 1 40 -1
v 18 40 -1
v -18 40 -18
v -1 40 -18
v 1 40 -18
v 18 40 -18
v -20 40 -20
v 20 40 -20

# faces
f 3/2/1 2/2/1 1/2/1
f 4/2/1 2/2/1 3/2/1
f 5/2/1 2/2/1 4/2/1
f 6/2/1 2/2/1 5/2/1
f 7/2/1 3/2/1 1/2/1
f 8/2/1 5/2/1 4/2/1
f 9/2/1 5/2/1 8/2/1
f 10/2/1 2/2/1 6/2/1
f 11/2/1 9/2/1 8/2/1
f 11/2/1 10/2/1 9/2/1
f 11/2/1 7/2/1 1/2/1
f 11/2/1 8/2/1 7/2/1
f 12/2/1 10/2/1 11/2/1
f 13/2/1 10/2/1 12/2/1
f 14/2/1 2/2/1 10/2/1
f 14/2/1 10/2/1 13/2/1
f 15/2/1 11/2/1 1/2/1
f 16/2/1 13/2/1 12/2/1
f 17/2/1 13/2/1 16/2/1
f 18/2/1 2/2/1 14/2/1
f 19/2/1 15/2/1 1/2/1
f 19/2/1 18/2/1 17/2/1
f 19/2/1 17/2/1 16/2/1
f 19/2/1 16/2/1 15/2/1
f 20/2/1 2/2/1 18/2/1
f 20/2/1 18/2/1 19/2/1
f 25/1/1 22/1/1 21/1/1
f 26/1/1 22/1/1 25/1/1
f 27/1/1 24/1/1 23/1/1
f 28/1/1 24/1/1 27/1/1
f 33/1/1 30/1/1 29/1/1
f 34/1/1 30/1/1 33/1/1
f 35/1/1 32/1/1 31/1/1
f 36/1/1 32/1/1 35/1/1
f 41/2/1 38/2/1 37/2/1
f 42/2/1 38/2/1 41/2/1
f 43/2/1 40/2/1 39/2/1
f 44/2/1 40/2/1 43/2/1
f 49/2/1 46/2/1 45/2/1
f 50/2/1 46/2/1 49/2/1
f 51/2/1 48/2/1 47/2/1
f 52/2/1 48/2/1 51/2/1
f 57/2/1 54/2/1 53/2/1
f 58/2/1 54/2/1 57/2/1
f 59/2/1 56/2/1 55/2/1
f 60/2/1 56/2/1 59/2/1
f 65/2/1 62/2/1 61/2/1
f 66/2/1 62/2/1 65/2/1
f 67/2/1 64/2/1 63/2/1
f 68/2/1 64/2/1 67/2/1
f 73/2/1 70/2/1 69/2/1
f 74/2/1 70/2/1 73/2/1
f 75/2/1 72/2/1 71/2/1
f 76/2/1 72/2/1 75/2/1
f 81/2/1 78/2/1 77/2/1
f 82/2/1 78/2/1 81/2/1
f 83/2/1 80/2/1 79/2/1
f 84/2/1 80/2/1 83/2/1
f 89/2/1 86/2/1 85/2/1
f 90/2/1 86/2/1 89/2/1
f 91/2/1 88/2/1 87/2/1
f 92/2/1 88/2/1 91/2/1
f 97/2/1 94/2/1 93/2/1
f 98/2/1 94/2/1 97/2/1
f 99/2/1 96/2/1 95/2/1
f 100/2/1 96/2/1 99/2/1
f 101/2/2 102/2/2 105/2/2
f 105/2/2 102/2/2 106/2/2
f 103/2/2 104/2/2 107/2/2
f 107/2/2 104/2/2 108/2/2
f 109/2/2 110/2/2 113/2/2
f 113/2/2 110/2/2 114/2/2
f 111/2/2 112/2/2 115/2/2
f 115/2/2 112/2/2 116/2/2
f 117/2/2 118/2/2 121/2/2
f 121/2/2 118/2/2 122/2/2
f 119/2/2 120/2/2 123/2/2
f 123/2/2 120/2/2 124/2/2
f 125/2/2 126/2/2 129/2/2
f 129/2/2 126/2/2 130/2/2
f 127/2/2 128/2/2 131/2/2
f 131/2/2 128/2/2 132/2/2
f 133/2/2 134/2/2 137/2/2
f 137/2/2 134/2/2 138/2/2
f 135/2/2 136/2/2 139/2/2
f 139/2/2 136/2/2 140/2/2
f 141/2/2 142/2/2 145/2/2
f 145/2/2 142/2/2 146/2/2
f 143/2/2 144/2/2 147/2/2
f 147/2/2 144/2/2 148/2/2
f 149/2/2 150/2/2 153/2/2
f 153/2/2 150/2/2 154/2/2
f 151/2/2 152/2/2 155/2/2
f 155/2/2 152/2/2 156/2/2
f 157/2/2 158/2/2 161/2/2
f 161/2/2 158/2/2 162/2/2
f 159/2/2 160/2/2 163/2/2
f 163/2/2 160/2/2 164/2/2
f 165/1/2 166/1/2 169/1/2
f 169/1/2 166/1/2 170/1/2
f 167/1/2 168/1/2 171/1/2
f 171/1/2 168/1/2 172/1/2
f 173/1/2 174/1/2 177/1/2
f 177/1/2 174/1/2 178/1/2
f 175/1/2 176/1/2 179/1/2
f 179/1/2 176/1/2 180/1/2
f 181/2/2 182/2/2 183/2/2
f 183/2/2 182/2/2 184/2/2
f 184/2/2 182/2/2 185/2/2
f 185/2/2 182/2/2 186/2/2
f 181/2/2 183/2/2 187/2/2
f 184/2/2 185/2/2 188/2/2
f 188/2/2 185/2/2 189/2/2
f 186/2/2 182/2/2 190/2/2
f 188/2/2 189/2/2 191/2/2
f 189/2/2 190/2/2 191/2/2
f 181/2/2 187/2/2 191/2/2
f 187/2/2 188/2/2 191/2/2
f 191/2/2 190/2/2 192/2/2
f 192/2/2 190/2/2 193/2/2
f 190/2/2 182/2/2 194/2/2
f 193/2/2 190/2/2 194/2/2
f 181/2/2 191/2/2 195/2/2
f 192/2/2 193/2/2 196/2/2
f 196/2/2 193/2/2 197/2/2
f 194/2/2 182/2/2 198/2/2
f 181/2/2 195/2/2 199/2/2
f 197/2/2 198/2/2 199/2/2
f 196/2/2 197/2/2 199/2/2
f 195/2/2 196/2/2 199/2/2
f 198/2/2 182/2/2 200/2/2
f 199/2/2 198/2/2 200/2/2
f 203/2/3 202/2/3 201/2/3
f 204/2/3 202/2/3 203/2/3
f 205/2/3 202/2/3 204/2/3
f 206/2/3 202/2/3 205/2/3
f 207/2/3 203/2/3 201/2/3
f 208/2/3 205/2/3 204/2/3
f 209/2/3 205/2/3 208/2/3
f 210/2/3 202/2/3 206/2/3
f 211/2/3 209/2/3 208/2/3
f 211/2/3 210/2/3 209/2/3
f 211/2/3 207/2/3 201/2/3
f 211/2/3 208/2/3 207/2/3
f 212/2/3 210/2/3 211/2/3
f 213/2/3 210/2/3 212/2/3
f 214/2/3 202/2/3 210/2/3
f 214/2/3 210/2/3 213/2/3
f 215/2/3 211/2/3 201/2/3
f 216/2/3 213/2/3 212/2/3
f 217/2/3 213/2/3 216/2/3
f 218/2/3 202/2/3 214/2/3
f 219/2/3 215/2/3 201/2/3
f 219/2/3 218/2/3 217/2/3
f 219/2/3 217/2/3 216/2/3
f 219/2/3 216/2/3 215/2/3
f 220/2/3 202/2/3 218/2/3
f 220/2/3 218/2/3 219/2/3
f 225/1/3 222/1/3 221/1/3
f 226/1/3 222/1/3 225/1/3
f 227/1/3 224/1/3 223/1/3
f 228/1/3 224/1/3 227/1/3
f 233/1/3 230/1/3 229/1/3
f 234/1/3 230/1/3 233/1/3
f 235/1/3 232/1/3 231/1/3
f 236/1/3 232/1/3 235/1/3
f 241/2/3 238/2/3 237/2/3
f 242/2/3 238/2/3 241/2/3
f 243/2/3 240/2/3 239/2/3
f 244/2/3 240/2/3 243/2/3
f 249/2/3 246/2/3 245/2/3
f 250/2/3 246/2/3 249/2/3
f 251/2/3 248/2/3 247/2/3
f 252/2/3 248/2/3 251/2/3
f 257/2/3 254/2/3 253/2/3
f 258/2/3 254/2/3 257/2/3
f 259/2/3 256/2/3 255/2/3
f 260/2/3 256/2/3 259/2/3
f 265/2/3 262/2/3 261/2/3
f 266/2/3 262/2/3 265/2/3
f 267/2/3 264/2/3 263/2/3
f 268/2/3 264/2/3 267/2/3
f 273/2/3 270/2/3 269/2/3
f 274/2/3 270/2/3 273/2/3
f 275/2/3 272/2/3 271/2/3
f 276/2/3 272/2/3 275/2/3
f 281/2/3 278/2/3 277/2/3
f 282/2/3 278/2/3 281/2/3
f 283/2/3 280/2/3 279/2/3
f 284/2/3 280/2/3 283/2/3
f 289/2/3 286/2/3 285/2/3
f 290/2/3 286/2/3 289/2/3
f 291/2/3 288/2/3 287/2/3
f 292/2/3 288/2/3 291/2/3
f 297/2/3 294/2/3 293/2/3
f 298/2/3 294/2/3 297/2/3
f 299/2/3 296/2/3 295/2/3
f 300/2/3 296/2/3 299/2/3
f 301/2/4 302/2/4 305/2/4
f 305/2/4 302/2/4 306/2/4
f 303/2/4 304/2/4 307/2/4
f 307/2/4 304/2/4 308/2/4
f 309/2/4 310/2/4 313/2/4
f 313/2/4 310/2/4 314/2/4
f 311/2/4 312/2/4 315/2/4
f 315/2/4 312/2/4 316/2/4
f 317/2/4 318/2/4 321/2/4
f 321/2/4 318/2/4 322/2/4
f 319/2/4 320/2/4 323/2/4
f 323/2/4 320/2/4 324/2/4
f 325/2/4 326/2/4 329/2/4
f 329/2/4 326/2/4 330/2/4
f 327/2/4 328/2/4 331/2/4
f 331/2/4 328/2/4 332/2/4
f 333/2/4 334/2/4 337/2/4
f 337/2/4 334/2/4 338/2/4
f 335/2/4 336/2/4 339/2/4
f 339/2/4 336/2/4 340/2/4
f 341/2/4 342/2/4 345/2/4
f 345/2/4 342/2/4 346/2/4
f 343/2/4 344/2/4 347/2/4
f 347/2/4 344/2/4 348/2/4
f 349/2/4 350/2/4 353/2/4
f 353/2/4 350/2/4 354/2/4
f 351/2/4 352/2/4 355/2/4
f 355/2/4 352/2/4 356/2/4
f 357/2/4 358/2/4 361/2/4
f 361/2/4 358/2/4 362/2/4
f 359/2/4 360/2/4 363/2/4
f 363/2/4 360/2/4 364/2/4
f 365/1/4 366/1/4 369/1/4
f 369/1/4 366/1/4 370/1/4
f 367/1/4 368/1/4 371/1/4
f 371/1/4 368/1/4 372/1/4
f 373/1/4 374/1/4 377/1/4
f 377/1/4 374/1/4 378/1/4
f 375/1/4 376/1/4 379/1/4
f 379/1/4 376/1/4 380/1/4
f 381/2/4 382/2/4 383/2/4
f 383/2/4 382/2/4 384/2/4
f 384/2/4 382/2/4 385/2/4
f 385/2/4 382/2/4 386/2/4
f 381/2/4 383/2/4 387/2/4
f 384/2/4 385/2/4 388/2/4
f 388/2/4 385/2/4 389/2/4
f 386/2/4 382/2/4 390/2/4
f 388/2/4 389/2/4 391/2/4
f 389/2/4 390/2/4 391/2/4
f 381/2/4 387/2/4 391/2/4
f 387/2/4 388/2/4 391/2/4
f 391/2/4 390/2/4 392/2/4
f 392/2/4 390/2/4 393/2/4
f 390/2/4 382/2/4 394/2/4
f 393/2/4 390/2/4 394/2/4
f 381/2/4 391/2/4 395/2/4
f 392/2/4 393/2/4 396/2/4
f 396/2/4 393/2/4 397/2/4
f 394/2/4 382/2/4 398/2/4
f 381/2/4 395/2/4 399/2/4
f 397/2/4 398/2/4 399/2/4
f 396/2/4 397/2/4 399/2/4
f 395/2/4 396/2/4 399/2/4
f 398/2/4 382/2/4 400/2/4
f 399/2/4 398/2/4 400/2/4
f 403/2/5 402/2/5 401/2/5
f 404/2/5 402/2/5 403/2/5
f 405/2/5 402/2/5 404/2/5
f 406/2/5 402/2/5 405/2/5
f 407/2/5 403/2/5 401/2/5
f 408/2/5 405/2/5 404/2/5
f 409/2/5 405/2/5 408/2/5
f 410/2/5 402/2/5 406/2/5
f 411/2/5 409/2/5 408/2/5
f 411/2/5 410/2/5 409/2/5
f 411/2/5 407/2/5 401/2/5
f 411/2/5 408/2/5 407/2/5
f 412/2/5 410/2/5 411/2/5
f 413/2/5 410/2/5 412/2/5
f 414/2/5 402/2/5 410/2/5
f 414/2/5 410/2/5 413/2/5
f 415/2/5 411/2/5 401/2/5
f 416/2/5 413/2/5 412/2/5
f 417/2/5 413/2/5 416/2/5
f 418/2/5 402/2/5 414/2/5
f 419/2/5 415/2/5 401/2/5
f 419/2/5 418/2/5 417/2/5
f 419/2/5 417/2/5 416/2/5
f 419/2/5 416/2/5 415/2/5
f 420/2/5 402/2/5 418/2/5
f 420/2/5 418/2/5 419/2/5
f 425/1/5 422/1/5 421/1/5
f 426/1/5 422/1/5 425/1/5
f 427/1/5 424/1/5 423/1/5
f 428/1/5 424/1/5 427/1/5
f 433/1/5 430/1/5 429/1/5
f 434/1/5 430/1/5 433/1/5
f 435/1/5 432/1/5 431/1/5
f 436/1/5 432/1/5 435/1/5
f 441/2/5 438/2/5 437/2/5
f 442/2/5 438/2/5 441/2/5
f 443/2/5 440/2/5 439/2/5
f 444/2/5 440/2/5 443/2/5
f 449/2/5 446/2/5 445/2/5
f 450/2/5 446/2/5 449/2/5
f 451/2/5 448/2/5 447/2/5
f 452/2/5 448/2/5 451/2/5
f 457/2/5 454/2/5 453/2/5
f 458/2/5 454/2/5 457/2/5
f 459/2/5 456/2/5 455/2/5
f 460/2/5 456/2/5 459/2/5
f 465/2/5 462/2/5 461/2/5
f 466/2/5 462/2/5 465/2/5
f 467/2/5 464/2/5 463/2/5
f 468/2/5 464/2/5 467/2/5
f 473/2/5 470/2/5 469/2/5
f 474/2/5 470/2/5 473/2/5
f 475/2/5 472/2/5 471/2/5
f 476/2/5 472/2/5 475/2/5
f 481/2/5 478/2/5 477/2/5
f 482/2/5 478/2/5 481/2/5
f 483/2/5 480/2/5 479/2/5
f 484/2/5 480/2/5 483/2/5
f 489/2/5 486/2/5 485/2/5
f 490/2/5 486/2/5 489/2/5
f 491/2/5 488/2/5 487/2/5
f 492/2/5 488/2/5 491/2/5
f 497/2/5 494/2/5 493/2/5
f 498/2/5 494/2/5 497/2/5
f 499/2/5 496/2/5 495/2/5
f 500/2/5 496/2/5 499/2/5
f 501/2/6 502/2/6 505/2/6
f 505/2/6 502/2/6 506/2/6
f 503/2/6 504/2/6 507/2/6
f 507/2/6 504/2/6 508/2/6
f 509/2/6 510/2/6 513/2/6
f 513/2/6 510/2/6 514/2/6
f 511/2/6 512/2/6 515/2/6
f 515/2/6 512/2/6 516/2/6
f 517/2/6 518/2/6 521/2/6
f 521/2/6 518/2/6 522/2/6
f 519/2/6 520/2/6 523/2/6
f 523/2/6 520/2/6 524/2/6
f 525/2/6 526/2/6 529/2/6
f 529/2/6 526/2/6 530/2/6
f 527/2/6 528/2/6 531/2/6
f 531/2/6 528/2/6 532/2/6
f 533/2/6 534/2/6 537/2/6
f 537/2/6 534/2/6 538/2/6
f 535/2/6 536/2/6 539/2/6
f 539/2/6 536/2/6 540/2/6
f 541/2/6 542/2/6 545/2/6
f 545/2/6 542/2/6 546/2/6
f 543/2/6 544/2/6 547/2/6
f 547/2/6 544/2/6 548/2/6
f 549/2/6 550/2/6 553/2/6
f 553/2/6 550/2/6 554/2/6
f 551/2/6 552/2/6 555/2/6
f 555/2/6 552/2/6 556/2/6
f 557/2/6 558/2/6 561/2/6
f 561/2/6 558/2/6 562/2/6
f 559/2/6 560/2/6 563/2/6
f 563/2/6 560/2/6 564/2/6
f 565/1/6 566/1/6 569/1/6
f 569/1/6 566/1/6 570/1/6
f 567/1/6 568/1/6 571/1/6
f 571/1/6 568/1/6 572/1/6
f 573/1/6 574/1/6 577/1/6
f 577/1/6 574/1/6 578/1/6
f 575/1/6 576/1/6 579/1/6
f 579/1/6 576/1/6 580/1/6
f 581/2/6 582/2/6 583/2/6
f 583/2/6 582/2/6 584/2/6
f 584/2/6 582/2/6 585/2/6
f 585/2/6 582/2/6 586/2/6
f 581/2/6 583/2/6 587/2/6
f 584/2/6 585/2/6 588/2/6
f 588/2/6 585/2/6 589/2/6
f 586/2/6 582/2/6 590/2/6
f 588/2/6 589/2/6 591/2/6
f 589/2/6 590/2/6 591/2/6
f 581/2/6 587/2/6 591/2/6
f 587/2/6 588/2/6 591/2/6
f 591/2/6 590/2/6 592/2/6
f 592/2/6 590/2/6 593/2/6
f 590/2/6 582/2/6 594/2/6
f 593/2/6 590/2/6 594/2/6
f 581/2/6 591/2/6 595/2/6
f 592/2/6 593/2/6 596/2/6
f 596/2/6 593/2/6 597/2/6
f 594/2/6 582/2/6 598/2/6
f 581/2/6 595/2/6 599/2/6
f 597/2/6 598/2/6 599/2/6
f 596/2/6 597/2/6 599/2/6
f 595/2/6 596/2/6 599/2/6
f 598/2/6 582/2/6 600/2/6
f 599/2/6 598/2/6 600/2/6
