# MagicaVoxel @ Ephtracy

# material
mtllib assistant-radar-01.mtl
usemtl palette

# normals
vn -1 0 0
vn 1 0 0
vn 0 0 1
vn 0 0 -1
vn 0 -1 0
vn 0 1 0

# texcoords
vt 0.861328 0.5
vt 0.947266 0.5

# verts
v -4 3 -2
v -4 3 -3
v -4 5 -2
v -4 5 -3
v -3 1 -2
v -3 1 -3
v -3 3 -2
v -3 3 -3
v -3 5 -2
v -3 5 -3
v -3 7 -2
v -3 7 -3
v -1 0 -2
v -1 0 -3
v -1 1 -2
v -1 1 -3
v -1 3 1
v -1 3 -2
v -1 3 -3
v -1 3 -4
v -1 5 1
v -1 5 -2
v -1 5 -3
v -1 5 -4
v -1 7 -2
v -1 7 -3
v -1 8 -2
v -1 8 -3
v 1 0 -2
v 1 0 -3
v 1 1 -2
v 1 1 -3
v 1 3 1
v 1 3 -2
v 1 3 -3
v 1 3 -4
v 1 5 1
v 1 5 -2
v 1 5 -3
v 1 5 -4
v 1 7 -2
v 1 7 -3
v 1 8 -2
v 1 8 -3
v 3 1 -2
v 3 1 -3
v 3 3 -2
v 3 3 -3
v 3 5 -2
v 3 5 -3
v 3 7 -2
v 3 7 -3
v 4 3 -2
v 4 3 -3
v 4 5 -2
v 4 5 -3
v -1 3 1
v -1 5 1
v 1 3 1
v 1 5 1
v -4 3 -2
v -4 5 -2
v -3 1 -2
v -3 3 -2
v -3 5 -2
v -3 7 -2
v -1 0 -2
v -1 1 -2
v -1 3 -2
v -1 5 -2
v -1 7 -2
v -1 8 -2
v 1 0 -2
v 1 1 -2
v 1 3 -2
v 1 5 -2
v 1 7 -2
v 1 8 -2
v 3 1 -2
v 3 3 -2
v 3 5 -2
v 3 7 -2
v 4 3 -2
v 4 5 -2
v -4 3 -3
v -4 5 -3
v -3 1 -3
v -3 3 -3
v -3 5 -3
v -3 7 -3
v -1 0 -3
v -1 1 -3
v -1 3 -3
v -1 5 -3
v -1 7 -3
v -1 8 -3
v 1 0 -3
v 1 1 -3
v 1 3 -3
v 1 5 -3
v 1 7 -3
v 1 8 -3
v 3 1 -3
v 3 3 -3
v 3 5 -3
v 3 7 -3
v 4 3 -3
v 4 5 -3
v -1 3 -4
v -1 5 -4
v 1 3 -4
v 1 5 -4
v -1 0 -2
v 1 0 -2
v -1 0 -3
v 1 0 -3
v -3 1 -2
v -1 1 -2
v 1 1 -2
v 3 1 -2
v -3 1 -3
v -1 1 -3
v 1 1 -3
v 3 1 -3
v -1 3 1
v 1 3 1
v -4 3 -2
v -3 3 -2
v -1 3 -2
v 1 3 -2
v 3 3 -2
v 4 3 -2
v -4 3 -3
v -3 3 -3
v -1 3 -3
v 1 3 -3
v 3 3 -3
v 4 3 -3
v -1 3 -4
v 1 3 -4
v -1 5 1
v 1 5 1
v -4 5 -2
v -3 5 -2
v -1 5 -2
v 1 5 -2
v 3 5 -2
v 4 5 -2
v -4 5 -3
v -3 5 -3
v -1 5 -3
v 1 5 -3
v 3 5 -3
v 4 5 -3
v -1 5 -4
v 1 5 -4
v -3 7 -2
v -1 7 -2
v 1 7 -2
v 3 7 -2
v -3 7 -3
v -1 7 -3
v 1 7 -3
v 3 7 -3
v -1 8 -2
v 1 8 -2
v -1 8 -3
v 1 8 -3

# faces
f 3/2/1 2/2/1 1/2/1
f 4/2/1 2/2/1 3/2/1
f 7/2/1 6/2/1 5/2/1
f 8/2/1 6/2/1 7/2/1
f 11/2/1 10/2/1 9/2/1
f 12/2/1 10/2/1 11/2/1
f 15/2/1 14/2/1 13/2/1
f 16/2/1 14/2/1 15/2/1
f 21/2/1 18/2/1 17/2/1
f 22/2/1 18/2/1 21/2/1
f 23/1/1 20/1/1 19/1/1
f 24/1/1 20/1/1 23/1/1
f 27/2/1 26/2/1 25/2/1
f 28/2/1 26/2/1 27/2/1
f 29/2/2 30/2/2 31/2/2
f 31/2/2 30/2/2 32/2/2
f 33/2/2 34/2/2 37/2/2
f 37/2/2 34/2/2 38/2/2
f 35/1/2 36/1/2 39/1/2
f 39/1/2 36/1/2 40/1/2
f 41/2/2 42/2/2 43/2/2
f 43/2/2 42/2/2 44/2/2
f 45/2/2 46/2/2 47/2/2
f 47/2/2 46/2/2 48/2/2
f 49/2/2 50/2/2 51/2/2
f 51/2/2 50/2/2 52/2/2
f 53/2/2 54/2/2 55/2/2
f 55/2/2 54/2/2 56/2/2
f 59/2/3 58/2/3 57/2/3
f 60/2/3 58/2/3 59/2/3
f 64/2/3 62/2/3 61/2/3
f 65/2/3 62/2/3 64/2/3
f 68/2/3 64/2/3 63/2/3
f 68/2/3 66/2/3 65/2/3
f 68/2/3 65/2/3 64/2/3
f 69/2/3 66/2/3 68/2/3
f 70/2/3 66/2/3 69/2/3
f 71/2/3 66/2/3 70/2/3
f 73/2/3 68/2/3 67/2/3
f 73/2/3 69/2/3 68/2/3
f 74/2/3 69/2/3 73/2/3
f 75/2/3 69/2/3 74/2/3
f 76/2/3 72/2/3 71/2/3
f 76/2/3 71/2/3 70/2/3
f 77/2/3 72/2/3 76/2/3
f 78/2/3 72/2/3 77/2/3
f 79/2/3 75/2/3 74/2/3
f 79/2/3 77/2/3 76/2/3
f 79/2/3 76/2/3 75/2/3
f 80/2/3 77/2/3 79/2/3
f 81/2/3 77/2/3 80/2/3
f 82/2/3 77/2/3 81/2/3
f 83/2/3 81/2/3 80/2/3
f 84/2/3 81/2/3 83/2/3
f 85/2/4 86/2/4 88/2/4
f 88/2/4 86/2/4 89/2/4
f 87/2/4 88/2/4 92/2/4
f 89/2/4 90/2/4 92/2/4
f 88/2/4 89/2/4 92/2/4
f 92/2/4 90/2/4 93/2/4
f 93/2/4 90/2/4 94/2/4
f 94/2/4 90/2/4 95/2/4
f 91/2/4 92/2/4 97/2/4
f 92/2/4 93/2/4 97/2/4
f 97/2/4 93/2/4 98/2/4
f 98/2/4 93/2/4 99/2/4
f 95/2/4 96/2/4 100/2/4
f 94/2/4 95/2/4 100/2/4
f 100/2/4 96/2/4 101/2/4
f 101/2/4 96/2/4 102/2/4
f 98/2/4 99/2/4 103/2/4
f 100/2/4 101/2/4 103/2/4
f 99/2/4 100/2/4 103/2/4
f 103/2/4 101/2/4 104/2/4
f 104/2/4 101/2/4 105/2/4
f 105/2/4 101/2/4 106/2/4
f 104/2/4 105/2/4 107/2/4
f 107/2/4 105/2/4 108/2/4
f 109/1/4 110/1/4 111/1/4
f 111/1/4 110/1/4 112/1/4
f 115/2/5 114/2/5 113/2/5
f 116/2/5 114/2/5 115/2/5
f 121/2/5 118/2/5 117/2/5
f 122/2/5 118/2/5 121/2/5
f 123/2/5 120/2/5 119/2/5
f 124/2/5 120/2/5 123/2/5
f 129/2/5 126/2/5 125/2/5
f 130/2/5 126/2/5 129/2/5
f 133/2/5 128/2/5 127/2/5
f 134/2/5 128/2/5 133/2/5
f 137/2/5 132/2/5 131/2/5
f 138/2/5 132/2/5 137/2/5
f 139/1/5 136/1/5 135/1/5
f 140/1/5 136/1/5 139/1/5
f 141/2/6 142/2/6 145/2/6
f 145/2/6 142/2/6 146/2/6
f 143/2/6 144/2/6 149/2/6
f 149/2/6 144/2/6 150/2/6
f 147/2/6 148/2/6 153/2/6
f 153/2/6 148/2/6 154/2/6
f 151/1/6 152/1/6 155/1/6
f 155/1/6 152/1/6 156/1/6
f 157/2/6 158/2/6 161/2/6
f 161/2/6 158/2/6 162/2/6
f 159/2/6 160/2/6 163/2/6
f 163/2/6 160/2/6 164/2/6
f 165/2/6 166/2/6 167/2/6
f 167/2/6 166/2/6 168/2/6
