# MagicaVoxel @ Ephtracy

# material
mtllib assistant-wheel-3.mtl
usemtl palette

# normals
vn -1 0 0
vn 1 0 0
vn 0 0 1
vn 0 0 -1
vn 0 -1 0
vn 0 1 0

# texcoords
vt 0.849609 0.5
vt 0.861328 0.5

# verts
v -12 0 9
v -12 0 7
v -12 0 6
v -12 0 4
v -12 0 3
v -12 0 1
v -12 0 -0
v -12 0 -2
v -12 0 -3
v -12 0 -5
v -12 0 -6
v -12 0 -8
v -12 0 -9
v -12 0 -11
v -12 1 9
v -12 1 7
v -12 1 6
v -12 1 4
v -12 1 3
v -12 1 1
v -12 1 -0
v -12 1 -2
v -12 1 -3
v -12 1 -5
v -12 1 -6
v -12 1 -8
v -12 1 -9
v -12 1 -11
v -12 2 10
v -12 2 9
v -12 2 -11
v -12 2 -12
v -12 4 10
v -12 4 9
v -12 4 -11
v -12 4 -12
v -12 5 9
v -12 5 7
v -12 5 6
v -12 5 4
v -12 5 3
v -12 5 1
v -12 5 -0
v -12 5 -2
v -12 5 -3
v -12 5 -5
v -12 5 -6
v -12 5 -8
v -12 5 -9
v -12 5 -11
v -12 6 9
v -12 6 7
v -12 6 6
v -12 6 4
v -12 6 3
v -12 6 1
v -12 6 -0
v -12 6 -2
v -12 6 -3
v -12 6 -5
v -12 6 -6
v -12 6 -8
v -12 6 -9
v -12 6 -11
v -11 1 9
v -11 1 7
v -11 1 6
v -11 1 4
v -11 1 3
v -11 1 1
v -11 1 -0
v -11 1 -2
v -11 1 -3
v -11 1 -5
v -11 1 -6
v -11 1 -8
v -11 1 -9
v -11 1 -11
v -11 2 9
v -11 2 -11
v -11 4 9
v -11 4 -11
v -11 5 9
v -11 5 7
v -11 5 6
v -11 5 4
v -11 5 3
v -11 5 1
v -11 5 -0
v -11 5 -2
v -11 5 -3
v -11 5 -5
v -11 5 -6
v -11 5 -8
v -11 5 -9
v -11 5 -11
v 6 0 9
v 6 0 7
v 6 0 6
v 6 0 4
v 6 0 3
v 6 0 1
v 6 0 -0
v 6 0 -2
v 6 0 -3
v 6 0 -5
v 6 0 -6
v 6 0 -8
v 6 0 -9
v 6 0 -11
v 6 1 9
v 6 1 7
v 6 1 6
v 6 1 4
v 6 1 3
v 6 1 1
v 6 1 -0
v 6 1 -2
v 6 1 -3
v 6 1 -5
v 6 1 -6
v 6 1 -8
v 6 1 -9
v 6 1 -11
v 6 2 10
v 6 2 9
v 6 2 -11
v 6 2 -12
v 6 4 10
v 6 4 9
v 6 4 -11
v 6 4 -12
v 6 5 9
v 6 5 7
v 6 5 6
v 6 5 4
v 6 5 3
v 6 5 1
v 6 5 -0
v 6 5 -2
v 6 5 -3
v 6 5 -5
v 6 5 -6
v 6 5 -8
v 6 5 -9
v 6 5 -11
v 6 6 9
v 6 6 7
v 6 6 6
v 6 6 4
v 6 6 3
v 6 6 1
v 6 6 -0
v 6 6 -2
v 6 6 -3
v 6 6 -5
v 6 6 -6
v 6 6 -8
v 6 6 -9
v 6 6 -11
v 7 1 9
v 7 1 7
v 7 1 6
v 7 1 4
v 7 1 3
v 7 1 1
v 7 1 -0
v 7 1 -2
v 7 1 -3
v 7 1 -5
v 7 1 -6
v 7 1 -8
v 7 1 -9
v 7 1 -11
v 7 2 9
v 7 2 -11
v 7 4 9
v 7 4 -11
v 7 5 9
v 7 5 7
v 7 5 6
v 7 5 4
v 7 5 3
v 7 5 1
v 7 5 -0
v 7 5 -2
v 7 5 -3
v 7 5 -5
v 7 5 -6
v 7 5 -8
v 7 5 -9
v 7 5 -11
v -7 1 9
v -7 1 7
v -7 1 6
v -7 1 4
v -7 1 3
v -7 1 1
v -7 1 -0
v -7 1 -2
v -7 1 -3
v -7 1 -5
v -7 1 -6
v -7 1 -8
v -7 1 -9
v -7 1 -11
v -7 2 9
v -7 2 -11
v -7 4 9
v -7 4 -11
v -7 5 9
v -7 5 7
v -7 5 6
v -7 5 4
v -7 5 3
v -7 5 1
v -7 5 -0
v -7 5 -2
v -7 5 -3
v -7 5 -5
v -7 5 -6
v -7 5 -8
v -7 5 -9
v -7 5 -11
v -6 0 9
v -6 0 7
v -6 0 6
v -6 0 4
v -6 0 3
v -6 0 1
v -6 0 -0
v -6 0 -2
v -6 0 -3
v -6 0 -5
v -6 0 -6
v -6 0 -8
v -6 0 -9
v -6 0 -11
v -6 1 9
v -6 1 7
v -6 1 6
v -6 1 4
v -6 1 3
v -6 1 1
v -6 1 -0
v -6 1 -2
v -6 1 -3
v -6 1 -5
v -6 1 -6
v -6 1 -8
v -6 1 -9
v -6 1 -11
v -6 2 10
v -6 2 9
v -6 2 -11
v -6 2 -12
v -6 4 10
v -6 4 9
v -6 4 -11
v -6 4 -12
v -6 5 9
v -6 5 7
v -6 5 6
v -6 5 4
v -6 5 3
v -6 5 1
v -6 5 -0
v -6 5 -2
v -6 5 -3
v -6 5 -5
v -6 5 -6
v -6 5 -8
v -6 5 -9
v -6 5 -11
v -6 6 9
v -6 6 7
v -6 6 6
v -6 6 4
v -6 6 3
v -6 6 1
v -6 6 -0
v -6 6 -2
v -6 6 -3
v -6 6 -5
v -6 6 -6
v -6 6 -8
v -6 6 -9
v -6 6 -11
v 11 1 9
v 11 1 7
v 11 1 6
v 11 1 4
v 11 1 3
v 11 1 1
v 11 1 -0
v 11 1 -2
v 11 1 -3
v 11 1 -5
v 11 1 -6
v 11 1 -8
v 11 1 -9
v 11 1 -11
v 11 2 9
v 11 2 -11
v 11 4 9
v 11 4 -11
v 11 5 9
v 11 5 7
v 11 5 6
v 11 5 4
v 11 5 3
v 11 5 1
v 11 5 -0
v 11 5 -2
v 11 5 -3
v 11 5 -5
v 11 5 -6
v 11 5 -8
v 11 5 -9
v 11 5 -11
v 12 0 9
v 12 0 7
v 12 0 6
v 12 0 4
v 12 0 3
v 12 0 1
v 12 0 -0
v 12 0 -2
v 12 0 -3
v 12 0 -5
v 12 0 -6
v 12 0 -8
v 12 0 -9
v 12 0 -11
v 12 1 9
v 12 1 7
v 12 1 6
v 12 1 4
v 12 1 3
v 12 1 1
v 12 1 -0
v 12 1 -2
v 12 1 -3
v 12 1 -5
v 12 1 -6
v 12 1 -8
v 12 1 -9
v 12 1 -11
v 12 2 10
v 12 2 9
v 12 2 -11
v 12 2 -12
v 12 4 10
v 12 4 9
v 12 4 -11
v 12 4 -12
v 12 5 9
v 12 5 7
v 12 5 6
v 12 5 4
v 12 5 3
v 12 5 1
v 12 5 -0
v 12 5 -2
v 12 5 -3
v 12 5 -5
v 12 5 -6
v 12 5 -8
v 12 5 -9
v 12 5 -11
v 12 6 9
v 12 6 7
v 12 6 6
v 12 6 4
v 12 6 3
v 12 6 1
v 12 6 -0
v 12 6 -2
v 12 6 -3
v 12 6 -5
v 12 6 -6
v 12 6 -8
v 12 6 -9
v 12 6 -11
v -12 2 10
v -12 4 10
v -6 2 10
v -6 4 10
v 6 2 10
v 6 4 10
v 12 2 10
v 12 4 10
v -12 0 9
v -12 1 9
v -12 5 9
v -12 6 9
v -11 1 9
v -11 2 9
v -11 4 9
v -11 5 9
v -7 1 9
v -7 2 9
v -7 4 9
v -7 5 9
v -6 0 9
v -6 1 9
v -6 5 9
v -6 6 9
v 6 0 9
v 6 1 9
v 6 5 9
v 6 6 9
v 7 1 9
v 7 2 9
v 7 4 9
v 7 5 9
v 11 1 9
v 11 2 9
v 11 4 9
v 11 5 9
v 12 0 9
v 12 1 9
v 12 5 9
v 12 6 9
v -12 0 6
v -12 1 6
v -12 5 6
v -12 6 6
v -11 1 6
v -11 5 6
v -7 1 6
v -7 5 6
v -6 0 6
v -6 1 6
v -6 5 6
v -6 6 6
v 6 0 6
v 6 1 6
v 6 5 6
v 6 6 6
v 7 1 6
v 7 5 6
v 11 1 6
v 11 5 6
v 12 0 6
v 12 1 6
v 12 5 6
v 12 6 6
v -12 0 3
v -12 1 3
v -12 5 3
v -12 6 3
v -11 1 3
v -11 5 3
v -7 1 3
v -7 5 3
v -6 0 3
v -6 1 3
v -6 5 3
v -6 6 3
v 6 0 3
v 6 1 3
v 6 5 3
v 6 6 3
v 7 1 3
v 7 5 3
v 11 1 3
v 11 5 3
v 12 0 3
v 12 1 3
v 12 5 3
v 12 6 3
v -12 0 -0
v -12 1 -0
v -12 5 -0
v -12 6 -0
v -11 1 -0
v -11 5 -0
v -7 1 -0
v -7 5 -0
v -6 0 -0
v -6 1 -0
v -6 5 -0
v -6 6 -0
v 6 0 -0
v 6 1 -0
v 6 5 -0
v 6 6 -0
v 7 1 -0
v 7 5 -0
v 11 1 -0
v 11 5 -0
v 12 0 -0
v 12 1 -0
v 12 5 -0
v 12 6 -0
v -12 0 -3
v -12 1 -3
v -12 5 -3
v -12 6 -3
v -11 1 -3
v -11 5 -3
v -7 1 -3
v -7 5 -3
v -6 0 -3
v -6 1 -3
v -6 5 -3
v -6 6 -3
v 6 0 -3
v 6 1 -3
v 6 5 -3
v 6 6 -3
v 7 1 -3
v 7 5 -3
v 11 1 -3
v 11 5 -3
v 12 0 -3
v 12 1 -3
v 12 5 -3
v 12 6 -3
v -12 0 -6
v -12 1 -6
v -12 5 -6
v -12 6 -6
v -11 1 -6
v -11 5 -6
v -7 1 -6
v -7 5 -6
v -6 0 -6
v -6 1 -6
v -6 5 -6
v -6 6 -6
v 6 0 -6
v 6 1 -6
v 6 5 -6
v 6 6 -6
v 7 1 -6
v 7 5 -6
v 11 1 -6
v 11 5 -6
v 12 0 -6
v 12 1 -6
v 12 5 -6
v 12 6 -6
v -12 0 -9
v -12 1 -9
v -12 5 -9
v -12 6 -9
v -11 1 -9
v -11 5 -9
v -7 1 -9
v -7 5 -9
v -6 0 -9
v -6 1 -9
v -6 5 -9
v -6 6 -9
v 6 0 -9
v 6 1 -9
v 6 5 -9
v 6 6 -9
v 7 1 -9
v 7 5 -9
v 11 1 -9
v 11 5 -9
v 12 0 -9
v 12 1 -9
v 12 5 -9
v 12 6 -9
v -12 2 -11
v -12 4 -11
v -11 2 -11
v -11 4 -11
v -7 2 -11
v -7 4 -11
v -6 2 -11
v -6 4 -11
v 6 2 -11
v 6 4 -11
v 7 2 -11
v 7 4 -11
v 11 2 -11
v 11 4 -11
v 12 2 -11
v 12 4 -11
v -12 2 9
v -12 4 9
v -11 2 9
v -11 4 9
v -7 2 9
v -7 4 9
v -6 2 9
v -6 4 9
v 6 2 9
v 6 4 9
v 7 2 9
v 7 4 9
v 11 2 9
v 11 4 9
v 12 2 9
v 12 4 9
v -12 0 7
v -12 1 7
v -12 5 7
v -12 6 7
v -11 1 7
v -11 5 7
v -7 1 7
v -7 5 7
v -6 0 7
v -6 1 7
v -6 5 7
v -6 6 7
v 6 0 7
v 6 1 7
v 6 5 7
v 6 6 7
v 7 1 7
v 7 5 7
v 11 1 7
v 11 5 7
v 12 0 7
v 12 1 7
v 12 5 7
v 12 6 7
v -12 0 4
v -12 1 4
v -12 5 4
v -12 6 4
v -11 1 4
v -11 5 4
v -7 1 4
v -7 5 4
v -6 0 4
v -6 1 4
v -6 5 4
v -6 6 4
v 6 0 4
v 6 1 4
v 6 5 4
v 6 6 4
v 7 1 4
v 7 5 4
v 11 1 4
v 11 5 4
v 12 0 4
v 12 1 4
v 12 5 4
v 12 6 4
v -12 0 1
v -12 1 1
v -12 5 1
v -12 6 1
v -11 1 1
v -11 5 1
v -7 1 1
v -7 5 1
v -6 0 1
v -6 1 1
v -6 5 1
v -6 6 1
v 6 0 1
v 6 1 1
v 6 5 1
v 6 6 1
v 7 1 1
v 7 5 1
v 11 1 1
v 11 5 1
v 12 0 1
v 12 1 1
v 12 5 1
v 12 6 1
v -12 0 -2
v -12 1 -2
v -12 5 -2
v -12 6 -2
v -11 1 -2
v -11 5 -2
v -7 1 -2
v -7 5 -2
v -6 0 -2
v -6 1 -2
v -6 5 -2
v -6 6 -2
v 6 0 -2
v 6 1 -2
v 6 5 -2
v 6 6 -2
v 7 1 -2
v 7 5 -2
v 11 1 -2
v 11 5 -2
v 12 0 -2
v 12 1 -2
v 12 5 -2
v 12 6 -2
v -12 0 -5
v -12 1 -5
v -12 5 -5
v -12 6 -5
v -11 1 -5
v -11 5 -5
v -7 1 -5
v -7 5 -5
v -6 0 -5
v -6 1 -5
v -6 5 -5
v -6 6 -5
v 6 0 -5
v 6 1 -5
v 6 5 -5
v 6 6 -5
v 7 1 -5
v 7 5 -5
v 11 1 -5
v 11 5 -5
v 12 0 -5
v 12 1 -5
v 12 5 -5
v 12 6 -5
v -12 0 -8
v -12 1 -8
v -12 5 -8
v -12 6 -8
v -11 1 -8
v -11 5 -8
v -7 1 -8
v -7 5 -8
v -6 0 -8
v -6 1 -8
v -6 5 -8
v -6 6 -8
v 6 0 -8
v 6 1 -8
v 6 5 -8
v 6 6 -8
v 7 1 -8
v 7 5 -8
v 11 1 -8
v 11 5 -8
v 12 0 -8
v 12 1 -8
v 12 5 -8
v 12 6 -8
v -12 0 -11
v -12 1 -11
v -12 5 -11
v -12 6 -11
v -11 1 -11
v -11 2 -11
v -11 4 -11
v -11 5 -11
v -7 1 -11
v -7 2 -11
v -7 4 -11
v -7 5 -11
v -6 0 -11
v -6 1 -11
v -6 5 -11
v -6 6 -11
v 6 0 -11
v 6 1 -11
v 6 5 -11
v 6 6 -11
v 7 1 -11
v 7 2 -11
v 7 4 -11
v 7 5 -11
v 11 1 -11
v 11 2 -11
v 11 4 -11
v 11 5 -11
v 12 0 -11
v 12 1 -11
v 12 5 -11
v 12 6 -11
v -12 2 -12
v -12 4 -12
v -6 2 -12
v -6 4 -12
v 6 2 -12
v 6 4 -12
v 12 2 -12
v 12 4 -12
v -12 0 9
v -6 0 9
v 6 0 9
v 12 0 9
v -12 0 7
v -6 0 7
v 6 0 7
v 12 0 7
v -12 0 6
v -6 0 6
v 6 0 6
v 12 0 6
v -12 0 4
v -6 0 4
v 6 0 4
v 12 0 4
v -12 0 3
v -6 0 3
v 6 0 3
v 12 0 3
v -12 0 1
v -6 0 1
v 6 0 1
v 12 0 1
v -12 0 -0
v -6 0 -0
v 6 0 -0
v 12 0 -0
v -12 0 -2
v -6 0 -2
v 6 0 -2
v 12 0 -2
v -12 0 -3
v -6 0 -3
v 6 0 -3
v 12 0 -3
v -12 0 -5
v -6 0 -5
v 6 0 -5
v 12 0 -5
v -12 0 -6
v -6 0 -6
v 6 0 -6
v 12 0 -6
v -12 0 -8
v -6 0 -8
v 6 0 -8
v 12 0 -8
v -12 0 -9
v -6 0 -9
v 6 0 -9
v 12 0 -9
v -12 0 -11
v -6 0 -11
v 6 0 -11
v 12 0 -11
v -11 1 7
v -7 1 7
v 7 1 7
v 11 1 7
v -11 1 6
v -7 1 6
v 7 1 6
v 11 1 6
v -11 1 4
v -7 1 4
v 7 1 4
v 11 1 4
v -11 1 3
v -7 1 3
v 7 1 3
v 11 1 3
v -11 1 1
v -7 1 1
v 7 1 1
v 11 1 1
v -11 1 -0
v -7 1 -0
v 7 1 -0
v 11 1 -0
v -11 1 -2
v -7 1 -2
v 7 1 -2
v 11 1 -2
v -11 1 -3
v -7 1 -3
v 7 1 -3
v 11 1 -3
v -11 1 -5
v -7 1 -5
v 7 1 -5
v 11 1 -5
v -11 1 -6
v -7 1 -6
v 7 1 -6
v 11 1 -6
v -11 1 -8
v -7 1 -8
v 7 1 -8
v 11 1 -8
v -11 1 -9
v -7 1 -9
v 7 1 -9
v 11 1 -9
v -12 2 10
v -6 2 10
v 6 2 10
v 12 2 10
v -12 2 9
v -11 2 9
v -7 2 9
v -6 2 9
v 6 2 9
v 7 2 9
v 11 2 9
v 12 2 9
v -12 2 -11
v -11 2 -11
v -7 2 -11
v -6 2 -11
v 6 2 -11
v 7 2 -11
v 11 2 -11
v 12 2 -11
v -12 2 -12
v -6 2 -12
v 6 2 -12
v 12 2 -12
v -12 5 9
v -11 5 9
v -7 5 9
v -6 5 9
v 6 5 9
v 7 5 9
v 11 5 9
v 12 5 9
v -12 5 7
v -11 5 7
v -7 5 7
v -6 5 7
v 6 5 7
v 7 5 7
v 11 5 7
v 12 5 7
v -12 5 6
v -11 5 6
v -7 5 6
v -6 5 6
v 6 5 6
v 7 5 6
v 11 5 6
v 12 5 6
v -12 5 4
v -11 5 4
v -7 5 4
v -6 5 4
v 6 5 4
v 7 5 4
v 11 5 4
v 12 5 4
v -12 5 3
v -11 5 3
v -7 5 3
v -6 5 3
v 6 5 3
v 7 5 3
v 11 5 3
v 12 5 3
v -12 5 1
v -11 5 1
v -7 5 1
v -6 5 1
v 6 5 1
v 7 5 1
v 11 5 1
v 12 5 1
v -12 5 -0
v -11 5 -0
v -7 5 -0
v -6 5 -0
v 6 5 -0
v 7 5 -0
v 11 5 -0
v 12 5 -0
v -12 5 -2
v -11 5 -2
v -7 5 -2
v -6 5 -2
v 6 5 -2
v 7 5 -2
v 11 5 -2
v 12 5 -2
v -12 5 -3
v -11 5 -3
v -7 5 -3
v -6 5 -3
v 6 5 -3
v 7 5 -3
v 11 5 -3
v 12 5 -3
v -12 5 -5
v -11 5 -5
v -7 5 -5
v -6 5 -5
v 6 5 -5
v 7 5 -5
v 11 5 -5
v 12 5 -5
v -12 5 -6
v -11 5 -6
v -7 5 -6
v -6 5 -6
v 6 5 -6
v 7 5 -6
v 11 5 -6
v 12 5 -6
v -12 5 -8
v -11 5 -8
v -7 5 -8
v -6 5 -8
v 6 5 -8
v 7 5 -8
v 11 5 -8
v 12 5 -8
v -12 5 -9
v -11 5 -9
v -7 5 -9
v -6 5 -9
v 6 5 -9
v 7 5 -9
v 11 5 -9
v 12 5 -9
v -12 5 -11
v -11 5 -11
v -7 5 -11
v -6 5 -11
v 6 5 -11
v 7 5 -11
v 11 5 -11
v 12 5 -11
v -12 1 9
v -11 1 9
v -7 1 9
v -6 1 9
v 6 1 9
v 7 1 9
v 11 1 9
v 12 1 9
v -12 1 7
v -11 1 7
v -7 1 7
v -6 1 7
v 6 1 7
v 7 1 7
v 11 1 7
v 12 1 7
v -12 1 6
v -11 1 6
v -7 1 6
v -6 1 6
v 6 1 6
v 7 1 6
v 11 1 6
v 12 1 6
v -12 1 4
v -11 1 4
v -7 1 4
v -6 1 4
v 6 1 4
v 7 1 4
v 11 1 4
v 12 1 4
v -12 1 3
v -11 1 3
v -7 1 3
v -6 1 3
v 6 1 3
v 7 1 3
v 11 1 3
v 12 1 3
v -12 1 1
v -11 1 1
v -7 1 1
v -6 1 1
v 6 1 1
v 7 1 1
v 11 1 1
v 12 1 1
v -12 1 -0
v -11 1 -0
v -7 1 -0
v -6 1 -0
v 6 1 -0
v 7 1 -0
v 11 1 -0
v 12 1 -0
v -12 1 -2
v -11 1 -2
v -7 1 -2
v -6 1 -2
v 6 1 -2
v 7 1 -2
v 11 1 -2
v 12 1 -2
v -12 1 -3
v -11 1 -3
v -7 1 -3
v -6 1 -3
v 6 1 -3
v 7 1 -3
v 11 1 -3
v 12 1 -3
v -12 1 -5
v -11 1 -5
v -7 1 -5
v -6 1 -5
v 6 1 -5
v 7 1 -5
v 11 1 -5
v 12 1 -5
v -12 1 -6
v -11 1 -6
v -7 1 -6
v -6 1 -6
v 6 1 -6
v 7 1 -6
v 11 1 -6
v 12 1 -6
v -12 1 -8
v -11 1 -8
v -7 1 -8
v -6 1 -8
v 6 1 -8
v 7 1 -8
v 11 1 -8
v 12 1 -8
v -12 1 -9
v -11 1 -9
v -7 1 -9
v -6 1 -9
v 6 1 -9
v 7 1 -9
v 11 1 -9
v 12 1 -9
v -12 1 -11
v -11 1 -11
v -7 1 -11
v -6 1 -11
v 6 1 -11
v 7 1 -11
v 11 1 -11
v 12 1 -11
v -12 4 10
v -6 4 10
v 6 4 10
v 12 4 10
v -12 4 9
v -11 4 9
v -7 4 9
v -6 4 9
v 6 4 9
v 7 4 9
v 11 4 9
v 12 4 9
v -12 4 -11
v -11 4 -11
v -7 4 -11
v -6 4 -11
v 6 4 -11
v 7 4 -11
v 11 4 -11
v 12 4 -11
v -12 4 -12
v -6 4 -12
v 6 4 -12
v 12 4 -12
v -11 5 7
v -7 5 7
v 7 5 7
v 11 5 7
v -11 5 6
v -7 5 6
v 7 5 6
v 11 5 6
v -11 5 4
v -7 5 4
v 7 5 4
v 11 5 4
v -11 5 3
v -7 5 3
v 7 5 3
v 11 5 3
v -11 5 1
v -7 5 1
v 7 5 1
v 11 5 1
v -11 5 -0
v -7 5 -0
v 7 5 -0
v 11 5 -0
v -11 5 -2
v -7 5 -2
v 7 5 -2
v 11 5 -2
v -11 5 -3
v -7 5 -3
v 7 5 -3
v 11 5 -3
v -11 5 -5
v -7 5 -5
v 7 5 -5
v 11 5 -5
v -11 5 -6
v -7 5 -6
v 7 5 -6
v 11 5 -6
v -11 5 -8
v -7 5 -8
v 7 5 -8
v 11 5 -8
v -11 5 -9
v -7 5 -9
v 7 5 -9
v 11 5 -9
v -12 6 9
v -6 6 9
v 6 6 9
v 12 6 9
v -12 6 7
v -6 6 7
v 6 6 7
v 12 6 7
v -12 6 6
v -6 6 6
v 6 6 6
v 12 6 6
v -12 6 4
v -6 6 4
v 6 6 4
v 12 6 4
v -12 6 3
v -6 6 3
v 6 6 3
v 12 6 3
v -12 6 1
v -6 6 1
v 6 6 1
v 12 6 1
v -12 6 -0
v -6 6 -0
v 6 6 -0
v 12 6 -0
v -12 6 -2
v -6 6 -2
v 6 6 -2
v 12 6 -2
v -12 6 -3
v -6 6 -3
v 6 6 -3
v 12 6 -3
v -12 6 -5
v -6 6 -5
v 6 6 -5
v 12 6 -5
v -12 6 -6
v -6 6 -6
v 6 6 -6
v 12 6 -6
v -12 6 -8
v -6 6 -8
v 6 6 -8
v 12 6 -8
v -12 6 -9
v -6 6 -9
v 6 6 -9
v 12 6 -9
v -12 6 -11
v -6 6 -11
v 6 6 -11
v 12 6 -11

# faces
f 15/1/1 2/1/1 1/1/1
f 16/1/1 2/1/1 15/1/1
f 17/1/1 4/1/1 3/1/1
f 18/1/1 4/1/1 17/1/1
f 19/1/1 6/1/1 5/1/1
f 20/1/1 6/1/1 19/1/1
f 21/1/1 8/1/1 7/1/1
f 22/1/1 8/1/1 21/1/1
f 23/1/1 10/1/1 9/1/1
f 24/1/1 10/1/1 23/1/1
f 25/1/1 12/1/1 11/1/1
f 26/1/1 12/1/1 25/1/1
f 27/1/1 14/1/1 13/1/1
f 28/1/1 14/1/1 27/1/1
f 33/1/1 30/1/1 29/1/1
f 34/1/1 30/1/1 33/1/1
f 35/1/1 32/1/1 31/1/1
f 36/1/1 32/1/1 35/1/1
f 51/1/1 38/1/1 37/1/1
f 52/1/1 38/1/1 51/1/1
f 53/1/1 40/1/1 39/1/1
f 54/1/1 40/1/1 53/1/1
f 55/1/1 42/1/1 41/1/1
f 56/1/1 42/1/1 55/1/1
f 57/1/1 44/1/1 43/1/1
f 58/1/1 44/1/1 57/1/1
f 59/1/1 46/1/1 45/1/1
f 60/1/1 46/1/1 59/1/1
f 61/1/1 48/1/1 47/1/1
f 62/1/1 48/1/1 61/1/1
f 63/1/1 50/1/1 49/1/1
f 64/1/1 50/1/1 63/1/1
f 79/2/1 66/2/1 65/2/1
f 79/2/1 78/2/1 77/2/1
f 79/2/1 77/2/1 76/2/1
f 79/2/1 76/2/1 75/2/1
f 79/2/1 75/2/1 74/2/1
f 79/2/1 74/2/1 73/2/1
f 79/2/1 73/2/1 72/2/1
f 79/2/1 72/2/1 71/2/1
f 79/2/1 71/2/1 70/2/1
f 79/2/1 70/2/1 69/2/1
f 79/2/1 69/2/1 68/2/1
f 79/2/1 68/2/1 67/2/1
f 79/2/1 67/2/1 66/2/1
f 80/2/1 78/2/1 79/2/1
f 81/2/1 80/2/1 79/2/1
f 82/2/1 80/2/1 81/2/1
f 83/2/1 82/2/1 81/2/1
f 84/2/1 82/2/1 83/2/1
f 85/2/1 82/2/1 84/2/1
f 86/2/1 82/2/1 85/2/1
f 87/2/1 82/2/1 86/2/1
f 88/2/1 82/2/1 87/2/1
f 89/2/1 82/2/1 88/2/1
f 90/2/1 82/2/1 89/2/1
f 91/2/1 82/2/1 90/2/1
f 92/2/1 82/2/1 91/2/1
f 93/2/1 82/2/1 92/2/1
f 94/2/1 82/2/1 93/2/1
f 95/2/1 82/2/1 94/2/1
f 96/2/1 82/2/1 95/2/1
f 111/1/1 98/1/1 97/1/1
f 112/1/1 98/1/1 111/1/1
f 113/1/1 100/1/1 99/1/1
f 114/1/1 100/1/1 113/1/1
f 115/1/1 102/1/1 101/1/1
f 116/1/1 102/1/1 115/1/1
f 117/1/1 104/1/1 103/1/1
f 118/1/1 104/1/1 117/1/1
f 119/1/1 106/1/1 105/1/1
f 120/1/1 106/1/1 119/1/1
f 121/1/1 108/1/1 107/1/1
f 122/1/1 108/1/1 121/1/1
f 123/1/1 110/1/1 109/1/1
f 124/1/1 110/1/1 123/1/1
f 129/1/1 126/1/1 125/1/1
f 130/1/1 126/1/1 129/1/1
f 131/1/1 128/1/1 127/1/1
f 132/1/1 128/1/1 131/1/1
f 147/1/1 134/1/1 133/1/1
f 148/1/1 134/1/1 147/1/1
f 149/1/1 136/1/1 135/1/1
f 150/1/1 136/1/1 149/1/1
f 151/1/1 138/1/1 137/1/1
f 152/1/1 138/1/1 151/1/1
f 153/1/1 140/1/1 139/1/1
f 154/1/1 140/1/1 153/1/1
f 155/1/1 142/1/1 141/1/1
f 156/1/1 142/1/1 155/1/1
f 157/1/1 144/1/1 143/1/1
f 158/1/1 144/1/1 157/1/1
f 159/1/1 146/1/1 145/1/1
f 160/1/1 146/1/1 159/1/1
f 175/2/1 162/2/1 161/2/1
f 175/2/1 174/2/1 173/2/1
f 175/2/1 173/2/1 172/2/1
f 175/2/1 172/2/1 171/2/1
f 175/2/1 171/2/1 170/2/1
f 175/2/1 170/2/1 169/2/1
f 175/2/1 169/2/1 168/2/1
f 175/2/1 168/2/1 167/2/1
f 175/2/1 167/2/1 166/2/1
f 175/2/1 166/2/1 165/2/1
f 175/2/1 165/2/1 164/2/1
f 175/2/1 164/2/1 163/2/1
f 175/2/1 163/2/1 162/2/1
f 176/2/1 174/2/1 175/2/1
f 177/2/1 176/2/1 175/2/1
f 178/2/1 176/2/1 177/2/1
f 179/2/1 178/2/1 177/2/1
f 180/2/1 178/2/1 179/2/1
f 181/2/1 178/2/1 180/2/1
f 182/2/1 178/2/1 181/2/1
f 183/2/1 178/2/1 182/2/1
f 184/2/1 178/2/1 183/2/1
f 185/2/1 178/2/1 184/2/1
f 186/2/1 178/2/1 185/2/1
f 187/2/1 178/2/1 186/2/1
f 188/2/1 178/2/1 187/2/1
f 189/2/1 178/2/1 188/2/1
f 190/2/1 178/2/1 189/2/1
f 191/2/1 178/2/1 190/2/1
f 192/2/1 178/2/1 191/2/1
f 193/2/2 194/2/2 207/2/2
f 205/2/2 206/2/2 207/2/2
f 204/2/2 205/2/2 207/2/2
f 203/2/2 204/2/2 207/2/2
f 202/2/2 203/2/2 207/2/2
f 201/2/2 202/2/2 207/2/2
f 200/2/2 201/2/2 207/2/2
f 199/2/2 200/2/2 207/2/2
f 198/2/2 199/2/2 207/2/2
f 197/2/2 198/2/2 207/2/2
f 196/2/2 197/2/2 207/2/2
f 195/2/2 196/2/2 207/2/2
f 194/2/2 195/2/2 207/2/2
f 207/2/2 206/2/2 208/2/2
f 207/2/2 208/2/2 209/2/2
f 209/2/2 208/2/2 210/2/2
f 209/2/2 210/2/2 211/2/2
f 211/2/2 210/2/2 212/2/2
f 212/2/2 210/2/2 213/2/2
f 213/2/2 210/2/2 214/2/2
f 214/2/2 210/2/2 215/2/2
f 215/2/2 210/2/2 216/2/2
f 216/2/2 210/2/2 217/2/2
f 217/2/2 210/2/2 218/2/2
f 218/2/2 210/2/2 219/2/2
f 219/2/2 210/2/2 220/2/2
f 220/2/2 210/2/2 221/2/2
f 221/2/2 210/2/2 222/2/2
f 222/2/2 210/2/2 223/2/2
f 223/2/2 210/2/2 224/2/2
f 225/1/2 226/1/2 239/1/2
f 239/1/2 226/1/2 240/1/2
f 227/1/2 228/1/2 241/1/2
f 241/1/2 228/1/2 242/1/2
f 229/1/2 230/1/2 243/1/2
f 243/1/2 230/1/2 244/1/2
f 231/1/2 232/1/2 245/1/2
f 245/1/2 232/1/2 246/1/2
f 233/1/2 234/1/2 247/1/2
f 247/1/2 234/1/2 248/1/2
f 235/1/2 236/1/2 249/1/2
f 249/1/2 236/1/2 250/1/2
f 237/1/2 238/1/2 251/1/2
f 251/1/2 238/1/2 252/1/2
f 253/1/2 254/1/2 257/1/2
f 257/1/2 254/1/2 258/1/2
f 255/1/2 256/1/2 259/1/2
f 259/1/2 256/1/2 260/1/2
f 261/1/2 262/1/2 275/1/2
f 275/1/2 262/1/2 276/1/2
f 263/1/2 264/1/2 277/1/2
f 277/1/2 264/1/2 278/1/2
f 265/1/2 266/1/2 279/1/2
f 279/1/2 266/1/2 280/1/2
f 267/1/2 268/1/2 281/1/2
f 281/1/2 268/1/2 282/1/2
f 269/1/2 270/1/2 283/1/2
f 283/1/2 270/1/2 284/1/2
f 271/1/2 272/1/2 285/1/2
f 285/1/2 272/1/2 286/1/2
f 273/1/2 274/1/2 287/1/2
f 287/1/2 274/1/2 288/1/2
f 289/2/2 290/2/2 303/2/2
f 301/2/2 302/2/2 303/2/2
f 300/2/2 301/2/2 303/2/2
f 299/2/2 300/2/2 303/2/2
f 298/2/2 299/2/2 303/2/2
f 297/2/2 298/2/2 303/2/2
f 296/2/2 297/2/2 303/2/2
f 295/2/2 296/2/2 303/2/2
f 294/2/2 295/2/2 303/2/2
f 293/2/2 294/2/2 303/2/2
f 292/2/2 293/2/2 303/2/2
f 291/2/2 292/2/2 303/2/2
f 290/2/2 291/2/2 303/2/2
f 303/2/2 302/2/2 304/2/2
f 303/2/2 304/2/2 305/2/2
f 305/2/2 304/2/2 306/2/2
f 305/2/2 306/2/2 307/2/2
f 307/2/2 306/2/2 308/2/2
f 308/2/2 306/2/2 309/2/2
f 309/2/2 306/2/2 310/2/2
f 310/2/2 306/2/2 311/2/2
f 311/2/2 306/2/2 312/2/2
f 312/2/2 306/2/2 313/2/2
f 313/2/2 306/2/2 314/2/2
f 314/2/2 306/2/2 315/2/2
f 315/2/2 306/2/2 316/2/2
f 316/2/2 306/2/2 317/2/2
f 317/2/2 306/2/2 318/2/2
f 318/2/2 306/2/2 319/2/2
f 319/2/2 306/2/2 320/2/2
f 321/1/2 322/1/2 335/1/2
f 335/1/2 322/1/2 336/1/2
f 323/1/2 324/1/2 337/1/2
f 337/1/2 324/1/2 338/1/2
f 325/1/2 326/1/2 339/1/2
f 339/1/2 326/1/2 340/1/2
f 327/1/2 328/1/2 341/1/2
f 341/1/2 328/1/2 342/1/2
f 329/1/2 330/1/2 343/1/2
f 343/1/2 330/1/2 344/1/2
f 331/1/2 332/1/2 345/1/2
f 345/1/2 332/1/2 346/1/2
f 333/1/2 334/1/2 347/1/2
f 347/1/2 334/1/2 348/1/2
f 349/1/2 350/1/2 353/1/2
f 353/1/2 350/1/2 354/1/2
f 351/1/2 352/1/2 355/1/2
f 355/1/2 352/1/2 356/1/2
f 357/1/2 358/1/2 371/1/2
f 371/1/2 358/1/2 372/1/2
f 359/1/2 360/1/2 373/1/2
f 373/1/2 360/1/2 374/1/2
f 361/1/2 362/1/2 375/1/2
f 375/1/2 362/1/2 376/1/2
f 363/1/2 364/1/2 377/1/2
f 377/1/2 364/1/2 378/1/2
f 365/1/2 366/1/2 379/1/2
f 379/1/2 366/1/2 380/1/2
f 367/1/2 368/1/2 381/1/2
f 381/1/2 368/1/2 382/1/2
f 369/1/2 370/1/2 383/1/2
f 383/1/2 370/1/2 384/1/2
f 387/1/3 386/1/3 385/1/3
f 388/1/3 386/1/3 387/1/3
f 391/1/3 390/1/3 389/1/3
f 392/1/3 390/1/3 391/1/3
f 397/1/3 394/1/3 393/1/3
f 400/1/3 396/1/3 395/1/3
f 401/2/3 398/2/3 397/2/3
f 401/1/3 397/1/3 393/1/3
f 402/2/3 398/2/3 401/2/3
f 403/2/3 400/2/3 399/2/3
f 404/1/3 396/1/3 400/1/3
f 404/2/3 400/2/3 403/2/3
f 405/1/3 401/1/3 393/1/3
f 406/1/3 401/1/3 405/1/3
f 407/1/3 396/1/3 404/1/3
f 408/1/3 396/1/3 407/1/3
f 413/1/3 410/1/3 409/1/3
f 416/1/3 412/1/3 411/1/3
f 417/2/3 414/2/3 413/2/3
f 417/1/3 413/1/3 409/1/3
f 418/2/3 414/2/3 417/2/3
f 419/2/3 416/2/3 415/2/3
f 420/1/3 412/1/3 416/1/3
f 420/2/3 416/2/3 419/2/3
f 421/1/3 417/1/3 409/1/3
f 422/1/3 417/1/3 421/1/3
f 423/1/3 412/1/3 420/1/3
f 424/1/3 412/1/3 423/1/3
f 429/1/3 426/1/3 425/1/3
f 430/1/3 428/1/3 427/1/3
f 431/1/3 429/1/3 425/1/3
f 432/1/3 428/1/3 430/1/3
f 433/1/3 431/1/3 425/1/3
f 434/1/3 431/1/3 433/1/3
f 435/1/3 428/1/3 432/1/3
f 436/1/3 428/1/3 435/1/3
f 441/1/3 438/1/3 437/1/3
f 442/1/3 440/1/3 439/1/3
f 443/1/3 441/1/3 437/1/3
f 444/1/3 440/1/3 442/1/3
f 445/1/3 443/1/3 437/1/3
f 446/1/3 443/1/3 445/1/3
f 447/1/3 440/1/3 444/1/3
f 448/1/3 440/1/3 447/1/3
f 453/1/3 450/1/3 449/1/3
f 454/1/3 452/1/3 451/1/3
f 455/1/3 453/1/3 449/1/3
f 456/1/3 452/1/3 454/1/3
f 457/1/3 455/1/3 449/1/3
f 458/1/3 455/1/3 457/1/3
f 459/1/3 452/1/3 456/1/3
f 460/1/3 452/1/3 459/1/3
f 465/1/3 462/1/3 461/1/3
f 466/1/3 464/1/3 463/1/3
f 467/1/3 465/1/3 461/1/3
f 468/1/3 464/1/3 466/1/3
f 469/1/3 467/1/3 461/1/3
f 470/1/3 467/1/3 469/1/3
f 471/1/3 464/1/3 468/1/3
f 472/1/3 464/1/3 471/1/3
f 477/1/3 474/1/3 473/1/3
f 478/1/3 476/1/3 475/1/3
f 479/1/3 477/1/3 473/1/3
f 480/1/3 476/1/3 478/1/3
f 481/1/3 479/1/3 473/1/3
f 482/1/3 479/1/3 481/1/3
f 483/1/3 476/1/3 480/1/3
f 484/1/3 476/1/3 483/1/3
f 489/1/3 486/1/3 485/1/3
f 490/1/3 488/1/3 487/1/3
f 491/1/3 489/1/3 485/1/3
f 492/1/3 488/1/3 490/1/3
f 493/1/3 491/1/3 485/1/3
f 494/1/3 491/1/3 493/1/3
f 495/1/3 488/1/3 492/1/3
f 496/1/3 488/1/3 495/1/3
f 501/1/3 498/1/3 497/1/3
f 502/1/3 500/1/3 499/1/3
f 503/1/3 501/1/3 497/1/3
f 504/1/3 500/1/3 502/1/3
f 505/1/3 503/1/3 497/1/3
f 506/1/3 503/1/3 505/1/3
f 507/1/3 500/1/3 504/1/3
f 508/1/3 500/1/3 507/1/3
f 513/1/3 510/1/3 509/1/3
f 514/1/3 512/1/3 511/1/3
f 515/1/3 513/1/3 509/1/3
f 516/1/3 512/1/3 514/1/3
f 517/1/3 515/1/3 509/1/3
f 518/1/3 515/1/3 517/1/3
f 519/1/3 512/1/3 516/1/3
f 520/1/3 512/1/3 519/1/3
f 525/1/3 522/1/3 521/1/3
f 526/1/3 524/1/3 523/1/3
f 527/1/3 525/1/3 521/1/3
f 528/1/3 524/1/3 526/1/3
f 529/1/3 527/1/3 521/1/3
f 530/1/3 527/1/3 529/1/3
f 531/1/3 524/1/3 528/1/3
f 532/1/3 524/1/3 531/1/3
f 537/1/3 534/1/3 533/1/3
f 538/1/3 536/1/3 535/1/3
f 539/1/3 537/1/3 533/1/3
f 540/1/3 536/1/3 538/1/3
f 541/1/3 539/1/3 533/1/3
f 542/1/3 539/1/3 541/1/3
f 543/1/3 536/1/3 540/1/3
f 544/1/3 536/1/3 543/1/3
f 549/1/3 546/1/3 545/1/3
f 550/1/3 548/1/3 547/1/3
f 551/1/3 549/1/3 545/1/3
f 552/1/3 548/1/3 550/1/3
f 553/1/3 551/1/3 545/1/3
f 554/1/3 551/1/3 553/1/3
f 555/1/3 548/1/3 552/1/3
f 556/1/3 548/1/3 555/1/3
f 561/1/3 558/1/3 557/1/3
f 562/1/3 560/1/3 559/1/3
f 563/1/3 561/1/3 557/1/3
f 564/1/3 560/1/3 562/1/3
f 565/1/3 563/1/3 557/1/3
f 566/1/3 563/1/3 565/1/3
f 567/1/3 560/1/3 564/1/3
f 568/1/3 560/1/3 567/1/3
f 571/1/3 570/1/3 569/1/3
f 572/1/3 570/1/3 571/1/3
f 575/1/3 574/1/3 573/1/3
f 576/1/3 574/1/3 575/1/3
f 579/1/3 578/1/3 577/1/3
f 580/1/3 578/1/3 579/1/3
f 583/1/3 582/1/3 581/1/3
f 584/1/3 582/1/3 583/1/3
f 585/1/4 586/1/4 587/1/4
f 587/1/4 586/1/4 588/1/4
f 589/1/4 590/1/4 591/1/4
f 591/1/4 590/1/4 592/1/4
f 593/1/4 594/1/4 595/1/4
f 595/1/4 594/1/4 596/1/4
f 597/1/4 598/1/4 599/1/4
f 599/1/4 598/1/4 600/1/4
f 601/1/4 602/1/4 605/1/4
f 603/1/4 604/1/4 606/1/4
f 601/1/4 605/1/4 607/1/4
f 606/1/4 604/1/4 608/1/4
f 601/1/4 607/1/4 609/1/4
f 609/1/4 607/1/4 610/1/4
f 608/1/4 604/1/4 611/1/4
f 611/1/4 604/1/4 612/1/4
f 613/1/4 614/1/4 617/1/4
f 615/1/4 616/1/4 618/1/4
f 613/1/4 617/1/4 619/1/4
f 618/1/4 616/1/4 620/1/4
f 613/1/4 619/1/4 621/1/4
f 621/1/4 619/1/4 622/1/4
f 620/1/4 616/1/4 623/1/4
f 623/1/4 616/1/4 624/1/4
f 625/1/4 626/1/4 629/1/4
f 627/1/4 628/1/4 630/1/4
f 625/1/4 629/1/4 631/1/4
f 630/1/4 628/1/4 632/1/4
f 625/1/4 631/1/4 633/1/4
f 633/1/4 631/1/4 634/1/4
f 632/1/4 628/1/4 635/1/4
f 635/1/4 628/1/4 636/1/4
f 637/1/4 638/1/4 641/1/4
f 639/1/4 640/1/4 642/1/4
f 637/1/4 641/1/4 643/1/4
f 642/1/4 640/1/4 644/1/4
f 637/1/4 643/1/4 645/1/4
f 645/1/4 643/1/4 646/1/4
f 644/1/4 640/1/4 647/1/4
f 647/1/4 640/1/4 648/1/4
f 649/1/4 650/1/4 653/1/4
f 651/1/4 652/1/4 654/1/4
f 649/1/4 653/1/4 655/1/4
f 654/1/4 652/1/4 656/1/4
f 649/1/4 655/1/4 657/1/4
f 657/1/4 655/1/4 658/1/4
f 656/1/4 652/1/4 659/1/4
f 659/1/4 652/1/4 660/1/4
f 661/1/4 662/1/4 665/1/4
f 663/1/4 664/1/4 666/1/4
f 661/1/4 665/1/4 667/1/4
f 666/1/4 664/1/4 668/1/4
f 661/1/4 667/1/4 669/1/4
f 669/1/4 667/1/4 670/1/4
f 668/1/4 664/1/4 671/1/4
f 671/1/4 664/1/4 672/1/4
f 673/1/4 674/1/4 677/1/4
f 675/1/4 676/1/4 678/1/4
f 673/1/4 677/1/4 679/1/4
f 678/1/4 676/1/4 680/1/4
f 673/1/4 679/1/4 681/1/4
f 681/1/4 679/1/4 682/1/4
f 680/1/4 676/1/4 683/1/4
f 683/1/4 676/1/4 684/1/4
f 685/1/4 686/1/4 689/1/4
f 687/1/4 688/1/4 690/1/4
f 685/1/4 689/1/4 691/1/4
f 690/1/4 688/1/4 692/1/4
f 685/1/4 691/1/4 693/1/4
f 693/1/4 691/1/4 694/1/4
f 692/1/4 688/1/4 695/1/4
f 695/1/4 688/1/4 696/1/4
f 697/1/4 698/1/4 701/1/4
f 699/1/4 700/1/4 702/1/4
f 697/1/4 701/1/4 703/1/4
f 702/1/4 700/1/4 704/1/4
f 697/1/4 703/1/4 705/1/4
f 705/1/4 703/1/4 706/1/4
f 704/1/4 700/1/4 707/1/4
f 707/1/4 700/1/4 708/1/4
f 709/1/4 710/1/4 713/1/4
f 711/1/4 712/1/4 714/1/4
f 709/1/4 713/1/4 715/1/4
f 714/1/4 712/1/4 716/1/4
f 709/1/4 715/1/4 717/1/4
f 717/1/4 715/1/4 718/1/4
f 716/1/4 712/1/4 719/1/4
f 719/1/4 712/1/4 720/1/4
f 721/1/4 722/1/4 725/1/4
f 723/1/4 724/1/4 726/1/4
f 721/1/4 725/1/4 727/1/4
f 726/1/4 724/1/4 728/1/4
f 721/1/4 727/1/4 729/1/4
f 729/1/4 727/1/4 730/1/4
f 728/1/4 724/1/4 731/1/4
f 731/1/4 724/1/4 732/1/4
f 733/1/4 734/1/4 737/1/4
f 735/1/4 736/1/4 738/1/4
f 733/1/4 737/1/4 739/1/4
f 738/1/4 736/1/4 740/1/4
f 733/1/4 739/1/4 741/1/4
f 741/1/4 739/1/4 742/1/4
f 740/1/4 736/1/4 743/1/4
f 743/1/4 736/1/4 744/1/4
f 745/1/4 746/1/4 749/1/4
f 747/1/4 748/1/4 752/1/4
f 749/2/4 750/2/4 753/2/4
f 745/1/4 749/1/4 753/1/4
f 753/2/4 750/2/4 754/2/4
f 751/2/4 752/2/4 755/2/4
f 752/1/4 748/1/4 756/1/4
f 755/2/4 752/2/4 756/2/4
f 745/1/4 753/1/4 757/1/4
f 757/1/4 753/1/4 758/1/4
f 756/1/4 748/1/4 759/1/4
f 759/1/4 748/1/4 760/1/4
f 761/1/4 762/1/4 765/1/4
f 763/1/4 764/1/4 768/1/4
f 765/2/4 766/2/4 769/2/4
f 761/1/4 765/1/4 769/1/4
f 769/2/4 766/2/4 770/2/4
f 767/2/4 768/2/4 771/2/4
f 768/1/4 764/1/4 772/1/4
f 771/2/4 768/2/4 772/2/4
f 761/1/4 769/1/4 773/1/4
f 773/1/4 769/1/4 774/1/4
f 772/1/4 764/1/4 775/1/4
f 775/1/4 764/1/4 776/1/4
f 777/1/4 778/1/4 779/1/4
f 779/1/4 778/1/4 780/1/4
f 781/1/4 782/1/4 783/1/4
f 783/1/4 782/1/4 784/1/4
f 789/1/5 786/1/5 785/1/5
f 790/1/5 786/1/5 789/1/5
f 791/1/5 788/1/5 787/1/5
f 792/1/5 788/1/5 791/1/5
f 797/1/5 794/1/5 793/1/5
f 798/1/5 794/1/5 797/1/5
f 799/1/5 796/1/5 795/1/5
f 800/1/5 796/1/5 799/1/5
f 805/1/5 802/1/5 801/1/5
f 806/1/5 802/1/5 805/1/5
f 807/1/5 804/1/5 803/1/5
f 808/1/5 804/1/5 807/1/5
f 813/1/5 810/1/5 809/1/5
f 814/1/5 810/1/5 813/1/5
f 815/1/5 812/1/5 811/1/5
f 816/1/5 812/1/5 815/1/5
f 821/1/5 818/1/5 817/1/5
f 822/1/5 818/1/5 821/1/5
f 823/1/5 820/1/5 819/1/5
f 824/1/5 820/1/5 823/1/5
f 829/1/5 826/1/5 825/1/5
f 830/1/5 826/1/5 829/1/5
f 831/1/5 828/1/5 827/1/5
f 832/1/5 828/1/5 831/1/5
f 837/1/5 834/1/5 833/1/5
f 838/1/5 834/1/5 837/1/5
f 839/1/5 836/1/5 835/1/5
f 840/1/5 836/1/5 839/1/5
f 845/2/5 842/2/5 841/2/5
f 846/2/5 842/2/5 845/2/5
f 847/2/5 844/2/5 843/2/5
f 848/2/5 844/2/5 847/2/5
f 853/2/5 850/2/5 849/2/5
f 854/2/5 850/2/5 853/2/5
f 855/2/5 852/2/5 851/2/5
f 856/2/5 852/2/5 855/2/5
f 861/2/5 858/2/5 857/2/5
f 862/2/5 858/2/5 861/2/5
f 863/2/5 860/2/5 859/2/5
f 864/2/5 860/2/5 863/2/5
f 869/2/5 866/2/5 865/2/5
f 870/2/5 866/2/5 869/2/5
f 871/2/5 868/2/5 867/2/5
f 872/2/5 868/2/5 871/2/5
f 877/2/5 874/2/5 873/2/5
f 878/2/5 874/2/5 877/2/5
f 879/2/5 876/2/5 875/2/5
f 880/2/5 876/2/5 879/2/5
f 885/2/5 882/2/5 881/2/5
f 886/2/5 882/2/5 885/2/5
f 887/2/5 884/2/5 883/2/5
f 888/2/5 884/2/5 887/2/5
f 893/1/5 890/1/5 889/1/5
f 894/1/5 890/1/5 893/1/5
f 895/1/5 890/1/5 894/1/5
f 896/1/5 890/1/5 895/1/5
f 897/1/5 892/1/5 891/1/5
f 898/1/5 892/1/5 897/1/5
f 899/1/5 892/1/5 898/1/5
f 900/1/5 892/1/5 899/1/5
f 909/1/5 902/1/5 901/1/5
f 909/1/5 903/1/5 902/1/5
f 909/1/5 904/1/5 903/1/5
f 910/1/5 904/1/5 909/1/5
f 911/1/5 908/1/5 907/1/5
f 911/1/5 907/1/5 906/1/5
f 911/1/5 906/1/5 905/1/5
f 912/1/5 908/1/5 911/1/5
f 921/1/5 914/1/5 913/1/5
f 922/1/5 914/1/5 921/1/5
f 923/1/5 916/1/5 915/1/5
f 924/1/5 916/1/5 923/1/5
f 925/1/5 918/1/5 917/1/5
f 926/1/5 918/1/5 925/1/5
f 927/1/5 920/1/5 919/1/5
f 928/1/5 920/1/5 927/1/5
f 937/1/5 930/1/5 929/1/5
f 938/1/5 930/1/5 937/1/5
f 939/1/5 932/1/5 931/1/5
f 940/1/5 932/1/5 939/1/5
f 941/1/5 934/1/5 933/1/5
f 942/1/5 934/1/5 941/1/5
f 943/1/5 936/1/5 935/1/5
f 944/1/5 936/1/5 943/1/5
f 953/1/5 946/1/5 945/1/5
f 954/1/5 946/1/5 953/1/5
f 955/1/5 948/1/5 947/1/5
f 956/1/5 948/1/5 955/1/5
f 957/1/5 950/1/5 949/1/5
f 958/1/5 950/1/5 957/1/5
f 959/1/5 952/1/5 951/1/5
f 960/1/5 952/1/5 959/1/5
f 969/1/5 962/1/5 961/1/5
f 970/1/5 962/1/5 969/1/5
f 971/1/5 964/1/5 963/1/5
f 972/1/5 964/1/5 971/1/5
f 973/1/5 966/1/5 965/1/5
f 974/1/5 966/1/5 973/1/5
f 975/1/5 968/1/5 967/1/5
f 976/1/5 968/1/5 975/1/5
f 985/1/5 978/1/5 977/1/5
f 986/1/5 978/1/5 985/1/5
f 987/1/5 980/1/5 979/1/5
f 988/1/5 980/1/5 987/1/5
f 989/1/5 982/1/5 981/1/5
f 990/1/5 982/1/5 989/1/5
f 991/1/5 984/1/5 983/1/5
f 992/1/5 984/1/5 991/1/5
f 1001/1/5 994/1/5 993/1/5
f 1002/1/5 994/1/5 1001/1/5
f 1003/1/5 996/1/5 995/1/5
f 1004/1/5 996/1/5 1003/1/5
f 1005/1/5 998/1/5 997/1/5
f 1006/1/5 998/1/5 1005/1/5
f 1007/1/5 1000/1/5 999/1/5
f 1008/1/5 1000/1/5 1007/1/5
f 1017/1/5 1010/1/5 1009/1/5
f 1018/1/5 1010/1/5 1017/1/5
f 1019/1/5 1012/1/5 1011/1/5
f 1020/1/5 1012/1/5 1019/1/5
f 1021/1/5 1014/1/5 1013/1/5
f 1022/1/5 1014/1/5 1021/1/5
f 1023/1/5 1016/1/5 1015/1/5
f 1024/1/5 1016/1/5 1023/1/5
f 1025/1/6 1026/1/6 1033/1/6
f 1033/1/6 1026/1/6 1034/1/6
f 1027/1/6 1028/1/6 1035/1/6
f 1035/1/6 1028/1/6 1036/1/6
f 1029/1/6 1030/1/6 1037/1/6
f 1037/1/6 1030/1/6 1038/1/6
f 1031/1/6 1032/1/6 1039/1/6
f 1039/1/6 1032/1/6 1040/1/6
f 1041/1/6 1042/1/6 1049/1/6
f 1049/1/6 1042/1/6 1050/1/6
f 1043/1/6 1044/1/6 1051/1/6
f 1051/1/6 1044/1/6 1052/1/6
f 1045/1/6 1046/1/6 1053/1/6
f 1053/1/6 1046/1/6 1054/1/6
f 1047/1/6 1048/1/6 1055/1/6
f 1055/1/6 1048/1/6 1056/1/6
f 1057/1/6 1058/1/6 1065/1/6
f 1065/1/6 1058/1/6 1066/1/6
f 1059/1/6 1060/1/6 1067/1/6
f 1067/1/6 1060/1/6 1068/1/6
f 1061/1/6 1062/1/6 1069/1/6
f 1069/1/6 1062/1/6 1070/1/6
f 1063/1/6 1064/1/6 1071/1/6
f 1071/1/6 1064/1/6 1072/1/6
f 1073/1/6 1074/1/6 1081/1/6
f 1081/1/6 1074/1/6 1082/1/6
f 1075/1/6 1076/1/6 1083/1/6
f 1083/1/6 1076/1/6 1084/1/6
f 1077/1/6 1078/1/6 1085/1/6
f 1085/1/6 1078/1/6 1086/1/6
f 1079/1/6 1080/1/6 1087/1/6
f 1087/1/6 1080/1/6 1088/1/6
f 1089/1/6 1090/1/6 1097/1/6
f 1097/1/6 1090/1/6 1098/1/6
f 1091/1/6 1092/1/6 1099/1/6
f 1099/1/6 1092/1/6 1100/1/6
f 1093/1/6 1094/1/6 1101/1/6
f 1101/1/6 1094/1/6 1102/1/6
f 1095/1/6 1096/1/6 1103/1/6
f 1103/1/6 1096/1/6 1104/1/6
f 1105/1/6 1106/1/6 1113/1/6
f 1113/1/6 1106/1/6 1114/1/6
f 1107/1/6 1108/1/6 1115/1/6
f 1115/1/6 1108/1/6 1116/1/6
f 1109/1/6 1110/1/6 1117/1/6
f 1117/1/6 1110/1/6 1118/1/6
f 1111/1/6 1112/1/6 1119/1/6
f 1119/1/6 1112/1/6 1120/1/6
f 1121/1/6 1122/1/6 1129/1/6
f 1129/1/6 1122/1/6 1130/1/6
f 1123/1/6 1124/1/6 1131/1/6
f 1131/1/6 1124/1/6 1132/1/6
f 1125/1/6 1126/1/6 1133/1/6
f 1133/1/6 1126/1/6 1134/1/6
f 1127/1/6 1128/1/6 1135/1/6
f 1135/1/6 1128/1/6 1136/1/6
f 1137/1/6 1138/1/6 1141/1/6
f 1141/1/6 1138/1/6 1142/1/6
f 1142/1/6 1138/1/6 1143/1/6
f 1143/1/6 1138/1/6 1144/1/6
f 1139/1/6 1140/1/6 1145/1/6
f 1145/1/6 1140/1/6 1146/1/6
f 1146/1/6 1140/1/6 1147/1/6
f 1147/1/6 1140/1/6 1148/1/6
f 1149/1/6 1150/1/6 1157/1/6
f 1150/1/6 1151/1/6 1157/1/6
f 1151/1/6 1152/1/6 1157/1/6
f 1157/1/6 1152/1/6 1158/1/6
f 1155/1/6 1156/1/6 1159/1/6
f 1154/1/6 1155/1/6 1159/1/6
f 1153/1/6 1154/1/6 1159/1/6
f 1159/1/6 1156/1/6 1160/1/6
f 1161/2/6 1162/2/6 1165/2/6
f 1165/2/6 1162/2/6 1166/2/6
f 1163/2/6 1164/2/6 1167/2/6
f 1167/2/6 1164/2/6 1168/2/6
f 1169/2/6 1170/2/6 1173/2/6
f 1173/2/6 1170/2/6 1174/2/6
f 1171/2/6 1172/2/6 1175/2/6
f 1175/2/6 1172/2/6 1176/2/6
f 1177/2/6 1178/2/6 1181/2/6
f 1181/2/6 1178/2/6 1182/2/6
f 1179/2/6 1180/2/6 1183/2/6
f 1183/2/6 1180/2/6 1184/2/6
f 1185/2/6 1186/2/6 1189/2/6
f 1189/2/6 1186/2/6 1190/2/6
f 1187/2/6 1188/2/6 1191/2/6
f 1191/2/6 1188/2/6 1192/2/6
f 1193/2/6 1194/2/6 1197/2/6
f 1197/2/6 1194/2/6 1198/2/6
f 1195/2/6 1196/2/6 1199/2/6
f 1199/2/6 1196/2/6 1200/2/6
f 1201/2/6 1202/2/6 1205/2/6
f 1205/2/6 1202/2/6 1206/2/6
f 1203/2/6 1204/2/6 1207/2/6
f 1207/2/6 1204/2/6 1208/2/6
f 1209/1/6 1210/1/6 1213/1/6
f 1213/1/6 1210/1/6 1214/1/6
f 1211/1/6 1212/1/6 1215/1/6
f 1215/1/6 1212/1/6 1216/1/6
f 1217/1/6 1218/1/6 1221/1/6
f 1221/1/6 1218/1/6 1222/1/6
f 1219/1/6 1220/1/6 1223/1/6
f 1223/1/6 1220/1/6 1224/1/6
f 1225/1/6 1226/1/6 1229/1/6
f 1229/1/6 1226/1/6 1230/1/6
f 1227/1/6 1228/1/6 1231/1/6
f 1231/1/6 1228/1/6 1232/1/6
f 1233/1/6 1234/1/6 1237/1/6
f 1237/1/6 1234/1/6 1238/1/6
f 1235/1/6 1236/1/6 1239/1/6
f 1239/1/6 1236/1/6 1240/1/6
f 1241/1/6 1242/1/6 1245/1/6
f 1245/1/6 1242/1/6 1246/1/6
f 1243/1/6 1244/1/6 1247/1/6
f 1247/1/6 1244/1/6 1248/1/6
f 1249/1/6 1250/1/6 1253/1/6
f 1253/1/6 1250/1/6 1254/1/6
f 1251/1/6 1252/1/6 1255/1/6
f 1255/1/6 1252/1/6 1256/1/6
f 1257/1/6 1258/1/6 1261/1/6
f 1261/1/6 1258/1/6 1262/1/6
f 1259/1/6 1260/1/6 1263/1/6
f 1263/1/6 1260/1/6 1264/1/6
