# MagicaVoxel @ Ephtracy

# material
mtllib fuleBox-10.mtl
usemtl palette

# normals
vn -1 0 0
vn 1 0 0
vn 0 0 1
vn 0 0 -1
vn 0 -1 0
vn 0 1 0

# texcoords
vt 0.951172 0.5
vt 0.994141 0.5

# verts
v -5 0 5
v -5 0 -5
v -5 1 4
v -5 1 -4
v -5 10 4
v -5 10 -4
v -5 11 5
v -5 11 -5
v 5 0 5
v 5 0 -5
v 5 1 4
v 5 1 -4
v 5 10 4
v 5 10 -4
v 5 11 5
v 5 11 -5
v -5 0 5
v -5 11 5
v -4 1 5
v -4 10 5
v 4 1 5
v 4 10 5
v 5 0 5
v 5 11 5
v -5 0 -5
v -5 11 -5
v -4 1 -5
v -4 10 -5
v 4 1 -5
v 4 10 -5
v 5 0 -5
v 5 11 -5
v -5 0 5
v 5 0 5
v -5 0 -5
v 5 0 -5
v -5 11 5
v 5 11 5
v -4 11 4
v 4 11 4
v -4 11 -4
v 4 11 -4
v -5 11 -5
v 5 11 -5

# faces
f 3/2/1 2/2/1 1/2/1
f 4/2/1 2/2/1 3/2/1
f 5/2/1 3/2/1 1/2/1
f 5/1/1 4/1/1 3/1/1
f 6/2/1 2/2/1 4/2/1
f 6/1/1 4/1/1 5/1/1
f 7/2/1 5/2/1 1/2/1
f 7/2/1 6/2/1 5/2/1
f 8/2/1 2/2/1 6/2/1
f 8/2/1 6/2/1 7/2/1
f 9/2/2 10/2/2 11/2/2
f 11/2/2 10/2/2 12/2/2
f 9/2/2 11/2/2 13/2/2
f 11/1/2 12/1/2 13/1/2
f 12/2/2 10/2/2 14/2/2
f 13/1/2 12/1/2 14/1/2
f 9/2/2 13/2/2 15/2/2
f 13/2/2 14/2/2 15/2/2
f 14/2/2 10/2/2 16/2/2
f 15/2/2 14/2/2 16/2/2
f 19/2/3 18/2/3 17/2/3
f 20/2/3 18/2/3 19/2/3
f 21/2/3 19/2/3 17/2/3
f 21/1/3 20/1/3 19/1/3
f 22/2/3 18/2/3 20/2/3
f 22/1/3 20/1/3 21/1/3
f 23/2/3 21/2/3 17/2/3
f 23/2/3 22/2/3 21/2/3
f 24/2/3 18/2/3 22/2/3
f 24/2/3 22/2/3 23/2/3
f 25/2/4 26/2/4 27/2/4
f 27/2/4 26/2/4 28/2/4
f 25/2/4 27/2/4 29/2/4
f 27/1/4 28/1/4 29/1/4
f 28/2/4 26/2/4 30/2/4
f 29/1/4 28/1/4 30/1/4
f 25/2/4 29/2/4 31/2/4
f 29/2/4 30/2/4 31/2/4
f 30/2/4 26/2/4 32/2/4
f 31/2/4 30/2/4 32/2/4
f 35/2/5 34/2/5 33/2/5
f 36/2/5 34/2/5 35/2/5
f 37/2/6 38/2/6 39/2/6
f 39/2/6 38/2/6 40/2/6
f 37/2/6 39/2/6 41/2/6
f 39/1/6 40/1/6 41/1/6
f 40/2/6 38/2/6 42/2/6
f 41/1/6 40/1/6 42/1/6
f 37/2/6 41/2/6 43/2/6
f 41/2/6 42/2/6 43/2/6
f 42/2/6 38/2/6 44/2/6
f 43/2/6 42/2/6 44/2/6
