# MagicaVoxel @ Ephtracy

# material
mtllib golem-body-80.mtl
usemtl palette

# normals
vn -1 0 0
vn 1 0 0
vn 0 0 1
vn 0 0 -1
vn 0 -1 0
vn 0 1 0

# texcoords
vt 0.849609 0.5
vt 0.861328 0.5
vt 0.865234 0.5
vt 0.947266 0.5
vt 0.951172 0.5

# verts
v -5 0 6
v -5 0 5
v -5 0 -7
v -5 1 5
v -5 1 3
v -5 2 3
v -5 2 1
v -5 2 -1
v -5 2 -7
v -5 3 7
v -5 3 6
v -5 3 5
v -5 3 3
v -5 4 7
v -5 4 5
v -5 7 2
v -5 7 1
v -5 7 -1
v -5 7 -2
v -5 8 7
v -5 8 2
v -5 8 1
v -5 8 -1
v -5 8 -2
v -5 8 -7
v -5 10 7
v -5 10 2
v -5 10 1
v -5 10 -1
v -5 10 -2
v -5 10 -7
v -5 11 2
v -5 11 1
v -5 11 -1
v -5 11 -2
v -5 14 -3
v -5 14 -5
v -5 15 -5
v -5 15 -7
v -5 16 -4
v -5 16 -7
v -5 18 -4
v -5 18 -7
v -5 19 -3
v -5 19 -7
v -5 24 7
v -5 24 1
v -5 24 -1
v -5 24 -7
v -3 0 7
v -3 0 6
v -3 3 7
v -3 3 6
v -3 16 -4
v -3 16 -7
v -3 18 -4
v -3 18 -7
v 4 14 2
v 4 14 1
v 4 16 2
v 4 16 1
v 5 0 7
v 5 0 -7
v 5 2 7
v 5 2 -7
v 5 8 7
v 5 8 -7
v 5 10 7
v 5 10 -7
v 5 13 3
v 5 13 -0
v 5 14 2
v 5 14 1
v 5 16 2
v 5 16 1
v 5 17 3
v 5 17 -0
v 5 24 7
v 5 24 -7
v -5 3 7
v -5 4 7
v -5 8 7
v -5 10 7
v -5 24 7
v -3 0 7
v -3 3 7
v -3 4 7
v -3 5 7
v -2 0 7
v -2 2 7
v 0 2 7
v 0 5 7
v 5 0 7
v 5 2 7
v 5 8 7
v 5 10 7
v 5 24 7
v -5 0 6
v -5 3 6
v -3 0 6
v -3 3 6
v 4 14 1
v 4 16 1
v 5 14 1
v 5 16 1
v 4 14 2
v 4 16 2
v 5 14 2
v 5 16 2
v -5 16 -4
v -5 18 -4
v -3 16 -4
v -3 18 -4
v -5 0 -7
v -5 2 -7
v -5 8 -7
v -5 10 -7
v -5 15 -7
v -5 16 -7
v -5 18 -7
v -5 19 -7
v -5 24 -7
v -3 16 -7
v -3 18 -7
v -2 15 -7
v -2 17 -7
v -1 17 -7
v -1 18 -7
v 0 18 -7
v 0 19 -7
v 5 0 -7
v 5 2 -7
v 5 8 -7
v 5 10 -7
v 5 24 -7
v -3 0 7
v -2 0 7
v 5 0 7
v -5 0 6
v -3 0 6
v -2 0 6
v 4 0 6
v -5 0 5
v -4 0 5
v -2 0 5
v -4 0 -6
v 4 0 -6
v -5 0 -7
v 5 0 -7
v -5 3 7
v -3 3 7
v -5 3 6
v -3 3 6
v 4 16 2
v 5 16 2
v 4 16 1
v 5 16 1
v -5 18 -4
v -3 18 -4
v -5 18 -7
v -3 18 -7
v 4 14 2
v 5 14 2
v 4 14 1
v 5 14 1
v -5 16 -4
v -3 16 -4
v -5 16 -7
v -3 16 -7
v -5 24 7
v 5 24 7
v -5 24 1
v -4 24 1
v -5 24 -1
v -4 24 -1
v -5 24 -7
v 5 24 -7

# faces
f 4/3/1 2/3/1 1/3/1
f 4/2/1 3/2/1 2/2/1
f 5/2/1 3/2/1 4/2/1
f 6/3/1 5/3/1 4/3/1
f 6/2/1 3/2/1 5/2/1
f 7/2/1 3/2/1 6/2/1
f 8/2/1 3/2/1 7/2/1
f 9/2/1 3/2/1 8/2/1
f 11/3/1 4/3/1 1/3/1
f 11/3/1 6/3/1 4/3/1
f 12/3/1 6/3/1 11/3/1
f 13/4/1 7/4/1 6/4/1
f 13/3/1 6/3/1 12/3/1
f 14/3/1 12/3/1 11/3/1
f 14/3/1 11/3/1 10/3/1
f 15/4/1 13/4/1 12/4/1
f 15/3/1 12/3/1 14/3/1
f 16/4/1 7/4/1 13/4/1
f 16/4/1 13/4/1 15/4/1
f 16/4/1 15/4/1 14/4/1
f 17/2/1 8/2/1 7/2/1
f 17/4/1 7/4/1 16/4/1
f 18/4/1 9/4/1 8/4/1
f 18/2/1 8/2/1 17/2/1
f 19/4/1 9/4/1 18/4/1
f 20/4/1 16/4/1 14/4/1
f 21/5/1 17/5/1 16/5/1
f 21/4/1 16/4/1 20/4/1
f 21/5/1 18/5/1 17/5/1
f 21/5/1 19/5/1 18/5/1
f 22/5/1 19/5/1 21/5/1
f 23/5/1 19/5/1 22/5/1
f 24/4/1 9/4/1 19/4/1
f 24/5/1 19/5/1 23/5/1
f 25/4/1 9/4/1 24/4/1
f 26/1/1 21/1/1 20/1/1
f 27/5/1 22/5/1 21/5/1
f 27/1/1 21/1/1 26/1/1
f 28/1/1 23/1/1 22/1/1
f 28/5/1 22/5/1 27/5/1
f 29/5/1 24/5/1 23/5/1
f 29/1/1 23/1/1 28/1/1
f 30/1/1 25/1/1 24/1/1
f 30/5/1 24/5/1 29/5/1
f 31/1/1 25/1/1 30/1/1
f 32/4/1 27/4/1 26/4/1
f 32/5/1 28/5/1 27/5/1
f 32/5/1 29/5/1 28/5/1
f 32/5/1 30/5/1 29/5/1
f 33/5/1 30/5/1 32/5/1
f 34/5/1 30/5/1 33/5/1
f 35/4/1 31/4/1 30/4/1
f 35/5/1 30/5/1 34/5/1
f 36/4/1 35/4/1 34/4/1
f 36/4/1 31/4/1 35/4/1
f 37/4/1 31/4/1 36/4/1
f 38/3/1 37/3/1 36/3/1
f 38/4/1 31/4/1 37/4/1
f 39/4/1 31/4/1 38/4/1
f 40/3/1 38/3/1 36/3/1
f 40/3/1 39/3/1 38/3/1
f 41/3/1 39/3/1 40/3/1
f 42/3/1 40/3/1 36/3/1
f 44/4/1 36/4/1 34/4/1
f 44/3/1 43/3/1 42/3/1
f 44/3/1 42/3/1 36/3/1
f 45/3/1 43/3/1 44/3/1
f 46/4/1 32/4/1 26/4/1
f 46/4/1 33/4/1 32/4/1
f 47/2/1 34/2/1 33/2/1
f 47/4/1 33/4/1 46/4/1
f 48/4/1 45/4/1 44/4/1
f 48/2/1 34/2/1 47/2/1
f 48/4/1 44/4/1 34/4/1
f 49/4/1 45/4/1 48/4/1
f 52/3/1 51/3/1 50/3/1
f 53/3/1 51/3/1 52/3/1
f 56/3/1 55/3/1 54/3/1
f 57/3/1 55/3/1 56/3/1
f 58/3/2 59/3/2 60/3/2
f 60/3/2 59/3/2 61/3/2
f 62/2/2 63/2/2 64/2/2
f 64/2/2 63/2/2 65/2/2
f 64/4/2 65/4/2 66/4/2
f 66/4/2 65/4/2 67/4/2
f 66/1/2 67/1/2 68/1/2
f 68/1/2 67/1/2 69/1/2
f 68/4/2 69/4/2 70/4/2
f 70/4/2 69/4/2 71/4/2
f 70/3/2 71/3/2 72/3/2
f 72/3/2 71/3/2 73/3/2
f 70/3/2 72/3/2 74/3/2
f 73/3/2 71/3/2 75/3/2
f 68/4/2 70/4/2 76/4/2
f 74/3/2 75/3/2 76/3/2
f 70/3/2 74/3/2 76/3/2
f 75/3/2 71/3/2 77/3/2
f 76/3/2 75/3/2 77/3/2
f 71/4/2 69/4/2 77/4/2
f 68/4/2 76/4/2 78/4/2
f 76/4/2 77/4/2 78/4/2
f 77/4/2 69/4/2 79/4/2
f 78/4/2 77/4/2 79/4/2
f 86/3/3 81/3/3 80/3/3
f 87/4/3 82/4/3 81/4/3
f 87/3/3 81/3/3 86/3/3
f 88/4/3 82/4/3 87/4/3
f 89/3/3 86/3/3 85/3/3
f 89/3/3 87/3/3 86/3/3
f 89/3/3 88/3/3 87/3/3
f 90/3/3 88/3/3 89/3/3
f 91/2/3 90/2/3 89/2/3
f 91/3/3 88/3/3 90/3/3
f 92/4/3 82/4/3 88/4/3
f 92/3/3 88/3/3 91/3/3
f 93/2/3 91/2/3 89/2/3
f 94/4/3 92/4/3 91/4/3
f 94/2/3 91/2/3 93/2/3
f 95/4/3 82/4/3 92/4/3
f 95/4/3 92/4/3 94/4/3
f 95/1/3 83/1/3 82/1/3
f 96/4/3 84/4/3 83/4/3
f 96/1/3 83/1/3 95/1/3
f 97/4/3 84/4/3 96/4/3
f 100/3/3 99/3/3 98/3/3
f 101/3/3 99/3/3 100/3/3
f 104/3/3 103/3/3 102/3/3
f 105/3/3 103/3/3 104/3/3
f 106/3/4 107/3/4 108/3/4
f 108/3/4 107/3/4 109/3/4
f 110/3/4 111/3/4 112/3/4
f 112/3/4 111/3/4 113/3/4
f 118/3/4 119/3/4 123/3/4
f 120/3/4 121/3/4 124/3/4
f 117/4/4 118/4/4 125/4/4
f 123/3/4 124/3/4 125/3/4
f 118/3/4 123/3/4 125/3/4
f 125/3/4 124/3/4 126/3/4
f 125/4/4 126/4/4 127/4/4
f 126/3/4 124/3/4 127/3/4
f 124/3/4 121/3/4 128/3/4
f 127/3/4 124/3/4 128/3/4
f 127/4/4 128/4/4 129/4/4
f 128/3/4 121/3/4 129/3/4
f 121/4/4 122/4/4 130/4/4
f 129/3/4 121/3/4 130/3/4
f 114/2/4 115/2/4 131/2/4
f 115/4/4 116/4/4 132/4/4
f 131/2/4 115/2/4 132/2/4
f 116/1/4 117/1/4 133/1/4
f 132/4/4 116/4/4 133/4/4
f 125/4/4 127/4/4 134/4/4
f 133/1/4 117/1/4 134/1/4
f 127/4/4 129/4/4 134/4/4
f 129/4/4 130/4/4 134/4/4
f 117/4/4 125/4/4 134/4/4
f 130/4/4 122/4/4 135/4/4
f 134/4/4 130/4/4 135/4/4
f 140/3/5 137/3/5 136/3/5
f 141/2/5 138/2/5 137/2/5
f 141/3/5 137/3/5 140/3/5
f 142/2/5 138/2/5 141/2/5
f 143/3/5 140/3/5 139/3/5
f 143/3/5 141/3/5 140/3/5
f 144/3/5 141/3/5 143/3/5
f 145/4/5 142/4/5 141/4/5
f 145/3/5 141/3/5 144/3/5
f 146/2/5 144/2/5 143/2/5
f 146/4/5 145/4/5 144/4/5
f 147/2/5 138/2/5 142/2/5
f 147/4/5 145/4/5 146/4/5
f 147/4/5 142/4/5 145/4/5
f 148/2/5 146/2/5 143/2/5
f 148/2/5 147/2/5 146/2/5
f 149/2/5 138/2/5 147/2/5
f 149/2/5 147/2/5 148/2/5
f 152/3/5 151/3/5 150/3/5
f 153/3/5 151/3/5 152/3/5
f 156/3/5 155/3/5 154/3/5
f 157/3/5 155/3/5 156/3/5
f 160/3/5 159/3/5 158/3/5
f 161/3/5 159/3/5 160/3/5
f 162/3/6 163/3/6 164/3/6
f 164/3/6 163/3/6 165/3/6
f 166/3/6 167/3/6 168/3/6
f 168/3/6 167/3/6 169/3/6
f 170/4/6 171/4/6 172/4/6
f 172/4/6 171/4/6 173/4/6
f 172/2/6 173/2/6 174/2/6
f 173/4/6 171/4/6 175/4/6
f 174/2/6 173/2/6 175/2/6
f 174/4/6 175/4/6 176/4/6
f 175/4/6 171/4/6 177/4/6
f 176/4/6 175/4/6 177/4/6
