# MagicaVoxel @ Ephtracy

# material
mtllib golem-head-80.mtl
usemtl palette

# normals
vn -1 0 0
vn 1 0 0
vn 0 0 1
vn 0 0 -1
vn 0 -1 0
vn 0 1 0

# texcoords
vt 0.861328 0.5
vt 0.865234 0.5
vt 0.947266 0.5
vt 0.970703 0.5

# verts
v -5 3 5
v -5 3 4
v -5 4 5
v -5 4 4
v -5 10 5
v -5 10 -5
v -5 12 5
v -5 12 -5
v -4 2 5
v -4 2 4
v -4 2 -4
v -4 3 5
v -4 3 4
v -4 4 5
v -4 4 4
v -4 5 5
v -4 5 4
v -4 5 -2
v -4 6 4
v -4 6 -1
v -4 8 4
v -4 8 -1
v -4 9 3
v -4 9 -2
v -4 10 4
v -4 10 3
v -4 10 -4
v -4 12 4
v -4 12 -4
v -4 13 4
v -4 13 -4
v -3 1 5
v -3 1 3
v -3 2 5
v -3 2 4
v -3 2 3
v -3 13 3
v -3 13 -3
v -3 14 3
v -3 14 -3
v -2 0 5
v -2 0 3
v -2 1 5
v -2 1 3
v -2 5 5
v -2 5 4
v -2 6 5
v -2 6 4
v -2 6 -1
v -2 9 4
v -2 9 -1
v -2 14 2
v -2 14 -2
v -2 15 2
v -2 15 -2
v -1 15 1
v -1 15 -1
v -1 16 1
v -1 16 -1
v 3 3 5
v 3 3 4
v 3 3 3
v 3 4 5
v 3 4 4
v 3 5 4
v 3 5 3
v 3 8 4
v 3 8 3
v 3 9 4
v 3 9 3
v 4 16 1
v 4 16 -1
v 4 17 1
v 4 17 -1
v -3 3 5
v -3 3 4
v -3 3 3
v -3 4 5
v -3 4 4
v -3 5 4
v -3 5 3
v -3 8 4
v -3 8 -1
v -3 9 4
v -3 9 -1
v 1 0 5
v 1 0 3
v 1 1 5
v 1 1 3
v 2 5 5
v 2 5 4
v 2 6 5
v 2 6 4
v 2 8 4
v 2 8 3
v 2 9 4
v 2 9 3
v 3 1 5
v 3 1 3
v 3 2 5
v 3 2 4
v 3 2 3
v 4 2 5
v 4 2 4
v 4 2 -4
v 4 3 5
v 4 3 4
v 4 4 5
v 4 4 4
v 4 5 5
v 4 5 4
v 4 10 4
v 4 10 -4
v 4 12 4
v 4 12 -4
v 4 13 4
v 4 13 3
v 4 13 -3
v 4 13 -4
v 4 14 3
v 4 14 2
v 4 14 1
v 4 14 -1
v 4 14 -2
v 4 14 -3
v 4 15 2
v 4 15 1
v 4 15 -1
v 4 15 -2
v 5 3 5
v 5 3 4
v 5 4 5
v 5 4 4
v 5 10 5
v 5 10 -5
v 5 12 5
v 5 12 -5
v 5 14 1
v 5 14 -1
v 5 15 1
v 5 15 -1
v 6 15 1
v 6 15 -1
v 6 17 1
v 6 17 -1
v -5 3 5
v -5 4 5
v -5 10 5
v -5 12 5
v -4 2 5
v -4 3 5
v -4 4 5
v -4 5 5
v -3 1 5
v -3 2 5
v -3 3 5
v -3 4 5
v -2 0 5
v -2 1 5
v -2 5 5
v -2 6 5
v -1 5 5
v -1 6 5
v 0 0 5
v 0 2 5
v 1 0 5
v 1 1 5
v 2 1 5
v 2 2 5
v 2 5 5
v 2 6 5
v 3 1 5
v 3 2 5
v 3 3 5
v 3 4 5
v 4 2 5
v 4 3 5
v 4 4 5
v 4 5 5
v 5 3 5
v 5 4 5
v 5 10 5
v 5 12 5
v -4 5 4
v -4 6 4
v -4 8 4
v -4 10 4
v -4 12 4
v -4 13 4
v -3 8 4
v -3 9 4
v -2 5 4
v -2 6 4
v -2 9 4
v -1 6 4
v -1 10 4
v 2 5 4
v 2 6 4
v 2 8 4
v 2 9 4
v 3 8 4
v 3 9 4
v 4 5 4
v 4 10 4
v 4 12 4
v 4 13 4
v -3 3 3
v -3 5 3
v -3 13 3
v -3 14 3
v -1 5 3
v 2 8 3
v 2 9 3
v 3 3 3
v 3 5 3
v 3 8 3
v 3 9 3
v 4 13 3
v 4 14 3
v -2 14 2
v -2 15 2
v 4 14 2
v 4 15 2
v -1 15 1
v -1 16 1
v 4 14 1
v 4 15 1
v 4 16 1
v 4 17 1
v 5 14 1
v 5 15 1
v 5 16 1
v 6 15 1
v 6 17 1
v -4 6 -1
v -4 8 -1
v -3 8 -1
v -3 9 -1
v -2 6 -1
v -2 9 -1
v -5 3 4
v -5 4 4
v -4 3 4
v -4 4 4
v -3 4 4
v -3 5 4
v -1 5 4
v 3 4 4
v 3 5 4
v 4 3 4
v 4 4 4
v 5 3 4
v 5 4 4
v -3 1 3
v -3 2 3
v -2 0 3
v -2 1 3
v 0 0 3
v 0 1 3
v 1 0 3
v 1 1 3
v 1 2 3
v 2 1 3
v 2 2 3
v 3 1 3
v 3 2 3
v -1 15 -1
v -1 16 -1
v 4 14 -1
v 4 15 -1
v 4 16 -1
v 4 17 -1
v 5 14 -1
v 5 15 -1
v 5 16 -1
v 6 15 -1
v 6 17 -1
v -2 14 -2
v -2 15 -2
v 4 14 -2
v 4 15 -2
v -3 13 -3
v -3 14 -3
v 4 13 -3
v 4 14 -3
v -4 2 -4
v -4 10 -4
v -4 12 -4
v -4 13 -4
v 4 2 -4
v 4 10 -4
v 4 12 -4
v 4 13 -4
v -5 10 -5
v -5 12 -5
v 5 10 -5
v 5 12 -5
v -2 0 5
v 0 0 5
v 1 0 5
v -2 0 3
v 0 0 3
v 1 0 3
v -3 1 5
v -2 1 5
v 1 1 5
v 2 1 5
v 3 1 5
v -3 1 3
v -2 1 3
v 1 1 3
v 2 1 3
v 3 1 3
v -4 2 5
v -3 2 5
v 3 2 5
v 4 2 5
v -4 2 4
v -3 2 4
v 3 2 4
v 4 2 4
v -3 2 3
v 1 2 3
v 2 2 3
v 3 2 3
v -4 2 -4
v 4 2 -4
v -5 3 5
v -4 3 5
v 4 3 5
v 5 3 5
v -5 3 4
v -4 3 4
v 4 3 4
v 5 3 4
v -3 4 5
v 3 4 5
v -3 4 4
v 3 4 4
v -3 5 4
v -1 5 4
v 3 5 4
v -3 5 3
v -1 5 3
v 3 5 3
v -4 8 4
v -3 8 4
v -4 8 -1
v -3 8 -1
v -3 9 4
v -2 9 4
v 2 9 4
v 3 9 4
v 2 9 3
v 3 9 3
v -3 9 -1
v -2 9 -1
v -5 10 5
v 5 10 5
v -4 10 4
v -1 10 4
v 4 10 4
v -4 10 3
v -4 10 -4
v 4 10 -4
v -5 10 -5
v 5 10 -5
v 4 14 1
v 5 14 1
v 4 14 -1
v 5 14 -1
v 5 15 1
v 6 15 1
v 5 15 -1
v 6 15 -1
v -3 3 5
v 3 3 5
v -3 3 4
v 3 3 4
v -3 3 3
v 3 3 3
v -5 4 5
v -4 4 5
v 4 4 5
v 5 4 5
v -5 4 4
v -4 4 4
v 4 4 4
v 5 4 4
v -4 5 5
v -2 5 5
v 2 5 5
v 4 5 5
v -4 5 4
v -2 5 4
v 2 5 4
v 4 5 4
v -2 6 5
v -1 6 5
v 2 6 5
v -4 6 4
v -2 6 4
v -1 6 4
v 2 6 4
v -4 6 -1
v -2 6 -1
v 2 8 4
v 3 8 4
v 2 8 3
v 3 8 3
v -5 12 5
v 5 12 5
v -4 12 4
v 4 12 4
v -4 12 -4
v 4 12 -4
v -5 12 -5
v 5 12 -5
v -4 13 4
v 4 13 4
v -3 13 3
v 4 13 3
v -3 13 -3
v 4 13 -3
v -4 13 -4
v 4 13 -4
v -3 14 3
v 4 14 3
v -2 14 2
v 4 14 2
v -2 14 -2
v 4 14 -2
v -3 14 -3
v 4 14 -3
v -2 15 2
v 4 15 2
v -1 15 1
v 4 15 1
v -1 15 -1
v 4 15 -1
v -2 15 -2
v 4 15 -2
v -1 16 1
v 4 16 1
v -1 16 -1
v 4 16 -1
v 4 17 1
v 6 17 1
v 4 17 -1
v 6 17 -1

# faces
f 3/1/1 2/1/1 1/1/1
f 4/1/1 2/1/1 3/1/1
f 7/1/1 6/1/1 5/1/1
f 8/1/1 6/1/1 7/1/1
f 12/1/1 10/1/1 9/1/1
f 13/4/1 11/4/1 10/4/1
f 13/1/1 10/1/1 12/1/1
f 15/4/1 11/4/1 13/4/1
f 16/1/1 15/1/1 14/1/1
f 17/4/1 11/4/1 15/4/1
f 17/1/1 15/1/1 16/1/1
f 18/4/1 11/4/1 17/4/1
f 19/2/1 18/2/1 17/2/1
f 20/2/1 18/2/1 19/2/1
f 22/2/1 18/2/1 20/2/1
f 23/2/1 22/2/1 21/2/1
f 24/4/1 11/4/1 18/4/1
f 24/2/1 22/2/1 23/2/1
f 24/2/1 18/2/1 22/2/1
f 25/2/1 23/2/1 21/2/1
f 26/4/1 24/4/1 23/4/1
f 26/2/1 23/2/1 25/2/1
f 27/4/1 11/4/1 24/4/1
f 27/4/1 24/4/1 26/4/1
f 30/3/1 29/3/1 28/3/1
f 31/3/1 29/3/1 30/3/1
f 34/1/1 33/1/1 32/1/1
f 35/1/1 33/1/1 34/1/1
f 36/1/1 33/1/1 35/1/1
f 39/3/1 38/3/1 37/3/1
f 40/3/1 38/3/1 39/3/1
f 43/1/1 42/1/1 41/1/1
f 44/1/1 42/1/1 43/1/1
f 47/2/1 46/2/1 45/2/1
f 48/2/1 46/2/1 47/2/1
f 50/2/1 49/2/1 48/2/1
f 51/2/1 49/2/1 50/2/1
f 54/3/1 53/3/1 52/3/1
f 55/3/1 53/3/1 54/3/1
f 58/3/1 57/3/1 56/3/1
f 59/3/1 57/3/1 58/3/1
f 63/1/1 61/1/1 60/1/1
f 64/4/1 62/4/1 61/4/1
f 64/1/1 61/1/1 63/1/1
f 65/4/1 62/4/1 64/4/1
f 66/4/1 62/4/1 65/4/1
f 69/4/1 68/4/1 67/4/1
f 70/4/1 68/4/1 69/4/1
f 73/1/1 72/1/1 71/1/1
f 74/1/1 72/1/1 73/1/1
f 75/1/2 76/1/2 78/1/2
f 76/4/2 77/4/2 79/4/2
f 78/1/2 76/1/2 79/1/2
f 79/4/2 77/4/2 80/4/2
f 80/4/2 77/4/2 81/4/2
f 82/2/2 83/2/2 84/2/2
f 84/2/2 83/2/2 85/2/2
f 86/2/2 87/2/2 88/2/2
f 88/2/2 87/2/2 89/2/2
f 90/1/2 91/1/2 92/1/2
f 92/1/2 91/1/2 93/1/2
f 94/4/2 95/4/2 96/4/2
f 96/4/2 95/4/2 97/4/2
f 98/1/2 99/1/2 100/1/2
f 100/1/2 99/1/2 101/1/2
f 101/1/2 99/1/2 102/1/2
f 103/1/2 104/1/2 106/1/2
f 104/4/2 105/4/2 107/4/2
f 106/1/2 104/1/2 107/1/2
f 107/4/2 105/4/2 109/4/2
f 108/1/2 109/1/2 110/1/2
f 109/4/2 105/4/2 111/4/2
f 110/1/2 109/1/2 111/1/2
f 111/4/2 105/4/2 112/4/2
f 112/4/2 105/4/2 113/4/2
f 114/3/2 115/3/2 116/3/2
f 116/3/2 115/3/2 117/3/2
f 117/3/2 115/3/2 118/3/2
f 118/3/2 115/3/2 119/3/2
f 117/3/2 118/3/2 120/3/2
f 120/3/2 118/3/2 121/3/2
f 121/3/2 118/3/2 122/3/2
f 122/3/2 118/3/2 123/3/2
f 123/3/2 118/3/2 124/3/2
f 124/3/2 118/3/2 125/3/2
f 121/3/2 122/3/2 126/3/2
f 126/3/2 122/3/2 127/3/2
f 123/3/2 124/3/2 128/3/2
f 128/3/2 124/3/2 129/3/2
f 130/1/2 131/1/2 132/1/2
f 132/1/2 131/1/2 133/1/2
f 134/1/2 135/1/2 136/1/2
f 136/1/2 135/1/2 137/1/2
f 138/3/2 139/3/2 140/3/2
f 140/3/2 139/3/2 141/3/2
f 142/1/2 143/1/2 144/1/2
f 144/1/2 143/1/2 145/1/2
f 151/1/3 147/1/3 146/1/3
f 152/1/3 147/1/3 151/1/3
f 155/1/3 151/1/3 150/1/3
f 155/1/3 153/1/3 152/1/3
f 155/1/3 152/1/3 151/1/3
f 156/1/3 153/1/3 155/1/3
f 157/1/3 153/1/3 156/1/3
f 159/1/3 155/1/3 154/1/3
f 159/1/3 156/1/3 155/1/3
f 160/1/3 153/1/3 157/1/3
f 162/1/3 160/1/3 157/1/3
f 162/2/3 161/2/3 160/2/3
f 163/2/3 161/2/3 162/2/3
f 164/1/3 159/1/3 158/1/3
f 165/1/3 156/1/3 159/1/3
f 165/1/3 159/1/3 164/1/3
f 166/2/3 165/2/3 164/2/3
f 167/2/3 165/2/3 166/2/3
f 168/2/3 165/2/3 167/2/3
f 169/1/3 156/1/3 165/1/3
f 169/2/3 165/2/3 168/2/3
f 170/1/3 162/1/3 157/1/3
f 170/1/3 163/1/3 162/1/3
f 171/1/3 163/1/3 170/1/3
f 172/1/3 169/1/3 168/1/3
f 173/1/3 156/1/3 169/1/3
f 173/1/3 169/1/3 172/1/3
f 174/1/3 156/1/3 173/1/3
f 175/1/3 170/1/3 157/1/3
f 176/1/3 174/1/3 173/1/3
f 176/1/3 175/1/3 174/1/3
f 177/1/3 175/1/3 176/1/3
f 178/1/3 170/1/3 175/1/3
f 178/1/3 175/1/3 177/1/3
f 179/1/3 170/1/3 178/1/3
f 180/1/3 178/1/3 177/1/3
f 181/1/3 178/1/3 180/1/3
f 182/1/3 149/1/3 148/1/3
f 183/1/3 149/1/3 182/1/3
f 190/2/3 187/2/3 186/2/3
f 191/2/3 187/2/3 190/2/3
f 192/2/3 185/2/3 184/2/3
f 193/2/3 185/2/3 192/2/3
f 194/2/3 187/2/3 191/2/3
f 195/2/3 194/2/3 193/2/3
f 196/2/3 187/2/3 194/2/3
f 196/2/3 194/2/3 195/2/3
f 198/4/3 196/4/3 195/4/3
f 199/4/3 196/4/3 198/4/3
f 200/4/3 196/4/3 199/4/3
f 201/4/3 198/4/3 197/4/3
f 201/4/3 199/4/3 198/4/3
f 202/4/3 196/4/3 200/4/3
f 203/4/3 201/4/3 197/4/3
f 203/4/3 202/4/3 201/4/3
f 204/4/3 196/4/3 202/4/3
f 204/4/3 202/4/3 203/4/3
f 205/3/3 189/3/3 188/3/3
f 206/3/3 189/3/3 205/3/3
f 211/4/3 208/4/3 207/4/3
f 214/4/3 211/4/3 207/4/3
f 215/4/3 211/4/3 214/4/3
f 216/4/3 213/4/3 212/4/3
f 217/4/3 213/4/3 216/4/3
f 218/3/3 210/3/3 209/3/3
f 219/3/3 210/3/3 218/3/3
f 222/3/3 221/3/3 220/3/3
f 223/3/3 221/3/3 222/3/3
f 227/3/3 225/3/3 224/3/3
f 228/3/3 225/3/3 227/3/3
f 230/3/3 227/3/3 226/3/3
f 230/3/3 228/3/3 227/3/3
f 231/3/3 228/3/3 230/3/3
f 232/1/3 229/1/3 228/1/3
f 232/3/3 228/3/3 231/3/3
f 233/1/3 232/1/3 231/1/3
f 234/1/3 229/1/3 232/1/3
f 234/1/3 232/1/3 233/1/3
f 237/2/3 236/2/3 235/2/3
f 239/2/3 237/2/3 235/2/3
f 239/2/3 238/2/3 237/2/3
f 240/2/3 238/2/3 239/2/3
f 241/1/4 242/1/4 243/1/4
f 243/1/4 242/1/4 244/1/4
f 245/1/4 246/1/4 247/1/4
f 245/1/4 247/1/4 248/1/4
f 248/1/4 247/1/4 249/1/4
f 250/1/4 251/1/4 252/1/4
f 252/1/4 251/1/4 253/1/4
f 254/1/4 255/1/4 257/1/4
f 256/1/4 257/1/4 258/1/4
f 257/1/4 255/1/4 259/1/4
f 258/1/4 257/1/4 259/1/4
f 258/2/4 259/2/4 260/2/4
f 259/1/4 255/1/4 261/1/4
f 260/2/4 259/2/4 261/2/4
f 261/1/4 255/1/4 262/1/4
f 261/2/4 262/2/4 263/2/4
f 263/2/4 262/2/4 264/2/4
f 263/1/4 264/1/4 265/1/4
f 265/1/4 264/1/4 266/1/4
f 267/3/4 268/3/4 270/3/4
f 270/3/4 268/3/4 271/3/4
f 269/3/4 270/3/4 273/3/4
f 270/3/4 271/3/4 273/3/4
f 273/3/4 271/3/4 274/3/4
f 271/1/4 272/1/4 275/1/4
f 274/3/4 271/3/4 275/3/4
f 274/1/4 275/1/4 276/1/4
f 275/1/4 272/1/4 277/1/4
f 276/1/4 275/1/4 277/1/4
f 278/3/4 279/3/4 280/3/4
f 280/3/4 279/3/4 281/3/4
f 282/3/4 283/3/4 284/3/4
f 284/3/4 283/3/4 285/3/4
f 286/4/4 287/4/4 290/4/4
f 290/4/4 287/4/4 291/4/4
f 288/3/4 289/3/4 292/3/4
f 292/3/4 289/3/4 293/3/4
f 294/1/4 295/1/4 296/1/4
f 296/1/4 295/1/4 297/1/4
f 301/1/5 299/1/5 298/1/5
f 302/2/5 300/2/5 299/2/5
f 302/1/5 299/1/5 301/1/5
f 303/2/5 300/2/5 302/2/5
f 309/1/5 305/1/5 304/1/5
f 310/1/5 305/1/5 309/1/5
f 311/2/5 307/2/5 306/2/5
f 312/1/5 308/1/5 307/1/5
f 312/2/5 307/2/5 311/2/5
f 313/1/5 308/1/5 312/1/5
f 318/1/5 315/1/5 314/1/5
f 319/1/5 315/1/5 318/1/5
f 320/1/5 317/1/5 316/1/5
f 321/1/5 317/1/5 320/1/5
f 322/4/5 319/4/5 318/4/5
f 325/4/5 321/4/5 320/4/5
f 326/4/5 324/4/5 323/4/5
f 326/4/5 325/4/5 324/4/5
f 326/4/5 322/4/5 318/4/5
f 326/4/5 323/4/5 322/4/5
f 327/4/5 321/4/5 325/4/5
f 327/4/5 325/4/5 326/4/5
f 332/1/5 329/1/5 328/1/5
f 333/1/5 329/1/5 332/1/5
f 334/1/5 331/1/5 330/1/5
f 335/1/5 331/1/5 334/1/5
f 338/1/5 337/1/5 336/1/5
f 339/1/5 337/1/5 338/1/5
f 343/2/5 341/2/5 340/2/5
f 344/4/5 342/4/5 341/4/5
f 344/2/5 341/2/5 343/2/5
f 345/4/5 342/4/5 344/4/5
f 348/2/5 347/2/5 346/2/5
f 349/2/5 347/2/5 348/2/5
f 354/4/5 353/4/5 352/4/5
f 355/4/5 353/4/5 354/4/5
f 356/2/5 351/2/5 350/2/5
f 357/2/5 351/2/5 356/2/5
f 360/1/5 359/1/5 358/1/5
f 361/1/5 359/1/5 360/1/5
f 362/1/5 359/1/5 361/1/5
f 363/1/5 360/1/5 358/1/5
f 364/1/5 363/1/5 358/1/5
f 365/1/5 359/1/5 362/1/5
f 366/1/5 364/1/5 358/1/5
f 366/1/5 365/1/5 364/1/5
f 367/1/5 359/1/5 365/1/5
f 367/1/5 365/1/5 366/1/5
f 370/3/5 369/3/5 368/3/5
f 371/3/5 369/3/5 370/3/5
f 374/1/5 373/1/5 372/1/5
f 375/1/5 373/1/5 374/1/5
f 376/1/6 377/1/6 378/1/6
f 378/1/6 377/1/6 379/1/6
f 378/1/6 379/1/6 380/1/6
f 380/1/6 379/1/6 381/1/6
f 382/1/6 383/1/6 386/1/6
f 386/1/6 383/1/6 387/1/6
f 384/1/6 385/1/6 388/1/6
f 388/1/6 385/1/6 389/1/6
f 390/1/6 391/1/6 394/1/6
f 394/1/6 391/1/6 395/1/6
f 392/1/6 393/1/6 396/1/6
f 396/1/6 393/1/6 397/1/6
f 398/2/6 399/2/6 402/2/6
f 399/1/6 400/1/6 403/1/6
f 402/2/6 399/2/6 403/2/6
f 403/1/6 400/1/6 404/1/6
f 401/2/6 402/2/6 405/2/6
f 405/2/6 402/2/6 406/2/6
f 407/4/6 408/4/6 409/4/6
f 409/4/6 408/4/6 410/4/6
f 411/1/6 412/1/6 413/1/6
f 413/1/6 412/1/6 414/1/6
f 411/1/6 413/1/6 415/1/6
f 414/1/6 412/1/6 416/1/6
f 411/1/6 415/1/6 417/1/6
f 415/1/6 416/1/6 417/1/6
f 416/1/6 412/1/6 418/1/6
f 417/1/6 416/1/6 418/1/6
f 419/3/6 420/3/6 421/3/6
f 421/3/6 420/3/6 422/3/6
f 419/3/6 421/3/6 423/3/6
f 419/3/6 423/3/6 425/3/6
f 423/3/6 424/3/6 425/3/6
f 425/3/6 424/3/6 426/3/6
f 427/3/6 428/3/6 429/3/6
f 429/3/6 428/3/6 430/3/6
f 427/3/6 429/3/6 431/3/6
f 427/3/6 431/3/6 433/3/6
f 431/3/6 432/3/6 433/3/6
f 433/3/6 432/3/6 434/3/6
f 435/3/6 436/3/6 437/3/6
f 437/3/6 436/3/6 438/3/6
f 435/3/6 437/3/6 439/3/6
f 435/3/6 439/3/6 441/3/6
f 439/3/6 440/3/6 441/3/6
f 441/3/6 440/3/6 442/3/6
f 443/3/6 444/3/6 445/3/6
f 445/3/6 444/3/6 446/3/6
f 447/1/6 448/1/6 449/1/6
f 449/1/6 448/1/6 450/1/6
