# MagicaVoxel @ Ephtracy

# material
mtllib golem-leg-top-20.mtl
usemtl palette

# normals
vn -1 0 0
vn 1 0 0
vn 0 0 1
vn 0 0 -1
vn 0 -1 0
vn 0 1 0

# texcoords
vt 0.865234 0.5
vt 0.947266 0.5

# verts
v -4 0 2
v -4 0 1
v -4 0 -3
v -4 3 3
v -4 3 2
v -4 4 3
v -4 4 1
v -4 6 3
v -4 6 -3
v -2 0 3
v -2 0 2
v -2 3 3
v -2 3 2
v 2 3 -2
v 2 3 -3
v 2 6 -2
v 2 6 -3
v -2 5 -2
v -2 5 -3
v -2 6 -2
v -2 6 -3
v 0 3 -2
v 0 3 -3
v 0 5 3
v 0 5 2
v 0 5 -2
v 0 5 -3
v 0 6 3
v 0 6 2
v 1 3 3
v 1 3 2
v 1 5 3
v 1 5 2
v 4 0 3
v 4 0 -3
v 4 2 3
v 4 2 2
v 4 3 3
v 4 3 2
v 4 3 1
v 4 6 2
v 4 6 1
v 4 6 -3
v -4 3 3
v -4 4 3
v -4 6 3
v -2 0 3
v -2 3 3
v -1 0 3
v -1 4 3
v -1 5 3
v -1 6 3
v 0 3 3
v 0 5 3
v 0 6 3
v 1 2 3
v 1 3 3
v 1 5 3
v 4 0 3
v 4 2 3
v 4 3 3
v -4 0 2
v -4 3 2
v -2 0 2
v -2 3 2
v 0 5 2
v 0 6 2
v 1 3 2
v 1 5 2
v 4 3 2
v 4 6 2
v -2 5 -2
v -2 6 -2
v 0 3 -2
v 0 5 -2
v 2 3 -2
v 2 6 -2
v -4 0 -3
v -4 6 -3
v -3 4 -3
v -3 6 -3
v -2 5 -3
v -2 6 -3
v -1 2 -3
v -1 4 -3
v 0 3 -3
v 0 5 -3
v 2 3 -3
v 2 6 -3
v 3 2 -3
v 3 6 -3
v 4 0 -3
v 4 6 -3
v -2 0 3
v -1 0 3
v 4 0 3
v -4 0 2
v -2 0 2
v -4 0 1
v -1 0 1
v -4 0 -3
v 4 0 -3
v -4 3 3
v -2 3 3
v -4 3 2
v -2 3 2
v 1 3 3
v 4 3 3
v 1 3 2
v 4 3 2
v 0 3 -2
v 2 3 -2
v 0 3 -3
v 2 3 -3
v 0 5 3
v 1 5 3
v 0 5 2
v 1 5 2
v -2 5 -2
v 0 5 -2
v -2 5 -3
v 0 5 -3
v -4 6 3
v -1 6 3
v 0 6 3
v 0 6 2
v 4 6 2
v -1 6 1
v 0 6 1
v 2 6 1
v 4 6 1
v -3 6 -0
v -1 6 -0
v 0 6 -0
v 2 6 -0
v -1 6 -1
v 3 6 -1
v -2 6 -2
v 2 6 -2
v -4 6 -3
v -3 6 -3
v -2 6 -3
v 2 6 -3
v 3 6 -3
v 4 6 -3

# faces
f 5/1/1 2/1/1 1/1/1
f 6/1/1 5/1/1 4/1/1
f 7/2/1 3/2/1 2/2/1
f 7/1/1 5/1/1 6/1/1
f 7/1/1 2/1/1 5/1/1
f 8/2/1 7/2/1 6/2/1
f 9/2/1 3/2/1 7/2/1
f 9/2/1 7/2/1 8/2/1
f 12/1/1 11/1/1 10/1/1
f 13/1/1 11/1/1 12/1/1
f 16/1/1 15/1/1 14/1/1
f 17/1/1 15/1/1 16/1/1
f 18/1/2 19/1/2 20/1/2
f 20/1/2 19/1/2 21/1/2
f 22/1/2 23/1/2 26/1/2
f 26/1/2 23/1/2 27/1/2
f 24/1/2 25/1/2 28/1/2
f 28/1/2 25/1/2 29/1/2
f 30/1/2 31/1/2 32/1/2
f 32/1/2 31/1/2 33/1/2
f 34/2/2 35/2/2 36/2/2
f 36/2/2 35/2/2 37/2/2
f 36/1/2 37/1/2 38/1/2
f 37/2/2 35/2/2 39/2/2
f 38/1/2 37/1/2 39/1/2
f 39/2/2 35/2/2 40/2/2
f 39/1/2 40/1/2 41/1/2
f 40/2/2 35/2/2 42/2/2
f 41/1/2 40/1/2 42/1/2
f 42/2/2 35/2/2 43/2/2
f 48/1/3 45/1/3 44/1/3
f 49/1/3 48/1/3 47/1/3
f 50/2/3 46/2/3 45/2/3
f 50/1/3 48/1/3 49/1/3
f 50/1/3 45/1/3 48/1/3
f 51/2/3 46/2/3 50/2/3
f 52/2/3 46/2/3 51/2/3
f 53/2/3 50/2/3 49/2/3
f 53/2/3 51/2/3 50/2/3
f 54/1/3 52/1/3 51/1/3
f 54/2/3 51/2/3 53/2/3
f 55/1/3 52/1/3 54/1/3
f 56/2/3 53/2/3 49/2/3
f 57/1/3 54/1/3 53/1/3
f 57/2/3 53/2/3 56/2/3
f 58/1/3 54/1/3 57/1/3
f 59/2/3 56/2/3 49/2/3
f 60/1/3 57/1/3 56/1/3
f 60/2/3 56/2/3 59/2/3
f 61/1/3 57/1/3 60/1/3
f 64/1/3 63/1/3 62/1/3
f 65/1/3 63/1/3 64/1/3
f 69/1/3 67/1/3 66/1/3
f 70/1/3 69/1/3 68/1/3
f 71/1/3 67/1/3 69/1/3
f 71/1/3 69/1/3 70/1/3
f 72/1/4 73/1/4 75/1/4
f 74/1/4 75/1/4 76/1/4
f 75/1/4 73/1/4 77/1/4
f 76/1/4 75/1/4 77/1/4
f 78/2/4 79/2/4 80/2/4
f 80/2/4 79/2/4 81/2/4
f 80/1/4 81/1/4 82/1/4
f 82/1/4 81/1/4 83/1/4
f 78/2/4 80/2/4 84/2/4
f 80/1/4 82/1/4 85/1/4
f 84/2/4 80/2/4 85/2/4
f 84/1/4 85/1/4 86/1/4
f 85/1/4 82/1/4 87/1/4
f 86/1/4 85/1/4 87/1/4
f 84/1/4 86/1/4 88/1/4
f 78/2/4 84/2/4 90/2/4
f 88/1/4 89/1/4 90/1/4
f 84/1/4 88/1/4 90/1/4
f 90/1/4 89/1/4 91/1/4
f 78/2/4 90/2/4 92/2/4
f 90/2/4 91/2/4 92/2/4
f 92/2/4 91/2/4 93/2/4
f 98/1/5 95/1/5 94/1/5
f 99/1/5 98/1/5 97/1/5
f 100/2/5 96/2/5 95/2/5
f 100/1/5 98/1/5 99/1/5
f 100/1/5 95/1/5 98/1/5
f 101/2/5 100/2/5 99/2/5
f 102/2/5 96/2/5 100/2/5
f 102/2/5 100/2/5 101/2/5
f 105/1/5 104/1/5 103/1/5
f 106/1/5 104/1/5 105/1/5
f 107/1/6 108/1/6 109/1/6
f 109/1/6 108/1/6 110/1/6
f 111/1/6 112/1/6 113/1/6
f 113/1/6 112/1/6 114/1/6
f 115/1/6 116/1/6 117/1/6
f 117/1/6 116/1/6 118/1/6
f 119/1/6 120/1/6 121/1/6
f 121/1/6 120/1/6 122/1/6
f 124/1/6 125/1/6 126/1/6
f 123/2/6 124/2/6 128/2/6
f 126/1/6 127/1/6 128/1/6
f 124/1/6 126/1/6 128/1/6
f 128/1/6 127/1/6 129/1/6
f 129/1/6 127/1/6 130/1/6
f 130/1/6 127/1/6 131/1/6
f 123/2/6 128/2/6 132/2/6
f 128/2/6 129/2/6 132/2/6
f 132/2/6 129/2/6 133/2/6
f 129/1/6 130/1/6 134/1/6
f 133/2/6 129/2/6 134/2/6
f 130/2/6 131/2/6 135/2/6
f 134/1/6 130/1/6 135/1/6
f 133/2/6 134/2/6 136/2/6
f 132/1/6 133/1/6 136/1/6
f 134/2/6 135/2/6 136/2/6
f 135/2/6 131/2/6 137/2/6
f 136/2/6 135/2/6 137/2/6
f 132/1/6 136/1/6 138/1/6
f 136/1/6 137/1/6 138/1/6
f 138/1/6 137/1/6 139/1/6
f 123/2/6 132/2/6 140/2/6
f 132/1/6 138/1/6 141/1/6
f 140/2/6 132/2/6 141/2/6
f 141/1/6 138/1/6 142/1/6
f 139/1/6 137/1/6 143/1/6
f 137/2/6 131/2/6 144/2/6
f 143/1/6 137/1/6 144/1/6
f 144/2/6 131/2/6 145/2/6
