# MagicaVoxel @ Ephtracy

# material
mtllib golem-hand-bottom-80.mtl
usemtl palette

# normals
vn -1 0 0
vn 1 0 0
vn 0 0 1
vn 0 0 -1
vn 0 -1 0
vn 0 1 0

# texcoords
vt 0.861328 0.5
vt 0.865234 0.5
vt 0.947266 0.5
vt 0.970703 0.5

# verts
v -7 0 2.5
v -7 0 -2.5
v -7 2 2.5
v -7 2 -0.5
v -7 3 2.5
v -7 3 0.5
v -7 5 0.5
v -7 5 -0.5
v -7 5 -2.5
v -4 3 2.5
v -4 3 0.5
v -4 5 2.5
v -4 5 0.5
v 4 3 2.5
v 4 3 0.5
v 4 5 2.5
v 4 5 0.5
v 3 3 2.5
v 3 3 0.5
v 3 5 2.5
v 3 5 0.5
v 7 0 2.5
v 7 0 -2.5
v 7 5 2.5
v 7 5 -2.5
v -7 0 2.5
v -7 2 2.5
v -7 3 2.5
v -6 0 2.5
v -6 2 2.5
v -4 0 2.5
v -4 2 2.5
v -4 3 2.5
v -4 5 2.5
v -3 2 2.5
v -3 5 2.5
v 2 2 2.5
v 2 5 2.5
v 3 3 2.5
v 3 5 2.5
v 4 3 2.5
v 4 5 2.5
v 5 2 2.5
v 5 5 2.5
v 7 0 2.5
v 7 5 2.5
v -7 3 0.5
v -7 5 0.5
v -4 3 0.5
v -4 5 0.5
v 3 3 0.5
v 3 5 0.5
v 4 3 0.5
v 4 5 0.5
v -7 0 -2.5
v -7 5 -2.5
v -6 0 -2.5
v -6 5 -2.5
v -5 0 -2.5
v -5 3 -2.5
v -4 3 -2.5
v -4 5 -2.5
v 3 0 -2.5
v 3 3 -2.5
v 7 0 -2.5
v 7 5 -2.5
v -7 0 2.5
v -6 0 2.5
v -4 0 2.5
v 7 0 2.5
v -5 0 -1.5
v -4 0 -1.5
v 3 0 -1.5
v -7 0 -2.5
v -6 0 -2.5
v -5 0 -2.5
v 3 0 -2.5
v 7 0 -2.5
v -7 3 2.5
v -4 3 2.5
v 3 3 2.5
v 4 3 2.5
v -7 3 0.5
v -4 3 0.5
v 3 3 0.5
v 4 3 0.5
v -4 5 2.5
v -3 5 2.5
v 2 5 2.5
v 3 5 2.5
v 4 5 2.5
v 5 5 2.5
v 7 5 2.5
v -7 5 0.5
v -4 5 0.5
v 3 5 0.5
v 4 5 0.5
v -7 5 -0.5
v -6 5 -0.5
v -4 5 -0.5
v -3 5 -0.5
v 2 5 -0.5
v 5 5 -0.5
v -7 5 -2.5
v -6 5 -2.5
v -4 5 -2.5
v 7 5 -2.5

# faces
f 3/4/1 2/4/1 1/4/1
f 4/4/1 2/4/1 3/4/1
f 5/2/1 4/2/1 3/2/1
f 6/2/1 4/2/1 5/2/1
f 7/2/1 4/2/1 6/2/1
f 8/4/1 2/4/1 4/4/1
f 8/2/1 4/2/1 7/2/1
f 9/4/1 2/4/1 8/4/1
f 12/2/1 11/2/1 10/2/1
f 13/2/1 11/2/1 12/2/1
f 16/2/1 15/2/1 14/2/1
f 17/2/1 15/2/1 16/2/1
f 18/2/2 19/2/2 20/2/2
f 20/2/2 19/2/2 21/2/2
f 22/3/2 23/3/2 24/3/2
f 24/3/2 23/3/2 25/3/2
f 29/4/3 27/4/3 26/4/3
f 30/2/3 28/2/3 27/2/3
f 30/4/3 27/4/3 29/4/3
f 31/1/3 30/1/3 29/1/3
f 32/2/3 28/2/3 30/2/3
f 32/1/3 30/1/3 31/1/3
f 33/2/3 28/2/3 32/2/3
f 35/3/3 32/3/3 31/3/3
f 35/2/3 34/2/3 33/2/3
f 35/2/3 33/2/3 32/2/3
f 36/2/3 34/2/3 35/2/3
f 37/3/3 35/3/3 31/3/3
f 37/3/3 36/3/3 35/3/3
f 38/3/3 36/3/3 37/3/3
f 39/2/3 38/2/3 37/2/3
f 40/2/3 38/2/3 39/2/3
f 41/2/3 39/2/3 37/2/3
f 43/3/3 37/3/3 31/3/3
f 43/2/3 42/2/3 41/2/3
f 43/2/3 41/2/3 37/2/3
f 44/2/3 42/2/3 43/2/3
f 45/3/3 43/3/3 31/3/3
f 45/3/3 44/3/3 43/3/3
f 46/3/3 44/3/3 45/3/3
f 49/2/3 48/2/3 47/2/3
f 50/2/3 48/2/3 49/2/3
f 53/2/3 52/2/3 51/2/3
f 54/2/3 52/2/3 53/2/3
f 55/4/4 56/4/4 57/4/4
f 57/4/4 56/4/4 58/4/4
f 57/1/4 58/1/4 59/1/4
f 59/1/4 58/1/4 60/1/4
f 59/2/4 60/2/4 61/2/4
f 60/1/4 58/1/4 61/1/4
f 61/1/4 58/1/4 62/1/4
f 59/2/4 61/2/4 63/2/4
f 61/3/4 62/3/4 64/3/4
f 63/2/4 61/2/4 64/2/4
f 63/3/4 64/3/4 65/3/4
f 64/3/4 62/3/4 66/3/4
f 65/3/4 64/3/4 66/3/4
f 71/1/5 69/1/5 68/1/5
f 72/3/5 70/3/5 69/3/5
f 72/1/5 69/1/5 71/1/5
f 73/3/5 70/3/5 72/3/5
f 74/4/5 68/4/5 67/4/5
f 75/1/5 71/1/5 68/1/5
f 75/4/5 68/4/5 74/4/5
f 76/2/5 72/2/5 71/2/5
f 76/1/5 71/1/5 75/1/5
f 76/2/5 73/2/5 72/2/5
f 77/3/5 70/3/5 73/3/5
f 77/2/5 73/2/5 76/2/5
f 78/3/5 70/3/5 77/3/5
f 79/2/6 80/2/6 83/2/6
f 83/2/6 80/2/6 84/2/6
f 81/2/6 82/2/6 85/2/6
f 85/2/6 82/2/6 86/2/6
f 87/2/6 88/2/6 95/2/6
f 89/2/6 90/2/6 96/2/6
f 91/2/6 92/2/6 97/2/6
f 94/2/6 95/2/6 98/2/6
f 98/2/6 95/2/6 99/2/6
f 95/2/6 88/2/6 100/2/6
f 99/2/6 95/2/6 100/2/6
f 88/3/6 89/3/6 101/3/6
f 100/2/6 88/2/6 101/2/6
f 96/2/6 97/2/6 102/2/6
f 101/3/6 89/3/6 102/3/6
f 89/2/6 96/2/6 102/2/6
f 92/3/6 93/3/6 103/3/6
f 102/2/6 97/2/6 103/2/6
f 97/2/6 92/2/6 103/2/6
f 98/4/6 99/4/6 104/4/6
f 99/1/6 100/1/6 105/1/6
f 104/4/6 99/4/6 105/4/6
f 101/3/6 102/3/6 106/3/6
f 105/1/6 100/1/6 106/1/6
f 100/3/6 101/3/6 106/3/6
f 102/3/6 103/3/6 106/3/6
f 103/3/6 93/3/6 107/3/6
f 106/3/6 103/3/6 107/3/6
