# MagicaVoxel @ Ephtracy

# material
mtllib golem-body-80.mtl
usemtl palette

# normals
vn -1 0 0
vn 1 0 0
vn 0 0 1
vn 0 0 -1
vn 0 -1 0
vn 0 1 0

# texcoords
vt 0.970703 0.5

# verts
v -5 0 7
v -5 0 -7
v -5 12 6
v -5 12 4
v -5 14 6
v -5 14 4
v -5 15 -6
v -5 15 -7
v -5 24 7
v -5 24 -6
v -4 12 6
v -4 12 4
v -4 14 6
v -4 14 4
v -4 15 -6
v -4 15 -7
v -4 24 -6
v -4 24 -7
v 3 5 7
v 3 5 6
v 3 8 7
v 3 8 6
v 0 5 7
v 0 5 6
v 0 8 7
v 0 8 6
v 4 2 1
v 4 2 -1
v 4 4 1
v 4 4 -1
v 4 17 -6
v 4 17 -7
v 4 24 -6
v 4 24 -7
v 5 0 7
v 5 0 -7
v 5 2 1
v 5 2 -1
v 5 4 1
v 5 4 -1
v 5 17 -6
v 5 17 -7
v 5 24 7
v 5 24 -6
v -5 0 7
v -5 24 7
v 0 5 7
v 0 8 7
v 3 5 7
v 3 8 7
v 5 0 7
v 5 24 7
v 0 5 6
v 0 8 6
v 3 5 6
v 3 8 6
v -5 12 4
v -5 14 4
v -4 12 4
v -4 14 4
v 4 2 -1
v 4 4 -1
v 5 2 -1
v 5 4 -1
v -5 12 6
v -5 14 6
v -4 12 6
v -4 14 6
v 4 2 1
v 4 4 1
v 5 2 1
v 5 4 1
v -5 15 -6
v -5 24 -6
v -4 15 -6
v -4 24 -6
v 4 17 -6
v 4 24 -6
v 5 17 -6
v 5 24 -6
v -5 0 -7
v -5 15 -7
v -4 15 -7
v -4 24 -7
v 4 17 -7
v 4 24 -7
v 5 0 -7
v 5 17 -7
v -5 0 7
v 5 0 7
v -5 0 -7
v 5 0 -7
v 4 4 1
v 5 4 1
v 4 4 -1
v 5 4 -1
v 0 8 7
v 3 8 7
v 0 8 6
v 3 8 6
v -5 14 6
v -4 14 6
v -5 14 4
v -4 14 4
v 4 2 1
v 5 2 1
v 4 2 -1
v 5 2 -1
v 0 5 7
v 3 5 7
v 0 5 6
v 3 5 6
v -5 12 6
v -4 12 6
v -5 12 4
v -4 12 4
v -5 15 -6
v -4 15 -6
v -5 15 -7
v -4 15 -7
v 4 17 -6
v 5 17 -6
v 4 17 -7
v 5 17 -7
v -5 24 7
v 5 24 7
v -5 24 -6
v -4 24 -6
v 4 24 -6
v 5 24 -6
v -4 24 -7
v 4 24 -7

# faces
f 3/1/1 2/1/1 1/1/1
f 4/1/1 2/1/1 3/1/1
f 5/1/1 3/1/1 1/1/1
f 6/1/1 2/1/1 4/1/1
f 7/1/1 2/1/1 6/1/1
f 7/1/1 6/1/1 5/1/1
f 8/1/1 2/1/1 7/1/1
f 9/1/1 5/1/1 1/1/1
f 9/1/1 7/1/1 5/1/1
f 10/1/1 7/1/1 9/1/1
f 13/1/1 12/1/1 11/1/1
f 14/1/1 12/1/1 13/1/1
f 17/1/1 16/1/1 15/1/1
f 18/1/1 16/1/1 17/1/1
f 21/1/1 20/1/1 19/1/1
f 22/1/1 20/1/1 21/1/1
f 23/1/2 24/1/2 25/1/2
f 25/1/2 24/1/2 26/1/2
f 27/1/2 28/1/2 29/1/2
f 29/1/2 28/1/2 30/1/2
f 31/1/2 32/1/2 33/1/2
f 33/1/2 32/1/2 34/1/2
f 35/1/2 36/1/2 37/1/2
f 37/1/2 36/1/2 38/1/2
f 35/1/2 37/1/2 39/1/2
f 38/1/2 36/1/2 40/1/2
f 40/1/2 36/1/2 41/1/2
f 39/1/2 40/1/2 41/1/2
f 41/1/2 36/1/2 42/1/2
f 35/1/2 39/1/2 43/1/2
f 39/1/2 41/1/2 43/1/2
f 43/1/2 41/1/2 44/1/2
f 47/1/3 46/1/3 45/1/3
f 48/1/3 46/1/3 47/1/3
f 49/1/3 47/1/3 45/1/3
f 50/1/3 46/1/3 48/1/3
f 51/1/3 49/1/3 45/1/3
f 51/1/3 50/1/3 49/1/3
f 52/1/3 46/1/3 50/1/3
f 52/1/3 50/1/3 51/1/3
f 55/1/3 54/1/3 53/1/3
f 56/1/3 54/1/3 55/1/3
f 59/1/3 58/1/3 57/1/3
f 60/1/3 58/1/3 59/1/3
f 63/1/3 62/1/3 61/1/3
f 64/1/3 62/1/3 63/1/3
f 65/1/4 66/1/4 67/1/4
f 67/1/4 66/1/4 68/1/4
f 69/1/4 70/1/4 71/1/4
f 71/1/4 70/1/4 72/1/4
f 73/1/4 74/1/4 75/1/4
f 75/1/4 74/1/4 76/1/4
f 77/1/4 78/1/4 79/1/4
f 79/1/4 78/1/4 80/1/4
f 81/1/4 82/1/4 83/1/4
f 83/1/4 84/1/4 85/1/4
f 85/1/4 84/1/4 86/1/4
f 81/1/4 83/1/4 87/1/4
f 83/1/4 85/1/4 87/1/4
f 87/1/4 85/1/4 88/1/4
f 91/1/5 90/1/5 89/1/5
f 92/1/5 90/1/5 91/1/5
f 95/1/5 94/1/5 93/1/5
f 96/1/5 94/1/5 95/1/5
f 99/1/5 98/1/5 97/1/5
f 100/1/5 98/1/5 99/1/5
f 103/1/5 102/1/5 101/1/5
f 104/1/5 102/1/5 103/1/5
f 105/1/6 106/1/6 107/1/6
f 107/1/6 106/1/6 108/1/6
f 109/1/6 110/1/6 111/1/6
f 111/1/6 110/1/6 112/1/6
f 113/1/6 114/1/6 115/1/6
f 115/1/6 114/1/6 116/1/6
f 117/1/6 118/1/6 119/1/6
f 119/1/6 118/1/6 120/1/6
f 121/1/6 122/1/6 123/1/6
f 123/1/6 122/1/6 124/1/6
f 125/1/6 126/1/6 127/1/6
f 127/1/6 126/1/6 128/1/6
f 128/1/6 126/1/6 129/1/6
f 129/1/6 126/1/6 130/1/6
f 128/1/6 129/1/6 131/1/6
f 131/1/6 129/1/6 132/1/6
