# MagicaVoxel @ Ephtracy

# material
mtllib cannon-one-gun.mtl
usemtl palette

# normals
vn -1 0 0
vn 1 0 0
vn 0 0 1
vn 0 0 -1
vn 0 -1 0
vn 0 1 0

# texcoords
vt 0.939453 0.5
vt 0.947266 0.5

# verts
v -1.5 0 20
v -1.5 0 19
v -1.5 0 -20
v -1.5 3 20
v -1.5 3 19
v -1.5 3 -20
v 1.5 0 20
v 1.5 0 19
v 1.5 0 -20
v 1.5 3 20
v 1.5 3 19
v 1.5 3 -20
v -1.5 0 20
v -1.5 3 20
v 1.5 0 20
v 1.5 3 20
v -1.5 0 -20
v -1.5 3 -20
v 1.5 0 -20
v 1.5 3 -20
v -1.5 0 20
v 1.5 0 20
v -1.5 0 19
v 1.5 0 19
v -1.5 0 -20
v 1.5 0 -20
v -1.5 3 20
v 1.5 3 20
v -1.5 3 19
v 1.5 3 19
v -1.5 3 -20
v 1.5 3 -20

# faces
f 4/2/1 2/2/1 1/2/1
f 5/1/1 3/1/1 2/1/1
f 5/2/1 2/2/1 4/2/1
f 6/1/1 3/1/1 5/1/1
f 7/2/2 8/2/2 10/2/2
f 8/1/2 9/1/2 11/1/2
f 10/2/2 8/2/2 11/2/2
f 11/1/2 9/1/2 12/1/2
f 15/2/3 14/2/3 13/2/3
f 16/2/3 14/2/3 15/2/3
f 17/1/4 18/1/4 19/1/4
f 19/1/4 18/1/4 20/1/4
f 23/2/5 22/2/5 21/2/5
f 24/2/5 22/2/5 23/2/5
f 25/1/5 24/1/5 23/1/5
f 26/1/5 24/1/5 25/1/5
f 27/2/6 28/2/6 29/2/6
f 29/2/6 28/2/6 30/2/6
f 29/1/6 30/1/6 31/1/6
f 31/1/6 30/1/6 32/1/6
