# MagicaVoxel @ Ephtracy

# material
mtllib tank-wheel-03.mtl
usemtl palette

# normals
vn -1 0 0
vn 1 0 0
vn 0 0 1
vn 0 0 -1
vn 0 -1 0
vn 0 1 0

# texcoords
vt 0.849609 0.5
vt 0.861328 0.5

# verts
v -10 0 38
v -10 0 36
v -10 0 35
v -10 0 33
v -10 0 32
v -10 0 30
v -10 0 29
v -10 0 27
v -10 0 26
v -10 0 24
v -10 0 23
v -10 0 21
v -10 0 20
v -10 0 18
v -10 0 17
v -10 0 15
v -10 0 14
v -10 0 12
v -10 0 11
v -10 0 9
v -10 0 8
v -10 0 6
v -10 0 5
v -10 0 3
v -10 0 2
v -10 0 -0
v -10 0 -1
v -10 0 -3
v -10 0 -4
v -10 0 -6
v -10 0 -7
v -10 0 -9
v -10 0 -10
v -10 0 -12
v -10 0 -13
v -10 0 -15
v -10 0 -16
v -10 0 -18
v -10 0 -19
v -10 0 -21
v -10 0 -22
v -10 0 -24
v -10 0 -25
v -10 0 -27
v -10 0 -28
v -10 0 -30
v -10 0 -31
v -10 0 -33
v -10 0 -34
v -10 0 -36
v -10 0 -37
v -10 0 -39
v -10 1 40
v -10 1 39
v -10 1 38
v -10 1 36
v -10 1 35
v -10 1 33
v -10 1 32
v -10 1 30
v -10 1 29
v -10 1 27
v -10 1 26
v -10 1 24
v -10 1 23
v -10 1 21
v -10 1 20
v -10 1 18
v -10 1 17
v -10 1 15
v -10 1 14
v -10 1 12
v -10 1 11
v -10 1 9
v -10 1 8
v -10 1 6
v -10 1 5
v -10 1 3
v -10 1 2
v -10 1 -0
v -10 1 -1
v -10 1 -3
v -10 1 -4
v -10 1 -6
v -10 1 -7
v -10 1 -9
v -10 1 -10
v -10 1 -12
v -10 1 -13
v -10 1 -15
v -10 1 -16
v -10 1 -18
v -10 1 -19
v -10 1 -21
v -10 1 -22
v -10 1 -24
v -10 1 -25
v -10 1 -27
v -10 1 -28
v -10 1 -30
v -10 1 -31
v -10 1 -33
v -10 1 -34
v -10 1 -36
v -10 1 -37
v -10 1 -39
v -10 2 -39
v -10 2 -40
v -10 3 40
v -10 3 39
v -10 4 40
v -10 4 39
v -10 4 -39
v -10 4 -40
v -10 5 -39
v -10 5 -40
v -10 6 40
v -10 6 39
v -10 7 39
v -10 7 37
v -10 7 36
v -10 7 34
v -10 7 33
v -10 7 31
v -10 7 30
v -10 7 28
v -10 7 27
v -10 7 25
v -10 7 24
v -10 7 22
v -10 7 21
v -10 7 19
v -10 7 18
v -10 7 16
v -10 7 15
v -10 7 13
v -10 7 12
v -10 7 10
v -10 7 9
v -10 7 7
v -10 7 6
v -10 7 4
v -10 7 3
v -10 7 1
v -10 7 -0
v -10 7 -2
v -10 7 -3
v -10 7 -5
v -10 7 -6
v -10 7 -8
v -10 7 -9
v -10 7 -11
v -10 7 -12
v -10 7 -14
v -10 7 -15
v -10 7 -17
v -10 7 -18
v -10 7 -20
v -10 7 -21
v -10 7 -23
v -10 7 -24
v -10 7 -26
v -10 7 -27
v -10 7 -29
v -10 7 -30
v -10 7 -32
v -10 7 -33
v -10 7 -35
v -10 7 -36
v -10 7 -38
v -10 7 -39
v -10 7 -40
v -10 8 39
v -10 8 37
v -10 8 36
v -10 8 34
v -10 8 33
v -10 8 31
v -10 8 30
v -10 8 28
v -10 8 27
v -10 8 25
v -10 8 24
v -10 8 22
v -10 8 21
v -10 8 19
v -10 8 18
v -10 8 16
v -10 8 15
v -10 8 13
v -10 8 12
v -10 8 10
v -10 8 9
v -10 8 7
v -10 8 6
v -10 8 4
v -10 8 3
v -10 8 1
v -10 8 -0
v -10 8 -2
v -10 8 -3
v -10 8 -5
v -10 8 -6
v -10 8 -8
v -10 8 -9
v -10 8 -11
v -10 8 -12
v -10 8 -14
v -10 8 -15
v -10 8 -17
v -10 8 -18
v -10 8 -20
v -10 8 -21
v -10 8 -23
v -10 8 -24
v -10 8 -26
v -10 8 -27
v -10 8 -29
v -10 8 -30
v -10 8 -32
v -10 8 -33
v -10 8 -35
v -10 8 -36
v -10 8 -38
v -9 1 39
v -9 1 38
v -9 1 36
v -9 1 35
v -9 1 33
v -9 1 32
v -9 1 30
v -9 1 29
v -9 1 27
v -9 1 26
v -9 1 24
v -9 1 23
v -9 1 21
v -9 1 20
v -9 1 18
v -9 1 17
v -9 1 15
v -9 1 14
v -9 1 12
v -9 1 11
v -9 1 9
v -9 1 8
v -9 1 6
v -9 1 5
v -9 1 3
v -9 1 2
v -9 1 -0
v -9 1 -1
v -9 1 -3
v -9 1 -4
v -9 1 -6
v -9 1 -7
v -9 1 -9
v -9 1 -10
v -9 1 -12
v -9 1 -13
v -9 1 -15
v -9 1 -16
v -9 1 -18
v -9 1 -19
v -9 1 -21
v -9 1 -22
v -9 1 -24
v -9 1 -25
v -9 1 -27
v -9 1 -28
v -9 1 -30
v -9 1 -31
v -9 1 -33
v -9 1 -34
v -9 1 -36
v -9 1 -37
v -9 1 -39
v -9 2 -39
v -9 3 39
v -9 4 39
v -9 4 -39
v -9 5 -39
v -9 6 39
v -9 7 39
v -9 7 37
v -9 7 36
v -9 7 34
v -9 7 33
v -9 7 31
v -9 7 30
v -9 7 28
v -9 7 27
v -9 7 25
v -9 7 24
v -9 7 22
v -9 7 21
v -9 7 19
v -9 7 18
v -9 7 16
v -9 7 15
v -9 7 13
v -9 7 12
v -9 7 10
v -9 7 9
v -9 7 7
v -9 7 6
v -9 7 4
v -9 7 3
v -9 7 1
v -9 7 -0
v -9 7 -2
v -9 7 -3
v -9 7 -5
v -9 7 -6
v -9 7 -8
v -9 7 -9
v -9 7 -11
v -9 7 -12
v -9 7 -14
v -9 7 -15
v -9 7 -17
v -9 7 -18
v -9 7 -20
v -9 7 -21
v -9 7 -23
v -9 7 -24
v -9 7 -26
v -9 7 -27
v -9 7 -29
v -9 7 -30
v -9 7 -32
v -9 7 -33
v -9 7 -35
v -9 7 -36
v -9 7 -38
v -9 7 -39
v 9 1 39
v 9 1 38
v 9 1 36
v 9 1 35
v 9 1 33
v 9 1 32
v 9 1 30
v 9 1 29
v 9 1 27
v 9 1 26
v 9 1 24
v 9 1 23
v 9 1 21
v 9 1 20
v 9 1 18
v 9 1 17
v 9 1 15
v 9 1 14
v 9 1 12
v 9 1 11
v 9 1 9
v 9 1 8
v 9 1 6
v 9 1 5
v 9 1 3
v 9 1 2
v 9 1 -0
v 9 1 -1
v 9 1 -3
v 9 1 -4
v 9 1 -6
v 9 1 -7
v 9 1 -9
v 9 1 -10
v 9 1 -12
v 9 1 -13
v 9 1 -15
v 9 1 -16
v 9 1 -18
v 9 1 -19
v 9 1 -21
v 9 1 -22
v 9 1 -24
v 9 1 -25
v 9 1 -27
v 9 1 -28
v 9 1 -30
v 9 1 -31
v 9 1 -33
v 9 1 -34
v 9 1 -36
v 9 1 -37
v 9 1 -39
v 9 2 -39
v 9 3 39
v 9 4 39
v 9 4 -39
v 9 5 -39
v 9 6 39
v 9 7 39
v 9 7 37
v 9 7 36
v 9 7 34
v 9 7 33
v 9 7 31
v 9 7 30
v 9 7 28
v 9 7 27
v 9 7 25
v 9 7 24
v 9 7 22
v 9 7 21
v 9 7 19
v 9 7 18
v 9 7 16
v 9 7 15
v 9 7 13
v 9 7 12
v 9 7 10
v 9 7 9
v 9 7 7
v 9 7 6
v 9 7 4
v 9 7 3
v 9 7 1
v 9 7 -0
v 9 7 -2
v 9 7 -3
v 9 7 -5
v 9 7 -6
v 9 7 -8
v 9 7 -9
v 9 7 -11
v 9 7 -12
v 9 7 -14
v 9 7 -15
v 9 7 -17
v 9 7 -18
v 9 7 -20
v 9 7 -21
v 9 7 -23
v 9 7 -24
v 9 7 -26
v 9 7 -27
v 9 7 -29
v 9 7 -30
v 9 7 -32
v 9 7 -33
v 9 7 -35
v 9 7 -36
v 9 7 -38
v 9 7 -39
v 10 0 38
v 10 0 36
v 10 0 35
v 10 0 33
v 10 0 32
v 10 0 30
v 10 0 29
v 10 0 27
v 10 0 26
v 10 0 24
v 10 0 23
v 10 0 21
v 10 0 20
v 10 0 18
v 10 0 17
v 10 0 15
v 10 0 14
v 10 0 12
v 10 0 11
v 10 0 9
v 10 0 8
v 10 0 6
v 10 0 5
v 10 0 3
v 10 0 2
v 10 0 -0
v 10 0 -1
v 10 0 -3
v 10 0 -4
v 10 0 -6
v 10 0 -7
v 10 0 -9
v 10 0 -10
v 10 0 -12
v 10 0 -13
v 10 0 -15
v 10 0 -16
v 10 0 -18
v 10 0 -19
v 10 0 -21
v 10 0 -22
v 10 0 -24
v 10 0 -25
v 10 0 -27
v 10 0 -28
v 10 0 -30
v 10 0 -31
v 10 0 -33
v 10 0 -34
v 10 0 -36
v 10 0 -37
v 10 0 -39
v 10 1 40
v 10 1 39
v 10 1 38
v 10 1 36
v 10 1 35
v 10 1 33
v 10 1 32
v 10 1 30
v 10 1 29
v 10 1 27
v 10 1 26
v 10 1 24
v 10 1 23
v 10 1 21
v 10 1 20
v 10 1 18
v 10 1 17
v 10 1 15
v 10 1 14
v 10 1 12
v 10 1 11
v 10 1 9
v 10 1 8
v 10 1 6
v 10 1 5
v 10 1 3
v 10 1 2
v 10 1 -0
v 10 1 -1
v 10 1 -3
v 10 1 -4
v 10 1 -6
v 10 1 -7
v 10 1 -9
v 10 1 -10
v 10 1 -12
v 10 1 -13
v 10 1 -15
v 10 1 -16
v 10 1 -18
v 10 1 -19
v 10 1 -21
v 10 1 -22
v 10 1 -24
v 10 1 -25
v 10 1 -27
v 10 1 -28
v 10 1 -30
v 10 1 -31
v 10 1 -33
v 10 1 -34
v 10 1 -36
v 10 1 -37
v 10 1 -39
v 10 2 -39
v 10 2 -40
v 10 3 40
v 10 3 39
v 10 4 40
v 10 4 39
v 10 4 -39
v 10 4 -40
v 10 5 -39
v 10 5 -40
v 10 6 40
v 10 6 39
v 10 7 39
v 10 7 37
v 10 7 36
v 10 7 34
v 10 7 33
v 10 7 31
v 10 7 30
v 10 7 28
v 10 7 27
v 10 7 25
v 10 7 24
v 10 7 22
v 10 7 21
v 10 7 19
v 10 7 18
v 10 7 16
v 10 7 15
v 10 7 13
v 10 7 12
v 10 7 10
v 10 7 9
v 10 7 7
v 10 7 6
v 10 7 4
v 10 7 3
v 10 7 1
v 10 7 -0
v 10 7 -2
v 10 7 -3
v 10 7 -5
v 10 7 -6
v 10 7 -8
v 10 7 -9
v 10 7 -11
v 10 7 -12
v 10 7 -14
v 10 7 -15
v 10 7 -17
v 10 7 -18
v 10 7 -20
v 10 7 -21
v 10 7 -23
v 10 7 -24
v 10 7 -26
v 10 7 -27
v 10 7 -29
v 10 7 -30
v 10 7 -32
v 10 7 -33
v 10 7 -35
v 10 7 -36
v 10 7 -38
v 10 7 -39
v 10 7 -40
v 10 8 39
v 10 8 37
v 10 8 36
v 10 8 34
v 10 8 33
v 10 8 31
v 10 8 30
v 10 8 28
v 10 8 27
v 10 8 25
v 10 8 24
v 10 8 22
v 10 8 21
v 10 8 19
v 10 8 18
v 10 8 16
v 10 8 15
v 10 8 13
v 10 8 12
v 10 8 10
v 10 8 9
v 10 8 7
v 10 8 6
v 10 8 4
v 10 8 3
v 10 8 1
v 10 8 -0
v 10 8 -2
v 10 8 -3
v 10 8 -5
v 10 8 -6
v 10 8 -8
v 10 8 -9
v 10 8 -11
v 10 8 -12
v 10 8 -14
v 10 8 -15
v 10 8 -17
v 10 8 -18
v 10 8 -20
v 10 8 -21
v 10 8 -23
v 10 8 -24
v 10 8 -26
v 10 8 -27
v 10 8 -29
v 10 8 -30
v 10 8 -32
v 10 8 -33
v 10 8 -35
v 10 8 -36
v 10 8 -38
v -10 1 40
v -10 3 40
v -10 4 40
v -10 6 40
v 10 1 40
v 10 3 40
v 10 4 40
v 10 6 40
v -10 7 39
v -10 8 39
v -9 3 39
v -9 4 39
v -9 6 39
v -9 7 39
v 9 3 39
v 9 4 39
v 9 6 39
v 9 7 39
v 10 7 39
v 10 8 39
v -10 0 38
v -10 1 38
v -9 1 38
v 9 1 38
v 10 0 38
v 10 1 38
v -10 7 36
v -10 8 36
v -9 7 36
v 9 7 36
v 10 7 36
v 10 8 36
v -10 0 35
v -10 1 35
v -9 1 35
v 9 1 35
v 10 0 35
v 10 1 35
v -10 7 33
v -10 8 33
v -9 7 33
v 9 7 33
v 10 7 33
v 10 8 33
v -10 0 32
v -10 1 32
v -9 1 32
v 9 1 32
v 10 0 32
v 10 1 32
v -10 7 30
v -10 8 30
v -9 7 30
v 9 7 30
v 10 7 30
v 10 8 30
v -10 0 29
v -10 1 29
v -9 1 29
v 9 1 29
v 10 0 29
v 10 1 29
v -10 7 27
v -10 8 27
v -9 7 27
v 9 7 27
v 10 7 27
v 10 8 27
v -10 0 26
v -10 1 26
v -9 1 26
v 9 1 26
v 10 0 26
v 10 1 26
v -10 7 24
v -10 8 24
v -9 7 24
v 9 7 24
v 10 7 24
v 10 8 24
v -10 0 23
v -10 1 23
v -9 1 23
v 9 1 23
v 10 0 23
v 10 1 23
v -10 7 21
v -10 8 21
v -9 7 21
v 9 7 21
v 10 7 21
v 10 8 21
v -10 0 20
v -10 1 20
v -9 1 20
v 9 1 20
v 10 0 20
v 10 1 20
v -10 7 18
v -10 8 18
v -9 7 18
v 9 7 18
v 10 7 18
v 10 8 18
v -10 0 17
v -10 1 17
v -9 1 17
v 9 1 17
v 10 0 17
v 10 1 17
v -10 7 15
v -10 8 15
v -9 7 15
v 9 7 15
v 10 7 15
v 10 8 15
v -10 0 14
v -10 1 14
v -9 1 14
v 9 1 14
v 10 0 14
v 10 1 14
v -10 7 12
v -10 8 12
v -9 7 12
v 9 7 12
v 10 7 12
v 10 8 12
v -10 0 11
v -10 1 11
v -9 1 11
v 9 1 11
v 10 0 11
v 10 1 11
v -10 7 9
v -10 8 9
v -9 7 9
v 9 7 9
v 10 7 9
v 10 8 9
v -10 0 8
v -10 1 8
v -9 1 8
v 9 1 8
v 10 0 8
v 10 1 8
v -10 7 6
v -10 8 6
v -9 7 6
v 9 7 6
v 10 7 6
v 10 8 6
v -10 0 5
v -10 1 5
v -9 1 5
v 9 1 5
v 10 0 5
v 10 1 5
v -10 7 3
v -10 8 3
v -9 7 3
v 9 7 3
v 10 7 3
v 10 8 3
v -10 0 2
v -10 1 2
v -9 1 2
v 9 1 2
v 10 0 2
v 10 1 2
v -10 7 -0
v -10 8 -0
v -9 7 -0
v 9 7 -0
v 10 7 -0
v 10 8 -0
v -10 0 -1
v -10 1 -1
v -9 1 -1
v 9 1 -1
v 10 0 -1
v 10 1 -1
v -10 7 -3
v -10 8 -3
v -9 7 -3
v 9 7 -3
v 10 7 -3
v 10 8 -3
v -10 0 -4
v -10 1 -4
v -9 1 -4
v 9 1 -4
v 10 0 -4
v 10 1 -4
v -10 7 -6
v -10 8 -6
v -9 7 -6
v 9 7 -6
v 10 7 -6
v 10 8 -6
v -10 0 -7
v -10 1 -7
v -9 1 -7
v 9 1 -7
v 10 0 -7
v 10 1 -7
v -10 7 -9
v -10 8 -9
v -9 7 -9
v 9 7 -9
v 10 7 -9
v 10 8 -9
v -10 0 -10
v -10 1 -10
v -9 1 -10
v 9 1 -10
v 10 0 -10
v 10 1 -10
v -10 7 -12
v -10 8 -12
v -9 7 -12
v 9 7 -12
v 10 7 -12
v 10 8 -12
v -10 0 -13
v -10 1 -13
v -9 1 -13
v 9 1 -13
v 10 0 -13
v 10 1 -13
v -10 7 -15
v -10 8 -15
v -9 7 -15
v 9 7 -15
v 10 7 -15
v 10 8 -15
v -10 0 -16
v -10 1 -16
v -9 1 -16
v 9 1 -16
v 10 0 -16
v 10 1 -16
v -10 7 -18
v -10 8 -18
v -9 7 -18
v 9 7 -18
v 10 7 -18
v 10 8 -18
v -10 0 -19
v -10 1 -19
v -9 1 -19
v 9 1 -19
v 10 0 -19
v 10 1 -19
v -10 7 -21
v -10 8 -21
v -9 7 -21
v 9 7 -21
v 10 7 -21
v 10 8 -21
v -10 0 -22
v -10 1 -22
v -9 1 -22
v 9 1 -22
v 10 0 -22
v 10 1 -22
v -10 7 -24
v -10 8 -24
v -9 7 -24
v 9 7 -24
v 10 7 -24
v 10 8 -24
v -10 0 -25
v -10 1 -25
v -9 1 -25
v 9 1 -25
v 10 0 -25
v 10 1 -25
v -10 7 -27
v -10 8 -27
v -9 7 -27
v 9 7 -27
v 10 7 -27
v 10 8 -27
v -10 0 -28
v -10 1 -28
v -9 1 -28
v 9 1 -28
v 10 0 -28
v 10 1 -28
v -10 7 -30
v -10 8 -30
v -9 7 -30
v 9 7 -30
v 10 7 -30
v 10 8 -30
v -10 0 -31
v -10 1 -31
v -9 1 -31
v 9 1 -31
v 10 0 -31
v 10 1 -31
v -10 7 -33
v -10 8 -33
v -9 7 -33
v 9 7 -33
v 10 7 -33
v 10 8 -33
v -10 0 -34
v -10 1 -34
v -9 1 -34
v 9 1 -34
v 10 0 -34
v 10 1 -34
v -10 7 -36
v -10 8 -36
v -9 7 -36
v 9 7 -36
v 10 7 -36
v 10 8 -36
v -10 0 -37
v -10 1 -37
v -9 1 -37
v 9 1 -37
v 10 0 -37
v 10 1 -37
v -10 2 -39
v -10 4 -39
v -10 5 -39
v -10 7 -39
v -9 2 -39
v -9 4 -39
v -9 5 -39
v -9 7 -39
v 9 2 -39
v 9 4 -39
v 9 5 -39
v 9 7 -39
v 10 2 -39
v 10 4 -39
v 10 5 -39
v 10 7 -39
v -10 1 39
v -10 3 39
v -10 4 39
v -10 6 39
v -9 1 39
v -9 3 39
v -9 4 39
v -9 6 39
v 9 1 39
v 9 3 39
v 9 4 39
v 9 6 39
v 10 1 39
v 10 3 39
v 10 4 39
v 10 6 39
v -10 7 37
v -10 8 37
v -9 7 37
v 9 7 37
v 10 7 37
v 10 8 37
v -10 0 36
v -10 1 36
v -9 1 36
v 9 1 36
v 10 0 36
v 10 1 36
v -10 7 34
v -10 8 34
v -9 7 34
v 9 7 34
v 10 7 34
v 10 8 34
v -10 0 33
v -10 1 33
v -9 1 33
v 9 1 33
v 10 0 33
v 10 1 33
v -10 7 31
v -10 8 31
v -9 7 31
v 9 7 31
v 10 7 31
v 10 8 31
v -10 0 30
v -10 1 30
v -9 1 30
v 9 1 30
v 10 0 30
v 10 1 30
v -10 7 28
v -10 8 28
v -9 7 28
v 9 7 28
v 10 7 28
v 10 8 28
v -10 0 27
v -10 1 27
v -9 1 27
v 9 1 27
v 10 0 27
v 10 1 27
v -10 7 25
v -10 8 25
v -9 7 25
v 9 7 25
v 10 7 25
v 10 8 25
v -10 0 24
v -10 1 24
v -9 1 24
v 9 1 24
v 10 0 24
v 10 1 24
v -10 7 22
v -10 8 22
v -9 7 22
v 9 7 22
v 10 7 22
v 10 8 22
v -10 0 21
v -10 1 21
v -9 1 21
v 9 1 21
v 10 0 21
v 10 1 21
v -10 7 19
v -10 8 19
v -9 7 19
v 9 7 19
v 10 7 19
v 10 8 19
v -10 0 18
v -10 1 18
v -9 1 18
v 9 1 18
v 10 0 18
v 10 1 18
v -10 7 16
v -10 8 16
v -9 7 16
v 9 7 16
v 10 7 16
v 10 8 16
v -10 0 15
v -10 1 15
v -9 1 15
v 9 1 15
v 10 0 15
v 10 1 15
v -10 7 13
v -10 8 13
v -9 7 13
v 9 7 13
v 10 7 13
v 10 8 13
v -10 0 12
v -10 1 12
v -9 1 12
v 9 1 12
v 10 0 12
v 10 1 12
v -10 7 10
v -10 8 10
v -9 7 10
v 9 7 10
v 10 7 10
v 10 8 10
v -10 0 9
v -10 1 9
v -9 1 9
v 9 1 9
v 10 0 9
v 10 1 9
v -10 7 7
v -10 8 7
v -9 7 7
v 9 7 7
v 10 7 7
v 10 8 7
v -10 0 6
v -10 1 6
v -9 1 6
v 9 1 6
v 10 0 6
v 10 1 6
v -10 7 4
v -10 8 4
v -9 7 4
v 9 7 4
v 10 7 4
v 10 8 4
v -10 0 3
v -10 1 3
v -9 1 3
v 9 1 3
v 10 0 3
v 10 1 3
v -10 7 1
v -10 8 1
v -9 7 1
v 9 7 1
v 10 7 1
v 10 8 1
v -10 0 -0
v -10 1 -0
v -9 1 -0
v 9 1 -0
v 10 0 -0
v 10 1 -0
v -10 7 -2
v -10 8 -2
v -9 7 -2
v 9 7 -2
v 10 7 -2
v 10 8 -2
v -10 0 -3
v -10 1 -3
v -9 1 -3
v 9 1 -3
v 10 0 -3
v 10 1 -3
v -10 7 -5
v -10 8 -5
v -9 7 -5
v 9 7 -5
v 10 7 -5
v 10 8 -5
v -10 0 -6
v -10 1 -6
v -9 1 -6
v 9 1 -6
v 10 0 -6
v 10 1 -6
v -10 7 -8
v -10 8 -8
v -9 7 -8
v 9 7 -8
v 10 7 -8
v 10 8 -8
v -10 0 -9
v -10 1 -9
v -9 1 -9
v 9 1 -9
v 10 0 -9
v 10 1 -9
v -10 7 -11
v -10 8 -11
v -9 7 -11
v 9 7 -11
v 10 7 -11
v 10 8 -11
v -10 0 -12
v -10 1 -12
v -9 1 -12
v 9 1 -12
v 10 0 -12
v 10 1 -12
v -10 7 -14
v -10 8 -14
v -9 7 -14
v 9 7 -14
v 10 7 -14
v 10 8 -14
v -10 0 -15
v -10 1 -15
v -9 1 -15
v 9 1 -15
v 10 0 -15
v 10 1 -15
v -10 7 -17
v -10 8 -17
v -9 7 -17
v 9 7 -17
v 10 7 -17
v 10 8 -17
v -10 0 -18
v -10 1 -18
v -9 1 -18
v 9 1 -18
v 10 0 -18
v 10 1 -18
v -10 7 -20
v -10 8 -20
v -9 7 -20
v 9 7 -20
v 10 7 -20
v 10 8 -20
v -10 0 -21
v -10 1 -21
v -9 1 -21
v 9 1 -21
v 10 0 -21
v 10 1 -21
v -10 7 -23
v -10 8 -23
v -9 7 -23
v 9 7 -23
v 10 7 -23
v 10 8 -23
v -10 0 -24
v -10 1 -24
v -9 1 -24
v 9 1 -24
v 10 0 -24
v 10 1 -24
v -10 7 -26
v -10 8 -26
v -9 7 -26
v 9 7 -26
v 10 7 -26
v 10 8 -26
v -10 0 -27
v -10 1 -27
v -9 1 -27
v 9 1 -27
v 10 0 -27
v 10 1 -27
v -10 7 -29
v -10 8 -29
v -9 7 -29
v 9 7 -29
v 10 7 -29
v 10 8 -29
v -10 0 -30
v -10 1 -30
v -9 1 -30
v 9 1 -30
v 10 0 -30
v 10 1 -30
v -10 7 -32
v -10 8 -32
v -9 7 -32
v 9 7 -32
v 10 7 -32
v 10 8 -32
v -10 0 -33
v -10 1 -33
v -9 1 -33
v 9 1 -33
v 10 0 -33
v 10 1 -33
v -10 7 -35
v -10 8 -35
v -9 7 -35
v 9 7 -35
v 10 7 -35
v 10 8 -35
v -10 0 -36
v -10 1 -36
v -9 1 -36
v 9 1 -36
v 10 0 -36
v 10 1 -36
v -10 7 -38
v -10 8 -38
v -9 7 -38
v 9 7 -38
v 10 7 -38
v 10 8 -38
v -10 0 -39
v -10 1 -39
v -9 1 -39
v -9 2 -39
v -9 4 -39
v -9 5 -39
v 9 1 -39
v 9 2 -39
v 9 4 -39
v 9 5 -39
v 10 0 -39
v 10 1 -39
v -10 2 -40
v -10 4 -40
v -10 5 -40
v -10 7 -40
v 10 2 -40
v 10 4 -40
v 10 5 -40
v 10 7 -40
v -10 0 38
v 10 0 38
v -10 0 36
v 10 0 36
v -10 0 35
v 10 0 35
v -10 0 33
v 10 0 33
v -10 0 32
v 10 0 32
v -10 0 30
v 10 0 30
v -10 0 29
v 10 0 29
v -10 0 27
v 10 0 27
v -10 0 26
v 10 0 26
v -10 0 24
v 10 0 24
v -10 0 23
v 10 0 23
v -10 0 21
v 10 0 21
v -10 0 20
v 10 0 20
v -10 0 18
v 10 0 18
v -10 0 17
v 10 0 17
v -10 0 15
v 10 0 15
v -10 0 14
v 10 0 14
v -10 0 12
v 10 0 12
v -10 0 11
v 10 0 11
v -10 0 9
v 10 0 9
v -10 0 8
v 10 0 8
v -10 0 6
v 10 0 6
v -10 0 5
v 10 0 5
v -10 0 3
v 10 0 3
v -10 0 2
v 10 0 2
v -10 0 -0
v 10 0 -0
v -10 0 -1
v 10 0 -1
v -10 0 -3
v 10 0 -3
v -10 0 -4
v 10 0 -4
v -10 0 -6
v 10 0 -6
v -10 0 -7
v 10 0 -7
v -10 0 -9
v 10 0 -9
v -10 0 -10
v 10 0 -10
v -10 0 -12
v 10 0 -12
v -10 0 -13
v 10 0 -13
v -10 0 -15
v 10 0 -15
v -10 0 -16
v 10 0 -16
v -10 0 -18
v 10 0 -18
v -10 0 -19
v 10 0 -19
v -10 0 -21
v 10 0 -21
v -10 0 -22
v 10 0 -22
v -10 0 -24
v 10 0 -24
v -10 0 -25
v 10 0 -25
v -10 0 -27
v 10 0 -27
v -10 0 -28
v 10 0 -28
v -10 0 -30
v 10 0 -30
v -10 0 -31
v 10 0 -31
v -10 0 -33
v 10 0 -33
v -10 0 -34
v 10 0 -34
v -10 0 -36
v 10 0 -36
v -10 0 -37
v 10 0 -37
v -10 0 -39
v 10 0 -39
v -10 1 40
v 10 1 40
v -10 1 39
v -9 1 39
v 9 1 39
v 10 1 39
v -9 1 38
v 9 1 38
v -9 1 36
v 9 1 36
v -9 1 35
v 9 1 35
v -9 1 33
v 9 1 33
v -9 1 32
v 9 1 32
v -9 1 30
v 9 1 30
v -9 1 29
v 9 1 29
v -9 1 27
v 9 1 27
v -9 1 26
v 9 1 26
v -9 1 24
v 9 1 24
v -9 1 23
v 9 1 23
v -9 1 21
v 9 1 21
v -9 1 20
v 9 1 20
v -9 1 18
v 9 1 18
v -9 1 17
v 9 1 17
v -9 1 15
v 9 1 15
v -9 1 14
v 9 1 14
v -9 1 12
v 9 1 12
v -9 1 11
v 9 1 11
v -9 1 9
v 9 1 9
v -9 1 8
v 9 1 8
v -9 1 6
v 9 1 6
v -9 1 5
v 9 1 5
v -9 1 3
v 9 1 3
v -9 1 2
v 9 1 2
v -9 1 -0
v 9 1 -0
v -9 1 -1
v 9 1 -1
v -9 1 -3
v 9 1 -3
v -9 1 -4
v 9 1 -4
v -9 1 -6
v 9 1 -6
v -9 1 -7
v 9 1 -7
v -9 1 -9
v 9 1 -9
v -9 1 -10
v 9 1 -10
v -9 1 -12
v 9 1 -12
v -9 1 -13
v 9 1 -13
v -9 1 -15
v 9 1 -15
v -9 1 -16
v 9 1 -16
v -9 1 -18
v 9 1 -18
v -9 1 -19
v 9 1 -19
v -9 1 -21
v 9 1 -21
v -9 1 -22
v 9 1 -22
v -9 1 -24
v 9 1 -24
v -9 1 -25
v 9 1 -25
v -9 1 -27
v 9 1 -27
v -9 1 -28
v 9 1 -28
v -9 1 -30
v 9 1 -30
v -9 1 -31
v 9 1 -31
v -9 1 -33
v 9 1 -33
v -9 1 -34
v 9 1 -34
v -9 1 -36
v 9 1 -36
v -9 1 -37
v 9 1 -37
v -10 2 -39
v -9 2 -39
v 9 2 -39
v 10 2 -39
v -10 2 -40
v 10 2 -40
v -10 4 40
v 10 4 40
v -10 4 39
v -9 4 39
v 9 4 39
v 10 4 39
v -10 5 -39
v -9 5 -39
v 9 5 -39
v 10 5 -39
v -10 5 -40
v 10 5 -40
v -10 7 39
v -9 7 39
v 9 7 39
v 10 7 39
v -10 7 37
v -9 7 37
v 9 7 37
v 10 7 37
v -10 7 36
v -9 7 36
v 9 7 36
v 10 7 36
v -10 7 34
v -9 7 34
v 9 7 34
v 10 7 34
v -10 7 33
v -9 7 33
v 9 7 33
v 10 7 33
v -10 7 31
v -9 7 31
v 9 7 31
v 10 7 31
v -10 7 30
v -9 7 30
v 9 7 30
v 10 7 30
v -10 7 28
v -9 7 28
v 9 7 28
v 10 7 28
v -10 7 27
v -9 7 27
v 9 7 27
v 10 7 27
v -10 7 25
v -9 7 25
v 9 7 25
v 10 7 25
v -10 7 24
v -9 7 24
v 9 7 24
v 10 7 24
v -10 7 22
v -9 7 22
v 9 7 22
v 10 7 22
v -10 7 21
v -9 7 21
v 9 7 21
v 10 7 21
v -10 7 19
v -9 7 19
v 9 7 19
v 10 7 19
v -10 7 18
v -9 7 18
v 9 7 18
v 10 7 18
v -10 7 16
v -9 7 16
v 9 7 16
v 10 7 16
v -10 7 15
v -9 7 15
v 9 7 15
v 10 7 15
v -10 7 13
v -9 7 13
v 9 7 13
v 10 7 13
v -10 7 12
v -9 7 12
v 9 7 12
v 10 7 12
v -10 7 10
v -9 7 10
v 9 7 10
v 10 7 10
v -10 7 9
v -9 7 9
v 9 7 9
v 10 7 9
v -10 7 7
v -9 7 7
v 9 7 7
v 10 7 7
v -10 7 6
v -9 7 6
v 9 7 6
v 10 7 6
v -10 7 4
v -9 7 4
v 9 7 4
v 10 7 4
v -10 7 3
v -9 7 3
v 9 7 3
v 10 7 3
v -10 7 1
v -9 7 1
v 9 7 1
v 10 7 1
v -10 7 -0
v -9 7 -0
v 9 7 -0
v 10 7 -0
v -10 7 -2
v -9 7 -2
v 9 7 -2
v 10 7 -2
v -10 7 -3
v -9 7 -3
v 9 7 -3
v 10 7 -3
v -10 7 -5
v -9 7 -5
v 9 7 -5
v 10 7 -5
v -10 7 -6
v -9 7 -6
v 9 7 -6
v 10 7 -6
v -10 7 -8
v -9 7 -8
v 9 7 -8
v 10 7 -8
v -10 7 -9
v -9 7 -9
v 9 7 -9
v 10 7 -9
v -10 7 -11
v -9 7 -11
v 9 7 -11
v 10 7 -11
v -10 7 -12
v -9 7 -12
v 9 7 -12
v 10 7 -12
v -10 7 -14
v -9 7 -14
v 9 7 -14
v 10 7 -14
v -10 7 -15
v -9 7 -15
v 9 7 -15
v 10 7 -15
v -10 7 -17
v -9 7 -17
v 9 7 -17
v 10 7 -17
v -10 7 -18
v -9 7 -18
v 9 7 -18
v 10 7 -18
v -10 7 -20
v -9 7 -20
v 9 7 -20
v 10 7 -20
v -10 7 -21
v -9 7 -21
v 9 7 -21
v 10 7 -21
v -10 7 -23
v -9 7 -23
v 9 7 -23
v 10 7 -23
v -10 7 -24
v -9 7 -24
v 9 7 -24
v 10 7 -24
v -10 7 -26
v -9 7 -26
v 9 7 -26
v 10 7 -26
v -10 7 -27
v -9 7 -27
v 9 7 -27
v 10 7 -27
v -10 7 -29
v -9 7 -29
v 9 7 -29
v 10 7 -29
v -10 7 -30
v -9 7 -30
v 9 7 -30
v 10 7 -30
v -10 7 -32
v -9 7 -32
v 9 7 -32
v 10 7 -32
v -10 7 -33
v -9 7 -33
v 9 7 -33
v 10 7 -33
v -10 7 -35
v -9 7 -35
v 9 7 -35
v 10 7 -35
v -10 7 -36
v -9 7 -36
v 9 7 -36
v 10 7 -36
v -10 7 -38
v -9 7 -38
v 9 7 -38
v 10 7 -38
v -10 1 38
v -9 1 38
v 9 1 38
v 10 1 38
v -10 1 36
v -9 1 36
v 9 1 36
v 10 1 36
v -10 1 35
v -9 1 35
v 9 1 35
v 10 1 35
v -10 1 33
v -9 1 33
v 9 1 33
v 10 1 33
v -10 1 32
v -9 1 32
v 9 1 32
v 10 1 32
v -10 1 30
v -9 1 30
v 9 1 30
v 10 1 30
v -10 1 29
v -9 1 29
v 9 1 29
v 10 1 29
v -10 1 27
v -9 1 27
v 9 1 27
v 10 1 27
v -10 1 26
v -9 1 26
v 9 1 26
v 10 1 26
v -10 1 24
v -9 1 24
v 9 1 24
v 10 1 24
v -10 1 23
v -9 1 23
v 9 1 23
v 10 1 23
v -10 1 21
v -9 1 21
v 9 1 21
v 10 1 21
v -10 1 20
v -9 1 20
v 9 1 20
v 10 1 20
v -10 1 18
v -9 1 18
v 9 1 18
v 10 1 18
v -10 1 17
v -9 1 17
v 9 1 17
v 10 1 17
v -10 1 15
v -9 1 15
v 9 1 15
v 10 1 15
v -10 1 14
v -9 1 14
v 9 1 14
v 10 1 14
v -10 1 12
v -9 1 12
v 9 1 12
v 10 1 12
v -10 1 11
v -9 1 11
v 9 1 11
v 10 1 11
v -10 1 9
v -9 1 9
v 9 1 9
v 10 1 9
v -10 1 8
v -9 1 8
v 9 1 8
v 10 1 8
v -10 1 6
v -9 1 6
v 9 1 6
v 10 1 6
v -10 1 5
v -9 1 5
v 9 1 5
v 10 1 5
v -10 1 3
v -9 1 3
v 9 1 3
v 10 1 3
v -10 1 2
v -9 1 2
v 9 1 2
v 10 1 2
v -10 1 -0
v -9 1 -0
v 9 1 -0
v 10 1 -0
v -10 1 -1
v -9 1 -1
v 9 1 -1
v 10 1 -1
v -10 1 -3
v -9 1 -3
v 9 1 -3
v 10 1 -3
v -10 1 -4
v -9 1 -4
v 9 1 -4
v 10 1 -4
v -10 1 -6
v -9 1 -6
v 9 1 -6
v 10 1 -6
v -10 1 -7
v -9 1 -7
v 9 1 -7
v 10 1 -7
v -10 1 -9
v -9 1 -9
v 9 1 -9
v 10 1 -9
v -10 1 -10
v -9 1 -10
v 9 1 -10
v 10 1 -10
v -10 1 -12
v -9 1 -12
v 9 1 -12
v 10 1 -12
v -10 1 -13
v -9 1 -13
v 9 1 -13
v 10 1 -13
v -10 1 -15
v -9 1 -15
v 9 1 -15
v 10 1 -15
v -10 1 -16
v -9 1 -16
v 9 1 -16
v 10 1 -16
v -10 1 -18
v -9 1 -18
v 9 1 -18
v 10 1 -18
v -10 1 -19
v -9 1 -19
v 9 1 -19
v 10 1 -19
v -10 1 -21
v -9 1 -21
v 9 1 -21
v 10 1 -21
v -10 1 -22
v -9 1 -22
v 9 1 -22
v 10 1 -22
v -10 1 -24
v -9 1 -24
v 9 1 -24
v 10 1 -24
v -10 1 -25
v -9 1 -25
v 9 1 -25
v 10 1 -25
v -10 1 -27
v -9 1 -27
v 9 1 -27
v 10 1 -27
v -10 1 -28
v -9 1 -28
v 9 1 -28
v 10 1 -28
v -10 1 -30
v -9 1 -30
v 9 1 -30
v 10 1 -30
v -10 1 -31
v -9 1 -31
v 9 1 -31
v 10 1 -31
v -10 1 -33
v -9 1 -33
v 9 1 -33
v 10 1 -33
v -10 1 -34
v -9 1 -34
v 9 1 -34
v 10 1 -34
v -10 1 -36
v -9 1 -36
v 9 1 -36
v 10 1 -36
v -10 1 -37
v -9 1 -37
v 9 1 -37
v 10 1 -37
v -10 1 -39
v -9 1 -39
v 9 1 -39
v 10 1 -39
v -10 3 40
v 10 3 40
v -10 3 39
v -9 3 39
v 9 3 39
v 10 3 39
v -10 4 -39
v -9 4 -39
v 9 4 -39
v 10 4 -39
v -10 4 -40
v 10 4 -40
v -10 6 40
v 10 6 40
v -10 6 39
v -9 6 39
v 9 6 39
v 10 6 39
v -9 7 37
v 9 7 37
v -9 7 36
v 9 7 36
v -9 7 34
v 9 7 34
v -9 7 33
v 9 7 33
v -9 7 31
v 9 7 31
v -9 7 30
v 9 7 30
v -9 7 28
v 9 7 28
v -9 7 27
v 9 7 27
v -9 7 25
v 9 7 25
v -9 7 24
v 9 7 24
v -9 7 22
v 9 7 22
v -9 7 21
v 9 7 21
v -9 7 19
v 9 7 19
v -9 7 18
v 9 7 18
v -9 7 16
v 9 7 16
v -9 7 15
v 9 7 15
v -9 7 13
v 9 7 13
v -9 7 12
v 9 7 12
v -9 7 10
v 9 7 10
v -9 7 9
v 9 7 9
v -9 7 7
v 9 7 7
v -9 7 6
v 9 7 6
v -9 7 4
v 9 7 4
v -9 7 3
v 9 7 3
v -9 7 1
v 9 7 1
v -9 7 -0
v 9 7 -0
v -9 7 -2
v 9 7 -2
v -9 7 -3
v 9 7 -3
v -9 7 -5
v 9 7 -5
v -9 7 -6
v 9 7 -6
v -9 7 -8
v 9 7 -8
v -9 7 -9
v 9 7 -9
v -9 7 -11
v 9 7 -11
v -9 7 -12
v 9 7 -12
v -9 7 -14
v 9 7 -14
v -9 7 -15
v 9 7 -15
v -9 7 -17
v 9 7 -17
v -9 7 -18
v 9 7 -18
v -9 7 -20
v 9 7 -20
v -9 7 -21
v 9 7 -21
v -9 7 -23
v 9 7 -23
v -9 7 -24
v 9 7 -24
v -9 7 -26
v 9 7 -26
v -9 7 -27
v 9 7 -27
v -9 7 -29
v 9 7 -29
v -9 7 -30
v 9 7 -30
v -9 7 -32
v 9 7 -32
v -9 7 -33
v 9 7 -33
v -9 7 -35
v 9 7 -35
v -9 7 -36
v 9 7 -36
v -9 7 -38
v 9 7 -38
v -10 7 -39
v -9 7 -39
v 9 7 -39
v 10 7 -39
v -10 7 -40
v 10 7 -40
v -10 8 39
v 10 8 39
v -10 8 37
v 10 8 37
v -10 8 36
v 10 8 36
v -10 8 34
v 10 8 34
v -10 8 33
v 10 8 33
v -10 8 31
v 10 8 31
v -10 8 30
v 10 8 30
v -10 8 28
v 10 8 28
v -10 8 27
v 10 8 27
v -10 8 25
v 10 8 25
v -10 8 24
v 10 8 24
v -10 8 22
v 10 8 22
v -10 8 21
v 10 8 21
v -10 8 19
v 10 8 19
v -10 8 18
v 10 8 18
v -10 8 16
v 10 8 16
v -10 8 15
v 10 8 15
v -10 8 13
v 10 8 13
v -10 8 12
v 10 8 12
v -10 8 10
v 10 8 10
v -10 8 9
v 10 8 9
v -10 8 7
v 10 8 7
v -10 8 6
v 10 8 6
v -10 8 4
v 10 8 4
v -10 8 3
v 10 8 3
v -10 8 1
v 10 8 1
v -10 8 -0
v 10 8 -0
v -10 8 -2
v 10 8 -2
v -10 8 -3
v 10 8 -3
v -10 8 -5
v 10 8 -5
v -10 8 -6
v 10 8 -6
v -10 8 -8
v 10 8 -8
v -10 8 -9
v 10 8 -9
v -10 8 -11
v 10 8 -11
v -10 8 -12
v 10 8 -12
v -10 8 -14
v 10 8 -14
v -10 8 -15
v 10 8 -15
v -10 8 -17
v 10 8 -17
v -10 8 -18
v 10 8 -18
v -10 8 -20
v 10 8 -20
v -10 8 -21
v 10 8 -21
v -10 8 -23
v 10 8 -23
v -10 8 -24
v 10 8 -24
v -10 8 -26
v 10 8 -26
v -10 8 -27
v 10 8 -27
v -10 8 -29
v 10 8 -29
v -10 8 -30
v 10 8 -30
v -10 8 -32
v 10 8 -32
v -10 8 -33
v 10 8 -33
v -10 8 -35
v 10 8 -35
v -10 8 -36
v 10 8 -36
v -10 8 -38
v 10 8 -38

# faces
f 55/1/1 2/1/1 1/1/1
f 56/1/1 2/1/1 55/1/1
f 57/1/1 4/1/1 3/1/1
f 58/1/1 4/1/1 57/1/1
f 59/1/1 6/1/1 5/1/1
f 60/1/1 6/1/1 59/1/1
f 61/1/1 8/1/1 7/1/1
f 62/1/1 8/1/1 61/1/1
f 63/1/1 10/1/1 9/1/1
f 64/1/1 10/1/1 63/1/1
f 65/1/1 12/1/1 11/1/1
f 66/1/1 12/1/1 65/1/1
f 67/1/1 14/1/1 13/1/1
f 68/1/1 14/1/1 67/1/1
f 69/1/1 16/1/1 15/1/1
f 70/1/1 16/1/1 69/1/1
f 71/1/1 18/1/1 17/1/1
f 72/1/1 18/1/1 71/1/1
f 73/1/1 20/1/1 19/1/1
f 74/1/1 20/1/1 73/1/1
f 75/1/1 22/1/1 21/1/1
f 76/1/1 22/1/1 75/1/1
f 77/1/1 24/1/1 23/1/1
f 78/1/1 24/1/1 77/1/1
f 79/1/1 26/1/1 25/1/1
f 80/1/1 26/1/1 79/1/1
f 81/1/1 28/1/1 27/1/1
f 82/1/1 28/1/1 81/1/1
f 83/1/1 30/1/1 29/1/1
f 84/1/1 30/1/1 83/1/1
f 85/1/1 32/1/1 31/1/1
f 86/1/1 32/1/1 85/1/1
f 87/1/1 34/1/1 33/1/1
f 88/1/1 34/1/1 87/1/1
f 89/1/1 36/1/1 35/1/1
f 90/1/1 36/1/1 89/1/1
f 91/1/1 38/1/1 37/1/1
f 92/1/1 38/1/1 91/1/1
f 93/1/1 40/1/1 39/1/1
f 94/1/1 40/1/1 93/1/1
f 95/1/1 42/1/1 41/1/1
f 96/1/1 42/1/1 95/1/1
f 97/1/1 44/1/1 43/1/1
f 98/1/1 44/1/1 97/1/1
f 99/1/1 46/1/1 45/1/1
f 100/1/1 46/1/1 99/1/1
f 101/1/1 48/1/1 47/1/1
f 102/1/1 48/1/1 101/1/1
f 103/1/1 50/1/1 49/1/1
f 104/1/1 50/1/1 103/1/1
f 105/1/1 52/1/1 51/1/1
f 106/1/1 52/1/1 105/1/1
f 109/1/1 54/1/1 53/1/1
f 110/1/1 54/1/1 109/1/1
f 113/1/1 108/1/1 107/1/1
f 114/1/1 108/1/1 113/1/1
f 117/1/1 112/1/1 111/1/1
f 118/1/1 112/1/1 117/1/1
f 171/1/1 116/1/1 115/1/1
f 172/1/1 116/1/1 171/1/1
f 173/1/1 120/1/1 119/1/1
f 174/1/1 120/1/1 173/1/1
f 175/1/1 122/1/1 121/1/1
f 176/1/1 122/1/1 175/1/1
f 177/1/1 124/1/1 123/1/1
f 178/1/1 124/1/1 177/1/1
f 179/1/1 126/1/1 125/1/1
f 180/1/1 126/1/1 179/1/1
f 181/1/1 128/1/1 127/1/1
f 182/1/1 128/1/1 181/1/1
f 183/1/1 130/1/1 129/1/1
f 184/1/1 130/1/1 183/1/1
f 185/1/1 132/1/1 131/1/1
f 186/1/1 132/1/1 185/1/1
f 187/1/1 134/1/1 133/1/1
f 188/1/1 134/1/1 187/1/1
f 189/1/1 136/1/1 135/1/1
f 190/1/1 136/1/1 189/1/1
f 191/1/1 138/1/1 137/1/1
f 192/1/1 138/1/1 191/1/1
f 193/1/1 140/1/1 139/1/1
f 194/1/1 140/1/1 193/1/1
f 195/1/1 142/1/1 141/1/1
f 196/1/1 142/1/1 195/1/1
f 197/1/1 144/1/1 143/1/1
f 198/1/1 144/1/1 197/1/1
f 199/1/1 146/1/1 145/1/1
f 200/1/1 146/1/1 199/1/1
f 201/1/1 148/1/1 147/1/1
f 202/1/1 148/1/1 201/1/1
f 203/1/1 150/1/1 149/1/1
f 204/1/1 150/1/1 203/1/1
f 205/1/1 152/1/1 151/1/1
f 206/1/1 152/1/1 205/1/1
f 207/1/1 154/1/1 153/1/1
f 208/1/1 154/1/1 207/1/1
f 209/1/1 156/1/1 155/1/1
f 210/1/1 156/1/1 209/1/1
f 211/1/1 158/1/1 157/1/1
f 212/1/1 158/1/1 211/1/1
f 213/1/1 160/1/1 159/1/1
f 214/1/1 160/1/1 213/1/1
f 215/1/1 162/1/1 161/1/1
f 216/1/1 162/1/1 215/1/1
f 217/1/1 164/1/1 163/1/1
f 218/1/1 164/1/1 217/1/1
f 219/1/1 166/1/1 165/1/1
f 220/1/1 166/1/1 219/1/1
f 221/1/1 168/1/1 167/1/1
f 222/1/1 168/1/1 221/1/1
f 223/1/1 170/1/1 169/1/1
f 224/1/1 170/1/1 223/1/1
f 278/2/1 226/2/1 225/2/1
f 278/2/1 277/2/1 276/2/1
f 278/2/1 276/2/1 275/2/1
f 278/2/1 275/2/1 274/2/1
f 278/2/1 274/2/1 273/2/1
f 278/2/1 273/2/1 272/2/1
f 278/2/1 272/2/1 271/2/1
f 278/2/1 271/2/1 270/2/1
f 278/2/1 270/2/1 269/2/1
f 278/2/1 269/2/1 268/2/1
f 278/2/1 268/2/1 267/2/1
f 278/2/1 267/2/1 266/2/1
f 278/2/1 266/2/1 265/2/1
f 278/2/1 265/2/1 264/2/1
f 278/2/1 264/2/1 263/2/1
f 278/2/1 263/2/1 262/2/1
f 278/2/1 262/2/1 261/2/1
f 278/2/1 261/2/1 260/2/1
f 278/2/1 260/2/1 259/2/1
f 278/2/1 259/2/1 258/2/1
f 278/2/1 258/2/1 257/2/1
f 278/2/1 257/2/1 256/2/1
f 278/2/1 256/2/1 255/2/1
f 278/2/1 255/2/1 254/2/1
f 278/2/1 254/2/1 253/2/1
f 278/2/1 253/2/1 252/2/1
f 278/2/1 252/2/1 251/2/1
f 278/2/1 251/2/1 250/2/1
f 278/2/1 250/2/1 249/2/1
f 278/2/1 249/2/1 248/2/1
f 278/2/1 248/2/1 247/2/1
f 278/2/1 247/2/1 246/2/1
f 278/2/1 246/2/1 245/2/1
f 278/2/1 245/2/1 244/2/1
f 278/2/1 244/2/1 243/2/1
f 278/2/1 243/2/1 242/2/1
f 278/2/1 242/2/1 241/2/1
f 278/2/1 241/2/1 240/2/1
f 278/2/1 240/2/1 239/2/1
f 278/2/1 239/2/1 238/2/1
f 278/2/1 238/2/1 237/2/1
f 278/2/1 237/2/1 236/2/1
f 278/2/1 236/2/1 235/2/1
f 278/2/1 235/2/1 234/2/1
f 278/2/1 234/2/1 233/2/1
f 278/2/1 233/2/1 232/2/1
f 278/2/1 232/2/1 231/2/1
f 278/2/1 231/2/1 230/2/1
f 278/2/1 230/2/1 229/2/1
f 278/2/1 229/2/1 228/2/1
f 278/2/1 228/2/1 227/2/1
f 278/2/1 227/2/1 226/2/1
f 279/2/1 278/2/1 225/2/1
f 280/2/1 278/2/1 279/2/1
f 281/2/1 278/2/1 280/2/1
f 282/2/1 281/2/1 280/2/1
f 283/2/1 282/2/1 280/2/1
f 284/2/1 282/2/1 283/2/1
f 285/2/1 282/2/1 284/2/1
f 286/2/1 282/2/1 285/2/1
f 287/2/1 282/2/1 286/2/1
f 288/2/1 282/2/1 287/2/1
f 289/2/1 282/2/1 288/2/1
f 290/2/1 282/2/1 289/2/1
f 291/2/1 282/2/1 290/2/1
f 292/2/1 282/2/1 291/2/1
f 293/2/1 282/2/1 292/2/1
f 294/2/1 282/2/1 293/2/1
f 295/2/1 282/2/1 294/2/1
f 296/2/1 282/2/1 295/2/1
f 297/2/1 282/2/1 296/2/1
f 298/2/1 282/2/1 297/2/1
f 299/2/1 282/2/1 298/2/1
f 300/2/1 282/2/1 299/2/1
f 301/2/1 282/2/1 300/2/1
f 302/2/1 282/2/1 301/2/1
f 303/2/1 282/2/1 302/2/1
f 304/2/1 282/2/1 303/2/1
f 305/2/1 282/2/1 304/2/1
f 306/2/1 282/2/1 305/2/1
f 307/2/1 282/2/1 306/2/1
f 308/2/1 282/2/1 307/2/1
f 309/2/1 282/2/1 308/2/1
f 310/2/1 282/2/1 309/2/1
f 311/2/1 282/2/1 310/2/1
f 312/2/1 282/2/1 311/2/1
f 313/2/1 282/2/1 312/2/1
f 314/2/1 282/2/1 313/2/1
f 315/2/1 282/2/1 314/2/1
f 316/2/1 282/2/1 315/2/1
f 317/2/1 282/2/1 316/2/1
f 318/2/1 282/2/1 317/2/1
f 319/2/1 282/2/1 318/2/1
f 320/2/1 282/2/1 319/2/1
f 321/2/1 282/2/1 320/2/1
f 322/2/1 282/2/1 321/2/1
f 323/2/1 282/2/1 322/2/1
f 324/2/1 282/2/1 323/2/1
f 325/2/1 282/2/1 324/2/1
f 326/2/1 282/2/1 325/2/1
f 327/2/1 282/2/1 326/2/1
f 328/2/1 282/2/1 327/2/1
f 329/2/1 282/2/1 328/2/1
f 330/2/1 282/2/1 329/2/1
f 331/2/1 282/2/1 330/2/1
f 332/2/1 282/2/1 331/2/1
f 333/2/1 282/2/1 332/2/1
f 334/2/1 282/2/1 333/2/1
f 335/2/1 282/2/1 334/2/1
f 336/2/1 282/2/1 335/2/1
f 337/2/2 338/2/2 390/2/2
f 388/2/2 389/2/2 390/2/2
f 387/2/2 388/2/2 390/2/2
f 386/2/2 387/2/2 390/2/2
f 385/2/2 386/2/2 390/2/2
f 384/2/2 385/2/2 390/2/2
f 383/2/2 384/2/2 390/2/2
f 382/2/2 383/2/2 390/2/2
f 381/2/2 382/2/2 390/2/2
f 380/2/2 381/2/2 390/2/2
f 379/2/2 380/2/2 390/2/2
f 378/2/2 379/2/2 390/2/2
f 377/2/2 378/2/2 390/2/2
f 376/2/2 377/2/2 390/2/2
f 375/2/2 376/2/2 390/2/2
f 374/2/2 375/2/2 390/2/2
f 373/2/2 374/2/2 390/2/2
f 372/2/2 373/2/2 390/2/2
f 371/2/2 372/2/2 390/2/2
f 370/2/2 371/2/2 390/2/2
f 369/2/2 370/2/2 390/2/2
f 368/2/2 369/2/2 390/2/2
f 367/2/2 368/2/2 390/2/2
f 366/2/2 367/2/2 390/2/2
f 365/2/2 366/2/2 390/2/2
f 364/2/2 365/2/2 390/2/2
f 363/2/2 364/2/2 390/2/2
f 362/2/2 363/2/2 390/2/2
f 361/2/2 362/2/2 390/2/2
f 360/2/2 361/2/2 390/2/2
f 359/2/2 360/2/2 390/2/2
f 358/2/2 359/2/2 390/2/2
f 357/2/2 358/2/2 390/2/2
f 356/2/2 357/2/2 390/2/2
f 355/2/2 356/2/2 390/2/2
f 354/2/2 355/2/2 390/2/2
f 353/2/2 354/2/2 390/2/2
f 352/2/2 353/2/2 390/2/2
f 351/2/2 352/2/2 390/2/2
f 350/2/2 351/2/2 390/2/2
f 349/2/2 350/2/2 390/2/2
f 348/2/2 349/2/2 390/2/2
f 347/2/2 348/2/2 390/2/2
f 346/2/2 347/2/2 390/2/2
f 345/2/2 346/2/2 390/2/2
f 344/2/2 345/2/2 390/2/2
f 343/2/2 344/2/2 390/2/2
f 342/2/2 343/2/2 390/2/2
f 341/2/2 342/2/2 390/2/2
f 340/2/2 341/2/2 390/2/2
f 339/2/2 340/2/2 390/2/2
f 338/2/2 339/2/2 390/2/2
f 337/2/2 390/2/2 391/2/2
f 391/2/2 390/2/2 392/2/2
f 392/2/2 390/2/2 393/2/2
f 392/2/2 393/2/2 394/2/2
f 392/2/2 394/2/2 395/2/2
f 395/2/2 394/2/2 396/2/2
f 396/2/2 394/2/2 397/2/2
f 397/2/2 394/2/2 398/2/2
f 398/2/2 394/2/2 399/2/2
f 399/2/2 394/2/2 400/2/2
f 400/2/2 394/2/2 401/2/2
f 401/2/2 394/2/2 402/2/2
f 402/2/2 394/2/2 403/2/2
f 403/2/2 394/2/2 404/2/2
f 404/2/2 394/2/2 405/2/2
f 405/2/2 394/2/2 406/2/2
f 406/2/2 394/2/2 407/2/2
f 407/2/2 394/2/2 408/2/2
f 408/2/2 394/2/2 409/2/2
f 409/2/2 394/2/2 410/2/2
f 410/2/2 394/2/2 411/2/2
f 411/2/2 394/2/2 412/2/2
f 412/2/2 394/2/2 413/2/2
f 413/2/2 394/2/2 414/2/2
f 414/2/2 394/2/2 415/2/2
f 415/2/2 394/2/2 416/2/2
f 416/2/2 394/2/2 417/2/2
f 417/2/2 394/2/2 418/2/2
f 418/2/2 394/2/2 419/2/2
f 419/2/2 394/2/2 420/2/2
f 420/2/2 394/2/2 421/2/2
f 421/2/2 394/2/2 422/2/2
f 422/2/2 394/2/2 423/2/2
f 423/2/2 394/2/2 424/2/2
f 424/2/2 394/2/2 425/2/2
f 425/2/2 394/2/2 426/2/2
f 426/2/2 394/2/2 427/2/2
f 427/2/2 394/2/2 428/2/2
f 428/2/2 394/2/2 429/2/2
f 429/2/2 394/2/2 430/2/2
f 430/2/2 394/2/2 431/2/2
f 431/2/2 394/2/2 432/2/2
f 432/2/2 394/2/2 433/2/2
f 433/2/2 394/2/2 434/2/2
f 434/2/2 394/2/2 435/2/2
f 435/2/2 394/2/2 436/2/2
f 436/2/2 394/2/2 437/2/2
f 437/2/2 394/2/2 438/2/2
f 438/2/2 394/2/2 439/2/2
f 439/2/2 394/2/2 440/2/2
f 440/2/2 394/2/2 441/2/2
f 441/2/2 394/2/2 442/2/2
f 442/2/2 394/2/2 443/2/2
f 443/2/2 394/2/2 444/2/2
f 444/2/2 394/2/2 445/2/2
f 445/2/2 394/2/2 446/2/2
f 446/2/2 394/2/2 447/2/2
f 447/2/2 394/2/2 448/2/2
f 449/1/2 450/1/2 503/1/2
f 503/1/2 450/1/2 504/1/2
f 451/1/2 452/1/2 505/1/2
f 505/1/2 452/1/2 506/1/2
f 453/1/2 454/1/2 507/1/2
f 507/1/2 454/1/2 508/1/2
f 455/1/2 456/1/2 509/1/2
f 509/1/2 456/1/2 510/1/2
f 457/1/2 458/1/2 511/1/2
f 511/1/2 458/1/2 512/1/2
f 459/1/2 460/1/2 513/1/2
f 513/1/2 460/1/2 514/1/2
f 461/1/2 462/1/2 515/1/2
f 515/1/2 462/1/2 516/1/2
f 463/1/2 464/1/2 517/1/2
f 517/1/2 464/1/2 518/1/2
f 465/1/2 466/1/2 519/1/2
f 519/1/2 466/1/2 520/1/2
f 467/1/2 468/1/2 521/1/2
f 521/1/2 468/1/2 522/1/2
f 469/1/2 470/1/2 523/1/2
f 523/1/2 470/1/2 524/1/2
f 471/1/2 472/1/2 525/1/2
f 525/1/2 472/1/2 526/1/2
f 473/1/2 474/1/2 527/1/2
f 527/1/2 474/1/2 528/1/2
f 475/1/2 476/1/2 529/1/2
f 529/1/2 476/1/2 530/1/2
f 477/1/2 478/1/2 531/1/2
f 531/1/2 478/1/2 532/1/2
f 479/1/2 480/1/2 533/1/2
f 533/1/2 480/1/2 534/1/2
f 481/1/2 482/1/2 535/1/2
f 535/1/2 482/1/2 536/1/2
f 483/1/2 484/1/2 537/1/2
f 537/1/2 484/1/2 538/1/2
f 485/1/2 486/1/2 539/1/2
f 539/1/2 486/1/2 540/1/2
f 487/1/2 488/1/2 541/1/2
f 541/1/2 488/1/2 542/1/2
f 489/1/2 490/1/2 543/1/2
f 543/1/2 490/1/2 544/1/2
f 491/1/2 492/1/2 545/1/2
f 545/1/2 492/1/2 546/1/2
f 493/1/2 494/1/2 547/1/2
f 547/1/2 494/1/2 548/1/2
f 495/1/2 496/1/2 549/1/2
f 549/1/2 496/1/2 550/1/2
f 497/1/2 498/1/2 551/1/2
f 551/1/2 498/1/2 552/1/2
f 499/1/2 500/1/2 553/1/2
f 553/1/2 500/1/2 554/1/2
f 501/1/2 502/1/2 557/1/2
f 557/1/2 502/1/2 558/1/2
f 555/1/2 556/1/2 561/1/2
f 561/1/2 556/1/2 562/1/2
f 559/1/2 560/1/2 565/1/2
f 565/1/2 560/1/2 566/1/2
f 563/1/2 564/1/2 619/1/2
f 619/1/2 564/1/2 620/1/2
f 567/1/2 568/1/2 621/1/2
f 621/1/2 568/1/2 622/1/2
f 569/1/2 570/1/2 623/1/2
f 623/1/2 570/1/2 624/1/2
f 571/1/2 572/1/2 625/1/2
f 625/1/2 572/1/2 626/1/2
f 573/1/2 574/1/2 627/1/2
f 627/1/2 574/1/2 628/1/2
f 575/1/2 576/1/2 629/1/2
f 629/1/2 576/1/2 630/1/2
f 577/1/2 578/1/2 631/1/2
f 631/1/2 578/1/2 632/1/2
f 579/1/2 580/1/2 633/1/2
f 633/1/2 580/1/2 634/1/2
f 581/1/2 582/1/2 635/1/2
f 635/1/2 582/1/2 636/1/2
f 583/1/2 584/1/2 637/1/2
f 637/1/2 584/1/2 638/1/2
f 585/1/2 586/1/2 639/1/2
f 639/1/2 586/1/2 640/1/2
f 587/1/2 588/1/2 641/1/2
f 641/1/2 588/1/2 642/1/2
f 589/1/2 590/1/2 643/1/2
f 643/1/2 590/1/2 644/1/2
f 591/1/2 592/1/2 645/1/2
f 645/1/2 592/1/2 646/1/2
f 593/1/2 594/1/2 647/1/2
f 647/1/2 594/1/2 648/1/2
f 595/1/2 596/1/2 649/1/2
f 649/1/2 596/1/2 650/1/2
f 597/1/2 598/1/2 651/1/2
f 651/1/2 598/1/2 652/1/2
f 599/1/2 600/1/2 653/1/2
f 653/1/2 600/1/2 654/1/2
f 601/1/2 602/1/2 655/1/2
f 655/1/2 602/1/2 656/1/2
f 603/1/2 604/1/2 657/1/2
f 657/1/2 604/1/2 658/1/2
f 605/1/2 606/1/2 659/1/2
f 659/1/2 606/1/2 660/1/2
f 607/1/2 608/1/2 661/1/2
f 661/1/2 608/1/2 662/1/2
f 609/1/2 610/1/2 663/1/2
f 663/1/2 610/1/2 664/1/2
f 611/1/2 612/1/2 665/1/2
f 665/1/2 612/1/2 666/1/2
f 613/1/2 614/1/2 667/1/2
f 667/1/2 614/1/2 668/1/2
f 615/1/2 616/1/2 669/1/2
f 669/1/2 616/1/2 670/1/2
f 617/1/2 618/1/2 671/1/2
f 671/1/2 618/1/2 672/1/2
f 677/1/3 674/1/3 673/1/3
f 678/1/3 674/1/3 677/1/3
f 679/1/3 676/1/3 675/1/3
f 680/1/3 676/1/3 679/1/3
f 686/1/3 682/1/3 681/1/3
f 687/2/3 684/2/3 683/2/3
f 688/2/3 684/2/3 687/2/3
f 689/2/3 686/2/3 685/2/3
f 690/1/3 682/1/3 686/1/3
f 690/2/3 686/2/3 689/2/3
f 691/1/3 682/1/3 690/1/3
f 692/1/3 682/1/3 691/1/3
f 695/1/3 694/1/3 693/1/3
f 696/1/3 695/1/3 693/1/3
f 697/1/3 696/1/3 693/1/3
f 698/1/3 696/1/3 697/1/3
f 701/1/3 700/1/3 699/1/3
f 702/1/3 700/1/3 701/1/3
f 703/1/3 700/1/3 702/1/3
f 704/1/3 700/1/3 703/1/3
f 707/1/3 706/1/3 705/1/3
f 708/1/3 707/1/3 705/1/3
f 709/1/3 708/1/3 705/1/3
f 710/1/3 708/1/3 709/1/3
f 713/1/3 712/1/3 711/1/3
f 714/1/3 712/1/3 713/1/3
f 715/1/3 712/1/3 714/1/3
f 716/1/3 712/1/3 715/1/3
f 719/1/3 718/1/3 717/1/3
f 720/1/3 719/1/3 717/1/3
f 721/1/3 720/1/3 717/1/3
f 722/1/3 720/1/3 721/1/3
f 725/1/3 724/1/3 723/1/3
f 726/1/3 724/1/3 725/1/3
f 727/1/3 724/1/3 726/1/3
f 728/1/3 724/1/3 727/1/3
f 731/1/3 730/1/3 729/1/3
f 732/1/3 731/1/3 729/1/3
f 733/1/3 732/1/3 729/1/3
f 734/1/3 732/1/3 733/1/3
f 737/1/3 736/1/3 735/1/3
f 738/1/3 736/1/3 737/1/3
f 739/1/3 736/1/3 738/1/3
f 740/1/3 736/1/3 739/1/3
f 743/1/3 742/1/3 741/1/3
f 744/1/3 743/1/3 741/1/3
f 745/1/3 744/1/3 741/1/3
f 746/1/3 744/1/3 745/1/3
f 749/1/3 748/1/3 747/1/3
f 750/1/3 748/1/3 749/1/3
f 751/1/3 748/1/3 750/1/3
f 752/1/3 748/1/3 751/1/3
f 755/1/3 754/1/3 753/1/3
f 756/1/3 755/1/3 753/1/3
f 757/1/3 756/1/3 753/1/3
f 758/1/3 756/1/3 757/1/3
f 761/1/3 760/1/3 759/1/3
f 762/1/3 760/1/3 761/1/3
f 763/1/3 760/1/3 762/1/3
f 764/1/3 760/1/3 763/1/3
f 767/1/3 766/1/3 765/1/3
f 768/1/3 767/1/3 765/1/3
f 769/1/3 768/1/3 765/1/3
f 770/1/3 768/1/3 769/1/3
f 773/1/3 772/1/3 771/1/3
f 774/1/3 772/1/3 773/1/3
f 775/1/3 772/1/3 774/1/3
f 776/1/3 772/1/3 775/1/3
f 779/1/3 778/1/3 777/1/3
f 780/1/3 779/1/3 777/1/3
f 781/1/3 780/1/3 777/1/3
f 782/1/3 780/1/3 781/1/3
f 785/1/3 784/1/3 783/1/3
f 786/1/3 784/1/3 785/1/3
f 787/1/3 784/1/3 786/1/3
f 788/1/3 784/1/3 787/1/3
f 791/1/3 790/1/3 789/1/3
f 792/1/3 791/1/3 789/1/3
f 793/1/3 792/1/3 789/1/3
f 794/1/3 792/1/3 793/1/3
f 797/1/3 796/1/3 795/1/3
f 798/1/3 796/1/3 797/1/3
f 799/1/3 796/1/3 798/1/3
f 800/1/3 796/1/3 799/1/3
f 803/1/3 802/1/3 801/1/3
f 804/1/3 803/1/3 801/1/3
f 805/1/3 804/1/3 801/1/3
f 806/1/3 804/1/3 805/1/3
f 809/1/3 808/1/3 807/1/3
f 810/1/3 808/1/3 809/1/3
f 811/1/3 808/1/3 810/1/3
f 812/1/3 808/1/3 811/1/3
f 815/1/3 814/1/3 813/1/3
f 816/1/3 815/1/3 813/1/3
f 817/1/3 816/1/3 813/1/3
f 818/1/3 816/1/3 817/1/3
f 821/1/3 820/1/3 819/1/3
f 822/1/3 820/1/3 821/1/3
f 823/1/3 820/1/3 822/1/3
f 824/1/3 820/1/3 823/1/3
f 827/1/3 826/1/3 825/1/3
f 828/1/3 827/1/3 825/1/3
f 829/1/3 828/1/3 825/1/3
f 830/1/3 828/1/3 829/1/3
f 833/1/3 832/1/3 831/1/3
f 834/1/3 832/1/3 833/1/3
f 835/1/3 832/1/3 834/1/3
f 836/1/3 832/1/3 835/1/3
f 839/1/3 838/1/3 837/1/3
f 840/1/3 839/1/3 837/1/3
f 841/1/3 840/1/3 837/1/3
f 842/1/3 840/1/3 841/1/3
f 845/1/3 844/1/3 843/1/3
f 846/1/3 844/1/3 845/1/3
f 847/1/3 844/1/3 846/1/3
f 848/1/3 844/1/3 847/1/3
f 851/1/3 850/1/3 849/1/3
f 852/1/3 851/1/3 849/1/3
f 853/1/3 852/1/3 849/1/3
f 854/1/3 852/1/3 853/1/3
f 857/1/3 856/1/3 855/1/3
f 858/1/3 856/1/3 857/1/3
f 859/1/3 856/1/3 858/1/3
f 860/1/3 856/1/3 859/1/3
f 863/1/3 862/1/3 861/1/3
f 864/1/3 863/1/3 861/1/3
f 865/1/3 864/1/3 861/1/3
f 866/1/3 864/1/3 865/1/3
f 869/1/3 868/1/3 867/1/3
f 870/1/3 868/1/3 869/1/3
f 871/1/3 868/1/3 870/1/3
f 872/1/3 868/1/3 871/1/3
f 875/1/3 874/1/3 873/1/3
f 876/1/3 875/1/3 873/1/3
f 877/1/3 876/1/3 873/1/3
f 878/1/3 876/1/3 877/1/3
f 881/1/3 880/1/3 879/1/3
f 882/1/3 880/1/3 881/1/3
f 883/1/3 880/1/3 882/1/3
f 884/1/3 880/1/3 883/1/3
f 887/1/3 886/1/3 885/1/3
f 888/1/3 887/1/3 885/1/3
f 889/1/3 888/1/3 885/1/3
f 890/1/3 888/1/3 889/1/3
f 893/1/3 892/1/3 891/1/3
f 894/1/3 892/1/3 893/1/3
f 895/1/3 892/1/3 894/1/3
f 896/1/3 892/1/3 895/1/3
f 899/1/3 898/1/3 897/1/3
f 900/1/3 899/1/3 897/1/3
f 901/1/3 900/1/3 897/1/3
f 902/1/3 900/1/3 901/1/3
f 905/1/3 904/1/3 903/1/3
f 906/1/3 904/1/3 905/1/3
f 907/1/3 904/1/3 906/1/3
f 908/1/3 904/1/3 907/1/3
f 911/1/3 910/1/3 909/1/3
f 912/1/3 911/1/3 909/1/3
f 913/1/3 912/1/3 909/1/3
f 914/1/3 912/1/3 913/1/3
f 917/1/3 916/1/3 915/1/3
f 918/1/3 916/1/3 917/1/3
f 919/1/3 916/1/3 918/1/3
f 920/1/3 916/1/3 919/1/3
f 923/1/3 922/1/3 921/1/3
f 924/1/3 923/1/3 921/1/3
f 925/1/3 924/1/3 921/1/3
f 926/1/3 924/1/3 925/1/3
f 929/1/3 928/1/3 927/1/3
f 930/1/3 928/1/3 929/1/3
f 931/1/3 928/1/3 930/1/3
f 932/1/3 928/1/3 931/1/3
f 935/1/3 934/1/3 933/1/3
f 936/1/3 935/1/3 933/1/3
f 937/1/3 936/1/3 933/1/3
f 938/1/3 936/1/3 937/1/3
f 941/1/3 940/1/3 939/1/3
f 942/1/3 940/1/3 941/1/3
f 943/1/3 940/1/3 942/1/3
f 944/1/3 940/1/3 943/1/3
f 947/1/3 946/1/3 945/1/3
f 948/1/3 947/1/3 945/1/3
f 949/1/3 948/1/3 945/1/3
f 950/1/3 948/1/3 949/1/3
f 953/1/3 952/1/3 951/1/3
f 954/1/3 952/1/3 953/1/3
f 955/1/3 952/1/3 954/1/3
f 956/1/3 952/1/3 955/1/3
f 959/1/3 958/1/3 957/1/3
f 960/1/3 959/1/3 957/1/3
f 961/1/3 960/1/3 957/1/3
f 962/1/3 960/1/3 961/1/3
f 965/1/3 964/1/3 963/1/3
f 966/1/3 964/1/3 965/1/3
f 967/1/3 964/1/3 966/1/3
f 968/1/3 964/1/3 967/1/3
f 971/1/3 970/1/3 969/1/3
f 972/1/3 971/1/3 969/1/3
f 973/1/3 972/1/3 969/1/3
f 974/1/3 972/1/3 973/1/3
f 977/1/3 976/1/3 975/1/3
f 978/1/3 976/1/3 977/1/3
f 979/1/3 976/1/3 978/1/3
f 980/1/3 976/1/3 979/1/3
f 983/1/3 982/1/3 981/1/3
f 984/1/3 983/1/3 981/1/3
f 985/1/3 984/1/3 981/1/3
f 986/1/3 984/1/3 985/1/3
f 989/1/3 988/1/3 987/1/3
f 990/1/3 988/1/3 989/1/3
f 991/1/3 988/1/3 990/1/3
f 992/1/3 988/1/3 991/1/3
f 995/1/3 994/1/3 993/1/3
f 996/1/3 995/1/3 993/1/3
f 997/1/3 996/1/3 993/1/3
f 998/1/3 996/1/3 997/1/3
f 1003/1/3 1000/1/3 999/1/3
f 1004/1/3 1000/1/3 1003/1/3
f 1005/1/3 1002/1/3 1001/1/3
f 1006/1/3 1002/1/3 1005/1/3
f 1011/1/3 1008/1/3 1007/1/3
f 1012/1/3 1008/1/3 1011/1/3
f 1013/1/3 1010/1/3 1009/1/3
f 1014/1/3 1010/1/3 1013/1/3
f 1015/1/4 1016/1/4 1019/1/4
f 1019/1/4 1016/1/4 1020/1/4
f 1017/1/4 1018/1/4 1021/1/4
f 1021/1/4 1018/1/4 1022/1/4
f 1023/1/4 1024/1/4 1027/1/4
f 1027/1/4 1024/1/4 1028/1/4
f 1025/1/4 1026/1/4 1029/1/4
f 1029/1/4 1026/1/4 1030/1/4
f 1031/1/4 1032/1/4 1033/1/4
f 1033/1/4 1032/1/4 1034/1/4
f 1034/1/4 1032/1/4 1035/1/4
f 1035/1/4 1032/1/4 1036/1/4
f 1037/1/4 1038/1/4 1039/1/4
f 1037/1/4 1039/1/4 1040/1/4
f 1037/1/4 1040/1/4 1041/1/4
f 1041/1/4 1040/1/4 1042/1/4
f 1043/1/4 1044/1/4 1045/1/4
f 1045/1/4 1044/1/4 1046/1/4
f 1046/1/4 1044/1/4 1047/1/4
f 1047/1/4 1044/1/4 1048/1/4
f 1049/1/4 1050/1/4 1051/1/4
f 1049/1/4 1051/1/4 1052/1/4
f 1049/1/4 1052/1/4 1053/1/4
f 1053/1/4 1052/1/4 1054/1/4
f 1055/1/4 1056/1/4 1057/1/4
f 1057/1/4 1056/1/4 1058/1/4
f 1058/1/4 1056/1/4 1059/1/4
f 1059/1/4 1056/1/4 1060/1/4
f 1061/1/4 1062/1/4 1063/1/4
f 1061/1/4 1063/1/4 1064/1/4
f 1061/1/4 1064/1/4 1065/1/4
f 1065/1/4 1064/1/4 1066/1/4
f 1067/1/4 1068/1/4 1069/1/4
f 1069/1/4 1068/1/4 1070/1/4
f 1070/1/4 1068/1/4 1071/1/4
f 1071/1/4 1068/1/4 1072/1/4
f 1073/1/4 1074/1/4 1075/1/4
f 1073/1/4 1075/1/4 1076/1/4
f 1073/1/4 1076/1/4 1077/1/4
f 1077/1/4 1076/1/4 1078/1/4
f 1079/1/4 1080/1/4 1081/1/4
f 1081/1/4 1080/1/4 1082/1/4
f 1082/1/4 1080/1/4 1083/1/4
f 1083/1/4 1080/1/4 1084/1/4
f 1085/1/4 1086/1/4 1087/1/4
f 1085/1/4 1087/1/4 1088/1/4
f 1085/1/4 1088/1/4 1089/1/4
f 1089/1/4 1088/1/4 1090/1/4
f 1091/1/4 1092/1/4 1093/1/4
f 1093/1/4 1092/1/4 1094/1/4
f 1094/1/4 1092/1/4 1095/1/4
f 1095/1/4 1092/1/4 1096/1/4
f 1097/1/4 1098/1/4 1099/1/4
f 1097/1/4 1099/1/4 1100/1/4
f 1097/1/4 1100/1/4 1101/1/4
f 1101/1/4 1100/1/4 1102/1/4
f 1103/1/4 1104/1/4 1105/1/4
f 1105/1/4 1104/1/4 1106/1/4
f 1106/1/4 1104/1/4 1107/1/4
f 1107/1/4 1104/1/4 1108/1/4
f 1109/1/4 1110/1/4 1111/1/4
f 1109/1/4 1111/1/4 1112/1/4
f 1109/1/4 1112/1/4 1113/1/4
f 1113/1/4 1112/1/4 1114/1/4
f 1115/1/4 1116/1/4 1117/1/4
f 1117/1/4 1116/1/4 1118/1/4
f 1118/1/4 1116/1/4 1119/1/4
f 1119/1/4 1116/1/4 1120/1/4
f 1121/1/4 1122/1/4 1123/1/4
f 1121/1/4 1123/1/4 1124/1/4
f 1121/1/4 1124/1/4 1125/1/4
f 1125/1/4 1124/1/4 1126/1/4
f 1127/1/4 1128/1/4 1129/1/4
f 1129/1/4 1128/1/4 1130/1/4
f 1130/1/4 1128/1/4 1131/1/4
f 1131/1/4 1128/1/4 1132/1/4
f 1133/1/4 1134/1/4 1135/1/4
f 1133/1/4 1135/1/4 1136/1/4
f 1133/1/4 1136/1/4 1137/1/4
f 1137/1/4 1136/1/4 1138/1/4
f 1139/1/4 1140/1/4 1141/1/4
f 1141/1/4 1140/1/4 1142/1/4
f 1142/1/4 1140/1/4 1143/1/4
f 1143/1/4 1140/1/4 1144/1/4
f 1145/1/4 1146/1/4 1147/1/4
f 1145/1/4 1147/1/4 1148/1/4
f 1145/1/4 1148/1/4 1149/1/4
f 1149/1/4 1148/1/4 1150/1/4
f 1151/1/4 1152/1/4 1153/1/4
f 1153/1/4 1152/1/4 1154/1/4
f 1154/1/4 1152/1/4 1155/1/4
f 1155/1/4 1152/1/4 1156/1/4
f 1157/1/4 1158/1/4 1159/1/4
f 1157/1/4 1159/1/4 1160/1/4
f 1157/1/4 1160/1/4 1161/1/4
f 1161/1/4 1160/1/4 1162/1/4
f 1163/1/4 1164/1/4 1165/1/4
f 1165/1/4 1164/1/4 1166/1/4
f 1166/1/4 1164/1/4 1167/1/4
f 1167/1/4 1164/1/4 1168/1/4
f 1169/1/4 1170/1/4 1171/1/4
f 1169/1/4 1171/1/4 1172/1/4
f 1169/1/4 1172/1/4 1173/1/4
f 1173/1/4 1172/1/4 1174/1/4
f 1175/1/4 1176/1/4 1177/1/4
f 1177/1/4 1176/1/4 1178/1/4
f 1178/1/4 1176/1/4 1179/1/4
f 1179/1/4 1176/1/4 1180/1/4
f 1181/1/4 1182/1/4 1183/1/4
f 1181/1/4 1183/1/4 1184/1/4
f 1181/1/4 1184/1/4 1185/1/4
f 1185/1/4 1184/1/4 1186/1/4
f 1187/1/4 1188/1/4 1189/1/4
f 1189/1/4 1188/1/4 1190/1/4
f 1190/1/4 1188/1/4 1191/1/4
f 1191/1/4 1188/1/4 1192/1/4
f 1193/1/4 1194/1/4 1195/1/4
f 1193/1/4 1195/1/4 1196/1/4
f 1193/1/4 1196/1/4 1197/1/4
f 1197/1/4 1196/1/4 1198/1/4
f 1199/1/4 1200/1/4 1201/1/4
f 1201/1/4 1200/1/4 1202/1/4
f 1202/1/4 1200/1/4 1203/1/4
f 1203/1/4 1200/1/4 1204/1/4
f 1205/1/4 1206/1/4 1207/1/4
f 1205/1/4 1207/1/4 1208/1/4
f 1205/1/4 1208/1/4 1209/1/4
f 1209/1/4 1208/1/4 1210/1/4
f 1211/1/4 1212/1/4 1213/1/4
f 1213/1/4 1212/1/4 1214/1/4
f 1214/1/4 1212/1/4 1215/1/4
f 1215/1/4 1212/1/4 1216/1/4
f 1217/1/4 1218/1/4 1219/1/4
f 1217/1/4 1219/1/4 1220/1/4
f 1217/1/4 1220/1/4 1221/1/4
f 1221/1/4 1220/1/4 1222/1/4
f 1223/1/4 1224/1/4 1225/1/4
f 1225/1/4 1224/1/4 1226/1/4
f 1226/1/4 1224/1/4 1227/1/4
f 1227/1/4 1224/1/4 1228/1/4
f 1229/1/4 1230/1/4 1231/1/4
f 1229/1/4 1231/1/4 1232/1/4
f 1229/1/4 1232/1/4 1233/1/4
f 1233/1/4 1232/1/4 1234/1/4
f 1235/1/4 1236/1/4 1237/1/4
f 1237/1/4 1236/1/4 1238/1/4
f 1238/1/4 1236/1/4 1239/1/4
f 1239/1/4 1236/1/4 1240/1/4
f 1241/1/4 1242/1/4 1243/1/4
f 1241/1/4 1243/1/4 1244/1/4
f 1241/1/4 1244/1/4 1245/1/4
f 1245/1/4 1244/1/4 1246/1/4
f 1247/1/4 1248/1/4 1249/1/4
f 1249/1/4 1248/1/4 1250/1/4
f 1250/1/4 1248/1/4 1251/1/4
f 1251/1/4 1248/1/4 1252/1/4
f 1253/1/4 1254/1/4 1255/1/4
f 1253/1/4 1255/1/4 1256/1/4
f 1253/1/4 1256/1/4 1257/1/4
f 1257/1/4 1256/1/4 1258/1/4
f 1259/1/4 1260/1/4 1261/1/4
f 1261/1/4 1260/1/4 1262/1/4
f 1262/1/4 1260/1/4 1263/1/4
f 1263/1/4 1260/1/4 1264/1/4
f 1265/1/4 1266/1/4 1267/1/4
f 1265/1/4 1267/1/4 1268/1/4
f 1265/1/4 1268/1/4 1269/1/4
f 1269/1/4 1268/1/4 1270/1/4
f 1271/1/4 1272/1/4 1273/1/4
f 1273/1/4 1272/1/4 1274/1/4
f 1274/1/4 1272/1/4 1275/1/4
f 1275/1/4 1272/1/4 1276/1/4
f 1277/1/4 1278/1/4 1279/1/4
f 1277/1/4 1279/1/4 1280/1/4
f 1277/1/4 1280/1/4 1281/1/4
f 1281/1/4 1280/1/4 1282/1/4
f 1283/1/4 1284/1/4 1285/1/4
f 1285/1/4 1284/1/4 1286/1/4
f 1286/1/4 1284/1/4 1287/1/4
f 1287/1/4 1284/1/4 1288/1/4
f 1289/1/4 1290/1/4 1291/1/4
f 1289/1/4 1291/1/4 1292/1/4
f 1289/1/4 1292/1/4 1293/1/4
f 1293/1/4 1292/1/4 1294/1/4
f 1295/1/4 1296/1/4 1297/1/4
f 1297/1/4 1296/1/4 1298/1/4
f 1298/1/4 1296/1/4 1299/1/4
f 1299/1/4 1296/1/4 1300/1/4
f 1301/1/4 1302/1/4 1303/1/4
f 1301/1/4 1303/1/4 1304/1/4
f 1301/1/4 1304/1/4 1305/1/4
f 1305/1/4 1304/1/4 1306/1/4
f 1307/1/4 1308/1/4 1309/1/4
f 1309/1/4 1308/1/4 1310/1/4
f 1310/1/4 1308/1/4 1311/1/4
f 1311/1/4 1308/1/4 1312/1/4
f 1313/1/4 1314/1/4 1315/1/4
f 1313/1/4 1315/1/4 1316/1/4
f 1313/1/4 1316/1/4 1317/1/4
f 1317/1/4 1316/1/4 1318/1/4
f 1319/1/4 1320/1/4 1321/1/4
f 1321/1/4 1320/1/4 1322/1/4
f 1322/1/4 1320/1/4 1323/1/4
f 1323/1/4 1320/1/4 1324/1/4
f 1325/1/4 1326/1/4 1327/1/4
f 1325/1/4 1327/1/4 1328/1/4
f 1325/1/4 1328/1/4 1329/1/4
f 1329/1/4 1328/1/4 1330/1/4
f 1331/1/4 1332/1/4 1333/1/4
f 1333/1/4 1332/1/4 1334/1/4
f 1334/1/4 1332/1/4 1335/1/4
f 1335/1/4 1332/1/4 1336/1/4
f 1337/1/4 1338/1/4 1339/1/4
f 1337/1/4 1339/1/4 1343/1/4
f 1339/2/4 1340/2/4 1343/2/4
f 1343/2/4 1340/2/4 1344/2/4
f 1341/2/4 1342/2/4 1345/2/4
f 1345/2/4 1342/2/4 1346/2/4
f 1337/1/4 1343/1/4 1347/1/4
f 1347/1/4 1343/1/4 1348/1/4
f 1349/1/4 1350/1/4 1353/1/4
f 1353/1/4 1350/1/4 1354/1/4
f 1351/1/4 1352/1/4 1355/1/4
f 1355/1/4 1352/1/4 1356/1/4
f 1359/1/5 1358/1/5 1357/1/5
f 1360/1/5 1358/1/5 1359/1/5
f 1363/1/5 1362/1/5 1361/1/5
f 1364/1/5 1362/1/5 1363/1/5
f 1367/1/5 1366/1/5 1365/1/5
f 1368/1/5 1366/1/5 1367/1/5
f 1371/1/5 1370/1/5 1369/1/5
f 1372/1/5 1370/1/5 1371/1/5
f 1375/1/5 1374/1/5 1373/1/5
f 1376/1/5 1374/1/5 1375/1/5
f 1379/1/5 1378/1/5 1377/1/5
f 1380/1/5 1378/1/5 1379/1/5
f 1383/1/5 1382/1/5 1381/1/5
f 1384/1/5 1382/1/5 1383/1/5
f 1387/1/5 1386/1/5 1385/1/5
f 1388/1/5 1386/1/5 1387/1/5
f 1391/1/5 1390/1/5 1389/1/5
f 1392/1/5 1390/1/5 1391/1/5
f 1395/1/5 1394/1/5 1393/1/5
f 1396/1/5 1394/1/5 1395/1/5
f 1399/1/5 1398/1/5 1397/1/5
f 1400/1/5 1398/1/5 1399/1/5
f 1403/1/5 1402/1/5 1401/1/5
f 1404/1/5 1402/1/5 1403/1/5
f 1407/1/5 1406/1/5 1405/1/5
f 1408/1/5 1406/1/5 1407/1/5
f 1411/1/5 1410/1/5 1409/1/5
f 1412/1/5 1410/1/5 1411/1/5
f 1415/1/5 1414/1/5 1413/1/5
f 1416/1/5 1414/1/5 1415/1/5
f 1419/1/5 1418/1/5 1417/1/5
f 1420/1/5 1418/1/5 1419/1/5
f 1423/1/5 1422/1/5 1421/1/5
f 1424/1/5 1422/1/5 1423/1/5
f 1427/1/5 1426/1/5 1425/1/5
f 1428/1/5 1426/1/5 1427/1/5
f 1431/1/5 1430/1/5 1429/1/5
f 1432/1/5 1430/1/5 1431/1/5
f 1435/1/5 1434/1/5 1433/1/5
f 1436/1/5 1434/1/5 1435/1/5
f 1439/1/5 1438/1/5 1437/1/5
f 1440/1/5 1438/1/5 1439/1/5
f 1443/1/5 1442/1/5 1441/1/5
f 1444/1/5 1442/1/5 1443/1/5
f 1447/1/5 1446/1/5 1445/1/5
f 1448/1/5 1446/1/5 1447/1/5
f 1451/1/5 1450/1/5 1449/1/5
f 1452/1/5 1450/1/5 1451/1/5
f 1455/1/5 1454/1/5 1453/1/5
f 1456/1/5 1454/1/5 1455/1/5
f 1459/1/5 1458/1/5 1457/1/5
f 1460/1/5 1458/1/5 1459/1/5
f 1463/1/5 1462/1/5 1461/1/5
f 1464/1/5 1462/1/5 1463/1/5
f 1465/1/5 1462/1/5 1464/1/5
f 1466/1/5 1462/1/5 1465/1/5
f 1467/2/5 1465/2/5 1464/2/5
f 1468/2/5 1465/2/5 1467/2/5
f 1471/2/5 1470/2/5 1469/2/5
f 1472/2/5 1470/2/5 1471/2/5
f 1475/2/5 1474/2/5 1473/2/5
f 1476/2/5 1474/2/5 1475/2/5
f 1479/2/5 1478/2/5 1477/2/5
f 1480/2/5 1478/2/5 1479/2/5
f 1483/2/5 1482/2/5 1481/2/5
f 1484/2/5 1482/2/5 1483/2/5
f 1487/2/5 1486/2/5 1485/2/5
f 1488/2/5 1486/2/5 1487/2/5
f 1491/2/5 1490/2/5 1489/2/5
f 1492/2/5 1490/2/5 1491/2/5
f 1495/2/5 1494/2/5 1493/2/5
f 1496/2/5 1494/2/5 1495/2/5
f 1499/2/5 1498/2/5 1497/2/5
f 1500/2/5 1498/2/5 1499/2/5
f 1503/2/5 1502/2/5 1501/2/5
f 1504/2/5 1502/2/5 1503/2/5
f 1507/2/5 1506/2/5 1505/2/5
f 1508/2/5 1506/2/5 1507/2/5
f 1511/2/5 1510/2/5 1509/2/5
f 1512/2/5 1510/2/5 1511/2/5
f 1515/2/5 1514/2/5 1513/2/5
f 1516/2/5 1514/2/5 1515/2/5
f 1519/2/5 1518/2/5 1517/2/5
f 1520/2/5 1518/2/5 1519/2/5
f 1523/2/5 1522/2/5 1521/2/5
f 1524/2/5 1522/2/5 1523/2/5
f 1527/2/5 1526/2/5 1525/2/5
f 1528/2/5 1526/2/5 1527/2/5
f 1531/2/5 1530/2/5 1529/2/5
f 1532/2/5 1530/2/5 1531/2/5
f 1535/2/5 1534/2/5 1533/2/5
f 1536/2/5 1534/2/5 1535/2/5
f 1539/2/5 1538/2/5 1537/2/5
f 1540/2/5 1538/2/5 1539/2/5
f 1543/2/5 1542/2/5 1541/2/5
f 1544/2/5 1542/2/5 1543/2/5
f 1547/2/5 1546/2/5 1545/2/5
f 1548/2/5 1546/2/5 1547/2/5
f 1551/2/5 1550/2/5 1549/2/5
f 1552/2/5 1550/2/5 1551/2/5
f 1555/2/5 1554/2/5 1553/2/5
f 1556/2/5 1554/2/5 1555/2/5
f 1559/2/5 1558/2/5 1557/2/5
f 1560/2/5 1558/2/5 1559/2/5
f 1563/2/5 1562/2/5 1561/2/5
f 1564/2/5 1562/2/5 1563/2/5
f 1567/2/5 1566/2/5 1565/2/5
f 1568/2/5 1566/2/5 1567/2/5
f 1573/1/5 1570/1/5 1569/1/5
f 1573/1/5 1572/1/5 1571/1/5
f 1573/1/5 1571/1/5 1570/1/5
f 1574/1/5 1572/1/5 1573/1/5
f 1577/1/5 1576/1/5 1575/1/5
f 1578/1/5 1576/1/5 1577/1/5
f 1579/1/5 1576/1/5 1578/1/5
f 1580/1/5 1576/1/5 1579/1/5
f 1585/1/5 1582/1/5 1581/1/5
f 1585/1/5 1584/1/5 1583/1/5
f 1585/1/5 1583/1/5 1582/1/5
f 1586/1/5 1584/1/5 1585/1/5
f 1591/1/5 1588/1/5 1587/1/5
f 1592/1/5 1588/1/5 1591/1/5
f 1593/1/5 1590/1/5 1589/1/5
f 1594/1/5 1590/1/5 1593/1/5
f 1599/1/5 1596/1/5 1595/1/5
f 1600/1/5 1596/1/5 1599/1/5
f 1601/1/5 1598/1/5 1597/1/5
f 1602/1/5 1598/1/5 1601/1/5
f 1607/1/5 1604/1/5 1603/1/5
f 1608/1/5 1604/1/5 1607/1/5
f 1609/1/5 1606/1/5 1605/1/5
f 1610/1/5 1606/1/5 1609/1/5
f 1615/1/5 1612/1/5 1611/1/5
f 1616/1/5 1612/1/5 1615/1/5
f 1617/1/5 1614/1/5 1613/1/5
f 1618/1/5 1614/1/5 1617/1/5
f 1623/1/5 1620/1/5 1619/1/5
f 1624/1/5 1620/1/5 1623/1/5
f 1625/1/5 1622/1/5 1621/1/5
f 1626/1/5 1622/1/5 1625/1/5
f 1631/1/5 1628/1/5 1627/1/5
f 1632/1/5 1628/1/5 1631/1/5
f 1633/1/5 1630/1/5 1629/1/5
f 1634/1/5 1630/1/5 1633/1/5
f 1639/1/5 1636/1/5 1635/1/5
f 1640/1/5 1636/1/5 1639/1/5
f 1641/1/5 1638/1/5 1637/1/5
f 1642/1/5 1638/1/5 1641/1/5
f 1647/1/5 1644/1/5 1643/1/5
f 1648/1/5 1644/1/5 1647/1/5
f 1649/1/5 1646/1/5 1645/1/5
f 1650/1/5 1646/1/5 1649/1/5
f 1655/1/5 1652/1/5 1651/1/5
f 1656/1/5 1652/1/5 1655/1/5
f 1657/1/5 1654/1/5 1653/1/5
f 1658/1/5 1654/1/5 1657/1/5
f 1663/1/5 1660/1/5 1659/1/5
f 1664/1/5 1660/1/5 1663/1/5
f 1665/1/5 1662/1/5 1661/1/5
f 1666/1/5 1662/1/5 1665/1/5
f 1671/1/5 1668/1/5 1667/1/5
f 1672/1/5 1668/1/5 1671/1/5
f 1673/1/5 1670/1/5 1669/1/5
f 1674/1/5 1670/1/5 1673/1/5
f 1679/1/5 1676/1/5 1675/1/5
f 1680/1/5 1676/1/5 1679/1/5
f 1681/1/5 1678/1/5 1677/1/5
f 1682/1/5 1678/1/5 1681/1/5
f 1687/1/5 1684/1/5 1683/1/5
f 1688/1/5 1684/1/5 1687/1/5
f 1689/1/5 1686/1/5 1685/1/5
f 1690/1/5 1686/1/5 1689/1/5
f 1695/1/5 1692/1/5 1691/1/5
f 1696/1/5 1692/1/5 1695/1/5
f 1697/1/5 1694/1/5 1693/1/5
f 1698/1/5 1694/1/5 1697/1/5
f 1703/1/5 1700/1/5 1699/1/5
f 1704/1/5 1700/1/5 1703/1/5
f 1705/1/5 1702/1/5 1701/1/5
f 1706/1/5 1702/1/5 1705/1/5
f 1711/1/5 1708/1/5 1707/1/5
f 1712/1/5 1708/1/5 1711/1/5
f 1713/1/5 1710/1/5 1709/1/5
f 1714/1/5 1710/1/5 1713/1/5
f 1719/1/5 1716/1/5 1715/1/5
f 1720/1/5 1716/1/5 1719/1/5
f 1721/1/5 1718/1/5 1717/1/5
f 1722/1/5 1718/1/5 1721/1/5
f 1727/1/5 1724/1/5 1723/1/5
f 1728/1/5 1724/1/5 1727/1/5
f 1729/1/5 1726/1/5 1725/1/5
f 1730/1/5 1726/1/5 1729/1/5
f 1735/1/5 1732/1/5 1731/1/5
f 1736/1/5 1732/1/5 1735/1/5
f 1737/1/5 1734/1/5 1733/1/5
f 1738/1/5 1734/1/5 1737/1/5
f 1743/1/5 1740/1/5 1739/1/5
f 1744/1/5 1740/1/5 1743/1/5
f 1745/1/5 1742/1/5 1741/1/5
f 1746/1/5 1742/1/5 1745/1/5
f 1751/1/5 1748/1/5 1747/1/5
f 1752/1/5 1748/1/5 1751/1/5
f 1753/1/5 1750/1/5 1749/1/5
f 1754/1/5 1750/1/5 1753/1/5
f 1759/1/5 1756/1/5 1755/1/5
f 1760/1/5 1756/1/5 1759/1/5
f 1761/1/5 1758/1/5 1757/1/5
f 1762/1/5 1758/1/5 1761/1/5
f 1767/1/5 1764/1/5 1763/1/5
f 1768/1/5 1764/1/5 1767/1/5
f 1769/1/5 1766/1/5 1765/1/5
f 1770/1/5 1766/1/5 1769/1/5
f 1775/1/5 1772/1/5 1771/1/5
f 1776/1/5 1772/1/5 1775/1/5
f 1777/1/5 1774/1/5 1773/1/5
f 1778/1/5 1774/1/5 1777/1/5
f 1783/1/5 1780/1/5 1779/1/5
f 1784/1/5 1780/1/5 1783/1/5
f 1785/1/5 1782/1/5 1781/1/5
f 1786/1/5 1782/1/5 1785/1/5
f 1791/1/5 1788/1/5 1787/1/5
f 1792/1/5 1788/1/5 1791/1/5
f 1793/1/5 1790/1/5 1789/1/5
f 1794/1/5 1790/1/5 1793/1/5
f 1795/1/6 1796/1/6 1799/1/6
f 1799/1/6 1796/1/6 1800/1/6
f 1797/1/6 1798/1/6 1801/1/6
f 1801/1/6 1798/1/6 1802/1/6
f 1803/1/6 1804/1/6 1807/1/6
f 1807/1/6 1804/1/6 1808/1/6
f 1805/1/6 1806/1/6 1809/1/6
f 1809/1/6 1806/1/6 1810/1/6
f 1811/1/6 1812/1/6 1815/1/6
f 1815/1/6 1812/1/6 1816/1/6
f 1813/1/6 1814/1/6 1817/1/6
f 1817/1/6 1814/1/6 1818/1/6
f 1819/1/6 1820/1/6 1823/1/6
f 1823/1/6 1820/1/6 1824/1/6
f 1821/1/6 1822/1/6 1825/1/6
f 1825/1/6 1822/1/6 1826/1/6
f 1827/1/6 1828/1/6 1831/1/6
f 1831/1/6 1828/1/6 1832/1/6
f 1829/1/6 1830/1/6 1833/1/6
f 1833/1/6 1830/1/6 1834/1/6
f 1835/1/6 1836/1/6 1839/1/6
f 1839/1/6 1836/1/6 1840/1/6
f 1837/1/6 1838/1/6 1841/1/6
f 1841/1/6 1838/1/6 1842/1/6
f 1843/1/6 1844/1/6 1847/1/6
f 1847/1/6 1844/1/6 1848/1/6
f 1845/1/6 1846/1/6 1849/1/6
f 1849/1/6 1846/1/6 1850/1/6
f 1851/1/6 1852/1/6 1855/1/6
f 1855/1/6 1852/1/6 1856/1/6
f 1853/1/6 1854/1/6 1857/1/6
f 1857/1/6 1854/1/6 1858/1/6
f 1859/1/6 1860/1/6 1863/1/6
f 1863/1/6 1860/1/6 1864/1/6
f 1861/1/6 1862/1/6 1865/1/6
f 1865/1/6 1862/1/6 1866/1/6
f 1867/1/6 1868/1/6 1871/1/6
f 1871/1/6 1868/1/6 1872/1/6
f 1869/1/6 1870/1/6 1873/1/6
f 1873/1/6 1870/1/6 1874/1/6
f 1875/1/6 1876/1/6 1879/1/6
f 1879/1/6 1876/1/6 1880/1/6
f 1877/1/6 1878/1/6 1881/1/6
f 1881/1/6 1878/1/6 1882/1/6
f 1883/1/6 1884/1/6 1887/1/6
f 1887/1/6 1884/1/6 1888/1/6
f 1885/1/6 1886/1/6 1889/1/6
f 1889/1/6 1886/1/6 1890/1/6
f 1891/1/6 1892/1/6 1895/1/6
f 1895/1/6 1892/1/6 1896/1/6
f 1893/1/6 1894/1/6 1897/1/6
f 1897/1/6 1894/1/6 1898/1/6
f 1899/1/6 1900/1/6 1903/1/6
f 1903/1/6 1900/1/6 1904/1/6
f 1901/1/6 1902/1/6 1905/1/6
f 1905/1/6 1902/1/6 1906/1/6
f 1907/1/6 1908/1/6 1911/1/6
f 1911/1/6 1908/1/6 1912/1/6
f 1909/1/6 1910/1/6 1913/1/6
f 1913/1/6 1910/1/6 1914/1/6
f 1915/1/6 1916/1/6 1919/1/6
f 1919/1/6 1916/1/6 1920/1/6
f 1917/1/6 1918/1/6 1921/1/6
f 1921/1/6 1918/1/6 1922/1/6
f 1923/1/6 1924/1/6 1927/1/6
f 1927/1/6 1924/1/6 1928/1/6
f 1925/1/6 1926/1/6 1929/1/6
f 1929/1/6 1926/1/6 1930/1/6
f 1931/1/6 1932/1/6 1935/1/6
f 1935/1/6 1932/1/6 1936/1/6
f 1933/1/6 1934/1/6 1937/1/6
f 1937/1/6 1934/1/6 1938/1/6
f 1939/1/6 1940/1/6 1943/1/6
f 1943/1/6 1940/1/6 1944/1/6
f 1941/1/6 1942/1/6 1945/1/6
f 1945/1/6 1942/1/6 1946/1/6
f 1947/1/6 1948/1/6 1951/1/6
f 1951/1/6 1948/1/6 1952/1/6
f 1949/1/6 1950/1/6 1953/1/6
f 1953/1/6 1950/1/6 1954/1/6
f 1955/1/6 1956/1/6 1959/1/6
f 1959/1/6 1956/1/6 1960/1/6
f 1957/1/6 1958/1/6 1961/1/6
f 1961/1/6 1958/1/6 1962/1/6
f 1963/1/6 1964/1/6 1967/1/6
f 1967/1/6 1964/1/6 1968/1/6
f 1965/1/6 1966/1/6 1969/1/6
f 1969/1/6 1966/1/6 1970/1/6
f 1971/1/6 1972/1/6 1975/1/6
f 1975/1/6 1972/1/6 1976/1/6
f 1973/1/6 1974/1/6 1977/1/6
f 1977/1/6 1974/1/6 1978/1/6
f 1979/1/6 1980/1/6 1983/1/6
f 1983/1/6 1980/1/6 1984/1/6
f 1981/1/6 1982/1/6 1985/1/6
f 1985/1/6 1982/1/6 1986/1/6
f 1987/1/6 1988/1/6 1991/1/6
f 1991/1/6 1988/1/6 1992/1/6
f 1989/1/6 1990/1/6 1993/1/6
f 1993/1/6 1990/1/6 1994/1/6
f 1995/1/6 1996/1/6 1999/1/6
f 1999/1/6 1996/1/6 2000/1/6
f 1997/1/6 1998/1/6 2001/1/6
f 2001/1/6 1998/1/6 2002/1/6
f 2003/1/6 2004/1/6 2005/1/6
f 2005/1/6 2004/1/6 2006/1/6
f 2006/1/6 2004/1/6 2007/1/6
f 2007/1/6 2004/1/6 2008/1/6
f 2009/1/6 2010/1/6 2013/1/6
f 2011/1/6 2012/1/6 2013/1/6
f 2010/1/6 2011/1/6 2013/1/6
f 2013/1/6 2012/1/6 2014/1/6
f 2015/1/6 2016/1/6 2017/1/6
f 2017/1/6 2016/1/6 2018/1/6
f 2018/1/6 2016/1/6 2019/1/6
f 2019/1/6 2016/1/6 2020/1/6
f 2021/2/6 2022/2/6 2023/2/6
f 2023/2/6 2022/2/6 2024/2/6
f 2025/2/6 2026/2/6 2027/2/6
f 2027/2/6 2026/2/6 2028/2/6
f 2029/2/6 2030/2/6 2031/2/6
f 2031/2/6 2030/2/6 2032/2/6
f 2033/2/6 2034/2/6 2035/2/6
f 2035/2/6 2034/2/6 2036/2/6
f 2037/2/6 2038/2/6 2039/2/6
f 2039/2/6 2038/2/6 2040/2/6
f 2041/2/6 2042/2/6 2043/2/6
f 2043/2/6 2042/2/6 2044/2/6
f 2045/2/6 2046/2/6 2047/2/6
f 2047/2/6 2046/2/6 2048/2/6
f 2049/2/6 2050/2/6 2051/2/6
f 2051/2/6 2050/2/6 2052/2/6
f 2053/2/6 2054/2/6 2055/2/6
f 2055/2/6 2054/2/6 2056/2/6
f 2057/2/6 2058/2/6 2059/2/6
f 2059/2/6 2058/2/6 2060/2/6
f 2061/2/6 2062/2/6 2063/2/6
f 2063/2/6 2062/2/6 2064/2/6
f 2065/2/6 2066/2/6 2067/2/6
f 2067/2/6 2066/2/6 2068/2/6
f 2069/2/6 2070/2/6 2071/2/6
f 2071/2/6 2070/2/6 2072/2/6
f 2073/2/6 2074/2/6 2075/2/6
f 2075/2/6 2074/2/6 2076/2/6
f 2077/2/6 2078/2/6 2079/2/6
f 2079/2/6 2078/2/6 2080/2/6
f 2081/2/6 2082/2/6 2083/2/6
f 2083/2/6 2082/2/6 2084/2/6
f 2085/2/6 2086/2/6 2087/2/6
f 2087/2/6 2086/2/6 2088/2/6
f 2089/2/6 2090/2/6 2091/2/6
f 2091/2/6 2090/2/6 2092/2/6
f 2093/2/6 2094/2/6 2095/2/6
f 2095/2/6 2094/2/6 2096/2/6
f 2097/2/6 2098/2/6 2099/2/6
f 2099/2/6 2098/2/6 2100/2/6
f 2101/2/6 2102/2/6 2103/2/6
f 2103/2/6 2102/2/6 2104/2/6
f 2105/2/6 2106/2/6 2107/2/6
f 2107/2/6 2106/2/6 2108/2/6
f 2109/2/6 2110/2/6 2111/2/6
f 2111/2/6 2110/2/6 2112/2/6
f 2113/2/6 2114/2/6 2115/2/6
f 2115/2/6 2114/2/6 2116/2/6
f 2117/2/6 2118/2/6 2119/2/6
f 2119/2/6 2118/2/6 2120/2/6
f 2121/2/6 2122/2/6 2124/2/6
f 2124/2/6 2122/2/6 2125/2/6
f 2124/1/6 2125/1/6 2127/1/6
f 2125/1/6 2126/1/6 2127/1/6
f 2123/1/6 2124/1/6 2127/1/6
f 2127/1/6 2126/1/6 2128/1/6
f 2129/1/6 2130/1/6 2131/1/6
f 2131/1/6 2130/1/6 2132/1/6
f 2133/1/6 2134/1/6 2135/1/6
f 2135/1/6 2134/1/6 2136/1/6
f 2137/1/6 2138/1/6 2139/1/6
f 2139/1/6 2138/1/6 2140/1/6
f 2141/1/6 2142/1/6 2143/1/6
f 2143/1/6 2142/1/6 2144/1/6
f 2145/1/6 2146/1/6 2147/1/6
f 2147/1/6 2146/1/6 2148/1/6
f 2149/1/6 2150/1/6 2151/1/6
f 2151/1/6 2150/1/6 2152/1/6
f 2153/1/6 2154/1/6 2155/1/6
f 2155/1/6 2154/1/6 2156/1/6
f 2157/1/6 2158/1/6 2159/1/6
f 2159/1/6 2158/1/6 2160/1/6
f 2161/1/6 2162/1/6 2163/1/6
f 2163/1/6 2162/1/6 2164/1/6
f 2165/1/6 2166/1/6 2167/1/6
f 2167/1/6 2166/1/6 2168/1/6
f 2169/1/6 2170/1/6 2171/1/6
f 2171/1/6 2170/1/6 2172/1/6
f 2173/1/6 2174/1/6 2175/1/6
f 2175/1/6 2174/1/6 2176/1/6
f 2177/1/6 2178/1/6 2179/1/6
f 2179/1/6 2178/1/6 2180/1/6
f 2181/1/6 2182/1/6 2183/1/6
f 2183/1/6 2182/1/6 2184/1/6
f 2185/1/6 2186/1/6 2187/1/6
f 2187/1/6 2186/1/6 2188/1/6
f 2189/1/6 2190/1/6 2191/1/6
f 2191/1/6 2190/1/6 2192/1/6
f 2193/1/6 2194/1/6 2195/1/6
f 2195/1/6 2194/1/6 2196/1/6
f 2197/1/6 2198/1/6 2199/1/6
f 2199/1/6 2198/1/6 2200/1/6
f 2201/1/6 2202/1/6 2203/1/6
f 2203/1/6 2202/1/6 2204/1/6
f 2205/1/6 2206/1/6 2207/1/6
f 2207/1/6 2206/1/6 2208/1/6
f 2209/1/6 2210/1/6 2211/1/6
f 2211/1/6 2210/1/6 2212/1/6
f 2213/1/6 2214/1/6 2215/1/6
f 2215/1/6 2214/1/6 2216/1/6
f 2217/1/6 2218/1/6 2219/1/6
f 2219/1/6 2218/1/6 2220/1/6
f 2221/1/6 2222/1/6 2223/1/6
f 2223/1/6 2222/1/6 2224/1/6
f 2225/1/6 2226/1/6 2227/1/6
f 2227/1/6 2226/1/6 2228/1/6
f 2229/1/6 2230/1/6 2231/1/6
f 2231/1/6 2230/1/6 2232/1/6
