# MagicaVoxel @ Ephtracy

# material
mtllib wheel-02.mtl
usemtl palette

# normals
vn -1 0 0
vn 1 0 0
vn 0 0 1
vn 0 0 -1
vn 0 -1 0
vn 0 1 0

# texcoords
vt 0.849609 0.5
vt 0.861328 0.5

# verts
v -6 0 10
v -6 0 8
v -6 0 7
v -6 0 5
v -6 0 4
v -6 0 2
v -6 0 1
v -6 0 -1
v -6 0 -2
v -6 0 -4
v -6 0 -5
v -6 0 -7
v -6 0 -8
v -6 0 -10
v -6 1 10
v -6 1 8
v -6 1 7
v -6 1 5
v -6 1 4
v -6 1 2
v -6 1 1
v -6 1 -1
v -6 1 -2
v -6 1 -4
v -6 1 -5
v -6 1 -7
v -6 1 -8
v -6 1 -10
v -6 2 11
v -6 2 10
v -6 2 -10
v -6 2 -11
v -6 4 11
v -6 4 10
v -6 4 -10
v -6 4 -11
v -6 5 10
v -6 5 8
v -6 5 7
v -6 5 5
v -6 5 4
v -6 5 2
v -6 5 1
v -6 5 -1
v -6 5 -2
v -6 5 -4
v -6 5 -5
v -6 5 -7
v -6 5 -8
v -6 5 -10
v -6 6 10
v -6 6 8
v -6 6 7
v -6 6 5
v -6 6 4
v -6 6 2
v -6 6 1
v -6 6 -1
v -6 6 -2
v -6 6 -4
v -6 6 -5
v -6 6 -7
v -6 6 -8
v -6 6 -10
v -5 1 10
v -5 1 8
v -5 1 7
v -5 1 5
v -5 1 4
v -5 1 2
v -5 1 1
v -5 1 -1
v -5 1 -2
v -5 1 -4
v -5 1 -5
v -5 1 -7
v -5 1 -8
v -5 1 -10
v -5 2 10
v -5 2 -10
v -5 4 10
v -5 4 -10
v -5 5 10
v -5 5 8
v -5 5 7
v -5 5 5
v -5 5 4
v -5 5 2
v -5 5 1
v -5 5 -1
v -5 5 -2
v -5 5 -4
v -5 5 -5
v -5 5 -7
v -5 5 -8
v -5 5 -10
v 5 1 10
v 5 1 8
v 5 1 7
v 5 1 5
v 5 1 4
v 5 1 2
v 5 1 1
v 5 1 -1
v 5 1 -2
v 5 1 -4
v 5 1 -5
v 5 1 -7
v 5 1 -8
v 5 1 -10
v 5 2 10
v 5 2 -10
v 5 4 10
v 5 4 -10
v 5 5 10
v 5 5 8
v 5 5 7
v 5 5 5
v 5 5 4
v 5 5 2
v 5 5 1
v 5 5 -1
v 5 5 -2
v 5 5 -4
v 5 5 -5
v 5 5 -7
v 5 5 -8
v 5 5 -10
v 6 0 10
v 6 0 8
v 6 0 7
v 6 0 5
v 6 0 4
v 6 0 2
v 6 0 1
v 6 0 -1
v 6 0 -2
v 6 0 -4
v 6 0 -5
v 6 0 -7
v 6 0 -8
v 6 0 -10
v 6 1 10
v 6 1 8
v 6 1 7
v 6 1 5
v 6 1 4
v 6 1 2
v 6 1 1
v 6 1 -1
v 6 1 -2
v 6 1 -4
v 6 1 -5
v 6 1 -7
v 6 1 -8
v 6 1 -10
v 6 2 11
v 6 2 10
v 6 2 -10
v 6 2 -11
v 6 4 11
v 6 4 10
v 6 4 -10
v 6 4 -11
v 6 5 10
v 6 5 8
v 6 5 7
v 6 5 5
v 6 5 4
v 6 5 2
v 6 5 1
v 6 5 -1
v 6 5 -2
v 6 5 -4
v 6 5 -5
v 6 5 -7
v 6 5 -8
v 6 5 -10
v 6 6 10
v 6 6 8
v 6 6 7
v 6 6 5
v 6 6 4
v 6 6 2
v 6 6 1
v 6 6 -1
v 6 6 -2
v 6 6 -4
v 6 6 -5
v 6 6 -7
v 6 6 -8
v 6 6 -10
v -6 2 11
v -6 4 11
v 6 2 11
v 6 4 11
v -6 0 10
v -6 1 10
v -6 5 10
v -6 6 10
v -5 1 10
v -5 2 10
v -5 4 10
v -5 5 10
v 5 1 10
v 5 2 10
v 5 4 10
v 5 5 10
v 6 0 10
v 6 1 10
v 6 5 10
v 6 6 10
v -6 0 7
v -6 1 7
v -6 5 7
v -6 6 7
v -5 1 7
v -5 5 7
v 5 1 7
v 5 5 7
v 6 0 7
v 6 1 7
v 6 5 7
v 6 6 7
v -6 0 4
v -6 1 4
v -6 5 4
v -6 6 4
v -5 1 4
v -5 5 4
v 5 1 4
v 5 5 4
v 6 0 4
v 6 1 4
v 6 5 4
v 6 6 4
v -6 0 1
v -6 1 1
v -6 5 1
v -6 6 1
v -5 1 1
v -5 5 1
v 5 1 1
v 5 5 1
v 6 0 1
v 6 1 1
v 6 5 1
v 6 6 1
v -6 0 -2
v -6 1 -2
v -6 5 -2
v -6 6 -2
v -5 1 -2
v -5 5 -2
v 5 1 -2
v 5 5 -2
v 6 0 -2
v 6 1 -2
v 6 5 -2
v 6 6 -2
v -6 0 -5
v -6 1 -5
v -6 5 -5
v -6 6 -5
v -5 1 -5
v -5 5 -5
v 5 1 -5
v 5 5 -5
v 6 0 -5
v 6 1 -5
v 6 5 -5
v 6 6 -5
v -6 0 -8
v -6 1 -8
v -6 5 -8
v -6 6 -8
v -5 1 -8
v -5 5 -8
v 5 1 -8
v 5 5 -8
v 6 0 -8
v 6 1 -8
v 6 5 -8
v 6 6 -8
v -6 2 -10
v -6 4 -10
v -5 2 -10
v -5 4 -10
v 5 2 -10
v 5 4 -10
v 6 2 -10
v 6 4 -10
v -6 2 10
v -6 4 10
v -5 2 10
v -5 4 10
v 5 2 10
v 5 4 10
v 6 2 10
v 6 4 10
v -6 0 8
v -6 1 8
v -6 5 8
v -6 6 8
v -5 1 8
v -5 5 8
v 5 1 8
v 5 5 8
v 6 0 8
v 6 1 8
v 6 5 8
v 6 6 8
v -6 0 5
v -6 1 5
v -6 5 5
v -6 6 5
v -5 1 5
v -5 5 5
v 5 1 5
v 5 5 5
v 6 0 5
v 6 1 5
v 6 5 5
v 6 6 5
v -6 0 2
v -6 1 2
v -6 5 2
v -6 6 2
v -5 1 2
v -5 5 2
v 5 1 2
v 5 5 2
v 6 0 2
v 6 1 2
v 6 5 2
v 6 6 2
v -6 0 -1
v -6 1 -1
v -6 5 -1
v -6 6 -1
v -5 1 -1
v -5 5 -1
v 5 1 -1
v 5 5 -1
v 6 0 -1
v 6 1 -1
v 6 5 -1
v 6 6 -1
v -6 0 -4
v -6 1 -4
v -6 5 -4
v -6 6 -4
v -5 1 -4
v -5 5 -4
v 5 1 -4
v 5 5 -4
v 6 0 -4
v 6 1 -4
v 6 5 -4
v 6 6 -4
v -6 0 -7
v -6 1 -7
v -6 5 -7
v -6 6 -7
v -5 1 -7
v -5 5 -7
v 5 1 -7
v 5 5 -7
v 6 0 -7
v 6 1 -7
v 6 5 -7
v 6 6 -7
v -6 0 -10
v -6 1 -10
v -6 5 -10
v -6 6 -10
v -5 1 -10
v -5 2 -10
v -5 4 -10
v -5 5 -10
v 5 1 -10
v 5 2 -10
v 5 4 -10
v 5 5 -10
v 6 0 -10
v 6 1 -10
v 6 5 -10
v 6 6 -10
v -6 2 -11
v -6 4 -11
v 6 2 -11
v 6 4 -11
v -6 0 10
v 6 0 10
v -6 0 8
v 6 0 8
v -6 0 7
v 6 0 7
v -6 0 5
v 6 0 5
v -6 0 4
v 6 0 4
v -6 0 2
v 6 0 2
v -6 0 1
v 6 0 1
v -6 0 -1
v 6 0 -1
v -6 0 -2
v 6 0 -2
v -6 0 -4
v 6 0 -4
v -6 0 -5
v 6 0 -5
v -6 0 -7
v 6 0 -7
v -6 0 -8
v 6 0 -8
v -6 0 -10
v 6 0 -10
v -5 1 8
v 5 1 8
v -5 1 7
v 5 1 7
v -5 1 5
v 5 1 5
v -5 1 4
v 5 1 4
v -5 1 2
v 5 1 2
v -5 1 1
v 5 1 1
v -5 1 -1
v 5 1 -1
v -5 1 -2
v 5 1 -2
v -5 1 -4
v 5 1 -4
v -5 1 -5
v 5 1 -5
v -5 1 -7
v 5 1 -7
v -5 1 -8
v 5 1 -8
v -6 2 11
v 6 2 11
v -6 2 10
v -5 2 10
v 5 2 10
v 6 2 10
v -6 2 -10
v -5 2 -10
v 5 2 -10
v 6 2 -10
v -6 2 -11
v 6 2 -11
v -6 5 10
v -5 5 10
v 5 5 10
v 6 5 10
v -6 5 8
v -5 5 8
v 5 5 8
v 6 5 8
v -6 5 7
v -5 5 7
v 5 5 7
v 6 5 7
v -6 5 5
v -5 5 5
v 5 5 5
v 6 5 5
v -6 5 4
v -5 5 4
v 5 5 4
v 6 5 4
v -6 5 2
v -5 5 2
v 5 5 2
v 6 5 2
v -6 5 1
v -5 5 1
v 5 5 1
v 6 5 1
v -6 5 -1
v -5 5 -1
v 5 5 -1
v 6 5 -1
v -6 5 -2
v -5 5 -2
v 5 5 -2
v 6 5 -2
v -6 5 -4
v -5 5 -4
v 5 5 -4
v 6 5 -4
v -6 5 -5
v -5 5 -5
v 5 5 -5
v 6 5 -5
v -6 5 -7
v -5 5 -7
v 5 5 -7
v 6 5 -7
v -6 5 -8
v -5 5 -8
v 5 5 -8
v 6 5 -8
v -6 5 -10
v -5 5 -10
v 5 5 -10
v 6 5 -10
v -6 1 10
v -5 1 10
v 5 1 10
v 6 1 10
v -6 1 8
v -5 1 8
v 5 1 8
v 6 1 8
v -6 1 7
v -5 1 7
v 5 1 7
v 6 1 7
v -6 1 5
v -5 1 5
v 5 1 5
v 6 1 5
v -6 1 4
v -5 1 4
v 5 1 4
v 6 1 4
v -6 1 2
v -5 1 2
v 5 1 2
v 6 1 2
v -6 1 1
v -5 1 1
v 5 1 1
v 6 1 1
v -6 1 -1
v -5 1 -1
v 5 1 -1
v 6 1 -1
v -6 1 -2
v -5 1 -2
v 5 1 -2
v 6 1 -2
v -6 1 -4
v -5 1 -4
v 5 1 -4
v 6 1 -4
v -6 1 -5
v -5 1 -5
v 5 1 -5
v 6 1 -5
v -6 1 -7
v -5 1 -7
v 5 1 -7
v 6 1 -7
v -6 1 -8
v -5 1 -8
v 5 1 -8
v 6 1 -8
v -6 1 -10
v -5 1 -10
v 5 1 -10
v 6 1 -10
v -6 4 11
v 6 4 11
v -6 4 10
v -5 4 10
v 5 4 10
v 6 4 10
v -6 4 -10
v -5 4 -10
v 5 4 -10
v 6 4 -10
v -6 4 -11
v 6 4 -11
v -5 5 8
v 5 5 8
v -5 5 7
v 5 5 7
v -5 5 5
v 5 5 5
v -5 5 4
v 5 5 4
v -5 5 2
v 5 5 2
v -5 5 1
v 5 5 1
v -5 5 -1
v 5 5 -1
v -5 5 -2
v 5 5 -2
v -5 5 -4
v 5 5 -4
v -5 5 -5
v 5 5 -5
v -5 5 -7
v 5 5 -7
v -5 5 -8
v 5 5 -8
v -6 6 10
v 6 6 10
v -6 6 8
v 6 6 8
v -6 6 7
v 6 6 7
v -6 6 5
v 6 6 5
v -6 6 4
v 6 6 4
v -6 6 2
v 6 6 2
v -6 6 1
v 6 6 1
v -6 6 -1
v 6 6 -1
v -6 6 -2
v 6 6 -2
v -6 6 -4
v 6 6 -4
v -6 6 -5
v 6 6 -5
v -6 6 -7
v 6 6 -7
v -6 6 -8
v 6 6 -8
v -6 6 -10
v 6 6 -10

# faces
f 15/1/1 2/1/1 1/1/1
f 16/1/1 2/1/1 15/1/1
f 17/1/1 4/1/1 3/1/1
f 18/1/1 4/1/1 17/1/1
f 19/1/1 6/1/1 5/1/1
f 20/1/1 6/1/1 19/1/1
f 21/1/1 8/1/1 7/1/1
f 22/1/1 8/1/1 21/1/1
f 23/1/1 10/1/1 9/1/1
f 24/1/1 10/1/1 23/1/1
f 25/1/1 12/1/1 11/1/1
f 26/1/1 12/1/1 25/1/1
f 27/1/1 14/1/1 13/1/1
f 28/1/1 14/1/1 27/1/1
f 33/1/1 30/1/1 29/1/1
f 34/1/1 30/1/1 33/1/1
f 35/1/1 32/1/1 31/1/1
f 36/1/1 32/1/1 35/1/1
f 51/1/1 38/1/1 37/1/1
f 52/1/1 38/1/1 51/1/1
f 53/1/1 40/1/1 39/1/1
f 54/1/1 40/1/1 53/1/1
f 55/1/1 42/1/1 41/1/1
f 56/1/1 42/1/1 55/1/1
f 57/1/1 44/1/1 43/1/1
f 58/1/1 44/1/1 57/1/1
f 59/1/1 46/1/1 45/1/1
f 60/1/1 46/1/1 59/1/1
f 61/1/1 48/1/1 47/1/1
f 62/1/1 48/1/1 61/1/1
f 63/1/1 50/1/1 49/1/1
f 64/1/1 50/1/1 63/1/1
f 79/2/1 66/2/1 65/2/1
f 79/2/1 78/2/1 77/2/1
f 79/2/1 77/2/1 76/2/1
f 79/2/1 76/2/1 75/2/1
f 79/2/1 75/2/1 74/2/1
f 79/2/1 74/2/1 73/2/1
f 79/2/1 73/2/1 72/2/1
f 79/2/1 72/2/1 71/2/1
f 79/2/1 71/2/1 70/2/1
f 79/2/1 70/2/1 69/2/1
f 79/2/1 69/2/1 68/2/1
f 79/2/1 68/2/1 67/2/1
f 79/2/1 67/2/1 66/2/1
f 80/2/1 78/2/1 79/2/1
f 81/2/1 80/2/1 79/2/1
f 82/2/1 80/2/1 81/2/1
f 83/2/1 82/2/1 81/2/1
f 84/2/1 82/2/1 83/2/1
f 85/2/1 82/2/1 84/2/1
f 86/2/1 82/2/1 85/2/1
f 87/2/1 82/2/1 86/2/1
f 88/2/1 82/2/1 87/2/1
f 89/2/1 82/2/1 88/2/1
f 90/2/1 82/2/1 89/2/1
f 91/2/1 82/2/1 90/2/1
f 92/2/1 82/2/1 91/2/1
f 93/2/1 82/2/1 92/2/1
f 94/2/1 82/2/1 93/2/1
f 95/2/1 82/2/1 94/2/1
f 96/2/1 82/2/1 95/2/1
f 97/2/2 98/2/2 111/2/2
f 109/2/2 110/2/2 111/2/2
f 108/2/2 109/2/2 111/2/2
f 107/2/2 108/2/2 111/2/2
f 106/2/2 107/2/2 111/2/2
f 105/2/2 106/2/2 111/2/2
f 104/2/2 105/2/2 111/2/2
f 103/2/2 104/2/2 111/2/2
f 102/2/2 103/2/2 111/2/2
f 101/2/2 102/2/2 111/2/2
f 100/2/2 101/2/2 111/2/2
f 99/2/2 100/2/2 111/2/2
f 98/2/2 99/2/2 111/2/2
f 111/2/2 110/2/2 112/2/2
f 111/2/2 112/2/2 113/2/2
f 113/2/2 112/2/2 114/2/2
f 113/2/2 114/2/2 115/2/2
f 115/2/2 114/2/2 116/2/2
f 116/2/2 114/2/2 117/2/2
f 117/2/2 114/2/2 118/2/2
f 118/2/2 114/2/2 119/2/2
f 119/2/2 114/2/2 120/2/2
f 120/2/2 114/2/2 121/2/2
f 121/2/2 114/2/2 122/2/2
f 122/2/2 114/2/2 123/2/2
f 123/2/2 114/2/2 124/2/2
f 124/2/2 114/2/2 125/2/2
f 125/2/2 114/2/2 126/2/2
f 126/2/2 114/2/2 127/2/2
f 127/2/2 114/2/2 128/2/2
f 129/1/2 130/1/2 143/1/2
f 143/1/2 130/1/2 144/1/2
f 131/1/2 132/1/2 145/1/2
f 145/1/2 132/1/2 146/1/2
f 133/1/2 134/1/2 147/1/2
f 147/1/2 134/1/2 148/1/2
f 135/1/2 136/1/2 149/1/2
f 149/1/2 136/1/2 150/1/2
f 137/1/2 138/1/2 151/1/2
f 151/1/2 138/1/2 152/1/2
f 139/1/2 140/1/2 153/1/2
f 153/1/2 140/1/2 154/1/2
f 141/1/2 142/1/2 155/1/2
f 155/1/2 142/1/2 156/1/2
f 157/1/2 158/1/2 161/1/2
f 161/1/2 158/1/2 162/1/2
f 159/1/2 160/1/2 163/1/2
f 163/1/2 160/1/2 164/1/2
f 165/1/2 166/1/2 179/1/2
f 179/1/2 166/1/2 180/1/2
f 167/1/2 168/1/2 181/1/2
f 181/1/2 168/1/2 182/1/2
f 169/1/2 170/1/2 183/1/2
f 183/1/2 170/1/2 184/1/2
f 171/1/2 172/1/2 185/1/2
f 185/1/2 172/1/2 186/1/2
f 173/1/2 174/1/2 187/1/2
f 187/1/2 174/1/2 188/1/2
f 175/1/2 176/1/2 189/1/2
f 189/1/2 176/1/2 190/1/2
f 177/1/2 178/1/2 191/1/2
f 191/1/2 178/1/2 192/1/2
f 195/1/3 194/1/3 193/1/3
f 196/1/3 194/1/3 195/1/3
f 201/1/3 198/1/3 197/1/3
f 204/1/3 200/1/3 199/1/3
f 205/2/3 202/2/3 201/2/3
f 205/1/3 201/1/3 197/1/3
f 206/2/3 202/2/3 205/2/3
f 207/2/3 204/2/3 203/2/3
f 208/1/3 200/1/3 204/1/3
f 208/2/3 204/2/3 207/2/3
f 209/1/3 205/1/3 197/1/3
f 210/1/3 205/1/3 209/1/3
f 211/1/3 200/1/3 208/1/3
f 212/1/3 200/1/3 211/1/3
f 217/1/3 214/1/3 213/1/3
f 218/1/3 216/1/3 215/1/3
f 219/1/3 217/1/3 213/1/3
f 220/1/3 216/1/3 218/1/3
f 221/1/3 219/1/3 213/1/3
f 222/1/3 219/1/3 221/1/3
f 223/1/3 216/1/3 220/1/3
f 224/1/3 216/1/3 223/1/3
f 229/1/3 226/1/3 225/1/3
f 230/1/3 228/1/3 227/1/3
f 231/1/3 229/1/3 225/1/3
f 232/1/3 228/1/3 230/1/3
f 233/1/3 231/1/3 225/1/3
f 234/1/3 231/1/3 233/1/3
f 235/1/3 228/1/3 232/1/3
f 236/1/3 228/1/3 235/1/3
f 241/1/3 238/1/3 237/1/3
f 242/1/3 240/1/3 239/1/3
f 243/1/3 241/1/3 237/1/3
f 244/1/3 240/1/3 242/1/3
f 245/1/3 243/1/3 237/1/3
f 246/1/3 243/1/3 245/1/3
f 247/1/3 240/1/3 244/1/3
f 248/1/3 240/1/3 247/1/3
f 253/1/3 250/1/3 249/1/3
f 254/1/3 252/1/3 251/1/3
f 255/1/3 253/1/3 249/1/3
f 256/1/3 252/1/3 254/1/3
f 257/1/3 255/1/3 249/1/3
f 258/1/3 255/1/3 257/1/3
f 259/1/3 252/1/3 256/1/3
f 260/1/3 252/1/3 259/1/3
f 265/1/3 262/1/3 261/1/3
f 266/1/3 264/1/3 263/1/3
f 267/1/3 265/1/3 261/1/3
f 268/1/3 264/1/3 266/1/3
f 269/1/3 267/1/3 261/1/3
f 270/1/3 267/1/3 269/1/3
f 271/1/3 264/1/3 268/1/3
f 272/1/3 264/1/3 271/1/3
f 277/1/3 274/1/3 273/1/3
f 278/1/3 276/1/3 275/1/3
f 279/1/3 277/1/3 273/1/3
f 280/1/3 276/1/3 278/1/3
f 281/1/3 279/1/3 273/1/3
f 282/1/3 279/1/3 281/1/3
f 283/1/3 276/1/3 280/1/3
f 284/1/3 276/1/3 283/1/3
f 287/1/3 286/1/3 285/1/3
f 288/1/3 286/1/3 287/1/3
f 291/1/3 290/1/3 289/1/3
f 292/1/3 290/1/3 291/1/3
f 293/1/4 294/1/4 295/1/4
f 295/1/4 294/1/4 296/1/4
f 297/1/4 298/1/4 299/1/4
f 299/1/4 298/1/4 300/1/4
f 301/1/4 302/1/4 305/1/4
f 303/1/4 304/1/4 306/1/4
f 301/1/4 305/1/4 307/1/4
f 306/1/4 304/1/4 308/1/4
f 301/1/4 307/1/4 309/1/4
f 309/1/4 307/1/4 310/1/4
f 308/1/4 304/1/4 311/1/4
f 311/1/4 304/1/4 312/1/4
f 313/1/4 314/1/4 317/1/4
f 315/1/4 316/1/4 318/1/4
f 313/1/4 317/1/4 319/1/4
f 318/1/4 316/1/4 320/1/4
f 313/1/4 319/1/4 321/1/4
f 321/1/4 319/1/4 322/1/4
f 320/1/4 316/1/4 323/1/4
f 323/1/4 316/1/4 324/1/4
f 325/1/4 326/1/4 329/1/4
f 327/1/4 328/1/4 330/1/4
f 325/1/4 329/1/4 331/1/4
f 330/1/4 328/1/4 332/1/4
f 325/1/4 331/1/4 333/1/4
f 333/1/4 331/1/4 334/1/4
f 332/1/4 328/1/4 335/1/4
f 335/1/4 328/1/4 336/1/4
f 337/1/4 338/1/4 341/1/4
f 339/1/4 340/1/4 342/1/4
f 337/1/4 341/1/4 343/1/4
f 342/1/4 340/1/4 344/1/4
f 337/1/4 343/1/4 345/1/4
f 345/1/4 343/1/4 346/1/4
f 344/1/4 340/1/4 347/1/4
f 347/1/4 340/1/4 348/1/4
f 349/1/4 350/1/4 353/1/4
f 351/1/4 352/1/4 354/1/4
f 349/1/4 353/1/4 355/1/4
f 354/1/4 352/1/4 356/1/4
f 349/1/4 355/1/4 357/1/4
f 357/1/4 355/1/4 358/1/4
f 356/1/4 352/1/4 359/1/4
f 359/1/4 352/1/4 360/1/4
f 361/1/4 362/1/4 365/1/4
f 363/1/4 364/1/4 366/1/4
f 361/1/4 365/1/4 367/1/4
f 366/1/4 364/1/4 368/1/4
f 361/1/4 367/1/4 369/1/4
f 369/1/4 367/1/4 370/1/4
f 368/1/4 364/1/4 371/1/4
f 371/1/4 364/1/4 372/1/4
f 373/1/4 374/1/4 377/1/4
f 375/1/4 376/1/4 380/1/4
f 377/2/4 378/2/4 381/2/4
f 373/1/4 377/1/4 381/1/4
f 381/2/4 378/2/4 382/2/4
f 379/2/4 380/2/4 383/2/4
f 380/1/4 376/1/4 384/1/4
f 383/2/4 380/2/4 384/2/4
f 373/1/4 381/1/4 385/1/4
f 385/1/4 381/1/4 386/1/4
f 384/1/4 376/1/4 387/1/4
f 387/1/4 376/1/4 388/1/4
f 389/1/4 390/1/4 391/1/4
f 391/1/4 390/1/4 392/1/4
f 395/1/5 394/1/5 393/1/5
f 396/1/5 394/1/5 395/1/5
f 399/1/5 398/1/5 397/1/5
f 400/1/5 398/1/5 399/1/5
f 403/1/5 402/1/5 401/1/5
f 404/1/5 402/1/5 403/1/5
f 407/1/5 406/1/5 405/1/5
f 408/1/5 406/1/5 407/1/5
f 411/1/5 410/1/5 409/1/5
f 412/1/5 410/1/5 411/1/5
f 415/1/5 414/1/5 413/1/5
f 416/1/5 414/1/5 415/1/5
f 419/1/5 418/1/5 417/1/5
f 420/1/5 418/1/5 419/1/5
f 423/2/5 422/2/5 421/2/5
f 424/2/5 422/2/5 423/2/5
f 427/2/5 426/2/5 425/2/5
f 428/2/5 426/2/5 427/2/5
f 431/2/5 430/2/5 429/2/5
f 432/2/5 430/2/5 431/2/5
f 435/2/5 434/2/5 433/2/5
f 436/2/5 434/2/5 435/2/5
f 439/2/5 438/2/5 437/2/5
f 440/2/5 438/2/5 439/2/5
f 443/2/5 442/2/5 441/2/5
f 444/2/5 442/2/5 443/2/5
f 447/1/5 446/1/5 445/1/5
f 448/1/5 446/1/5 447/1/5
f 449/1/5 446/1/5 448/1/5
f 450/1/5 446/1/5 449/1/5
f 455/1/5 452/1/5 451/1/5
f 455/1/5 454/1/5 453/1/5
f 455/1/5 453/1/5 452/1/5
f 456/1/5 454/1/5 455/1/5
f 461/1/5 458/1/5 457/1/5
f 462/1/5 458/1/5 461/1/5
f 463/1/5 460/1/5 459/1/5
f 464/1/5 460/1/5 463/1/5
f 469/1/5 466/1/5 465/1/5
f 470/1/5 466/1/5 469/1/5
f 471/1/5 468/1/5 467/1/5
f 472/1/5 468/1/5 471/1/5
f 477/1/5 474/1/5 473/1/5
f 478/1/5 474/1/5 477/1/5
f 479/1/5 476/1/5 475/1/5
f 480/1/5 476/1/5 479/1/5
f 485/1/5 482/1/5 481/1/5
f 486/1/5 482/1/5 485/1/5
f 487/1/5 484/1/5 483/1/5
f 488/1/5 484/1/5 487/1/5
f 493/1/5 490/1/5 489/1/5
f 494/1/5 490/1/5 493/1/5
f 495/1/5 492/1/5 491/1/5
f 496/1/5 492/1/5 495/1/5
f 501/1/5 498/1/5 497/1/5
f 502/1/5 498/1/5 501/1/5
f 503/1/5 500/1/5 499/1/5
f 504/1/5 500/1/5 503/1/5
f 509/1/5 506/1/5 505/1/5
f 510/1/5 506/1/5 509/1/5
f 511/1/5 508/1/5 507/1/5
f 512/1/5 508/1/5 511/1/5
f 513/1/6 514/1/6 517/1/6
f 517/1/6 514/1/6 518/1/6
f 515/1/6 516/1/6 519/1/6
f 519/1/6 516/1/6 520/1/6
f 521/1/6 522/1/6 525/1/6
f 525/1/6 522/1/6 526/1/6
f 523/1/6 524/1/6 527/1/6
f 527/1/6 524/1/6 528/1/6
f 529/1/6 530/1/6 533/1/6
f 533/1/6 530/1/6 534/1/6
f 531/1/6 532/1/6 535/1/6
f 535/1/6 532/1/6 536/1/6
f 537/1/6 538/1/6 541/1/6
f 541/1/6 538/1/6 542/1/6
f 539/1/6 540/1/6 543/1/6
f 543/1/6 540/1/6 544/1/6
f 545/1/6 546/1/6 549/1/6
f 549/1/6 546/1/6 550/1/6
f 547/1/6 548/1/6 551/1/6
f 551/1/6 548/1/6 552/1/6
f 553/1/6 554/1/6 557/1/6
f 557/1/6 554/1/6 558/1/6
f 555/1/6 556/1/6 559/1/6
f 559/1/6 556/1/6 560/1/6
f 561/1/6 562/1/6 565/1/6
f 565/1/6 562/1/6 566/1/6
f 563/1/6 564/1/6 567/1/6
f 567/1/6 564/1/6 568/1/6
f 569/1/6 570/1/6 571/1/6
f 571/1/6 570/1/6 572/1/6
f 572/1/6 570/1/6 573/1/6
f 573/1/6 570/1/6 574/1/6
f 575/1/6 576/1/6 579/1/6
f 577/1/6 578/1/6 579/1/6
f 576/1/6 577/1/6 579/1/6
f 579/1/6 578/1/6 580/1/6
f 581/2/6 582/2/6 583/2/6
f 583/2/6 582/2/6 584/2/6
f 585/2/6 586/2/6 587/2/6
f 587/2/6 586/2/6 588/2/6
f 589/2/6 590/2/6 591/2/6
f 591/2/6 590/2/6 592/2/6
f 593/2/6 594/2/6 595/2/6
f 595/2/6 594/2/6 596/2/6
f 597/2/6 598/2/6 599/2/6
f 599/2/6 598/2/6 600/2/6
f 601/2/6 602/2/6 603/2/6
f 603/2/6 602/2/6 604/2/6
f 605/1/6 606/1/6 607/1/6
f 607/1/6 606/1/6 608/1/6
f 609/1/6 610/1/6 611/1/6
f 611/1/6 610/1/6 612/1/6
f 613/1/6 614/1/6 615/1/6
f 615/1/6 614/1/6 616/1/6
f 617/1/6 618/1/6 619/1/6
f 619/1/6 618/1/6 620/1/6
f 621/1/6 622/1/6 623/1/6
f 623/1/6 622/1/6 624/1/6
f 625/1/6 626/1/6 627/1/6
f 627/1/6 626/1/6 628/1/6
f 629/1/6 630/1/6 631/1/6
f 631/1/6 630/1/6 632/1/6
