# MagicaVoxel @ Ephtracy

# material
mtllib fly-body.mtl
usemtl palette

# normals
vn -1 0 0
vn 1 0 0
vn 0 0 1
vn 0 0 -1
vn 0 -1 0
vn 0 1 0

# texcoords
vt 0.970703 0.5

# verts
v -6 3 17.5
v -6 3 13.5
v -6 5 11.5
v -6 5 1.5
v -6 7 17.5
v -6 7 13.5
v -6 10 11.5
v -6 10 1.5
v -5 3 1.5
v -5 3 -8.5
v -5 5 1.5
v -5 8 1.5
v -5 8 -8.5
v -4 1 -8.5
v -4 1 -18.5
v -4 2 18.5
v -4 2 11.5
v -4 3 17.5
v -4 3 13.5
v -4 3 -8.5
v -4 5 11.5
v -4 6 -8.5
v -4 6 -18.5
v -4 7 17.5
v -4 7 13.5
v -4 8 18.5
v -4 8 11.5
v -3 8 12.5
v -3 8 11.5
v -3 10 11.5
v -3 10 10.5
v -3 11 12.5
v -3 11 10.5
v -1 0 -18.5
v -1 0 -19.5
v -1 1 19.5
v -1 1 18.5
v -1 1 -18.5
v -1 2 18.5
v -1 3 -18.5
v -1 3 -19.5
v -1 4 19.5
v -1 4 18.5
v 2 8 12.5
v 2 8 11.5
v 2 10 11.5
v 2 10 10.5
v 2 11 12.5
v 2 11 10.5
v -2 8 12.5
v -2 8 11.5
v -2 10 11.5
v -2 10 10.5
v -2 11 12.5
v -2 11 10.5
v 1 0 -18.5
v 1 0 -19.5
v 1 1 19.5
v 1 1 18.5
v 1 1 -18.5
v 1 2 18.5
v 1 3 -18.5
v 1 3 -19.5
v 1 4 19.5
v 1 4 18.5
v 3 8 12.5
v 3 8 11.5
v 3 10 11.5
v 3 10 10.5
v 3 11 12.5
v 3 11 10.5
v 4 1 -8.5
v 4 1 -18.5
v 4 2 18.5
v 4 2 11.5
v 4 3 17.5
v 4 3 13.5
v 4 3 -8.5
v 4 5 11.5
v 4 6 -8.5
v 4 6 -18.5
v 4 7 17.5
v 4 7 13.5
v 4 8 18.5
v 4 8 11.5
v 5 3 1.5
v 5 3 -8.5
v 5 5 1.5
v 5 8 1.5
v 5 8 -8.5
v 6 3 17.5
v 6 3 13.5
v 6 5 11.5
v 6 5 1.5
v 6 7 17.5
v 6 7 13.5
v 6 10 11.5
v 6 10 1.5
v -1 1 19.5
v -1 4 19.5
v 1 1 19.5
v 1 4 19.5
v -4 2 18.5
v -4 8 18.5
v -1 2 18.5
v -1 4 18.5
v 1 2 18.5
v 1 4 18.5
v 4 2 18.5
v 4 8 18.5
v -6 3 17.5
v -6 7 17.5
v -4 3 17.5
v -4 7 17.5
v 4 3 17.5
v 4 7 17.5
v 6 3 17.5
v 6 7 17.5
v -3 8 12.5
v -3 11 12.5
v -2 8 12.5
v -2 11 12.5
v 2 8 12.5
v 2 11 12.5
v 3 8 12.5
v 3 11 12.5
v -6 5 11.5
v -6 10 11.5
v -4 5 11.5
v -4 8 11.5
v -3 8 11.5
v -3 10 11.5
v -2 8 11.5
v -2 10 11.5
v 2 8 11.5
v 2 10 11.5
v 3 8 11.5
v 3 10 11.5
v 4 5 11.5
v 4 8 11.5
v 6 5 11.5
v 6 10 11.5
v -5 3 1.5
v -5 5 1.5
v 5 3 1.5
v 5 5 1.5
v -4 1 -8.5
v -4 3 -8.5
v 4 1 -8.5
v 4 3 -8.5
v -1 0 -18.5
v -1 1 -18.5
v 1 0 -18.5
v 1 1 -18.5
v -1 1 18.5
v -1 2 18.5
v 1 1 18.5
v 1 2 18.5
v -6 3 13.5
v -6 7 13.5
v -4 3 13.5
v -4 7 13.5
v 4 3 13.5
v 4 7 13.5
v 6 3 13.5
v 6 7 13.5
v -4 2 11.5
v -4 5 11.5
v 4 2 11.5
v 4 5 11.5
v -3 10 10.5
v -3 11 10.5
v -2 10 10.5
v -2 11 10.5
v 2 10 10.5
v 2 11 10.5
v 3 10 10.5
v 3 11 10.5
v -6 5 1.5
v -6 10 1.5
v -5 5 1.5
v -5 8 1.5
v 5 5 1.5
v 5 8 1.5
v 6 5 1.5
v 6 10 1.5
v -5 3 -8.5
v -5 8 -8.5
v -4 3 -8.5
v -4 6 -8.5
v 4 3 -8.5
v 4 6 -8.5
v 5 3 -8.5
v 5 8 -8.5
v -4 1 -18.5
v -4 6 -18.5
v -1 1 -18.5
v -1 3 -18.5
v 1 1 -18.5
v 1 3 -18.5
v 4 1 -18.5
v 4 6 -18.5
v -1 0 -19.5
v -1 3 -19.5
v 1 0 -19.5
v 1 3 -19.5
v -1 0 -18.5
v 1 0 -18.5
v -1 0 -19.5
v 1 0 -19.5
v -1 1 19.5
v 1 1 19.5
v -1 1 18.5
v 1 1 18.5
v -4 1 -8.5
v 4 1 -8.5
v -4 1 -18.5
v -1 1 -18.5
v 1 1 -18.5
v 4 1 -18.5
v -4 2 18.5
v -1 2 18.5
v 1 2 18.5
v 4 2 18.5
v -4 2 11.5
v 4 2 11.5
v -6 3 17.5
v -4 3 17.5
v 4 3 17.5
v 6 3 17.5
v -6 3 13.5
v -4 3 13.5
v 4 3 13.5
v 6 3 13.5
v -5 3 1.5
v 5 3 1.5
v -5 3 -8.5
v -4 3 -8.5
v 4 3 -8.5
v 5 3 -8.5
v -6 5 11.5
v -4 5 11.5
v 4 5 11.5
v 6 5 11.5
v -6 5 1.5
v -5 5 1.5
v 5 5 1.5
v 6 5 1.5
v -1 3 -18.5
v 1 3 -18.5
v -1 3 -19.5
v 1 3 -19.5
v -1 4 19.5
v 1 4 19.5
v -1 4 18.5
v 1 4 18.5
v -4 6 -8.5
v 4 6 -8.5
v -4 6 -18.5
v 4 6 -18.5
v -6 7 17.5
v -4 7 17.5
v 4 7 17.5
v 6 7 17.5
v -6 7 13.5
v -4 7 13.5
v 4 7 13.5
v 6 7 13.5
v -4 8 18.5
v 4 8 18.5
v -3 8 12.5
v -2 8 12.5
v 2 8 12.5
v 3 8 12.5
v -4 8 11.5
v -3 8 11.5
v -2 8 11.5
v 2 8 11.5
v 3 8 11.5
v 4 8 11.5
v -5 8 1.5
v 5 8 1.5
v -5 8 -8.5
v 5 8 -8.5
v -6 10 11.5
v -3 10 11.5
v -2 10 11.5
v 2 10 11.5
v 3 10 11.5
v 6 10 11.5
v -3 10 10.5
v -2 10 10.5
v 2 10 10.5
v 3 10 10.5
v -6 10 1.5
v 6 10 1.5
v -3 11 12.5
v -2 11 12.5
v 2 11 12.5
v 3 11 12.5
v -3 11 10.5
v -2 11 10.5
v 2 11 10.5
v 3 11 10.5

# faces
f 5/1/1 2/1/1 1/1/1
f 6/1/1 2/1/1 5/1/1
f 7/1/1 4/1/1 3/1/1
f 8/1/1 4/1/1 7/1/1
f 11/1/1 10/1/1 9/1/1
f 12/1/1 10/1/1 11/1/1
f 13/1/1 10/1/1 12/1/1
f 18/1/1 17/1/1 16/1/1
f 19/1/1 17/1/1 18/1/1
f 20/1/1 15/1/1 14/1/1
f 21/1/1 17/1/1 19/1/1
f 22/1/1 15/1/1 20/1/1
f 23/1/1 15/1/1 22/1/1
f 24/1/1 18/1/1 16/1/1
f 25/1/1 21/1/1 19/1/1
f 26/1/1 24/1/1 16/1/1
f 26/1/1 25/1/1 24/1/1
f 27/1/1 21/1/1 25/1/1
f 27/1/1 25/1/1 26/1/1
f 30/1/1 29/1/1 28/1/1
f 32/1/1 30/1/1 28/1/1
f 32/1/1 31/1/1 30/1/1
f 33/1/1 31/1/1 32/1/1
f 38/1/1 35/1/1 34/1/1
f 39/1/1 37/1/1 36/1/1
f 40/1/1 35/1/1 38/1/1
f 41/1/1 35/1/1 40/1/1
f 42/1/1 39/1/1 36/1/1
f 43/1/1 39/1/1 42/1/1
f 46/1/1 45/1/1 44/1/1
f 48/1/1 46/1/1 44/1/1
f 48/1/1 47/1/1 46/1/1
f 49/1/1 47/1/1 48/1/1
f 50/1/2 51/1/2 52/1/2
f 50/1/2 52/1/2 54/1/2
f 52/1/2 53/1/2 54/1/2
f 54/1/2 53/1/2 55/1/2
f 56/1/2 57/1/2 60/1/2
f 58/1/2 59/1/2 61/1/2
f 60/1/2 57/1/2 62/1/2
f 62/1/2 57/1/2 63/1/2
f 58/1/2 61/1/2 64/1/2
f 64/1/2 61/1/2 65/1/2
f 66/1/2 67/1/2 68/1/2
f 66/1/2 68/1/2 70/1/2
f 68/1/2 69/1/2 70/1/2
f 70/1/2 69/1/2 71/1/2
f 74/1/2 75/1/2 76/1/2
f 76/1/2 75/1/2 77/1/2
f 72/1/2 73/1/2 78/1/2
f 77/1/2 75/1/2 79/1/2
f 78/1/2 73/1/2 80/1/2
f 80/1/2 73/1/2 81/1/2
f 74/1/2 76/1/2 82/1/2
f 77/1/2 79/1/2 83/1/2
f 74/1/2 82/1/2 84/1/2
f 82/1/2 83/1/2 84/1/2
f 83/1/2 79/1/2 85/1/2
f 84/1/2 83/1/2 85/1/2
f 86/1/2 87/1/2 88/1/2
f 88/1/2 87/1/2 89/1/2
f 89/1/2 87/1/2 90/1/2
f 91/1/2 92/1/2 95/1/2
f 95/1/2 92/1/2 96/1/2
f 93/1/2 94/1/2 97/1/2
f 97/1/2 94/1/2 98/1/2
f 101/1/3 100/1/3 99/1/3
f 102/1/3 100/1/3 101/1/3
f 105/1/3 104/1/3 103/1/3
f 106/1/3 104/1/3 105/1/3
f 108/1/3 104/1/3 106/1/3
f 109/1/3 108/1/3 107/1/3
f 110/1/3 104/1/3 108/1/3
f 110/1/3 108/1/3 109/1/3
f 113/1/3 112/1/3 111/1/3
f 114/1/3 112/1/3 113/1/3
f 117/1/3 116/1/3 115/1/3
f 118/1/3 116/1/3 117/1/3
f 121/1/3 120/1/3 119/1/3
f 122/1/3 120/1/3 121/1/3
f 125/1/3 124/1/3 123/1/3
f 126/1/3 124/1/3 125/1/3
f 129/1/3 128/1/3 127/1/3
f 130/1/3 128/1/3 129/1/3
f 131/1/3 128/1/3 130/1/3
f 132/1/3 128/1/3 131/1/3
f 135/1/3 134/1/3 133/1/3
f 136/1/3 134/1/3 135/1/3
f 140/1/3 138/1/3 137/1/3
f 141/1/3 140/1/3 139/1/3
f 142/1/3 138/1/3 140/1/3
f 142/1/3 140/1/3 141/1/3
f 145/1/3 144/1/3 143/1/3
f 146/1/3 144/1/3 145/1/3
f 149/1/3 148/1/3 147/1/3
f 150/1/3 148/1/3 149/1/3
f 153/1/3 152/1/3 151/1/3
f 154/1/3 152/1/3 153/1/3
f 155/1/4 156/1/4 157/1/4
f 157/1/4 156/1/4 158/1/4
f 159/1/4 160/1/4 161/1/4
f 161/1/4 160/1/4 162/1/4
f 163/1/4 164/1/4 165/1/4
f 165/1/4 164/1/4 166/1/4
f 167/1/4 168/1/4 169/1/4
f 169/1/4 168/1/4 170/1/4
f 171/1/4 172/1/4 173/1/4
f 173/1/4 172/1/4 174/1/4
f 175/1/4 176/1/4 177/1/4
f 177/1/4 176/1/4 178/1/4
f 179/1/4 180/1/4 181/1/4
f 181/1/4 180/1/4 182/1/4
f 182/1/4 180/1/4 184/1/4
f 183/1/4 184/1/4 185/1/4
f 184/1/4 180/1/4 186/1/4
f 185/1/4 184/1/4 186/1/4
f 187/1/4 188/1/4 189/1/4
f 189/1/4 188/1/4 190/1/4
f 190/1/4 188/1/4 192/1/4
f 191/1/4 192/1/4 193/1/4
f 192/1/4 188/1/4 194/1/4
f 193/1/4 192/1/4 194/1/4
f 195/1/4 196/1/4 197/1/4
f 197/1/4 196/1/4 198/1/4
f 198/1/4 196/1/4 200/1/4
f 199/1/4 200/1/4 201/1/4
f 200/1/4 196/1/4 202/1/4
f 201/1/4 200/1/4 202/1/4
f 203/1/4 204/1/4 205/1/4
f 205/1/4 204/1/4 206/1/4
f 209/1/5 208/1/5 207/1/5
f 210/1/5 208/1/5 209/1/5
f 213/1/5 212/1/5 211/1/5
f 214/1/5 212/1/5 213/1/5
f 217/1/5 216/1/5 215/1/5
f 218/1/5 216/1/5 217/1/5
f 219/1/5 216/1/5 218/1/5
f 220/1/5 216/1/5 219/1/5
f 225/1/5 222/1/5 221/1/5
f 225/1/5 224/1/5 223/1/5
f 225/1/5 223/1/5 222/1/5
f 226/1/5 224/1/5 225/1/5
f 231/1/5 228/1/5 227/1/5
f 232/1/5 228/1/5 231/1/5
f 233/1/5 230/1/5 229/1/5
f 234/1/5 230/1/5 233/1/5
f 237/1/5 236/1/5 235/1/5
f 238/1/5 236/1/5 237/1/5
f 239/1/5 236/1/5 238/1/5
f 240/1/5 236/1/5 239/1/5
f 245/1/5 242/1/5 241/1/5
f 245/1/5 244/1/5 243/1/5
f 245/1/5 243/1/5 242/1/5
f 246/1/5 244/1/5 245/1/5
f 247/1/5 244/1/5 246/1/5
f 248/1/5 244/1/5 247/1/5
f 249/1/6 250/1/6 251/1/6
f 251/1/6 250/1/6 252/1/6
f 253/1/6 254/1/6 255/1/6
f 255/1/6 254/1/6 256/1/6
f 257/1/6 258/1/6 259/1/6
f 259/1/6 258/1/6 260/1/6
f 261/1/6 262/1/6 265/1/6
f 265/1/6 262/1/6 266/1/6
f 263/1/6 264/1/6 267/1/6
f 267/1/6 264/1/6 268/1/6
f 269/1/6 270/1/6 271/1/6
f 271/1/6 270/1/6 272/1/6
f 272/1/6 270/1/6 273/1/6
f 273/1/6 270/1/6 274/1/6
f 269/1/6 271/1/6 275/1/6
f 275/1/6 271/1/6 276/1/6
f 272/1/6 273/1/6 277/1/6
f 277/1/6 273/1/6 278/1/6
f 274/1/6 270/1/6 279/1/6
f 279/1/6 270/1/6 280/1/6
f 281/1/6 282/1/6 283/1/6
f 283/1/6 282/1/6 284/1/6
f 285/1/6 286/1/6 291/1/6
f 287/1/6 288/1/6 292/1/6
f 292/1/6 288/1/6 293/1/6
f 289/1/6 290/1/6 294/1/6
f 292/1/6 293/1/6 295/1/6
f 293/1/6 294/1/6 295/1/6
f 285/1/6 291/1/6 295/1/6
f 291/1/6 292/1/6 295/1/6
f 294/1/6 290/1/6 296/1/6
f 295/1/6 294/1/6 296/1/6
f 297/1/6 298/1/6 301/1/6
f 301/1/6 298/1/6 302/1/6
f 299/1/6 300/1/6 303/1/6
f 303/1/6 300/1/6 304/1/6
