# MagicaVoxel @ Ephtracy

# material
mtllib body-20.mtl
usemtl palette

# normals
vn -1 0 0
vn 1 0 0
vn 0 0 1
vn 0 0 -1
vn 0 -1 0
vn 0 1 0

# texcoords
vt 0.970703 0.5

# verts
v -8 2 30
v -8 2 25
v -8 2 23
v -8 2 21
v -8 2 19
v -8 2 11
v -8 2 9
v -8 2 1
v -8 2 -2
v -8 2 -7
v -8 2 -8
v -8 2 -9
v -8 4 30
v -8 4 29
v -8 4 19
v -8 4 11
v -8 5 29
v -8 5 28
v -8 5 27
v -8 5 25
v -8 5 23
v -8 5 22
v -8 5 8
v -8 5 6
v -8 5 -3
v -8 5 -5
v -8 6 28
v -8 6 27
v -8 6 22
v -8 6 21
v -8 6 9
v -8 6 8
v -8 6 6
v -8 6 1
v -8 6 -2
v -8 6 -3
v -8 6 -5
v -8 6 -7
v -8 6 -8
v -8 6 -9
v -7 2 25
v -7 2 23
v -7 2 21
v -7 2 19
v -7 2 11
v -7 2 9
v -7 2 1
v -7 2 -2
v -7 2 -7
v -7 2 -8
v -7 2 -9
v -7 2 -34
v -7 4 30
v -7 4 29
v -7 4 19
v -7 4 11
v -7 4 -11
v -7 4 -33
v -7 5 30
v -7 5 29
v -7 5 28
v -7 5 27
v -7 5 25
v -7 5 23
v -7 5 22
v -7 5 21
v -7 5 19
v -7 5 11
v -7 5 9
v -7 5 1
v -7 5 -1
v -7 5 -9
v -7 5 -11
v -7 5 -33
v -7 5 -34
v -7 6 29
v -7 6 28
v -7 6 27
v -7 6 22
v -7 6 19
v -7 6 11
v -7 6 -1
v -7 6 -2
v -7 6 -7
v -7 6 -8
v -6 4 -11
v -6 4 -15
v -6 4 -16
v -6 4 -23
v -6 4 -25
v -6 4 -33
v -6 5 30
v -6 5 29
v -6 5 -3
v -6 5 -5
v -6 5 -11
v -6 5 -15
v -6 5 -16
v -6 5 -23
v -6 5 -25
v -6 5 -33
v -6 6 30
v -6 6 29
v -6 6 -3
v -6 6 -5
v -4 4 -15
v -4 4 -16
v -4 4 -23
v -4 4 -25
v -4 5 33
v -4 5 31
v -4 5 2
v -4 5 1
v -4 5 -15
v -4 5 -16
v -4 5 -23
v -4 5 -25
v -4 6 2
v -4 6 1
v -4 7 33
v -4 7 31
v -3 2 34
v -3 2 31
v -3 5 33
v -3 5 31
v -3 5 25
v -3 5 22
v -3 6 34
v -3 6 33
v -3 6 25
v -3 6 22
v -2 2 31
v -2 2 30
v -2 4 -17
v -2 4 -22
v -2 5 -17
v -2 5 -22
v -2 5 -24
v -2 5 -34
v -2 6 34
v -2 6 33
v -2 6 31
v -2 6 30
v -2 6 -24
v -2 6 -34
v -2 7 33
v -2 7 31
v -2 8 34
v -2 8 31
v -1 4 14
v -1 4 10
v -1 5 14
v -1 5 10
v -1 5 -11
v -1 5 -24
v -1 6 -11
v -1 6 -24
v 0 5 13
v 0 5 11
v 0 5 -2
v 0 5 -7
v 0 6 13
v 0 6 11
v 0 6 -2
v 0 6 -7
v 0 7 34
v 0 7 33
v 0 8 34
v 0 8 33
v 1 5 31
v 1 5 27
v 1 5 25
v 1 5 21
v 1 5 -25
v 1 5 -34
v 1 6 31
v 1 6 27
v 1 6 25
v 1 6 21
v 1 6 -25
v 1 6 -34
v 2 2 34
v 2 2 33
v 2 4 34
v 2 4 33
v 2 4 17
v 2 4 14
v 2 5 17
v 2 5 14
v 3 4 7
v 3 4 3
v 3 5 18
v 3 5 13
v 3 5 7
v 3 5 3
v 3 6 18
v 3 6 13
v 4 5 25
v 4 5 22
v 4 5 6
v 4 5 2
v 4 5 -4
v 4 5 -7
v 4 5 -8
v 4 5 -9
v 4 6 25
v 4 6 22
v 4 6 6
v 4 6 2
v 4 6 -4
v 4 6 -7
v 4 6 -8
v 4 6 -9
v 5 3 -15
v 5 3 -17
v 5 4 -15
v 5 4 -17
v 6 4 -11
v 6 4 -19
v 6 5 -4
v 6 5 -5
v 6 5 -11
v 6 5 -19
v 6 6 -4
v 6 6 -5
v -6 5 27
v -6 5 25
v -6 5 6
v -6 5 1
v -6 6 27
v -6 6 25
v -6 6 6
v -6 6 1
v -5 4 7
v -5 4 3
v -5 4 -17
v -5 4 -22
v -5 5 7
v -5 5 3
v -5 5 -2
v -5 5 -7
v -5 5 -17
v -5 5 -22
v -5 6 -2
v -5 6 -7
v -4 5 25
v -4 5 22
v -4 5 16
v -4 5 14
v -4 6 25
v -4 6 22
v -4 6 16
v -4 6 14
v -3 5 18
v -3 5 16
v -3 5 14
v -3 5 11
v -3 6 18
v -3 6 16
v -3 6 14
v -3 6 11
v -2 2 34
v -2 2 33
v -2 4 34
v -2 4 33
v -2 4 17
v -2 4 10
v -2 5 25
v -2 5 24
v -2 5 17
v -2 5 10
v -2 6 25
v -2 6 24
v -1 5 31
v -1 5 27
v -1 5 24
v -1 5 21
v -1 5 -25
v -1 5 -34
v -1 6 31
v -1 6 27
v -1 6 24
v -1 6 21
v -1 6 -25
v -1 6 -34
v -1 7 34
v -1 7 33
v -1 8 34
v -1 8 33
v 0 5 -16
v 0 5 -21
v 0 6 -16
v 0 6 -21
v 2 2 31
v 2 2 30
v 2 4 -11
v 2 4 -19
v 2 5 -4
v 2 5 -7
v 2 5 -8
v 2 5 -9
v 2 5 -11
v 2 5 -16
v 2 5 -19
v 2 5 -21
v 2 5 -34
v 2 6 34
v 2 6 33
v 2 6 31
v 2 6 30
v 2 6 -4
v 2 6 -7
v 2 6 -8
v 2 6 -9
v 2 6 -11
v 2 6 -16
v 2 6 -21
v 2 6 -34
v 2 7 34
v 2 7 33
v 3 2 34
v 3 2 31
v 3 3 -15
v 3 3 -17
v 3 4 -15
v 3 4 -17
v 3 5 34
v 3 5 31
v 3 5 25
v 3 5 22
v 3 6 25
v 3 6 22
v 4 5 34
v 4 5 31
v 4 6 34
v 4 6 33
v 4 7 34
v 4 7 33
v 4 8 34
v 4 8 31
v 5 5 -4
v 5 5 -5
v 5 6 -4
v 5 6 -5
v 6 2 30
v 6 2 29
v 6 2 20
v 6 2 19
v 6 4 -20
v 6 4 -31
v 6 5 20
v 6 5 19
v 6 5 -20
v 6 5 -31
v 6 6 30
v 6 6 29
v 7 2 29
v 7 2 27
v 7 2 21
v 7 2 20
v 7 2 19
v 7 2 18
v 7 2 16
v 7 2 14
v 7 2 11
v 7 2 9
v 7 2 1
v 7 2 -3
v 7 2 -9
v 7 2 -34
v 7 4 -20
v 7 4 -31
v 7 5 27
v 7 5 25
v 7 5 23
v 7 5 21
v 7 5 20
v 7 5 11
v 7 5 9
v 7 5 6
v 7 5 5
v 7 5 1
v 7 5 -1
v 7 5 -9
v 7 5 -20
v 7 5 -31
v 7 5 -34
v 7 6 29
v 7 6 27
v 7 6 25
v 7 6 23
v 7 6 19
v 7 6 18
v 7 6 16
v 7 6 14
v 7 6 6
v 7 6 5
v 7 6 -1
v 7 6 -3
v 8 2 27
v 8 2 21
v 8 2 18
v 8 2 16
v 8 2 14
v 8 2 11
v 8 2 9
v 8 2 1
v 8 2 -3
v 8 2 -9
v 8 5 27
v 8 5 23
v 8 5 8
v 8 5 5
v 8 6 23
v 8 6 21
v 8 6 18
v 8 6 16
v 8 6 14
v 8 6 11
v 8 6 9
v 8 6 8
v 8 6 5
v 8 6 1
v 8 6 -3
v 8 6 -9
v -3 2 34
v -3 6 34
v -2 2 34
v -2 4 34
v -2 6 34
v -2 8 34
v -1 7 34
v -1 8 34
v 0 7 34
v 0 8 34
v 2 2 34
v 2 4 34
v 2 6 34
v 2 7 34
v 3 2 34
v 3 5 34
v 4 5 34
v 4 6 34
v 4 7 34
v 4 8 34
v -4 5 33
v -4 7 33
v -3 5 33
v -3 6 33
v -2 2 33
v -2 4 33
v -2 6 33
v -2 7 33
v -1 7 33
v -1 8 33
v 0 7 33
v 0 8 33
v 2 2 33
v 2 4 33
v 2 6 33
v 2 7 33
v 4 6 33
v 4 7 33
v -8 2 30
v -8 4 30
v -7 4 30
v -7 5 30
v -6 5 30
v -6 6 30
v -2 2 30
v -2 6 30
v 2 2 30
v 2 6 30
v 6 2 30
v 6 6 30
v -8 4 29
v -8 5 29
v -7 4 29
v -7 5 29
v -7 6 29
v -6 5 29
v -6 6 29
v 6 2 29
v 6 6 29
v 7 2 29
v 7 6 29
v -8 5 28
v -8 6 28
v -7 5 28
v -7 6 28
v 7 2 27
v 7 5 27
v 8 2 27
v 8 5 27
v -6 5 25
v -6 6 25
v -4 5 25
v -4 6 25
v -3 5 25
v -3 6 25
v -2 5 25
v -2 6 25
v 1 5 25
v 1 6 25
v 3 5 25
v 3 6 25
v 4 5 25
v 4 6 25
v 7 5 25
v 7 6 25
v -2 5 24
v -2 6 24
v -1 5 24
v -1 6 24
v -8 2 23
v -8 5 23
v -7 2 23
v -7 5 23
v 7 5 23
v 7 6 23
v 8 5 23
v 8 6 23
v -8 5 22
v -8 6 22
v -7 5 22
v -7 6 22
v -4 5 22
v -4 6 22
v -3 5 22
v -3 6 22
v 3 5 22
v 3 6 22
v 4 5 22
v 4 6 22
v -8 2 19
v -8 4 19
v -7 2 19
v -7 4 19
v -7 5 19
v -7 6 19
v 6 2 19
v 6 5 19
v 7 2 19
v 7 6 19
v 7 2 18
v 7 6 18
v 8 2 18
v 8 6 18
v -4 5 14
v -4 6 14
v -3 5 14
v -3 6 14
v -1 4 14
v -1 5 14
v 2 4 14
v 2 5 14
v 7 2 14
v 7 6 14
v 8 2 14
v 8 6 14
v 0 5 13
v 0 6 13
v 3 5 13
v 3 6 13
v -2 4 10
v -2 5 10
v -1 4 10
v -1 5 10
v -8 2 9
v -8 6 9
v -7 2 9
v -7 5 9
v 7 2 9
v 7 5 9
v 8 2 9
v 8 6 9
v -8 5 6
v -8 6 6
v -6 5 6
v -6 6 6
v 4 5 6
v 4 6 6
v 7 5 6
v 7 6 6
v 7 5 5
v 7 6 5
v 8 5 5
v 8 6 5
v -5 4 3
v -5 5 3
v 3 4 3
v 3 5 3
v -4 5 2
v -4 6 2
v 4 5 2
v 4 6 2
v -7 5 -1
v -7 6 -1
v 7 5 -1
v 7 6 -1
v -8 2 -2
v -8 6 -2
v -7 2 -2
v -7 6 -2
v 7 2 -3
v 7 6 -3
v 8 2 -3
v 8 6 -3
v -8 5 -5
v -8 6 -5
v -6 5 -5
v -6 6 -5
v 5 5 -5
v 5 6 -5
v 6 5 -5
v 6 6 -5
v -5 5 -7
v -5 6 -7
v 0 5 -7
v 0 6 -7
v 2 5 -7
v 2 6 -7
v 4 5 -7
v 4 6 -7
v -8 2 -8
v -8 6 -8
v -7 2 -8
v -7 6 -8
v -1 5 -11
v -1 6 -11
v 2 5 -11
v 2 6 -11
v -6 4 -16
v -6 5 -16
v -4 4 -16
v -4 5 -16
v 3 3 -17
v 3 4 -17
v 5 3 -17
v 5 4 -17
v 2 4 -19
v 2 5 -19
v 6 4 -19
v 6 5 -19
v 0 5 -21
v 0 6 -21
v 2 5 -21
v 2 6 -21
v -5 4 -22
v -5 5 -22
v -2 4 -22
v -2 5 -22
v -2 5 -24
v -2 6 -24
v -1 5 -24
v -1 6 -24
v -6 4 -25
v -6 5 -25
v -4 4 -25
v -4 5 -25
v 6 4 -31
v 6 5 -31
v 7 4 -31
v 7 5 -31
v -7 4 -33
v -7 5 -33
v -6 4 -33
v -6 5 -33
v -4 5 31
v -4 7 31
v -3 2 31
v -3 5 31
v -2 2 31
v -2 6 31
v -2 7 31
v -2 8 31
v -1 5 31
v -1 6 31
v 1 5 31
v 1 6 31
v 2 2 31
v 2 6 31
v 3 2 31
v 3 5 31
v 4 5 31
v 4 8 31
v -8 5 27
v -8 6 27
v -7 5 27
v -7 6 27
v -6 5 27
v -6 6 27
v -1 5 27
v -1 6 27
v 1 5 27
v 1 6 27
v 7 5 27
v 7 6 27
v -8 2 25
v -8 5 25
v -7 2 25
v -7 5 25
v -8 2 21
v -8 6 21
v -7 2 21
v -7 5 21
v -1 5 21
v -1 6 21
v 1 5 21
v 1 6 21
v 7 2 21
v 7 5 21
v 8 2 21
v 8 6 21
v 6 2 20
v 6 5 20
v 7 2 20
v 7 5 20
v -3 5 18
v -3 6 18
v 3 5 18
v 3 6 18
v -2 4 17
v -2 5 17
v 2 4 17
v 2 5 17
v -4 5 16
v -4 6 16
v -3 5 16
v -3 6 16
v 7 2 16
v 7 6 16
v 8 2 16
v 8 6 16
v -8 2 11
v -8 4 11
v -7 2 11
v -7 4 11
v -7 5 11
v -7 6 11
v -3 5 11
v -3 6 11
v 0 5 11
v 0 6 11
v 7 2 11
v 7 5 11
v 8 2 11
v 8 6 11
v -8 5 8
v -8 6 8
v 8 5 8
v 8 6 8
v -5 4 7
v -5 5 7
v 3 4 7
v 3 5 7
v -8 2 1
v -8 6 1
v -7 2 1
v -7 5 1
v -6 5 1
v -6 6 1
v -4 5 1
v -4 6 1
v 7 2 1
v 7 5 1
v 8 2 1
v 8 6 1
v -5 5 -2
v -5 6 -2
v 0 5 -2
v 0 6 -2
v -8 5 -3
v -8 6 -3
v -6 5 -3
v -6 6 -3
v 2 5 -4
v 2 6 -4
v 4 5 -4
v 4 6 -4
v 5 5 -4
v 5 6 -4
v 6 5 -4
v 6 6 -4
v -8 2 -7
v -8 6 -7
v -7 2 -7
v -7 6 -7
v 2 5 -8
v 2 6 -8
v 4 5 -8
v 4 6 -8
v -8 2 -9
v -8 6 -9
v -7 2 -9
v -7 5 -9
v 2 5 -9
v 2 6 -9
v 4 5 -9
v 4 6 -9
v 7 2 -9
v 7 5 -9
v 8 2 -9
v 8 6 -9
v -7 4 -11
v -7 5 -11
v -6 4 -11
v -6 5 -11
v 2 4 -11
v 2 5 -11
v 6 4 -11
v 6 5 -11
v -6 4 -15
v -6 5 -15
v -4 4 -15
v -4 5 -15
v 3 3 -15
v 3 4 -15
v 5 3 -15
v 5 4 -15
v 0 5 -16
v 0 6 -16
v 2 5 -16
v 2 6 -16
v -5 4 -17
v -5 5 -17
v -2 4 -17
v -2 5 -17
v 6 4 -20
v 6 5 -20
v 7 4 -20
v 7 5 -20
v -6 4 -23
v -6 5 -23
v -4 4 -23
v -4 5 -23
v -1 5 -25
v -1 6 -25
v 1 5 -25
v 1 6 -25
v -7 2 -34
v -7 5 -34
v -2 5 -34
v -2 6 -34
v -1 5 -34
v -1 6 -34
v 1 5 -34
v 1 6 -34
v 2 5 -34
v 2 6 -34
v 7 2 -34
v 7 5 -34
v -3 2 34
v -2 2 34
v 2 2 34
v 3 2 34
v -2 2 33
v 2 2 33
v -3 2 31
v -2 2 31
v 2 2 31
v 3 2 31
v -8 2 30
v -2 2 30
v 2 2 30
v 6 2 30
v 6 2 29
v 7 2 29
v 7 2 27
v 8 2 27
v -8 2 25
v -7 2 25
v -8 2 23
v -7 2 23
v -8 2 21
v -7 2 21
v 7 2 21
v 8 2 21
v 6 2 20
v 7 2 20
v -8 2 19
v -7 2 19
v 6 2 19
v 7 2 19
v 7 2 18
v 8 2 18
v 7 2 16
v 8 2 16
v 7 2 14
v 8 2 14
v -8 2 11
v -7 2 11
v 7 2 11
v 8 2 11
v -8 2 9
v -7 2 9
v 7 2 9
v 8 2 9
v -8 2 1
v -7 2 1
v 7 2 1
v 8 2 1
v -8 2 -2
v -7 2 -2
v 7 2 -3
v 8 2 -3
v -8 2 -7
v -7 2 -7
v -8 2 -8
v -7 2 -8
v -8 2 -9
v -7 2 -9
v 7 2 -9
v 8 2 -9
v -7 2 -34
v 7 2 -34
v -2 4 34
v 2 4 34
v -2 4 33
v 2 4 33
v 3 5 34
v 4 5 34
v -4 5 33
v -3 5 33
v -4 5 31
v -3 5 31
v 3 5 31
v 4 5 31
v 2 7 34
v 4 7 34
v 2 7 33
v 4 7 33
v 3 3 -15
v 5 3 -15
v 3 3 -17
v 5 3 -17
v -8 4 30
v -7 4 30
v -8 4 29
v -7 4 29
v -8 4 19
v -7 4 19
v -2 4 17
v 2 4 17
v -1 4 14
v 2 4 14
v -8 4 11
v -7 4 11
v -2 4 10
v -1 4 10
v -5 4 7
v 3 4 7
v -5 4 3
v 3 4 3
v -7 4 -11
v -6 4 -11
v 2 4 -11
v 6 4 -11
v -6 4 -15
v -4 4 -15
v 3 4 -15
v 5 4 -15
v -6 4 -16
v -4 4 -16
v -5 4 -17
v -2 4 -17
v 3 4 -17
v 5 4 -17
v 2 4 -19
v 6 4 -19
v 6 4 -20
v 7 4 -20
v -5 4 -22
v -2 4 -22
v -6 4 -23
v -4 4 -23
v -6 4 -25
v -4 4 -25
v 6 4 -31
v 7 4 -31
v -7 4 -33
v -6 4 -33
v -1 5 31
v 1 5 31
v -7 5 30
v -6 5 30
v -8 5 29
v -7 5 29
v -6 5 29
v -8 5 28
v -7 5 28
v -8 5 27
v -7 5 27
v -6 5 27
v -1 5 27
v 1 5 27
v 7 5 27
v 8 5 27
v -8 5 25
v -7 5 25
v -6 5 25
v -4 5 25
v -3 5 25
v -2 5 25
v 1 5 25
v 3 5 25
v 4 5 25
v 7 5 25
v -2 5 24
v -1 5 24
v -8 5 23
v -7 5 23
v 7 5 23
v 8 5 23
v -8 5 22
v -7 5 22
v -4 5 22
v -3 5 22
v 3 5 22
v 4 5 22
v -7 5 21
v -1 5 21
v 1 5 21
v 7 5 21
v 6 5 20
v 7 5 20
v -7 5 19
v 6 5 19
v -3 5 18
v 3 5 18
v -2 5 17
v 2 5 17
v -4 5 16
v -3 5 16
v -4 5 14
v -3 5 14
v -1 5 14
v 2 5 14
v 0 5 13
v 3 5 13
v -7 5 11
v -3 5 11
v 0 5 11
v 7 5 11
v -2 5 10
v -1 5 10
v -7 5 9
v 7 5 9
v -8 5 8
v 8 5 8
v -5 5 7
v 3 5 7
v -8 5 6
v -6 5 6
v 4 5 6
v 7 5 6
v 7 5 5
v 8 5 5
v -5 5 3
v 3 5 3
v -4 5 2
v 4 5 2
v -7 5 1
v -6 5 1
v -4 5 1
v 7 5 1
v -7 5 -1
v 7 5 -1
v -5 5 -2
v 0 5 -2
v -8 5 -3
v -6 5 -3
v 2 5 -4
v 4 5 -4
v 5 5 -4
v 6 5 -4
v -8 5 -5
v -6 5 -5
v 5 5 -5
v 6 5 -5
v -5 5 -7
v 0 5 -7
v 2 5 -7
v 4 5 -7
v 2 5 -8
v 4 5 -8
v -7 5 -9
v 2 5 -9
v 4 5 -9
v 7 5 -9
v -7 5 -11
v -6 5 -11
v -1 5 -11
v 2 5 -11
v 6 5 -11
v -6 5 -15
v -4 5 -15
v -6 5 -16
v -4 5 -16
v 0 5 -16
v 2 5 -16
v -5 5 -17
v -2 5 -17
v 2 5 -19
v 6 5 -19
v 6 5 -20
v 7 5 -20
v 0 5 -21
v 2 5 -21
v -5 5 -22
v -2 5 -22
v -6 5 -23
v -4 5 -23
v -2 5 -24
v -1 5 -24
v -6 5 -25
v -4 5 -25
v -1 5 -25
v 1 5 -25
v 6 5 -31
v 7 5 -31
v -7 5 -33
v -6 5 -33
v -7 5 -34
v -2 5 -34
v -1 5 -34
v 1 5 -34
v 2 5 -34
v 7 5 -34
v -3 6 34
v -2 6 34
v 2 6 34
v 4 6 34
v -3 6 33
v -2 6 33
v 2 6 33
v 4 6 33
v -2 6 31
v -1 6 31
v 1 6 31
v 2 6 31
v -6 6 30
v -2 6 30
v 2 6 30
v 6 6 30
v -7 6 29
v -6 6 29
v 6 6 29
v 7 6 29
v -8 6 28
v -7 6 28
v -8 6 27
v -7 6 27
v -6 6 27
v -1 6 27
v 1 6 27
v 7 6 27
v -6 6 25
v -4 6 25
v -3 6 25
v -2 6 25
v 1 6 25
v 3 6 25
v 4 6 25
v 7 6 25
v -2 6 24
v -1 6 24
v 7 6 23
v 8 6 23
v -8 6 22
v -7 6 22
v -4 6 22
v -3 6 22
v 3 6 22
v 4 6 22
v -8 6 21
v -1 6 21
v 1 6 21
v 8 6 21
v -7 6 19
v 7 6 19
v -3 6 18
v 3 6 18
v 7 6 18
v 8 6 18
v -4 6 16
v -3 6 16
v 7 6 16
v 8 6 16
v -4 6 14
v -3 6 14
v 7 6 14
v 8 6 14
v 0 6 13
v 3 6 13
v -7 6 11
v -3 6 11
v 0 6 11
v 8 6 11
v -8 6 9
v 8 6 9
v -8 6 8
v 8 6 8
v -8 6 6
v -6 6 6
v 4 6 6
v 7 6 6
v 7 6 5
v 8 6 5
v -4 6 2
v 4 6 2
v -8 6 1
v -6 6 1
v -4 6 1
v 8 6 1
v -7 6 -1
v 7 6 -1
v -8 6 -2
v -7 6 -2
v -5 6 -2
v 0 6 -2
v -8 6 -3
v -6 6 -3
v 7 6 -3
v 8 6 -3
v 2 6 -4
v 4 6 -4
v 5 6 -4
v 6 6 -4
v -8 6 -5
v -6 6 -5
v 5 6 -5
v 6 6 -5
v -8 6 -7
v -7 6 -7
v -5 6 -7
v 0 6 -7
v 2 6 -7
v 4 6 -7
v -8 6 -8
v -7 6 -8
v 2 6 -8
v 4 6 -8
v -8 6 -9
v 2 6 -9
v 4 6 -9
v 8 6 -9
v -1 6 -11
v 2 6 -11
v 0 6 -16
v 2 6 -16
v 0 6 -21
v 2 6 -21
v -2 6 -24
v -1 6 -24
v -1 6 -25
v 1 6 -25
v -2 6 -34
v -1 6 -34
v 1 6 -34
v 2 6 -34
v -1 7 34
v 0 7 34
v -4 7 33
v -2 7 33
v -1 7 33
v 0 7 33
v -4 7 31
v -2 7 31
v -2 8 34
v -1 8 34
v 0 8 34
v 4 8 34
v -1 8 33
v 0 8 33
v -2 8 31
v 4 8 31

# faces
f 13/1/1 2/1/1 1/1/1
f 14/1/1 2/1/1 13/1/1
f 15/1/1 6/1/1 5/1/1
f 16/1/1 6/1/1 15/1/1
f 17/1/1 2/1/1 14/1/1
f 18/1/1 2/1/1 17/1/1
f 19/1/1 2/1/1 18/1/1
f 20/1/1 2/1/1 19/1/1
f 21/1/1 4/1/1 3/1/1
f 22/1/1 4/1/1 21/1/1
f 23/1/1 8/1/1 7/1/1
f 24/1/1 8/1/1 23/1/1
f 25/1/1 10/1/1 9/1/1
f 26/1/1 10/1/1 25/1/1
f 27/1/1 19/1/1 18/1/1
f 28/1/1 19/1/1 27/1/1
f 29/1/1 4/1/1 22/1/1
f 30/1/1 4/1/1 29/1/1
f 31/1/1 23/1/1 7/1/1
f 32/1/1 23/1/1 31/1/1
f 33/1/1 8/1/1 24/1/1
f 34/1/1 8/1/1 33/1/1
f 35/1/1 25/1/1 9/1/1
f 36/1/1 25/1/1 35/1/1
f 37/1/1 10/1/1 26/1/1
f 38/1/1 10/1/1 37/1/1
f 39/1/1 12/1/1 11/1/1
f 40/1/1 12/1/1 39/1/1
f 55/1/1 44/1/1 43/1/1
f 56/1/1 46/1/1 45/1/1
f 57/1/1 52/1/1 51/1/1
f 58/1/1 52/1/1 57/1/1
f 59/1/1 54/1/1 53/1/1
f 60/1/1 54/1/1 59/1/1
f 63/1/1 42/1/1 41/1/1
f 64/1/1 42/1/1 63/1/1
f 66/1/1 55/1/1 43/1/1
f 66/1/1 56/1/1 55/1/1
f 67/1/1 56/1/1 66/1/1
f 68/1/1 46/1/1 56/1/1
f 68/1/1 56/1/1 67/1/1
f 69/1/1 46/1/1 68/1/1
f 70/1/1 48/1/1 47/1/1
f 71/1/1 48/1/1 70/1/1
f 72/1/1 57/1/1 51/1/1
f 73/1/1 57/1/1 72/1/1
f 74/1/1 52/1/1 58/1/1
f 75/1/1 52/1/1 74/1/1
f 76/1/1 61/1/1 60/1/1
f 77/1/1 61/1/1 76/1/1
f 78/1/1 65/1/1 64/1/1
f 78/1/1 64/1/1 63/1/1
f 78/1/1 63/1/1 62/1/1
f 79/1/1 65/1/1 78/1/1
f 80/1/1 68/1/1 67/1/1
f 81/1/1 68/1/1 80/1/1
f 82/1/1 48/1/1 71/1/1
f 83/1/1 48/1/1 82/1/1
f 84/1/1 50/1/1 49/1/1
f 85/1/1 50/1/1 84/1/1
f 96/1/1 87/1/1 86/1/1
f 97/1/1 87/1/1 96/1/1
f 98/1/1 89/1/1 88/1/1
f 99/1/1 89/1/1 98/1/1
f 100/1/1 91/1/1 90/1/1
f 101/1/1 91/1/1 100/1/1
f 102/1/1 93/1/1 92/1/1
f 103/1/1 93/1/1 102/1/1
f 104/1/1 95/1/1 94/1/1
f 105/1/1 95/1/1 104/1/1
f 114/1/1 107/1/1 106/1/1
f 115/1/1 107/1/1 114/1/1
f 116/1/1 109/1/1 108/1/1
f 117/1/1 109/1/1 116/1/1
f 118/1/1 113/1/1 112/1/1
f 119/1/1 113/1/1 118/1/1
f 120/1/1 111/1/1 110/1/1
f 121/1/1 111/1/1 120/1/1
f 124/1/1 123/1/1 122/1/1
f 125/1/1 123/1/1 124/1/1
f 128/1/1 124/1/1 122/1/1
f 129/1/1 124/1/1 128/1/1
f 130/1/1 127/1/1 126/1/1
f 131/1/1 127/1/1 130/1/1
f 136/1/1 135/1/1 134/1/1
f 137/1/1 135/1/1 136/1/1
f 142/1/1 133/1/1 132/1/1
f 143/1/1 133/1/1 142/1/1
f 144/1/1 139/1/1 138/1/1
f 145/1/1 139/1/1 144/1/1
f 146/1/1 141/1/1 140/1/1
f 148/1/1 146/1/1 140/1/1
f 148/1/1 147/1/1 146/1/1
f 149/1/1 147/1/1 148/1/1
f 152/1/1 151/1/1 150/1/1
f 153/1/1 151/1/1 152/1/1
f 156/1/1 155/1/1 154/1/1
f 157/1/1 155/1/1 156/1/1
f 162/1/1 159/1/1 158/1/1
f 163/1/1 159/1/1 162/1/1
f 164/1/1 161/1/1 160/1/1
f 165/1/1 161/1/1 164/1/1
f 168/1/1 167/1/1 166/1/1
f 169/1/1 167/1/1 168/1/1
f 176/1/1 171/1/1 170/1/1
f 177/1/1 171/1/1 176/1/1
f 178/1/1 173/1/1 172/1/1
f 179/1/1 173/1/1 178/1/1
f 180/1/1 175/1/1 174/1/1
f 181/1/1 175/1/1 180/1/1
f 184/1/1 183/1/1 182/1/1
f 185/1/1 183/1/1 184/1/1
f 188/1/1 187/1/1 186/1/1
f 189/1/1 187/1/1 188/1/1
f 194/1/1 191/1/1 190/1/1
f 195/1/1 191/1/1 194/1/1
f 196/1/1 193/1/1 192/1/1
f 197/1/1 193/1/1 196/1/1
f 206/1/1 199/1/1 198/1/1
f 207/1/1 199/1/1 206/1/1
f 208/1/1 201/1/1 200/1/1
f 209/1/1 201/1/1 208/1/1
f 210/1/1 203/1/1 202/1/1
f 211/1/1 203/1/1 210/1/1
f 212/1/1 205/1/1 204/1/1
f 213/1/1 205/1/1 212/1/1
f 216/1/1 215/1/1 214/1/1
f 217/1/1 215/1/1 216/1/1
f 222/1/1 219/1/1 218/1/1
f 223/1/1 219/1/1 222/1/1
f 224/1/1 221/1/1 220/1/1
f 225/1/1 221/1/1 224/1/1
f 226/1/2 227/1/2 230/1/2
f 230/1/2 227/1/2 231/1/2
f 228/1/2 229/1/2 232/1/2
f 232/1/2 229/1/2 233/1/2
f 234/1/2 235/1/2 238/1/2
f 238/1/2 235/1/2 239/1/2
f 236/1/2 237/1/2 242/1/2
f 242/1/2 237/1/2 243/1/2
f 240/1/2 241/1/2 244/1/2
f 244/1/2 241/1/2 245/1/2
f 246/1/2 247/1/2 250/1/2
f 250/1/2 247/1/2 251/1/2
f 248/1/2 249/1/2 252/1/2
f 252/1/2 249/1/2 253/1/2
f 254/1/2 255/1/2 258/1/2
f 258/1/2 255/1/2 259/1/2
f 256/1/2 257/1/2 260/1/2
f 260/1/2 257/1/2 261/1/2
f 262/1/2 263/1/2 264/1/2
f 264/1/2 263/1/2 265/1/2
f 266/1/2 267/1/2 270/1/2
f 270/1/2 267/1/2 271/1/2
f 268/1/2 269/1/2 272/1/2
f 272/1/2 269/1/2 273/1/2
f 274/1/2 275/1/2 280/1/2
f 280/1/2 275/1/2 281/1/2
f 276/1/2 277/1/2 282/1/2
f 282/1/2 277/1/2 283/1/2
f 278/1/2 279/1/2 284/1/2
f 284/1/2 279/1/2 285/1/2
f 286/1/2 287/1/2 288/1/2
f 288/1/2 287/1/2 289/1/2
f 290/1/2 291/1/2 292/1/2
f 292/1/2 291/1/2 293/1/2
f 296/1/2 297/1/2 302/1/2
f 302/1/2 297/1/2 303/1/2
f 303/1/2 297/1/2 304/1/2
f 294/1/2 295/1/2 309/1/2
f 309/1/2 295/1/2 310/1/2
f 298/1/2 299/1/2 311/1/2
f 311/1/2 299/1/2 312/1/2
f 300/1/2 301/1/2 313/1/2
f 313/1/2 301/1/2 314/1/2
f 302/1/2 303/1/2 315/1/2
f 315/1/2 303/1/2 316/1/2
f 305/1/2 306/1/2 317/1/2
f 317/1/2 306/1/2 318/1/2
f 307/1/2 308/1/2 319/1/2
f 319/1/2 308/1/2 320/1/2
f 323/1/2 324/1/2 325/1/2
f 325/1/2 324/1/2 326/1/2
f 321/1/2 322/1/2 327/1/2
f 327/1/2 322/1/2 328/1/2
f 329/1/2 330/1/2 331/1/2
f 331/1/2 330/1/2 332/1/2
f 333/1/2 334/1/2 335/1/2
f 335/1/2 334/1/2 336/1/2
f 336/1/2 334/1/2 338/1/2
f 337/1/2 338/1/2 339/1/2
f 338/1/2 334/1/2 340/1/2
f 339/1/2 338/1/2 340/1/2
f 341/1/2 342/1/2 343/1/2
f 343/1/2 342/1/2 344/1/2
f 347/1/2 348/1/2 351/1/2
f 351/1/2 348/1/2 352/1/2
f 349/1/2 350/1/2 353/1/2
f 353/1/2 350/1/2 354/1/2
f 345/1/2 346/1/2 355/1/2
f 355/1/2 346/1/2 356/1/2
f 369/1/2 370/1/2 371/1/2
f 371/1/2 370/1/2 372/1/2
f 357/1/2 358/1/2 373/1/2
f 359/1/2 360/1/2 376/1/2
f 376/1/2 360/1/2 377/1/2
f 365/1/2 366/1/2 378/1/2
f 378/1/2 366/1/2 379/1/2
f 367/1/2 368/1/2 382/1/2
f 382/1/2 368/1/2 383/1/2
f 369/1/2 371/1/2 384/1/2
f 384/1/2 371/1/2 385/1/2
f 372/1/2 370/1/2 386/1/2
f 386/1/2 370/1/2 387/1/2
f 357/1/2 373/1/2 388/1/2
f 388/1/2 373/1/2 389/1/2
f 374/1/2 375/1/2 390/1/2
f 390/1/2 375/1/2 391/1/2
f 361/1/2 362/1/2 392/1/2
f 392/1/2 362/1/2 393/1/2
f 363/1/2 364/1/2 394/1/2
f 394/1/2 364/1/2 395/1/2
f 380/1/2 381/1/2 396/1/2
f 396/1/2 381/1/2 397/1/2
f 383/1/2 368/1/2 398/1/2
f 398/1/2 368/1/2 399/1/2
f 400/1/2 401/1/2 410/1/2
f 410/1/2 401/1/2 411/1/2
f 406/1/2 407/1/2 412/1/2
f 412/1/2 407/1/2 413/1/2
f 411/1/2 401/1/2 414/1/2
f 414/1/2 401/1/2 415/1/2
f 402/1/2 403/1/2 416/1/2
f 416/1/2 403/1/2 417/1/2
f 404/1/2 405/1/2 418/1/2
f 418/1/2 405/1/2 419/1/2
f 406/1/2 412/1/2 420/1/2
f 420/1/2 412/1/2 421/1/2
f 413/1/2 407/1/2 422/1/2
f 422/1/2 407/1/2 423/1/2
f 408/1/2 409/1/2 424/1/2
f 424/1/2 409/1/2 425/1/2
f 428/1/3 427/1/3 426/1/3
f 429/1/3 427/1/3 428/1/3
f 430/1/3 427/1/3 429/1/3
f 432/1/3 431/1/3 430/1/3
f 432/1/3 430/1/3 429/1/3
f 433/1/3 431/1/3 432/1/3
f 434/1/3 432/1/3 429/1/3
f 437/1/3 434/1/3 429/1/3
f 437/1/3 435/1/3 434/1/3
f 438/1/3 435/1/3 437/1/3
f 439/1/3 435/1/3 438/1/3
f 440/1/3 437/1/3 436/1/3
f 440/1/3 438/1/3 437/1/3
f 441/1/3 438/1/3 440/1/3
f 442/1/3 438/1/3 441/1/3
f 443/1/3 438/1/3 442/1/3
f 444/1/3 435/1/3 439/1/3
f 445/1/3 435/1/3 444/1/3
f 448/1/3 447/1/3 446/1/3
f 449/1/3 447/1/3 448/1/3
f 452/1/3 447/1/3 449/1/3
f 453/1/3 447/1/3 452/1/3
f 456/1/3 455/1/3 454/1/3
f 457/1/3 455/1/3 456/1/3
f 458/1/3 451/1/3 450/1/3
f 459/1/3 451/1/3 458/1/3
f 462/1/3 461/1/3 460/1/3
f 463/1/3 461/1/3 462/1/3
f 466/1/3 465/1/3 464/1/3
f 468/1/3 467/1/3 466/1/3
f 470/1/3 466/1/3 464/1/3
f 470/1/3 469/1/3 468/1/3
f 470/1/3 468/1/3 466/1/3
f 471/1/3 469/1/3 470/1/3
f 474/1/3 473/1/3 472/1/3
f 475/1/3 473/1/3 474/1/3
f 478/1/3 477/1/3 476/1/3
f 479/1/3 477/1/3 478/1/3
f 481/1/3 480/1/3 479/1/3
f 482/1/3 480/1/3 481/1/3
f 485/1/3 484/1/3 483/1/3
f 486/1/3 484/1/3 485/1/3
f 489/1/3 488/1/3 487/1/3
f 490/1/3 488/1/3 489/1/3
f 493/1/3 492/1/3 491/1/3
f 494/1/3 492/1/3 493/1/3
f 497/1/3 496/1/3 495/1/3
f 498/1/3 496/1/3 497/1/3
f 501/1/3 500/1/3 499/1/3
f 502/1/3 500/1/3 501/1/3
f 505/1/3 504/1/3 503/1/3
f 506/1/3 504/1/3 505/1/3
f 509/1/3 508/1/3 507/1/3
f 510/1/3 508/1/3 509/1/3
f 513/1/3 512/1/3 511/1/3
f 514/1/3 512/1/3 513/1/3
f 517/1/3 516/1/3 515/1/3
f 518/1/3 516/1/3 517/1/3
f 521/1/3 520/1/3 519/1/3
f 522/1/3 520/1/3 521/1/3
f 525/1/3 524/1/3 523/1/3
f 526/1/3 524/1/3 525/1/3
f 529/1/3 528/1/3 527/1/3
f 530/1/3 528/1/3 529/1/3
f 533/1/3 532/1/3 531/1/3
f 534/1/3 532/1/3 533/1/3
f 537/1/3 536/1/3 535/1/3
f 538/1/3 536/1/3 537/1/3
f 542/1/3 540/1/3 539/1/3
f 543/1/3 542/1/3 541/1/3
f 544/1/3 540/1/3 542/1/3
f 544/1/3 542/1/3 543/1/3
f 547/1/3 546/1/3 545/1/3
f 548/1/3 546/1/3 547/1/3
f 551/1/3 550/1/3 549/1/3
f 552/1/3 550/1/3 551/1/3
f 555/1/3 554/1/3 553/1/3
f 556/1/3 554/1/3 555/1/3
f 559/1/3 558/1/3 557/1/3
f 560/1/3 558/1/3 559/1/3
f 563/1/3 562/1/3 561/1/3
f 564/1/3 562/1/3 563/1/3
f 567/1/3 566/1/3 565/1/3
f 568/1/3 566/1/3 567/1/3
f 571/1/3 570/1/3 569/1/3
f 572/1/3 570/1/3 571/1/3
f 574/1/3 570/1/3 572/1/3
f 575/1/3 574/1/3 573/1/3
f 576/1/3 570/1/3 574/1/3
f 576/1/3 574/1/3 575/1/3
f 579/1/3 578/1/3 577/1/3
f 580/1/3 578/1/3 579/1/3
f 583/1/3 582/1/3 581/1/3
f 584/1/3 582/1/3 583/1/3
f 587/1/3 586/1/3 585/1/3
f 588/1/3 586/1/3 587/1/3
f 591/1/3 590/1/3 589/1/3
f 592/1/3 590/1/3 591/1/3
f 595/1/3 594/1/3 593/1/3
f 596/1/3 594/1/3 595/1/3
f 599/1/3 598/1/3 597/1/3
f 600/1/3 598/1/3 599/1/3
f 603/1/3 602/1/3 601/1/3
f 604/1/3 602/1/3 603/1/3
f 607/1/3 606/1/3 605/1/3
f 608/1/3 606/1/3 607/1/3
f 611/1/3 610/1/3 609/1/3
f 612/1/3 610/1/3 611/1/3
f 615/1/3 614/1/3 613/1/3
f 616/1/3 614/1/3 615/1/3
f 619/1/3 618/1/3 617/1/3
f 620/1/3 618/1/3 619/1/3
f 623/1/3 622/1/3 621/1/3
f 624/1/3 622/1/3 623/1/3
f 627/1/3 626/1/3 625/1/3
f 628/1/3 626/1/3 627/1/3
f 631/1/3 630/1/3 629/1/3
f 632/1/3 630/1/3 631/1/3
f 635/1/3 634/1/3 633/1/3
f 636/1/3 634/1/3 635/1/3
f 639/1/3 638/1/3 637/1/3
f 640/1/3 638/1/3 639/1/3
f 643/1/3 642/1/3 641/1/3
f 644/1/3 642/1/3 643/1/3
f 647/1/3 646/1/3 645/1/3
f 648/1/3 646/1/3 647/1/3
f 651/1/3 650/1/3 649/1/3
f 652/1/3 650/1/3 651/1/3
f 655/1/3 654/1/3 653/1/3
f 656/1/3 654/1/3 655/1/3
f 659/1/3 658/1/3 657/1/3
f 660/1/3 658/1/3 659/1/3
f 663/1/3 662/1/3 661/1/3
f 664/1/3 662/1/3 663/1/3
f 667/1/3 666/1/3 665/1/3
f 668/1/3 666/1/3 667/1/3
f 669/1/4 670/1/4 672/1/4
f 671/1/4 672/1/4 673/1/4
f 672/1/4 670/1/4 674/1/4
f 673/1/4 672/1/4 674/1/4
f 674/1/4 670/1/4 675/1/4
f 675/1/4 676/1/4 678/1/4
f 674/1/4 675/1/4 678/1/4
f 677/1/4 678/1/4 679/1/4
f 678/1/4 676/1/4 680/1/4
f 679/1/4 678/1/4 680/1/4
f 680/1/4 676/1/4 682/1/4
f 681/1/4 682/1/4 683/1/4
f 683/1/4 682/1/4 684/1/4
f 684/1/4 682/1/4 685/1/4
f 682/1/4 676/1/4 686/1/4
f 685/1/4 682/1/4 686/1/4
f 687/1/4 688/1/4 689/1/4
f 689/1/4 688/1/4 690/1/4
f 691/1/4 692/1/4 693/1/4
f 693/1/4 692/1/4 694/1/4
f 695/1/4 696/1/4 697/1/4
f 697/1/4 696/1/4 698/1/4
f 699/1/4 700/1/4 701/1/4
f 701/1/4 700/1/4 702/1/4
f 703/1/4 704/1/4 705/1/4
f 705/1/4 704/1/4 706/1/4
f 706/1/4 704/1/4 707/1/4
f 707/1/4 704/1/4 708/1/4
f 709/1/4 710/1/4 712/1/4
f 711/1/4 712/1/4 713/1/4
f 712/1/4 710/1/4 714/1/4
f 713/1/4 712/1/4 714/1/4
f 715/1/4 716/1/4 717/1/4
f 717/1/4 716/1/4 718/1/4
f 719/1/4 720/1/4 721/1/4
f 721/1/4 720/1/4 722/1/4
f 723/1/4 724/1/4 725/1/4
f 725/1/4 724/1/4 726/1/4
f 727/1/4 728/1/4 729/1/4
f 729/1/4 728/1/4 730/1/4
f 731/1/4 732/1/4 733/1/4
f 733/1/4 732/1/4 734/1/4
f 735/1/4 736/1/4 737/1/4
f 737/1/4 736/1/4 738/1/4
f 739/1/4 740/1/4 741/1/4
f 741/1/4 740/1/4 742/1/4
f 743/1/4 744/1/4 746/1/4
f 745/1/4 746/1/4 747/1/4
f 746/1/4 744/1/4 748/1/4
f 747/1/4 746/1/4 748/1/4
f 749/1/4 750/1/4 751/1/4
f 751/1/4 750/1/4 752/1/4
f 753/1/4 754/1/4 755/1/4
f 755/1/4 754/1/4 756/1/4
f 757/1/4 758/1/4 759/1/4
f 759/1/4 758/1/4 760/1/4
f 760/1/4 758/1/4 761/1/4
f 761/1/4 758/1/4 762/1/4
f 763/1/4 764/1/4 766/1/4
f 765/1/4 766/1/4 767/1/4
f 766/1/4 764/1/4 768/1/4
f 767/1/4 766/1/4 768/1/4
f 769/1/4 770/1/4 771/1/4
f 771/1/4 770/1/4 772/1/4
f 773/1/4 774/1/4 775/1/4
f 775/1/4 774/1/4 776/1/4
f 777/1/4 778/1/4 779/1/4
f 779/1/4 778/1/4 780/1/4
f 781/1/4 782/1/4 783/1/4
f 783/1/4 782/1/4 784/1/4
f 785/1/4 786/1/4 787/1/4
f 787/1/4 786/1/4 788/1/4
f 789/1/4 790/1/4 791/1/4
f 791/1/4 790/1/4 792/1/4
f 793/1/4 794/1/4 795/1/4
f 795/1/4 794/1/4 796/1/4
f 796/1/4 794/1/4 797/1/4
f 797/1/4 794/1/4 798/1/4
f 799/1/4 800/1/4 802/1/4
f 801/1/4 802/1/4 803/1/4
f 802/1/4 800/1/4 804/1/4
f 803/1/4 802/1/4 804/1/4
f 805/1/4 806/1/4 807/1/4
f 807/1/4 806/1/4 808/1/4
f 809/1/4 810/1/4 811/1/4
f 811/1/4 810/1/4 812/1/4
f 813/1/4 814/1/4 815/1/4
f 815/1/4 814/1/4 816/1/4
f 817/1/4 818/1/4 819/1/4
f 819/1/4 818/1/4 820/1/4
f 821/1/4 822/1/4 823/1/4
f 823/1/4 822/1/4 824/1/4
f 825/1/4 826/1/4 827/1/4
f 827/1/4 826/1/4 828/1/4
f 829/1/4 830/1/4 831/1/4
f 831/1/4 830/1/4 832/1/4
f 833/1/4 834/1/4 835/1/4
f 835/1/4 834/1/4 836/1/4
f 837/1/4 838/1/4 839/1/4
f 839/1/4 838/1/4 840/1/4
f 841/1/4 842/1/4 843/1/4
f 841/1/4 843/1/4 845/1/4
f 843/1/4 844/1/4 845/1/4
f 845/1/4 844/1/4 846/1/4
f 841/1/4 845/1/4 847/1/4
f 841/1/4 847/1/4 849/1/4
f 847/1/4 848/1/4 849/1/4
f 849/1/4 848/1/4 850/1/4
f 841/1/4 849/1/4 851/1/4
f 851/1/4 849/1/4 852/1/4
f 857/1/5 854/1/5 853/1/5
f 858/1/5 856/1/5 855/1/5
f 859/1/5 857/1/5 853/1/5
f 859/1/5 858/1/5 857/1/5
f 860/1/5 858/1/5 859/1/5
f 861/1/5 856/1/5 858/1/5
f 861/1/5 858/1/5 860/1/5
f 862/1/5 856/1/5 861/1/5
f 864/1/5 861/1/5 860/1/5
f 865/1/5 861/1/5 864/1/5
f 867/1/5 865/1/5 864/1/5
f 867/1/5 866/1/5 865/1/5
f 867/1/5 864/1/5 863/1/5
f 869/1/5 868/1/5 867/1/5
f 871/1/5 867/1/5 863/1/5
f 871/1/5 870/1/5 869/1/5
f 871/1/5 869/1/5 867/1/5
f 872/1/5 870/1/5 871/1/5
f 874/1/5 870/1/5 872/1/5
f 875/1/5 874/1/5 873/1/5
f 876/1/5 870/1/5 874/1/5
f 876/1/5 874/1/5 875/1/5
f 877/1/5 870/1/5 876/1/5
f 878/1/5 870/1/5 877/1/5
f 879/1/5 877/1/5 876/1/5
f 880/1/5 877/1/5 879/1/5
f 882/1/5 879/1/5 876/1/5
f 883/1/5 879/1/5 882/1/5
f 885/1/5 882/1/5 881/1/5
f 885/1/5 884/1/5 883/1/5
f 885/1/5 883/1/5 882/1/5
f 887/1/5 885/1/5 881/1/5
f 887/1/5 886/1/5 885/1/5
f 888/1/5 886/1/5 887/1/5
f 889/1/5 887/1/5 881/1/5
f 891/1/5 889/1/5 881/1/5
f 891/1/5 890/1/5 889/1/5
f 892/1/5 890/1/5 891/1/5
f 893/1/5 890/1/5 892/1/5
f 894/1/5 890/1/5 893/1/5
f 896/1/5 893/1/5 892/1/5
f 897/1/5 893/1/5 896/1/5
f 899/1/5 896/1/5 895/1/5
f 899/1/5 898/1/5 897/1/5
f 899/1/5 897/1/5 896/1/5
f 900/1/5 898/1/5 899/1/5
f 901/1/5 898/1/5 900/1/5
f 902/1/5 898/1/5 901/1/5
f 904/1/5 901/1/5 900/1/5
f 905/1/5 901/1/5 904/1/5
f 905/1/5 904/1/5 903/1/5
f 907/1/5 905/1/5 903/1/5
f 907/1/5 906/1/5 905/1/5
f 908/1/5 906/1/5 907/1/5
f 910/1/5 906/1/5 908/1/5
f 911/1/5 910/1/5 909/1/5
f 912/1/5 906/1/5 910/1/5
f 912/1/5 910/1/5 911/1/5
f 913/1/5 906/1/5 912/1/5
f 914/1/5 906/1/5 913/1/5
f 915/1/5 913/1/5 912/1/5
f 916/1/5 913/1/5 915/1/5
f 919/1/5 918/1/5 917/1/5
f 920/1/5 918/1/5 919/1/5
f 925/1/5 924/1/5 923/1/5
f 926/1/5 924/1/5 925/1/5
f 927/1/5 922/1/5 921/1/5
f 928/1/5 922/1/5 927/1/5
f 931/1/5 930/1/5 929/1/5
f 932/1/5 930/1/5 931/1/5
f 933/1/6 934/1/6 935/1/6
f 935/1/6 934/1/6 936/1/6
f 937/1/6 938/1/6 939/1/6
f 939/1/6 938/1/6 940/1/6
f 943/1/6 944/1/6 945/1/6
f 945/1/6 944/1/6 946/1/6
f 941/1/6 942/1/6 947/1/6
f 947/1/6 942/1/6 948/1/6
f 943/1/6 945/1/6 949/1/6
f 949/1/6 945/1/6 950/1/6
f 951/1/6 952/1/6 953/1/6
f 953/1/6 952/1/6 954/1/6
f 955/1/6 956/1/6 959/1/6
f 957/1/6 958/1/6 961/1/6
f 961/1/6 958/1/6 962/1/6
f 959/1/6 960/1/6 963/1/6
f 955/1/6 959/1/6 963/1/6
f 963/1/6 960/1/6 964/1/6
f 957/1/6 961/1/6 967/1/6
f 962/1/6 958/1/6 968/1/6
f 957/1/6 967/1/6 969/1/6
f 967/1/6 968/1/6 969/1/6
f 968/1/6 958/1/6 970/1/6
f 969/1/6 968/1/6 970/1/6
f 965/1/6 966/1/6 973/1/6
f 973/1/6 966/1/6 974/1/6
f 955/1/6 963/1/6 975/1/6
f 955/1/6 975/1/6 977/1/6
f 975/1/6 976/1/6 977/1/6
f 977/1/6 976/1/6 978/1/6
f 971/1/6 972/1/6 979/1/6
f 979/1/6 972/1/6 980/1/6
f 955/1/6 977/1/6 981/1/6
f 981/1/6 977/1/6 982/1/6
f 985/1/6 986/1/6 988/1/6
f 988/1/6 986/1/6 989/1/6
f 987/1/6 988/1/6 990/1/6
f 990/1/6 988/1/6 991/1/6
f 983/1/6 984/1/6 995/1/6
f 995/1/6 984/1/6 996/1/6
f 992/1/6 993/1/6 999/1/6
f 999/1/6 993/1/6 1000/1/6
f 997/1/6 998/1/6 1001/1/6
f 994/1/6 995/1/6 1001/1/6
f 995/1/6 996/1/6 1001/1/6
f 996/1/6 997/1/6 1001/1/6
f 1001/1/6 998/1/6 1002/1/6
f 1002/1/6 998/1/6 1003/1/6
f 1003/1/6 998/1/6 1004/1/6
f 1004/1/6 998/1/6 1005/1/6
f 1005/1/6 998/1/6 1006/1/6
f 1006/1/6 998/1/6 1007/1/6
f 1007/1/6 998/1/6 1008/1/6
f 1004/1/6 1005/1/6 1009/1/6
f 1009/1/6 1005/1/6 1010/1/6
f 1008/1/6 998/1/6 1013/1/6
f 1013/1/6 998/1/6 1014/1/6
f 1011/1/6 1012/1/6 1015/1/6
f 1015/1/6 1012/1/6 1016/1/6
f 1002/1/6 1003/1/6 1017/1/6
f 1017/1/6 1003/1/6 1018/1/6
f 1006/1/6 1007/1/6 1019/1/6
f 1019/1/6 1007/1/6 1020/1/6
f 1010/1/6 1005/1/6 1022/1/6
f 1022/1/6 1005/1/6 1023/1/6
f 1022/1/6 1023/1/6 1025/1/6
f 1023/1/6 1024/1/6 1025/1/6
f 1021/1/6 1022/1/6 1025/1/6
f 1025/1/6 1024/1/6 1026/1/6
f 1021/1/6 1025/1/6 1027/1/6
f 1027/1/6 1025/1/6 1028/1/6
f 1029/1/6 1030/1/6 1031/1/6
f 1031/1/6 1030/1/6 1032/1/6
f 1029/1/6 1031/1/6 1034/1/6
f 1033/1/6 1034/1/6 1035/1/6
f 1034/1/6 1031/1/6 1036/1/6
f 1035/1/6 1034/1/6 1036/1/6
f 1032/1/6 1030/1/6 1038/1/6
f 1037/1/6 1038/1/6 1039/1/6
f 1038/1/6 1030/1/6 1040/1/6
f 1039/1/6 1038/1/6 1040/1/6
f 1036/1/6 1031/1/6 1042/1/6
f 1037/1/6 1039/1/6 1043/1/6
f 1042/1/6 1031/1/6 1045/1/6
f 1041/1/6 1042/1/6 1045/1/6
f 1037/1/6 1043/1/6 1046/1/6
f 1043/1/6 1044/1/6 1046/1/6
f 1041/1/6 1045/1/6 1047/1/6
f 1045/1/6 1046/1/6 1047/1/6
f 1046/1/6 1044/1/6 1048/1/6
f 1047/1/6 1046/1/6 1048/1/6
f 1049/1/6 1050/1/6 1051/1/6
f 1051/1/6 1050/1/6 1052/1/6
f 1049/1/6 1051/1/6 1053/1/6
f 1053/1/6 1051/1/6 1054/1/6
f 1052/1/6 1050/1/6 1055/1/6
f 1055/1/6 1050/1/6 1056/1/6
f 1056/1/6 1050/1/6 1057/1/6
f 1057/1/6 1050/1/6 1058/1/6
f 1054/1/6 1051/1/6 1059/1/6
f 1052/1/6 1055/1/6 1060/1/6
f 1059/1/6 1060/1/6 1061/1/6
f 1060/1/6 1055/1/6 1062/1/6
f 1061/1/6 1060/1/6 1062/1/6
f 1054/1/6 1059/1/6 1064/1/6
f 1059/1/6 1061/1/6 1064/1/6
f 1064/1/6 1061/1/6 1065/1/6
f 1064/1/6 1065/1/6 1067/1/6
f 1065/1/6 1066/1/6 1067/1/6
f 1063/1/6 1064/1/6 1067/1/6
f 1067/1/6 1066/1/6 1068/1/6
f 1071/1/6 1072/1/6 1077/1/6
f 1077/1/6 1072/1/6 1078/1/6
f 1075/1/6 1076/1/6 1079/1/6
f 1079/1/6 1076/1/6 1080/1/6
f 1069/1/6 1070/1/6 1081/1/6
f 1081/1/6 1070/1/6 1082/1/6
f 1073/1/6 1074/1/6 1083/1/6
f 1083/1/6 1074/1/6 1084/1/6
f 1085/1/6 1086/1/6 1088/1/6
f 1088/1/6 1086/1/6 1089/1/6
f 1088/1/6 1089/1/6 1091/1/6
f 1089/1/6 1090/1/6 1091/1/6
f 1087/1/6 1088/1/6 1091/1/6
f 1091/1/6 1090/1/6 1092/1/6
f 1092/1/6 1090/1/6 1093/1/6
f 1093/1/6 1090/1/6 1094/1/6
f 1094/1/6 1090/1/6 1095/1/6
f 1092/1/6 1093/1/6 1096/1/6
f 1096/1/6 1093/1/6 1097/1/6
f 1097/1/6 1093/1/6 1099/1/6
f 1098/1/6 1099/1/6 1102/1/6
f 1099/1/6 1093/1/6 1103/1/6
f 1102/1/6 1099/1/6 1103/1/6
f 1100/1/6 1101/1/6 1104/1/6
f 1095/1/6 1090/1/6 1105/1/6
f 1105/1/6 1090/1/6 1106/1/6
f 1104/1/6 1105/1/6 1106/1/6
f 1106/1/6 1090/1/6 1107/1/6
f 1100/1/6 1104/1/6 1108/1/6
f 1104/1/6 1106/1/6 1108/1/6
f 1108/1/6 1106/1/6 1109/1/6
f 1098/1/6 1102/1/6 1110/1/6
f 1103/1/6 1093/1/6 1111/1/6
f 1098/1/6 1110/1/6 1112/1/6
f 1110/1/6 1111/1/6 1112/1/6
f 1112/1/6 1111/1/6 1113/1/6
f 1111/1/6 1093/1/6 1114/1/6
f 1113/1/6 1111/1/6 1114/1/6
f 1114/1/6 1093/1/6 1115/1/6
f 1113/1/6 1114/1/6 1117/1/6
f 1109/1/6 1106/1/6 1120/1/6
f 1116/1/6 1117/1/6 1123/1/6
f 1122/1/6 1123/1/6 1124/1/6
f 1117/1/6 1114/1/6 1125/1/6
f 1124/1/6 1123/1/6 1125/1/6
f 1123/1/6 1117/1/6 1125/1/6
f 1118/1/6 1119/1/6 1126/1/6
f 1126/1/6 1119/1/6 1127/1/6
f 1120/1/6 1121/1/6 1128/1/6
f 1109/1/6 1120/1/6 1128/1/6
f 1128/1/6 1121/1/6 1129/1/6
f 1130/1/6 1131/1/6 1134/1/6
f 1134/1/6 1131/1/6 1135/1/6
f 1132/1/6 1133/1/6 1136/1/6
f 1136/1/6 1133/1/6 1137/1/6
f 1138/1/6 1139/1/6 1143/1/6
f 1140/1/6 1141/1/6 1144/1/6
f 1142/1/6 1143/1/6 1147/1/6
f 1144/1/6 1145/1/6 1148/1/6
f 1146/1/6 1147/1/6 1151/1/6
f 1150/1/6 1151/1/6 1152/1/6
f 1151/1/6 1147/1/6 1153/1/6
f 1152/1/6 1151/1/6 1153/1/6
f 1147/1/6 1143/1/6 1154/1/6
f 1153/1/6 1147/1/6 1154/1/6
f 1143/1/6 1139/1/6 1155/1/6
f 1154/1/6 1143/1/6 1155/1/6
f 1140/1/6 1144/1/6 1156/1/6
f 1148/1/6 1149/1/6 1156/1/6
f 1144/1/6 1148/1/6 1156/1/6
f 1156/1/6 1149/1/6 1157/1/6
f 1153/1/6 1154/1/6 1158/1/6
f 1160/1/6 1161/1/6 1166/1/6
f 1164/1/6 1165/1/6 1168/1/6
f 1153/1/6 1158/1/6 1171/1/6
f 1158/1/6 1159/1/6 1171/1/6
f 1171/1/6 1159/1/6 1172/1/6
f 1160/1/6 1166/1/6 1173/1/6
f 1166/1/6 1167/1/6 1173/1/6
f 1162/1/6 1163/1/6 1174/1/6
f 1164/1/6 1168/1/6 1175/1/6
f 1168/1/6 1169/1/6 1175/1/6
f 1171/1/6 1172/1/6 1176/1/6
f 1170/1/6 1171/1/6 1176/1/6
f 1172/1/6 1173/1/6 1176/1/6
f 1173/1/6 1167/1/6 1177/1/6
f 1176/1/6 1173/1/6 1177/1/6
f 1162/1/6 1174/1/6 1178/1/6
f 1174/1/6 1175/1/6 1178/1/6
f 1175/1/6 1169/1/6 1179/1/6
f 1178/1/6 1175/1/6 1179/1/6
f 1180/1/6 1181/1/6 1182/1/6
f 1182/1/6 1181/1/6 1183/1/6
f 1183/1/6 1181/1/6 1184/1/6
f 1180/1/6 1182/1/6 1186/1/6
f 1186/1/6 1182/1/6 1187/1/6
f 1184/1/6 1185/1/6 1188/1/6
f 1183/1/6 1184/1/6 1188/1/6
f 1188/1/6 1185/1/6 1189/1/6
f 1180/1/6 1186/1/6 1190/1/6
f 1183/1/6 1188/1/6 1192/1/6
f 1183/1/6 1192/1/6 1195/1/6
f 1192/1/6 1193/1/6 1195/1/6
f 1190/1/6 1191/1/6 1196/1/6
f 1180/1/6 1190/1/6 1196/1/6
f 1196/1/6 1191/1/6 1197/1/6
f 1194/1/6 1195/1/6 1198/1/6
f 1195/1/6 1193/1/6 1199/1/6
f 1198/1/6 1195/1/6 1199/1/6
f 1200/1/6 1201/1/6 1202/1/6
f 1202/1/6 1201/1/6 1203/1/6
f 1206/1/6 1207/1/6 1208/1/6
f 1206/1/6 1208/1/6 1211/1/6
f 1208/1/6 1209/1/6 1211/1/6
f 1204/1/6 1205/1/6 1212/1/6
f 1212/1/6 1205/1/6 1213/1/6
f 1210/1/6 1211/1/6 1214/1/6
f 1211/1/6 1209/1/6 1215/1/6
f 1214/1/6 1211/1/6 1215/1/6
f 1216/1/6 1217/1/6 1219/1/6
f 1219/1/6 1217/1/6 1220/1/6
f 1220/1/6 1217/1/6 1221/1/6
f 1218/1/6 1219/1/6 1222/1/6
f 1219/1/6 1220/1/6 1222/1/6
f 1222/1/6 1220/1/6 1223/1/6
f 1221/1/6 1217/1/6 1224/1/6
f 1224/1/6 1225/1/6 1226/1/6
f 1221/1/6 1224/1/6 1226/1/6
f 1226/1/6 1225/1/6 1227/1/6
f 1227/1/6 1225/1/6 1228/1/6
f 1228/1/6 1225/1/6 1229/1/6
f 1223/1/6 1220/1/6 1231/1/6
f 1227/1/6 1228/1/6 1232/1/6
f 1229/1/6 1225/1/6 1233/1/6
f 1230/1/6 1231/1/6 1234/1/6
f 1234/1/6 1231/1/6 1235/1/6
f 1231/1/6 1220/1/6 1236/1/6
f 1235/1/6 1231/1/6 1236/1/6
f 1221/1/6 1226/1/6 1237/1/6
f 1237/1/6 1226/1/6 1238/1/6
f 1232/1/6 1233/1/6 1239/1/6
f 1227/1/6 1232/1/6 1239/1/6
f 1237/1/6 1238/1/6 1241/1/6
f 1235/1/6 1236/1/6 1241/1/6
f 1236/1/6 1237/1/6 1241/1/6
f 1238/1/6 1239/1/6 1241/1/6
f 1241/1/6 1239/1/6 1242/1/6
f 1239/1/6 1233/1/6 1243/1/6
f 1242/1/6 1239/1/6 1243/1/6
f 1241/1/6 1242/1/6 1244/1/6
f 1240/1/6 1241/1/6 1244/1/6
f 1244/1/6 1242/1/6 1245/1/6
f 1243/1/6 1233/1/6 1246/1/6
f 1233/1/6 1225/1/6 1247/1/6
f 1246/1/6 1233/1/6 1247/1/6
f 1248/1/6 1249/1/6 1250/1/6
f 1250/1/6 1249/1/6 1251/1/6
f 1248/1/6 1250/1/6 1252/1/6
f 1248/1/6 1252/1/6 1255/1/6
f 1252/1/6 1253/1/6 1255/1/6
f 1255/1/6 1253/1/6 1256/1/6
f 1254/1/6 1255/1/6 1256/1/6
f 1256/1/6 1253/1/6 1257/1/6
f 1254/1/6 1256/1/6 1258/1/6
f 1258/1/6 1256/1/6 1259/1/6
f 1257/1/6 1253/1/6 1260/1/6
f 1260/1/6 1253/1/6 1261/1/6
f 1262/1/6 1263/1/6 1266/1/6
f 1266/1/6 1263/1/6 1267/1/6
f 1264/1/6 1265/1/6 1268/1/6
f 1268/1/6 1265/1/6 1269/1/6
f 1270/1/6 1271/1/6 1274/1/6
f 1272/1/6 1273/1/6 1275/1/6
f 1270/1/6 1274/1/6 1276/1/6
f 1274/1/6 1275/1/6 1276/1/6
f 1275/1/6 1273/1/6 1277/1/6
f 1276/1/6 1275/1/6 1277/1/6
