# MagicaVoxel @ Ephtracy

# material
mtllib skeleton.mtl
usemtl palette

# normals
vn -1 0 0
vn 1 0 0
vn 0 0 1
vn 0 0 -1
vn 0 -1 0
vn 0 1 0

# texcoords
vt 0.970703 0.5
vt 0.994141 0.5

# verts
v -62.5 0 58
v -62.5 0 57
v -62.5 0 48
v -62.5 0 47
v -62.5 0 39
v -62.5 0 38
v -62.5 0 28
v -62.5 0 27
v -62.5 0 19
v -62.5 0 18
v -62.5 1 58
v -62.5 1 57
v -62.5 1 48
v -62.5 1 47
v -62.5 1 39
v -62.5 1 38
v -62.5 1 28
v -62.5 1 27
v -62.5 1 19
v -62.5 1 18
v -6.5 0 57
v -6.5 0 56
v -6.5 0 49
v -6.5 0 48
v -6.5 0 47
v -6.5 0 46
v -6.5 0 40
v -6.5 0 39
v -6.5 0 38
v -6.5 0 37
v -6.5 0 29
v -6.5 0 28
v -6.5 0 27
v -6.5 0 26
v -6.5 0 20
v -6.5 0 19
v -6.5 0 18
v -6.5 0 17
v -6.5 0 8
v -6.5 1 57
v -6.5 1 56
v -6.5 1 49
v -6.5 1 48
v -6.5 1 47
v -6.5 1 46
v -6.5 1 40
v -6.5 1 39
v -6.5 1 38
v -6.5 1 37
v -6.5 1 29
v -6.5 1 28
v -6.5 1 27
v -6.5 1 26
v -6.5 1 20
v -6.5 1 19
v -6.5 1 18
v -6.5 1 17
v -6.5 1 8
v -0.5 0 63
v -0.5 0 62
v -0.5 0 60
v -0.5 0 59
v -0.5 0 58
v -0.5 0 8
v -0.5 0 7
v -0.5 0 6
v -0.5 0 -6
v -0.5 0 -7
v -0.5 0 -16
v -0.5 0 -17
v -0.5 0 -26
v -0.5 0 -27
v -0.5 0 -36
v -0.5 0 -37
v -0.5 0 -46
v -0.5 0 -47
v -0.5 0 -56
v -0.5 0 -57
v -0.5 0 -62
v -0.5 0 -63
v -0.5 1 63
v -0.5 1 62
v -0.5 1 60
v -0.5 1 59
v -0.5 1 58
v -0.5 1 8
v -0.5 1 7
v -0.5 1 6
v -0.5 1 -6
v -0.5 1 -7
v -0.5 1 -16
v -0.5 1 -17
v -0.5 1 -26
v -0.5 1 -27
v -0.5 1 -36
v -0.5 1 -37
v -0.5 1 -46
v -0.5 1 -47
v -0.5 1 -56
v -0.5 1 -57
v -0.5 1 -62
v -0.5 1 -63
v 0.5 0 63
v 0.5 0 62
v 0.5 0 60
v 0.5 0 59
v 0.5 0 58
v 0.5 0 8
v 0.5 0 7
v 0.5 0 6
v 0.5 0 -6
v 0.5 0 -7
v 0.5 0 -16
v 0.5 0 -17
v 0.5 0 -26
v 0.5 0 -27
v 0.5 0 -36
v 0.5 0 -37
v 0.5 0 -46
v 0.5 0 -47
v 0.5 0 -56
v 0.5 0 -57
v 0.5 0 -62
v 0.5 0 -63
v 0.5 1 63
v 0.5 1 62
v 0.5 1 60
v 0.5 1 59
v 0.5 1 58
v 0.5 1 8
v 0.5 1 7
v 0.5 1 6
v 0.5 1 -6
v 0.5 1 -7
v 0.5 1 -16
v 0.5 1 -17
v 0.5 1 -26
v 0.5 1 -27
v 0.5 1 -36
v 0.5 1 -37
v 0.5 1 -46
v 0.5 1 -47
v 0.5 1 -56
v 0.5 1 -57
v 0.5 1 -62
v 0.5 1 -63
v 6.5 0 57
v 6.5 0 56
v 6.5 0 49
v 6.5 0 48
v 6.5 0 47
v 6.5 0 46
v 6.5 0 40
v 6.5 0 39
v 6.5 0 38
v 6.5 0 37
v 6.5 0 29
v 6.5 0 28
v 6.5 0 27
v 6.5 0 26
v 6.5 0 20
v 6.5 0 19
v 6.5 0 18
v 6.5 0 17
v 6.5 0 8
v 6.5 1 57
v 6.5 1 56
v 6.5 1 49
v 6.5 1 48
v 6.5 1 47
v 6.5 1 46
v 6.5 1 40
v 6.5 1 39
v 6.5 1 38
v 6.5 1 37
v 6.5 1 29
v 6.5 1 28
v 6.5 1 27
v 6.5 1 26
v 6.5 1 20
v 6.5 1 19
v 6.5 1 18
v 6.5 1 17
v 6.5 1 8
v 62.5 0 58
v 62.5 0 57
v 62.5 0 48
v 62.5 0 47
v 62.5 0 39
v 62.5 0 38
v 62.5 0 28
v 62.5 0 27
v 62.5 0 19
v 62.5 0 18
v 62.5 1 58
v 62.5 1 57
v 62.5 1 48
v 62.5 1 47
v 62.5 1 39
v 62.5 1 38
v 62.5 1 28
v 62.5 1 27
v 62.5 1 19
v 62.5 1 18
v -0.5 0 63
v -0.5 1 63
v 0.5 0 63
v 0.5 1 63
v -62.5 0 58
v -62.5 1 58
v -61.5 0 58
v -61.5 1 58
v -43.5 0 58
v -43.5 1 58
v -42.5 0 58
v -42.5 1 58
v -22.5 0 58
v -22.5 1 58
v -21.5 0 58
v -21.5 1 58
v -8.5 0 58
v -8.5 1 58
v -7.5 0 58
v -7.5 1 58
v -6.5 0 58
v -6.5 1 58
v -5.5 0 58
v -5.5 1 58
v -1.5 0 58
v -1.5 1 58
v -0.5 0 58
v -0.5 1 58
v 0.5 0 58
v 0.5 1 58
v 1.5 0 58
v 1.5 1 58
v 5.5 0 58
v 5.5 1 58
v 6.5 0 58
v 6.5 1 58
v 7.5 0 58
v 7.5 1 58
v 8.5 0 58
v 8.5 1 58
v 21.5 0 58
v 21.5 1 58
v 22.5 0 58
v 22.5 1 58
v 42.5 0 58
v 42.5 1 58
v 43.5 0 58
v 43.5 1 58
v 61.5 0 58
v 61.5 1 58
v 62.5 0 58
v 62.5 1 58
v -62.5 0 48
v -62.5 1 48
v -61.5 0 48
v -61.5 1 48
v -43.5 0 48
v -43.5 1 48
v -42.5 0 48
v -42.5 1 48
v -22.5 0 48
v -22.5 1 48
v -21.5 0 48
v -21.5 1 48
v -8.5 0 48
v -8.5 1 48
v -7.5 0 48
v -7.5 1 48
v -6.5 0 48
v -6.5 1 48
v 6.5 0 48
v 6.5 1 48
v 7.5 0 48
v 7.5 1 48
v 8.5 0 48
v 8.5 1 48
v 21.5 0 48
v 21.5 1 48
v 22.5 0 48
v 22.5 1 48
v 42.5 0 48
v 42.5 1 48
v 43.5 0 48
v 43.5 1 48
v 61.5 0 48
v 61.5 1 48
v 62.5 0 48
v 62.5 1 48
v -62.5 0 39
v -62.5 1 39
v -61.5 0 39
v -61.5 1 39
v -43.5 0 39
v -43.5 1 39
v -42.5 0 39
v -42.5 1 39
v -22.5 0 39
v -22.5 1 39
v -21.5 0 39
v -21.5 1 39
v -8.5 0 39
v -8.5 1 39
v -7.5 0 39
v -7.5 1 39
v -6.5 0 39
v -6.5 1 39
v 6.5 0 39
v 6.5 1 39
v 7.5 0 39
v 7.5 1 39
v 8.5 0 39
v 8.5 1 39
v 21.5 0 39
v 21.5 1 39
v 22.5 0 39
v 22.5 1 39
v 42.5 0 39
v 42.5 1 39
v 43.5 0 39
v 43.5 1 39
v 61.5 0 39
v 61.5 1 39
v 62.5 0 39
v 62.5 1 39
v -62.5 0 28
v -62.5 1 28
v -61.5 0 28
v -61.5 1 28
v -43.5 0 28
v -43.5 1 28
v -42.5 0 28
v -42.5 1 28
v -22.5 0 28
v -22.5 1 28
v -21.5 0 28
v -21.5 1 28
v -8.5 0 28
v -8.5 1 28
v -7.5 0 28
v -7.5 1 28
v -6.5 0 28
v -6.5 1 28
v 6.5 0 28
v 6.5 1 28
v 7.5 0 28
v 7.5 1 28
v 8.5 0 28
v 8.5 1 28
v 21.5 0 28
v 21.5 1 28
v 22.5 0 28
v 22.5 1 28
v 42.5 0 28
v 42.5 1 28
v 43.5 0 28
v 43.5 1 28
v 61.5 0 28
v 61.5 1 28
v 62.5 0 28
v 62.5 1 28
v -62.5 0 19
v -62.5 1 19
v -61.5 0 19
v -61.5 1 19
v -43.5 0 19
v -43.5 1 19
v -42.5 0 19
v -42.5 1 19
v -22.5 0 19
v -22.5 1 19
v -21.5 0 19
v -21.5 1 19
v -8.5 0 19
v -8.5 1 19
v -7.5 0 19
v -7.5 1 19
v -6.5 0 19
v -6.5 1 19
v 6.5 0 19
v 6.5 1 19
v 7.5 0 19
v 7.5 1 19
v 8.5 0 19
v 8.5 1 19
v 21.5 0 19
v 21.5 1 19
v 22.5 0 19
v 22.5 1 19
v 42.5 0 19
v 42.5 1 19
v 43.5 0 19
v 43.5 1 19
v 61.5 0 19
v 61.5 1 19
v 62.5 0 19
v 62.5 1 19
v -62.5 0 57
v -62.5 1 57
v -61.5 0 57
v -61.5 1 57
v -43.5 0 57
v -43.5 1 57
v -42.5 0 57
v -42.5 1 57
v -22.5 0 57
v -22.5 1 57
v -21.5 0 57
v -21.5 1 57
v -8.5 0 57
v -8.5 1 57
v -7.5 0 57
v -7.5 1 57
v -6.5 0 57
v -6.5 1 57
v 6.5 0 57
v 6.5 1 57
v 7.5 0 57
v 7.5 1 57
v 8.5 0 57
v 8.5 1 57
v 21.5 0 57
v 21.5 1 57
v 22.5 0 57
v 22.5 1 57
v 42.5 0 57
v 42.5 1 57
v 43.5 0 57
v 43.5 1 57
v 61.5 0 57
v 61.5 1 57
v 62.5 0 57
v 62.5 1 57
v -62.5 0 47
v -62.5 1 47
v -61.5 0 47
v -61.5 1 47
v -43.5 0 47
v -43.5 1 47
v -42.5 0 47
v -42.5 1 47
v -22.5 0 47
v -22.5 1 47
v -21.5 0 47
v -21.5 1 47
v -8.5 0 47
v -8.5 1 47
v -7.5 0 47
v -7.5 1 47
v -6.5 0 47
v -6.5 1 47
v 6.5 0 47
v 6.5 1 47
v 7.5 0 47
v 7.5 1 47
v 8.5 0 47
v 8.5 1 47
v 21.5 0 47
v 21.5 1 47
v 22.5 0 47
v 22.5 1 47
v 42.5 0 47
v 42.5 1 47
v 43.5 0 47
v 43.5 1 47
v 61.5 0 47
v 61.5 1 47
v 62.5 0 47
v 62.5 1 47
v -62.5 0 38
v -62.5 1 38
v -61.5 0 38
v -61.5 1 38
v -43.5 0 38
v -43.5 1 38
v -42.5 0 38
v -42.5 1 38
v -22.5 0 38
v -22.5 1 38
v -21.5 0 38
v -21.5 1 38
v -8.5 0 38
v -8.5 1 38
v -7.5 0 38
v -7.5 1 38
v -6.5 0 38
v -6.5 1 38
v 6.5 0 38
v 6.5 1 38
v 7.5 0 38
v 7.5 1 38
v 8.5 0 38
v 8.5 1 38
v 21.5 0 38
v 21.5 1 38
v 22.5 0 38
v 22.5 1 38
v 42.5 0 38
v 42.5 1 38
v 43.5 0 38
v 43.5 1 38
v 61.5 0 38
v 61.5 1 38
v 62.5 0 38
v 62.5 1 38
v -62.5 0 27
v -62.5 1 27
v -61.5 0 27
v -61.5 1 27
v -43.5 0 27
v -43.5 1 27
v -42.5 0 27
v -42.5 1 27
v -22.5 0 27
v -22.5 1 27
v -21.5 0 27
v -21.5 1 27
v -8.5 0 27
v -8.5 1 27
v -7.5 0 27
v -7.5 1 27
v -6.5 0 27
v -6.5 1 27
v 6.5 0 27
v 6.5 1 27
v 7.5 0 27
v 7.5 1 27
v 8.5 0 27
v 8.5 1 27
v 21.5 0 27
v 21.5 1 27
v 22.5 0 27
v 22.5 1 27
v 42.5 0 27
v 42.5 1 27
v 43.5 0 27
v 43.5 1 27
v 61.5 0 27
v 61.5 1 27
v 62.5 0 27
v 62.5 1 27
v -62.5 0 18
v -62.5 1 18
v -61.5 0 18
v -61.5 1 18
v -43.5 0 18
v -43.5 1 18
v -42.5 0 18
v -42.5 1 18
v -22.5 0 18
v -22.5 1 18
v -21.5 0 18
v -21.5 1 18
v -8.5 0 18
v -8.5 1 18
v -7.5 0 18
v -7.5 1 18
v -6.5 0 18
v -6.5 1 18
v 6.5 0 18
v 6.5 1 18
v 7.5 0 18
v 7.5 1 18
v 8.5 0 18
v 8.5 1 18
v 21.5 0 18
v 21.5 1 18
v 22.5 0 18
v 22.5 1 18
v 42.5 0 18
v 42.5 1 18
v 43.5 0 18
v 43.5 1 18
v 61.5 0 18
v 61.5 1 18
v 62.5 0 18
v 62.5 1 18
v -6.5 0 8
v -6.5 1 8
v -1.5 0 8
v -1.5 1 8
v -0.5 0 8
v -0.5 1 8
v 0.5 0 8
v 0.5 1 8
v 1.5 0 8
v 1.5 1 8
v 6.5 0 8
v 6.5 1 8
v -0.5 0 -63
v -0.5 1 -63
v 0.5 0 -63
v 0.5 1 -63
v -0.5 0 63
v 0.5 0 63
v -0.5 0 62
v 0.5 0 62
v -0.5 0 60
v 0.5 0 60
v -0.5 0 59
v 0.5 0 59
v -62.5 0 58
v -61.5 0 58
v -43.5 0 58
v -42.5 0 58
v -22.5 0 58
v -21.5 0 58
v -8.5 0 58
v -7.5 0 58
v -6.5 0 58
v -5.5 0 58
v -1.5 0 58
v -0.5 0 58
v 0.5 0 58
v 1.5 0 58
v 5.5 0 58
v 6.5 0 58
v 7.5 0 58
v 8.5 0 58
v 21.5 0 58
v 22.5 0 58
v 42.5 0 58
v 43.5 0 58
v 61.5 0 58
v 62.5 0 58
v -62.5 0 57
v -61.5 0 57
v -43.5 0 57
v -42.5 0 57
v -22.5 0 57
v -21.5 0 57
v -8.5 0 57
v -7.5 0 57
v -6.5 0 57
v -1.5 0 57
v 1.5 0 57
v 6.5 0 57
v 7.5 0 57
v 8.5 0 57
v 21.5 0 57
v 22.5 0 57
v 42.5 0 57
v 43.5 0 57
v 61.5 0 57
v 62.5 0 57
v -6.5 0 56
v -5.5 0 56
v 5.5 0 56
v 6.5 0 56
v -6.5 0 49
v -5.5 0 49
v 5.5 0 49
v 6.5 0 49
v -62.5 0 48
v -61.5 0 48
v -43.5 0 48
v -42.5 0 48
v -22.5 0 48
v -21.5 0 48
v -8.5 0 48
v -7.5 0 48
v -6.5 0 48
v 6.5 0 48
v 7.5 0 48
v 8.5 0 48
v 21.5 0 48
v 22.5 0 48
v 42.5 0 48
v 43.5 0 48
v 61.5 0 48
v 62.5 0 48
v -62.5 0 47
v -61.5 0 47
v -43.5 0 47
v -42.5 0 47
v -22.5 0 47
v -21.5 0 47
v -8.5 0 47
v -7.5 0 47
v -6.5 0 47
v 6.5 0 47
v 7.5 0 47
v 8.5 0 47
v 21.5 0 47
v 22.5 0 47
v 42.5 0 47
v 43.5 0 47
v 61.5 0 47
v 62.5 0 47
v -6.5 0 46
v -5.5 0 46
v 5.5 0 46
v 6.5 0 46
v -6.5 0 40
v -5.5 0 40
v 5.5 0 40
v 6.5 0 40
v -62.5 0 39
v -61.5 0 39
v -43.5 0 39
v -42.5 0 39
v -22.5 0 39
v -21.5 0 39
v -8.5 0 39
v -7.5 0 39
v -6.5 0 39
v -0.5 0 39
v 0.5 0 39
v 6.5 0 39
v 7.5 0 39
v 8.5 0 39
v 21.5 0 39
v 22.5 0 39
v 42.5 0 39
v 43.5 0 39
v 61.5 0 39
v 62.5 0 39
v -62.5 0 38
v -61.5 0 38
v -43.5 0 38
v -42.5 0 38
v -22.5 0 38
v -21.5 0 38
v -8.5 0 38
v -7.5 0 38
v -6.5 0 38
v -0.5 0 38
v 0.5 0 38
v 6.5 0 38
v 7.5 0 38
v 8.5 0 38
v 21.5 0 38
v 22.5 0 38
v 42.5 0 38
v 43.5 0 38
v 61.5 0 38
v 62.5 0 38
v -6.5 0 37
v -5.5 0 37
v 5.5 0 37
v 6.5 0 37
v -6.5 0 29
v -5.5 0 29
v 5.5 0 29
v 6.5 0 29
v -62.5 0 28
v -61.5 0 28
v -43.5 0 28
v -42.5 0 28
v -22.5 0 28
v -21.5 0 28
v -8.5 0 28
v -7.5 0 28
v -6.5 0 28
v 6.5 0 28
v 7.5 0 28
v 8.5 0 28
v 21.5 0 28
v 22.5 0 28
v 42.5 0 28
v 43.5 0 28
v 61.5 0 28
v 62.5 0 28
v -62.5 0 27
v -61.5 0 27
v -43.5 0 27
v -42.5 0 27
v -22.5 0 27
v -21.5 0 27
v -8.5 0 27
v -7.5 0 27
v -6.5 0 27
v 6.5 0 27
v 7.5 0 27
v 8.5 0 27
v 21.5 0 27
v 22.5 0 27
v 42.5 0 27
v 43.5 0 27
v 61.5 0 27
v 62.5 0 27
v -6.5 0 26
v -5.5 0 26
v 5.5 0 26
v 6.5 0 26
v -6.5 0 20
v -5.5 0 20
v 5.5 0 20
v 6.5 0 20
v -62.5 0 19
v -61.5 0 19
v -43.5 0 19
v -42.5 0 19
v -22.5 0 19
v -21.5 0 19
v -8.5 0 19
v -7.5 0 19
v -6.5 0 19
v 6.5 0 19
v 7.5 0 19
v 8.5 0 19
v 21.5 0 19
v 22.5 0 19
v 42.5 0 19
v 43.5 0 19
v 61.5 0 19
v 62.5 0 19
v -62.5 0 18
v -61.5 0 18
v -43.5 0 18
v -42.5 0 18
v -22.5 0 18
v -21.5 0 18
v -8.5 0 18
v -7.5 0 18
v -6.5 0 18
v 6.5 0 18
v 7.5 0 18
v 8.5 0 18
v 21.5 0 18
v 22.5 0 18
v 42.5 0 18
v 43.5 0 18
v 61.5 0 18
v 62.5 0 18
v -6.5 0 17
v -5.5 0 17
v 5.5 0 17
v 6.5 0 17
v -1.5 0 9
v 1.5 0 9
v -6.5 0 8
v -1.5 0 8
v -0.5 0 8
v 0.5 0 8
v 1.5 0 8
v 6.5 0 8
v -0.5 0 7
v 0.5 0 7
v -0.5 0 6
v 0.5 0 6
v -0.5 0 -6
v 0.5 0 -6
v -0.5 0 -7
v 0.5 0 -7
v -0.5 0 -16
v 0.5 0 -16
v -0.5 0 -17
v 0.5 0 -17
v -0.5 0 -26
v 0.5 0 -26
v -0.5 0 -27
v 0.5 0 -27
v -0.5 0 -36
v 0.5 0 -36
v -0.5 0 -37
v 0.5 0 -37
v -0.5 0 -46
v 0.5 0 -46
v -0.5 0 -47
v 0.5 0 -47
v -0.5 0 -56
v 0.5 0 -56
v -0.5 0 -57
v 0.5 0 -57
v -0.5 0 -62
v 0.5 0 -62
v -0.5 0 -63
v 0.5 0 -63
v -0.5 1 63
v 0.5 1 63
v -0.5 1 62
v 0.5 1 62
v -0.5 1 60
v 0.5 1 60
v -0.5 1 59
v 0.5 1 59
v -62.5 1 58
v -61.5 1 58
v -43.5 1 58
v -42.5 1 58
v -22.5 1 58
v -21.5 1 58
v -8.5 1 58
v -7.5 1 58
v -6.5 1 58
v -5.5 1 58
v -1.5 1 58
v -0.5 1 58
v 0.5 1 58
v 1.5 1 58
v 5.5 1 58
v 6.5 1 58
v 7.5 1 58
v 8.5 1 58
v 21.5 1 58
v 22.5 1 58
v 42.5 1 58
v 43.5 1 58
v 61.5 1 58
v 62.5 1 58
v -62.5 1 57
v -61.5 1 57
v -43.5 1 57
v -42.5 1 57
v -22.5 1 57
v -21.5 1 57
v -8.5 1 57
v -7.5 1 57
v -6.5 1 57
v -1.5 1 57
v 1.5 1 57
v 6.5 1 57
v 7.5 1 57
v 8.5 1 57
v 21.5 1 57
v 22.5 1 57
v 42.5 1 57
v 43.5 1 57
v 61.5 1 57
v 62.5 1 57
v -6.5 1 56
v -5.5 1 56
v 5.5 1 56
v 6.5 1 56
v -6.5 1 49
v -5.5 1 49
v 5.5 1 49
v 6.5 1 49
v -62.5 1 48
v -61.5 1 48
v -43.5 1 48
v -42.5 1 48
v -22.5 1 48
v -21.5 1 48
v -8.5 1 48
v -7.5 1 48
v -6.5 1 48
v 6.5 1 48
v 7.5 1 48
v 8.5 1 48
v 21.5 1 48
v 22.5 1 48
v 42.5 1 48
v 43.5 1 48
v 61.5 1 48
v 62.5 1 48
v -62.5 1 47
v -61.5 1 47
v -43.5 1 47
v -42.5 1 47
v -22.5 1 47
v -21.5 1 47
v -8.5 1 47
v -7.5 1 47
v -6.5 1 47
v 6.5 1 47
v 7.5 1 47
v 8.5 1 47
v 21.5 1 47
v 22.5 1 47
v 42.5 1 47
v 43.5 1 47
v 61.5 1 47
v 62.5 1 47
v -6.5 1 46
v -5.5 1 46
v 5.5 1 46
v 6.5 1 46
v -6.5 1 40
v -5.5 1 40
v 5.5 1 40
v 6.5 1 40
v -62.5 1 39
v -61.5 1 39
v -43.5 1 39
v -42.5 1 39
v -22.5 1 39
v -21.5 1 39
v -8.5 1 39
v -7.5 1 39
v -6.5 1 39
v -0.5 1 39
v 0.5 1 39
v 6.5 1 39
v 7.5 1 39
v 8.5 1 39
v 21.5 1 39
v 22.5 1 39
v 42.5 1 39
v 43.5 1 39
v 61.5 1 39
v 62.5 1 39
v -62.5 1 38
v -61.5 1 38
v -43.5 1 38
v -42.5 1 38
v -22.5 1 38
v -21.5 1 38
v -8.5 1 38
v -7.5 1 38
v -6.5 1 38
v -0.5 1 38
v 0.5 1 38
v 6.5 1 38
v 7.5 1 38
v 8.5 1 38
v 21.5 1 38
v 22.5 1 38
v 42.5 1 38
v 43.5 1 38
v 61.5 1 38
v 62.5 1 38
v -6.5 1 37
v -5.5 1 37
v 5.5 1 37
v 6.5 1 37
v -6.5 1 29
v -5.5 1 29
v 5.5 1 29
v 6.5 1 29
v -62.5 1 28
v -61.5 1 28
v -43.5 1 28
v -42.5 1 28
v -22.5 1 28
v -21.5 1 28
v -8.5 1 28
v -7.5 1 28
v -6.5 1 28
v 6.5 1 28
v 7.5 1 28
v 8.5 1 28
v 21.5 1 28
v 22.5 1 28
v 42.5 1 28
v 43.5 1 28
v 61.5 1 28
v 62.5 1 28
v -62.5 1 27
v -61.5 1 27
v -43.5 1 27
v -42.5 1 27
v -22.5 1 27
v -21.5 1 27
v -8.5 1 27
v -7.5 1 27
v -6.5 1 27
v 6.5 1 27
v 7.5 1 27
v 8.5 1 27
v 21.5 1 27
v 22.5 1 27
v 42.5 1 27
v 43.5 1 27
v 61.5 1 27
v 62.5 1 27
v -6.5 1 26
v -5.5 1 26
v 5.5 1 26
v 6.5 1 26
v -6.5 1 20
v -5.5 1 20
v 5.5 1 20
v 6.5 1 20
v -62.5 1 19
v -61.5 1 19
v -43.5 1 19
v -42.5 1 19
v -22.5 1 19
v -21.5 1 19
v -8.5 1 19
v -7.5 1 19
v -6.5 1 19
v 6.5 1 19
v 7.5 1 19
v 8.5 1 19
v 21.5 1 19
v 22.5 1 19
v 42.5 1 19
v 43.5 1 19
v 61.5 1 19
v 62.5 1 19
v -62.5 1 18
v -61.5 1 18
v -43.5 1 18
v -42.5 1 18
v -22.5 1 18
v -21.5 1 18
v -8.5 1 18
v -7.5 1 18
v -6.5 1 18
v 6.5 1 18
v 7.5 1 18
v 8.5 1 18
v 21.5 1 18
v 22.5 1 18
v 42.5 1 18
v 43.5 1 18
v 61.5 1 18
v 62.5 1 18
v -6.5 1 17
v -5.5 1 17
v 5.5 1 17
v 6.5 1 17
v -1.5 1 9
v 1.5 1 9
v -6.5 1 8
v -1.5 1 8
v -0.5 1 8
v 0.5 1 8
v 1.5 1 8
v 6.5 1 8
v -0.5 1 7
v 0.5 1 7
v -0.5 1 6
v 0.5 1 6
v -0.5 1 -6
v 0.5 1 -6
v -0.5 1 -7
v 0.5 1 -7
v -0.5 1 -16
v 0.5 1 -16
v -0.5 1 -17
v 0.5 1 -17
v -0.5 1 -26
v 0.5 1 -26
v -0.5 1 -27
v 0.5 1 -27
v -0.5 1 -36
v 0.5 1 -36
v -0.5 1 -37
v 0.5 1 -37
v -0.5 1 -46
v 0.5 1 -46
v -0.5 1 -47
v 0.5 1 -47
v -0.5 1 -56
v 0.5 1 -56
v -0.5 1 -57
v 0.5 1 -57
v -0.5 1 -62
v 0.5 1 -62
v -0.5 1 -63
v 0.5 1 -63

# faces
f 11/2/1 2/2/1 1/2/1
f 12/2/1 2/2/1 11/2/1
f 13/2/1 4/2/1 3/2/1
f 14/2/1 4/2/1 13/2/1
f 15/2/1 6/2/1 5/2/1
f 16/2/1 6/2/1 15/2/1
f 17/2/1 8/2/1 7/2/1
f 18/2/1 8/2/1 17/2/1
f 19/2/1 10/2/1 9/2/1
f 20/2/1 10/2/1 19/2/1
f 40/2/1 22/2/1 21/2/1
f 41/1/1 23/1/1 22/1/1
f 41/2/1 22/2/1 40/2/1
f 42/2/1 24/2/1 23/2/1
f 42/1/1 23/1/1 41/1/1
f 43/2/1 24/2/1 42/2/1
f 44/2/1 26/2/1 25/2/1
f 45/1/1 27/1/1 26/1/1
f 45/2/1 26/2/1 44/2/1
f 46/2/1 28/2/1 27/2/1
f 46/1/1 27/1/1 45/1/1
f 47/2/1 28/2/1 46/2/1
f 48/2/1 30/2/1 29/2/1
f 49/1/1 31/1/1 30/1/1
f 49/2/1 30/2/1 48/2/1
f 50/2/1 32/2/1 31/2/1
f 50/1/1 31/1/1 49/1/1
f 51/2/1 32/2/1 50/2/1
f 52/2/1 34/2/1 33/2/1
f 53/1/1 35/1/1 34/1/1
f 53/2/1 34/2/1 52/2/1
f 54/2/1 36/2/1 35/2/1
f 54/1/1 35/1/1 53/1/1
f 55/2/1 36/2/1 54/2/1
f 56/2/1 38/2/1 37/2/1
f 57/1/1 39/1/1 38/1/1
f 57/2/1 38/2/1 56/2/1
f 58/1/1 39/1/1 57/1/1
f 81/2/1 60/2/1 59/2/1
f 82/1/1 61/1/1 60/1/1
f 82/2/1 60/2/1 81/2/1
f 83/2/1 62/2/1 61/2/1
f 83/1/1 61/1/1 82/1/1
f 84/1/1 63/1/1 62/1/1
f 84/2/1 62/2/1 83/2/1
f 85/1/1 63/1/1 84/1/1
f 86/1/1 65/1/1 64/1/1
f 87/2/1 66/2/1 65/2/1
f 87/1/1 65/1/1 86/1/1
f 88/1/1 67/1/1 66/1/1
f 88/2/1 66/2/1 87/2/1
f 89/2/1 68/2/1 67/2/1
f 89/1/1 67/1/1 88/1/1
f 90/1/1 69/1/1 68/1/1
f 90/2/1 68/2/1 89/2/1
f 91/2/1 70/2/1 69/2/1
f 91/1/1 69/1/1 90/1/1
f 92/1/1 71/1/1 70/1/1
f 92/2/1 70/2/1 91/2/1
f 93/2/1 72/2/1 71/2/1
f 93/1/1 71/1/1 92/1/1
f 94/1/1 73/1/1 72/1/1
f 94/2/1 72/2/1 93/2/1
f 95/2/1 74/2/1 73/2/1
f 95/1/1 73/1/1 94/1/1
f 96/1/1 75/1/1 74/1/1
f 96/2/1 74/2/1 95/2/1
f 97/2/1 76/2/1 75/2/1
f 97/1/1 75/1/1 96/1/1
f 98/1/1 77/1/1 76/1/1
f 98/2/1 76/2/1 97/2/1
f 99/2/1 78/2/1 77/2/1
f 99/1/1 77/1/1 98/1/1
f 100/1/1 79/1/1 78/1/1
f 100/2/1 78/2/1 99/2/1
f 101/2/1 80/2/1 79/2/1
f 101/1/1 79/1/1 100/1/1
f 102/2/1 80/2/1 101/2/1
f 103/2/2 104/2/2 125/2/2
f 104/1/2 105/1/2 126/1/2
f 125/2/2 104/2/2 126/2/2
f 105/2/2 106/2/2 127/2/2
f 126/1/2 105/1/2 127/1/2
f 106/1/2 107/1/2 128/1/2
f 127/2/2 106/2/2 128/2/2
f 128/1/2 107/1/2 129/1/2
f 108/1/2 109/1/2 130/1/2
f 109/2/2 110/2/2 131/2/2
f 130/1/2 109/1/2 131/1/2
f 110/1/2 111/1/2 132/1/2
f 131/2/2 110/2/2 132/2/2
f 111/2/2 112/2/2 133/2/2
f 132/1/2 111/1/2 133/1/2
f 112/1/2 113/1/2 134/1/2
f 133/2/2 112/2/2 134/2/2
f 113/2/2 114/2/2 135/2/2
f 134/1/2 113/1/2 135/1/2
f 114/1/2 115/1/2 136/1/2
f 135/2/2 114/2/2 136/2/2
f 115/2/2 116/2/2 137/2/2
f 136/1/2 115/1/2 137/1/2
f 116/1/2 117/1/2 138/1/2
f 137/2/2 116/2/2 138/2/2
f 117/2/2 118/2/2 139/2/2
f 138/1/2 117/1/2 139/1/2
f 118/1/2 119/1/2 140/1/2
f 139/2/2 118/2/2 140/2/2
f 119/2/2 120/2/2 141/2/2
f 140/1/2 119/1/2 141/1/2
f 120/1/2 121/1/2 142/1/2
f 141/2/2 120/2/2 142/2/2
f 121/2/2 122/2/2 143/2/2
f 142/1/2 121/1/2 143/1/2
f 122/1/2 123/1/2 144/1/2
f 143/2/2 122/2/2 144/2/2
f 123/2/2 124/2/2 145/2/2
f 144/1/2 123/1/2 145/1/2
f 145/2/2 124/2/2 146/2/2
f 147/2/2 148/2/2 166/2/2
f 148/1/2 149/1/2 167/1/2
f 166/2/2 148/2/2 167/2/2
f 149/2/2 150/2/2 168/2/2
f 167/1/2 149/1/2 168/1/2
f 168/2/2 150/2/2 169/2/2
f 151/2/2 152/2/2 170/2/2
f 152/1/2 153/1/2 171/1/2
f 170/2/2 152/2/2 171/2/2
f 153/2/2 154/2/2 172/2/2
f 171/1/2 153/1/2 172/1/2
f 172/2/2 154/2/2 173/2/2
f 155/2/2 156/2/2 174/2/2
f 156/1/2 157/1/2 175/1/2
f 174/2/2 156/2/2 175/2/2
f 157/2/2 158/2/2 176/2/2
f 175/1/2 157/1/2 176/1/2
f 176/2/2 158/2/2 177/2/2
f 159/2/2 160/2/2 178/2/2
f 160/1/2 161/1/2 179/1/2
f 178/2/2 160/2/2 179/2/2
f 161/2/2 162/2/2 180/2/2
f 179/1/2 161/1/2 180/1/2
f 180/2/2 162/2/2 181/2/2
f 163/2/2 164/2/2 182/2/2
f 164/1/2 165/1/2 183/1/2
f 182/2/2 164/2/2 183/2/2
f 183/1/2 165/1/2 184/1/2
f 185/2/2 186/2/2 195/2/2
f 195/2/2 186/2/2 196/2/2
f 187/2/2 188/2/2 197/2/2
f 197/2/2 188/2/2 198/2/2
f 189/2/2 190/2/2 199/2/2
f 199/2/2 190/2/2 200/2/2
f 191/2/2 192/2/2 201/2/2
f 201/2/2 192/2/2 202/2/2
f 193/2/2 194/2/2 203/2/2
f 203/2/2 194/2/2 204/2/2
f 207/2/3 206/2/3 205/2/3
f 208/2/3 206/2/3 207/2/3
f 211/2/3 210/2/3 209/2/3
f 212/2/3 210/2/3 211/2/3
f 213/1/3 212/1/3 211/1/3
f 214/1/3 212/1/3 213/1/3
f 215/2/3 214/2/3 213/2/3
f 216/2/3 214/2/3 215/2/3
f 217/1/3 216/1/3 215/1/3
f 218/1/3 216/1/3 217/1/3
f 219/2/3 218/2/3 217/2/3
f 220/2/3 218/2/3 219/2/3
f 221/1/3 220/1/3 219/1/3
f 222/1/3 220/1/3 221/1/3
f 223/2/3 222/2/3 221/2/3
f 224/2/3 222/2/3 223/2/3
f 225/1/3 224/1/3 223/1/3
f 226/1/3 224/1/3 225/1/3
f 227/2/3 226/2/3 225/2/3
f 228/2/3 226/2/3 227/2/3
f 229/1/3 228/1/3 227/1/3
f 230/1/3 228/1/3 229/1/3
f 231/2/3 230/2/3 229/2/3
f 232/2/3 230/2/3 231/2/3
f 235/2/3 234/2/3 233/2/3
f 236/2/3 234/2/3 235/2/3
f 237/1/3 236/1/3 235/1/3
f 238/1/3 236/1/3 237/1/3
f 239/2/3 238/2/3 237/2/3
f 240/2/3 238/2/3 239/2/3
f 241/1/3 240/1/3 239/1/3
f 242/1/3 240/1/3 241/1/3
f 243/2/3 242/2/3 241/2/3
f 244/2/3 242/2/3 243/2/3
f 245/1/3 244/1/3 243/1/3
f 246/1/3 244/1/3 245/1/3
f 247/2/3 246/2/3 245/2/3
f 248/2/3 246/2/3 247/2/3
f 249/1/3 248/1/3 247/1/3
f 250/1/3 248/1/3 249/1/3
f 251/2/3 250/2/3 249/2/3
f 252/2/3 250/2/3 251/2/3
f 253/1/3 252/1/3 251/1/3
f 254/1/3 252/1/3 253/1/3
f 255/2/3 254/2/3 253/2/3
f 256/2/3 254/2/3 255/2/3
f 259/2/3 258/2/3 257/2/3
f 260/2/3 258/2/3 259/2/3
f 261/1/3 260/1/3 259/1/3
f 262/1/3 260/1/3 261/1/3
f 263/2/3 262/2/3 261/2/3
f 264/2/3 262/2/3 263/2/3
f 265/1/3 264/1/3 263/1/3
f 266/1/3 264/1/3 265/1/3
f 267/2/3 266/2/3 265/2/3
f 268/2/3 266/2/3 267/2/3
f 269/1/3 268/1/3 267/1/3
f 270/1/3 268/1/3 269/1/3
f 271/2/3 270/2/3 269/2/3
f 272/2/3 270/2/3 271/2/3
f 273/1/3 272/1/3 271/1/3
f 274/1/3 272/1/3 273/1/3
f 277/1/3 276/1/3 275/1/3
f 278/1/3 276/1/3 277/1/3
f 279/2/3 278/2/3 277/2/3
f 280/2/3 278/2/3 279/2/3
f 281/1/3 280/1/3 279/1/3
f 282/1/3 280/1/3 281/1/3
f 283/2/3 282/2/3 281/2/3
f 284/2/3 282/2/3 283/2/3
f 285/1/3 284/1/3 283/1/3
f 286/1/3 284/1/3 285/1/3
f 287/2/3 286/2/3 285/2/3
f 288/2/3 286/2/3 287/2/3
f 289/1/3 288/1/3 287/1/3
f 290/1/3 288/1/3 289/1/3
f 291/2/3 290/2/3 289/2/3
f 292/2/3 290/2/3 291/2/3
f 295/2/3 294/2/3 293/2/3
f 296/2/3 294/2/3 295/2/3
f 297/1/3 296/1/3 295/1/3
f 298/1/3 296/1/3 297/1/3
f 299/2/3 298/2/3 297/2/3
f 300/2/3 298/2/3 299/2/3
f 301/1/3 300/1/3 299/1/3
f 302/1/3 300/1/3 301/1/3
f 303/2/3 302/2/3 301/2/3
f 304/2/3 302/2/3 303/2/3
f 305/1/3 304/1/3 303/1/3
f 306/1/3 304/1/3 305/1/3
f 307/2/3 306/2/3 305/2/3
f 308/2/3 306/2/3 307/2/3
f 309/1/3 308/1/3 307/1/3
f 310/1/3 308/1/3 309/1/3
f 313/1/3 312/1/3 311/1/3
f 314/1/3 312/1/3 313/1/3
f 315/2/3 314/2/3 313/2/3
f 316/2/3 314/2/3 315/2/3
f 317/1/3 316/1/3 315/1/3
f 318/1/3 316/1/3 317/1/3
f 319/2/3 318/2/3 317/2/3
f 320/2/3 318/2/3 319/2/3
f 321/1/3 320/1/3 319/1/3
f 322/1/3 320/1/3 321/1/3
f 323/2/3 322/2/3 321/2/3
f 324/2/3 322/2/3 323/2/3
f 325/1/3 324/1/3 323/1/3
f 326/1/3 324/1/3 325/1/3
f 327/2/3 326/2/3 325/2/3
f 328/2/3 326/2/3 327/2/3
f 331/2/3 330/2/3 329/2/3
f 332/2/3 330/2/3 331/2/3
f 333/1/3 332/1/3 331/1/3
f 334/1/3 332/1/3 333/1/3
f 335/2/3 334/2/3 333/2/3
f 336/2/3 334/2/3 335/2/3
f 337/1/3 336/1/3 335/1/3
f 338/1/3 336/1/3 337/1/3
f 339/2/3 338/2/3 337/2/3
f 340/2/3 338/2/3 339/2/3
f 341/1/3 340/1/3 339/1/3
f 342/1/3 340/1/3 341/1/3
f 343/2/3 342/2/3 341/2/3
f 344/2/3 342/2/3 343/2/3
f 345/1/3 344/1/3 343/1/3
f 346/1/3 344/1/3 345/1/3
f 349/1/3 348/1/3 347/1/3
f 350/1/3 348/1/3 349/1/3
f 351/2/3 350/2/3 349/2/3
f 352/2/3 350/2/3 351/2/3
f 353/1/3 352/1/3 351/1/3
f 354/1/3 352/1/3 353/1/3
f 355/2/3 354/2/3 353/2/3
f 356/2/3 354/2/3 355/2/3
f 357/1/3 356/1/3 355/1/3
f 358/1/3 356/1/3 357/1/3
f 359/2/3 358/2/3 357/2/3
f 360/2/3 358/2/3 359/2/3
f 361/1/3 360/1/3 359/1/3
f 362/1/3 360/1/3 361/1/3
f 363/2/3 362/2/3 361/2/3
f 364/2/3 362/2/3 363/2/3
f 367/2/3 366/2/3 365/2/3
f 368/2/3 366/2/3 367/2/3
f 369/1/3 368/1/3 367/1/3
f 370/1/3 368/1/3 369/1/3
f 371/2/3 370/2/3 369/2/3
f 372/2/3 370/2/3 371/2/3
f 373/1/3 372/1/3 371/1/3
f 374/1/3 372/1/3 373/1/3
f 375/2/3 374/2/3 373/2/3
f 376/2/3 374/2/3 375/2/3
f 377/1/3 376/1/3 375/1/3
f 378/1/3 376/1/3 377/1/3
f 379/2/3 378/2/3 377/2/3
f 380/2/3 378/2/3 379/2/3
f 381/1/3 380/1/3 379/1/3
f 382/1/3 380/1/3 381/1/3
f 385/1/3 384/1/3 383/1/3
f 386/1/3 384/1/3 385/1/3
f 387/2/3 386/2/3 385/2/3
f 388/2/3 386/2/3 387/2/3
f 389/1/3 388/1/3 387/1/3
f 390/1/3 388/1/3 389/1/3
f 391/2/3 390/2/3 389/2/3
f 392/2/3 390/2/3 391/2/3
f 393/1/3 392/1/3 391/1/3
f 394/1/3 392/1/3 393/1/3
f 395/2/3 394/2/3 393/2/3
f 396/2/3 394/2/3 395/2/3
f 397/1/3 396/1/3 395/1/3
f 398/1/3 396/1/3 397/1/3
f 399/2/3 398/2/3 397/2/3
f 400/2/3 398/2/3 399/2/3
f 401/2/4 402/2/4 403/2/4
f 403/2/4 402/2/4 404/2/4
f 403/1/4 404/1/4 405/1/4
f 405/1/4 404/1/4 406/1/4
f 405/2/4 406/2/4 407/2/4
f 407/2/4 406/2/4 408/2/4
f 407/1/4 408/1/4 409/1/4
f 409/1/4 408/1/4 410/1/4
f 409/2/4 410/2/4 411/2/4
f 411/2/4 410/2/4 412/2/4
f 411/1/4 412/1/4 413/1/4
f 413/1/4 412/1/4 414/1/4
f 413/2/4 414/2/4 415/2/4
f 415/2/4 414/2/4 416/2/4
f 415/1/4 416/1/4 417/1/4
f 417/1/4 416/1/4 418/1/4
f 419/1/4 420/1/4 421/1/4
f 421/1/4 420/1/4 422/1/4
f 421/2/4 422/2/4 423/2/4
f 423/2/4 422/2/4 424/2/4
f 423/1/4 424/1/4 425/1/4
f 425/1/4 424/1/4 426/1/4
f 425/2/4 426/2/4 427/2/4
f 427/2/4 426/2/4 428/2/4
f 427/1/4 428/1/4 429/1/4
f 429/1/4 428/1/4 430/1/4
f 429/2/4 430/2/4 431/2/4
f 431/2/4 430/2/4 432/2/4
f 431/1/4 432/1/4 433/1/4
f 433/1/4 432/1/4 434/1/4
f 433/2/4 434/2/4 435/2/4
f 435/2/4 434/2/4 436/2/4
f 437/2/4 438/2/4 439/2/4
f 439/2/4 438/2/4 440/2/4
f 439/1/4 440/1/4 441/1/4
f 441/1/4 440/1/4 442/1/4
f 441/2/4 442/2/4 443/2/4
f 443/2/4 442/2/4 444/2/4
f 443/1/4 444/1/4 445/1/4
f 445/1/4 444/1/4 446/1/4
f 445/2/4 446/2/4 447/2/4
f 447/2/4 446/2/4 448/2/4
f 447/1/4 448/1/4 449/1/4
f 449/1/4 448/1/4 450/1/4
f 449/2/4 450/2/4 451/2/4
f 451/2/4 450/2/4 452/2/4
f 451/1/4 452/1/4 453/1/4
f 453/1/4 452/1/4 454/1/4
f 455/1/4 456/1/4 457/1/4
f 457/1/4 456/1/4 458/1/4
f 457/2/4 458/2/4 459/2/4
f 459/2/4 458/2/4 460/2/4
f 459/1/4 460/1/4 461/1/4
f 461/1/4 460/1/4 462/1/4
f 461/2/4 462/2/4 463/2/4
f 463/2/4 462/2/4 464/2/4
f 463/1/4 464/1/4 465/1/4
f 465/1/4 464/1/4 466/1/4
f 465/2/4 466/2/4 467/2/4
f 467/2/4 466/2/4 468/2/4
f 467/1/4 468/1/4 469/1/4
f 469/1/4 468/1/4 470/1/4
f 469/2/4 470/2/4 471/2/4
f 471/2/4 470/2/4 472/2/4
f 473/2/4 474/2/4 475/2/4
f 475/2/4 474/2/4 476/2/4
f 475/1/4 476/1/4 477/1/4
f 477/1/4 476/1/4 478/1/4
f 477/2/4 478/2/4 479/2/4
f 479/2/4 478/2/4 480/2/4
f 479/1/4 480/1/4 481/1/4
f 481/1/4 480/1/4 482/1/4
f 481/2/4 482/2/4 483/2/4
f 483/2/4 482/2/4 484/2/4
f 483/1/4 484/1/4 485/1/4
f 485/1/4 484/1/4 486/1/4
f 485/2/4 486/2/4 487/2/4
f 487/2/4 486/2/4 488/2/4
f 487/1/4 488/1/4 489/1/4
f 489/1/4 488/1/4 490/1/4
f 491/1/4 492/1/4 493/1/4
f 493/1/4 492/1/4 494/1/4
f 493/2/4 494/2/4 495/2/4
f 495/2/4 494/2/4 496/2/4
f 495/1/4 496/1/4 497/1/4
f 497/1/4 496/1/4 498/1/4
f 497/2/4 498/2/4 499/2/4
f 499/2/4 498/2/4 500/2/4
f 499/1/4 500/1/4 501/1/4
f 501/1/4 500/1/4 502/1/4
f 501/2/4 502/2/4 503/2/4
f 503/2/4 502/2/4 504/2/4
f 503/1/4 504/1/4 505/1/4
f 505/1/4 504/1/4 506/1/4
f 505/2/4 506/2/4 507/2/4
f 507/2/4 506/2/4 508/2/4
f 509/2/4 510/2/4 511/2/4
f 511/2/4 510/2/4 512/2/4
f 511/1/4 512/1/4 513/1/4
f 513/1/4 512/1/4 514/1/4
f 513/2/4 514/2/4 515/2/4
f 515/2/4 514/2/4 516/2/4
f 515/1/4 516/1/4 517/1/4
f 517/1/4 516/1/4 518/1/4
f 517/2/4 518/2/4 519/2/4
f 519/2/4 518/2/4 520/2/4
f 519/1/4 520/1/4 521/1/4
f 521/1/4 520/1/4 522/1/4
f 521/2/4 522/2/4 523/2/4
f 523/2/4 522/2/4 524/2/4
f 523/1/4 524/1/4 525/1/4
f 525/1/4 524/1/4 526/1/4
f 527/1/4 528/1/4 529/1/4
f 529/1/4 528/1/4 530/1/4
f 529/2/4 530/2/4 531/2/4
f 531/2/4 530/2/4 532/2/4
f 531/1/4 532/1/4 533/1/4
f 533/1/4 532/1/4 534/1/4
f 533/2/4 534/2/4 535/2/4
f 535/2/4 534/2/4 536/2/4
f 535/1/4 536/1/4 537/1/4
f 537/1/4 536/1/4 538/1/4
f 537/2/4 538/2/4 539/2/4
f 539/2/4 538/2/4 540/2/4
f 539/1/4 540/1/4 541/1/4
f 541/1/4 540/1/4 542/1/4
f 541/2/4 542/2/4 543/2/4
f 543/2/4 542/2/4 544/2/4
f 545/2/4 546/2/4 547/2/4
f 547/2/4 546/2/4 548/2/4
f 547/1/4 548/1/4 549/1/4
f 549/1/4 548/1/4 550/1/4
f 549/2/4 550/2/4 551/2/4
f 551/2/4 550/2/4 552/2/4
f 551/1/4 552/1/4 553/1/4
f 553/1/4 552/1/4 554/1/4
f 553/2/4 554/2/4 555/2/4
f 555/2/4 554/2/4 556/2/4
f 555/1/4 556/1/4 557/1/4
f 557/1/4 556/1/4 558/1/4
f 557/2/4 558/2/4 559/2/4
f 559/2/4 558/2/4 560/2/4
f 559/1/4 560/1/4 561/1/4
f 561/1/4 560/1/4 562/1/4
f 563/1/4 564/1/4 565/1/4
f 565/1/4 564/1/4 566/1/4
f 565/2/4 566/2/4 567/2/4
f 567/2/4 566/2/4 568/2/4
f 567/1/4 568/1/4 569/1/4
f 569/1/4 568/1/4 570/1/4
f 569/2/4 570/2/4 571/2/4
f 571/2/4 570/2/4 572/2/4
f 571/1/4 572/1/4 573/1/4
f 573/1/4 572/1/4 574/1/4
f 573/2/4 574/2/4 575/2/4
f 575/2/4 574/2/4 576/2/4
f 575/1/4 576/1/4 577/1/4
f 577/1/4 576/1/4 578/1/4
f 577/2/4 578/2/4 579/2/4
f 579/2/4 578/2/4 580/2/4
f 581/1/4 582/1/4 583/1/4
f 583/1/4 582/1/4 584/1/4
f 583/2/4 584/2/4 585/2/4
f 585/2/4 584/2/4 586/2/4
f 587/2/4 588/2/4 589/2/4
f 589/2/4 588/2/4 590/2/4
f 589/1/4 590/1/4 591/1/4
f 591/1/4 590/1/4 592/1/4
f 593/2/4 594/2/4 595/2/4
f 595/2/4 594/2/4 596/2/4
f 599/2/5 598/2/5 597/2/5
f 600/2/5 598/2/5 599/2/5
f 601/1/5 600/1/5 599/1/5
f 602/1/5 600/1/5 601/1/5
f 603/2/5 602/2/5 601/2/5
f 604/2/5 602/2/5 603/2/5
f 616/1/5 604/1/5 603/1/5
f 617/1/5 604/1/5 616/1/5
f 629/2/5 606/2/5 605/2/5
f 630/1/5 607/1/5 606/1/5
f 630/2/5 606/2/5 629/2/5
f 631/2/5 608/2/5 607/2/5
f 631/1/5 607/1/5 630/1/5
f 632/1/5 609/1/5 608/1/5
f 632/2/5 608/2/5 631/2/5
f 633/2/5 610/2/5 609/2/5
f 633/1/5 609/1/5 632/1/5
f 634/1/5 611/1/5 610/1/5
f 634/2/5 610/2/5 633/2/5
f 635/2/5 612/2/5 611/2/5
f 635/1/5 611/1/5 634/1/5
f 636/1/5 613/1/5 612/1/5
f 636/2/5 612/2/5 635/2/5
f 637/2/5 614/2/5 613/2/5
f 637/1/5 613/1/5 636/1/5
f 638/2/5 617/2/5 616/2/5
f 638/2/5 616/2/5 615/2/5
f 638/1/5 615/1/5 614/1/5
f 638/2/5 618/2/5 617/2/5
f 639/1/5 619/1/5 618/1/5
f 639/2/5 618/2/5 638/2/5
f 640/2/5 620/2/5 619/2/5
f 640/1/5 621/1/5 620/1/5
f 641/2/5 622/2/5 621/2/5
f 641/1/5 621/1/5 640/1/5
f 642/1/5 623/1/5 622/1/5
f 642/2/5 622/2/5 641/2/5
f 643/2/5 624/2/5 623/2/5
f 643/1/5 623/1/5 642/1/5
f 644/1/5 625/1/5 624/1/5
f 644/2/5 624/2/5 643/2/5
f 645/2/5 626/2/5 625/2/5
f 645/1/5 625/1/5 644/1/5
f 646/1/5 627/1/5 626/1/5
f 646/2/5 626/2/5 645/2/5
f 647/2/5 628/2/5 627/2/5
f 647/1/5 627/1/5 646/1/5
f 648/2/5 628/2/5 647/2/5
f 649/2/5 614/2/5 637/2/5
f 650/1/5 639/1/5 638/1/5
f 650/2/5 614/2/5 649/2/5
f 650/1/5 638/1/5 614/1/5
f 651/2/5 640/2/5 619/2/5
f 651/1/5 639/1/5 650/1/5
f 651/1/5 619/1/5 639/1/5
f 652/2/5 640/2/5 651/2/5
f 653/1/5 650/1/5 649/1/5
f 653/1/5 651/1/5 650/1/5
f 653/1/5 652/1/5 651/1/5
f 654/1/5 652/1/5 653/1/5
f 655/1/5 652/1/5 654/1/5
f 656/1/5 652/1/5 655/1/5
f 665/2/5 654/2/5 653/2/5
f 666/2/5 656/2/5 655/2/5
f 675/2/5 658/2/5 657/2/5
f 676/1/5 659/1/5 658/1/5
f 676/2/5 658/2/5 675/2/5
f 677/2/5 660/2/5 659/2/5
f 677/1/5 659/1/5 676/1/5
f 678/1/5 661/1/5 660/1/5
f 678/2/5 660/2/5 677/2/5
f 679/2/5 662/2/5 661/2/5
f 679/1/5 661/1/5 678/1/5
f 680/1/5 663/1/5 662/1/5
f 680/2/5 662/2/5 679/2/5
f 681/2/5 664/2/5 663/2/5
f 681/1/5 663/1/5 680/1/5
f 682/1/5 665/1/5 664/1/5
f 682/2/5 664/2/5 681/2/5
f 683/2/5 654/2/5 665/2/5
f 683/1/5 665/1/5 682/1/5
f 684/2/5 666/2/5 655/2/5
f 684/1/5 667/1/5 666/1/5
f 685/2/5 668/2/5 667/2/5
f 685/1/5 667/1/5 684/1/5
f 686/1/5 669/1/5 668/1/5
f 686/2/5 668/2/5 685/2/5
f 687/2/5 670/2/5 669/2/5
f 687/1/5 669/1/5 686/1/5
f 688/1/5 671/1/5 670/1/5
f 688/2/5 670/2/5 687/2/5
f 689/2/5 672/2/5 671/2/5
f 689/1/5 671/1/5 688/1/5
f 690/1/5 673/1/5 672/1/5
f 690/2/5 672/2/5 689/2/5
f 691/2/5 674/2/5 673/2/5
f 691/1/5 673/1/5 690/1/5
f 692/2/5 674/2/5 691/2/5
f 693/2/5 654/2/5 683/2/5
f 694/1/5 655/1/5 654/1/5
f 694/2/5 654/2/5 693/2/5
f 695/2/5 684/2/5 655/2/5
f 695/1/5 655/1/5 694/1/5
f 696/2/5 684/2/5 695/2/5
f 697/1/5 694/1/5 693/1/5
f 697/1/5 695/1/5 694/1/5
f 697/1/5 696/1/5 695/1/5
f 698/1/5 696/1/5 697/1/5
f 699/1/5 696/1/5 698/1/5
f 700/1/5 696/1/5 699/1/5
f 709/2/5 698/2/5 697/2/5
f 710/1/5 699/1/5 698/1/5
f 711/1/5 699/1/5 710/1/5
f 712/2/5 700/2/5 699/2/5
f 721/2/5 702/2/5 701/2/5
f 722/1/5 703/1/5 702/1/5
f 722/2/5 702/2/5 721/2/5
f 723/2/5 704/2/5 703/2/5
f 723/1/5 703/1/5 722/1/5
f 724/1/5 705/1/5 704/1/5
f 724/2/5 704/2/5 723/2/5
f 725/2/5 706/2/5 705/2/5
f 725/1/5 705/1/5 724/1/5
f 726/1/5 707/1/5 706/1/5
f 726/2/5 706/2/5 725/2/5
f 727/2/5 708/2/5 707/2/5
f 727/1/5 707/1/5 726/1/5
f 728/1/5 709/1/5 708/1/5
f 728/2/5 708/2/5 727/2/5
f 729/2/5 698/2/5 709/2/5
f 729/1/5 709/1/5 728/1/5
f 730/2/5 711/2/5 710/2/5
f 730/1/5 710/1/5 698/1/5
f 731/1/5 699/1/5 711/1/5
f 731/2/5 711/2/5 730/2/5
f 732/2/5 712/2/5 699/2/5
f 732/1/5 713/1/5 712/1/5
f 733/2/5 714/2/5 713/2/5
f 733/1/5 713/1/5 732/1/5
f 734/1/5 715/1/5 714/1/5
f 734/2/5 714/2/5 733/2/5
f 735/2/5 716/2/5 715/2/5
f 735/1/5 715/1/5 734/1/5
f 736/1/5 717/1/5 716/1/5
f 736/2/5 716/2/5 735/2/5
f 737/2/5 718/2/5 717/2/5
f 737/1/5 717/1/5 736/1/5
f 738/1/5 719/1/5 718/1/5
f 738/2/5 718/2/5 737/2/5
f 739/2/5 720/2/5 719/2/5
f 739/1/5 719/1/5 738/1/5
f 740/2/5 720/2/5 739/2/5
f 741/2/5 698/2/5 729/2/5
f 742/1/5 730/1/5 698/1/5
f 742/2/5 698/2/5 741/2/5
f 742/1/5 731/1/5 730/1/5
f 743/1/5 699/1/5 731/1/5
f 743/1/5 731/1/5 742/1/5
f 743/2/5 732/2/5 699/2/5
f 744/2/5 732/2/5 743/2/5
f 745/1/5 742/1/5 741/1/5
f 745/1/5 743/1/5 742/1/5
f 745/1/5 744/1/5 743/1/5
f 746/1/5 744/1/5 745/1/5
f 747/1/5 744/1/5 746/1/5
f 748/1/5 744/1/5 747/1/5
f 757/2/5 746/2/5 745/2/5
f 758/2/5 748/2/5 747/2/5
f 767/2/5 750/2/5 749/2/5
f 768/1/5 751/1/5 750/1/5
f 768/2/5 750/2/5 767/2/5
f 769/2/5 752/2/5 751/2/5
f 769/1/5 751/1/5 768/1/5
f 770/1/5 753/1/5 752/1/5
f 770/2/5 752/2/5 769/2/5
f 771/2/5 754/2/5 753/2/5
f 771/1/5 753/1/5 770/1/5
f 772/1/5 755/1/5 754/1/5
f 772/2/5 754/2/5 771/2/5
f 773/2/5 756/2/5 755/2/5
f 773/1/5 755/1/5 772/1/5
f 774/1/5 757/1/5 756/1/5
f 774/2/5 756/2/5 773/2/5
f 775/2/5 746/2/5 757/2/5
f 775/1/5 757/1/5 774/1/5
f 776/2/5 758/2/5 747/2/5
f 776/1/5 759/1/5 758/1/5
f 777/2/5 760/2/5 759/2/5
f 777/1/5 759/1/5 776/1/5
f 778/1/5 761/1/5 760/1/5
f 778/2/5 760/2/5 777/2/5
f 779/2/5 762/2/5 761/2/5
f 779/1/5 761/1/5 778/1/5
f 780/1/5 763/1/5 762/1/5
f 780/2/5 762/2/5 779/2/5
f 781/2/5 764/2/5 763/2/5
f 781/1/5 763/1/5 780/1/5
f 782/1/5 765/1/5 764/1/5
f 782/2/5 764/2/5 781/2/5
f 783/2/5 766/2/5 765/2/5
f 783/1/5 765/1/5 782/1/5
f 784/2/5 766/2/5 783/2/5
f 785/2/5 746/2/5 775/2/5
f 786/1/5 747/1/5 746/1/5
f 786/2/5 746/2/5 785/2/5
f 787/2/5 776/2/5 747/2/5
f 787/1/5 747/1/5 786/1/5
f 788/2/5 776/2/5 787/2/5
f 789/1/5 786/1/5 785/1/5
f 789/1/5 787/1/5 786/1/5
f 789/1/5 788/1/5 787/1/5
f 790/1/5 788/1/5 789/1/5
f 791/1/5 788/1/5 790/1/5
f 792/1/5 788/1/5 791/1/5
f 801/2/5 790/2/5 789/2/5
f 802/2/5 792/2/5 791/2/5
f 811/2/5 794/2/5 793/2/5
f 812/1/5 795/1/5 794/1/5
f 812/2/5 794/2/5 811/2/5
f 813/2/5 796/2/5 795/2/5
f 813/1/5 795/1/5 812/1/5
f 814/1/5 797/1/5 796/1/5
f 814/2/5 796/2/5 813/2/5
f 815/2/5 798/2/5 797/2/5
f 815/1/5 797/1/5 814/1/5
f 816/1/5 799/1/5 798/1/5
f 816/2/5 798/2/5 815/2/5
f 817/2/5 800/2/5 799/2/5
f 817/1/5 799/1/5 816/1/5
f 818/1/5 801/1/5 800/1/5
f 818/2/5 800/2/5 817/2/5
f 819/2/5 790/2/5 801/2/5
f 819/1/5 801/1/5 818/1/5
f 820/2/5 802/2/5 791/2/5
f 820/1/5 803/1/5 802/1/5
f 821/2/5 804/2/5 803/2/5
f 821/1/5 803/1/5 820/1/5
f 822/1/5 805/1/5 804/1/5
f 822/2/5 804/2/5 821/2/5
f 823/2/5 806/2/5 805/2/5
f 823/1/5 805/1/5 822/1/5
f 824/1/5 807/1/5 806/1/5
f 824/2/5 806/2/5 823/2/5
f 825/2/5 808/2/5 807/2/5
f 825/1/5 807/1/5 824/1/5
f 826/1/5 809/1/5 808/1/5
f 826/2/5 808/2/5 825/2/5
f 827/2/5 810/2/5 809/2/5
f 827/1/5 809/1/5 826/1/5
f 828/2/5 810/2/5 827/2/5
f 829/2/5 790/2/5 819/2/5
f 830/1/5 791/1/5 790/1/5
f 830/2/5 790/2/5 829/2/5
f 831/2/5 820/2/5 791/2/5
f 831/1/5 791/1/5 830/1/5
f 832/2/5 820/2/5 831/2/5
f 833/1/5 830/1/5 829/1/5
f 833/1/5 831/1/5 830/1/5
f 833/1/5 832/1/5 831/1/5
f 834/1/5 832/1/5 833/1/5
f 835/1/5 833/1/5 829/1/5
f 836/2/5 834/2/5 833/2/5
f 836/1/5 833/1/5 835/1/5
f 837/2/5 834/2/5 836/2/5
f 838/2/5 834/2/5 837/2/5
f 839/1/5 832/1/5 834/1/5
f 839/2/5 834/2/5 838/2/5
f 840/1/5 832/1/5 839/1/5
f 841/1/5 838/1/5 837/1/5
f 842/1/5 838/1/5 841/1/5
f 843/2/5 842/2/5 841/2/5
f 844/2/5 842/2/5 843/2/5
f 845/1/5 844/1/5 843/1/5
f 846/1/5 844/1/5 845/1/5
f 847/2/5 846/2/5 845/2/5
f 848/2/5 846/2/5 847/2/5
f 849/1/5 848/1/5 847/1/5
f 850/1/5 848/1/5 849/1/5
f 851/2/5 850/2/5 849/2/5
f 852/2/5 850/2/5 851/2/5
f 853/1/5 852/1/5 851/1/5
f 854/1/5 852/1/5 853/1/5
f 855/2/5 854/2/5 853/2/5
f 856/2/5 854/2/5 855/2/5
f 857/1/5 856/1/5 855/1/5
f 858/1/5 856/1/5 857/1/5
f 859/2/5 858/2/5 857/2/5
f 860/2/5 858/2/5 859/2/5
f 861/1/5 860/1/5 859/1/5
f 862/1/5 860/1/5 861/1/5
f 863/2/5 862/2/5 861/2/5
f 864/2/5 862/2/5 863/2/5
f 865/1/5 864/1/5 863/1/5
f 866/1/5 864/1/5 865/1/5
f 867/2/5 866/2/5 865/2/5
f 868/2/5 866/2/5 867/2/5
f 869/1/5 868/1/5 867/1/5
f 870/1/5 868/1/5 869/1/5
f 871/2/5 870/2/5 869/2/5
f 872/2/5 870/2/5 871/2/5
f 873/2/6 874/2/6 875/2/6
f 875/2/6 874/2/6 876/2/6
f 875/1/6 876/1/6 877/1/6
f 877/1/6 876/1/6 878/1/6
f 877/2/6 878/2/6 879/2/6
f 879/2/6 878/2/6 880/2/6
f 879/1/6 880/1/6 892/1/6
f 892/1/6 880/1/6 893/1/6
f 881/2/6 882/2/6 905/2/6
f 882/1/6 883/1/6 906/1/6
f 905/2/6 882/2/6 906/2/6
f 883/2/6 884/2/6 907/2/6
f 906/1/6 883/1/6 907/1/6
f 884/1/6 885/1/6 908/1/6
f 907/2/6 884/2/6 908/2/6
f 885/2/6 886/2/6 909/2/6
f 908/1/6 885/1/6 909/1/6
f 886/1/6 887/1/6 910/1/6
f 909/2/6 886/2/6 910/2/6
f 887/2/6 888/2/6 911/2/6
f 910/1/6 887/1/6 911/1/6
f 888/1/6 889/1/6 912/1/6
f 911/2/6 888/2/6 912/2/6
f 889/2/6 890/2/6 913/2/6
f 912/1/6 889/1/6 913/1/6
f 892/2/6 893/2/6 914/2/6
f 891/2/6 892/2/6 914/2/6
f 890/1/6 891/1/6 914/1/6
f 893/2/6 894/2/6 914/2/6
f 894/1/6 895/1/6 915/1/6
f 914/2/6 894/2/6 915/2/6
f 895/2/6 896/2/6 916/2/6
f 896/1/6 897/1/6 916/1/6
f 897/2/6 898/2/6 917/2/6
f 916/1/6 897/1/6 917/1/6
f 898/1/6 899/1/6 918/1/6
f 917/2/6 898/2/6 918/2/6
f 899/2/6 900/2/6 919/2/6
f 918/1/6 899/1/6 919/1/6
f 900/1/6 901/1/6 920/1/6
f 919/2/6 900/2/6 920/2/6
f 901/2/6 902/2/6 921/2/6
f 920/1/6 901/1/6 921/1/6
f 902/1/6 903/1/6 922/1/6
f 921/2/6 902/2/6 922/2/6
f 903/2/6 904/2/6 923/2/6
f 922/1/6 903/1/6 923/1/6
f 923/2/6 904/2/6 924/2/6
f 913/2/6 890/2/6 925/2/6
f 914/1/6 915/1/6 926/1/6
f 925/2/6 890/2/6 926/2/6
f 890/1/6 914/1/6 926/1/6
f 895/2/6 916/2/6 927/2/6
f 926/1/6 915/1/6 927/1/6
f 915/1/6 895/1/6 927/1/6
f 927/2/6 916/2/6 928/2/6
f 925/1/6 926/1/6 929/1/6
f 926/1/6 927/1/6 929/1/6
f 927/1/6 928/1/6 929/1/6
f 929/1/6 928/1/6 930/1/6
f 930/1/6 928/1/6 931/1/6
f 931/1/6 928/1/6 932/1/6
f 929/2/6 930/2/6 941/2/6
f 931/2/6 932/2/6 942/2/6
f 933/2/6 934/2/6 951/2/6
f 934/1/6 935/1/6 952/1/6
f 951/2/6 934/2/6 952/2/6
f 935/2/6 936/2/6 953/2/6
f 952/1/6 935/1/6 953/1/6
f 936/1/6 937/1/6 954/1/6
f 953/2/6 936/2/6 954/2/6
f 937/2/6 938/2/6 955/2/6
f 954/1/6 937/1/6 955/1/6
f 938/1/6 939/1/6 956/1/6
f 955/2/6 938/2/6 956/2/6
f 939/2/6 940/2/6 957/2/6
f 956/1/6 939/1/6 957/1/6
f 940/1/6 941/1/6 958/1/6
f 957/2/6 940/2/6 958/2/6
f 941/2/6 930/2/6 959/2/6
f 958/1/6 941/1/6 959/1/6
f 931/2/6 942/2/6 960/2/6
f 942/1/6 943/1/6 960/1/6
f 943/2/6 944/2/6 961/2/6
f 960/1/6 943/1/6 961/1/6
f 944/1/6 945/1/6 962/1/6
f 961/2/6 944/2/6 962/2/6
f 945/2/6 946/2/6 963/2/6
f 962/1/6 945/1/6 963/1/6
f 946/1/6 947/1/6 964/1/6
f 963/2/6 946/2/6 964/2/6
f 947/2/6 948/2/6 965/2/6
f 964/1/6 947/1/6 965/1/6
f 948/1/6 949/1/6 966/1/6
f 965/2/6 948/2/6 966/2/6
f 949/2/6 950/2/6 967/2/6
f 966/1/6 949/1/6 967/1/6
f 967/2/6 950/2/6 968/2/6
f 959/2/6 930/2/6 969/2/6
f 930/1/6 931/1/6 970/1/6
f 969/2/6 930/2/6 970/2/6
f 931/2/6 960/2/6 971/2/6
f 970/1/6 931/1/6 971/1/6
f 971/2/6 960/2/6 972/2/6
f 969/1/6 970/1/6 973/1/6
f 970/1/6 971/1/6 973/1/6
f 971/1/6 972/1/6 973/1/6
f 973/1/6 972/1/6 974/1/6
f 974/1/6 972/1/6 975/1/6
f 975/1/6 972/1/6 976/1/6
f 973/2/6 974/2/6 985/2/6
f 974/1/6 975/1/6 986/1/6
f 986/1/6 975/1/6 987/1/6
f 975/2/6 976/2/6 988/2/6
f 977/2/6 978/2/6 997/2/6
f 978/1/6 979/1/6 998/1/6
f 997/2/6 978/2/6 998/2/6
f 979/2/6 980/2/6 999/2/6
f 998/1/6 979/1/6 999/1/6
f 980/1/6 981/1/6 1000/1/6
f 999/2/6 980/2/6 1000/2/6
f 981/2/6 982/2/6 1001/2/6
f 1000/1/6 981/1/6 1001/1/6
f 982/1/6 983/1/6 1002/1/6
f 1001/2/6 982/2/6 1002/2/6
f 983/2/6 984/2/6 1003/2/6
f 1002/1/6 983/1/6 1003/1/6
f 984/1/6 985/1/6 1004/1/6
f 1003/2/6 984/2/6 1004/2/6
f 985/2/6 974/2/6 1005/2/6
f 1004/1/6 985/1/6 1005/1/6
f 986/2/6 987/2/6 1006/2/6
f 974/1/6 986/1/6 1006/1/6
f 987/1/6 975/1/6 1007/1/6
f 1006/2/6 987/2/6 1007/2/6
f 975/2/6 988/2/6 1008/2/6
f 988/1/6 989/1/6 1008/1/6
f 989/2/6 990/2/6 1009/2/6
f 1008/1/6 989/1/6 1009/1/6
f 990/1/6 991/1/6 1010/1/6
f 1009/2/6 990/2/6 1010/2/6
f 991/2/6 992/2/6 1011/2/6
f 1010/1/6 991/1/6 1011/1/6
f 992/1/6 993/1/6 1012/1/6
f 1011/2/6 992/2/6 1012/2/6
f 993/2/6 994/2/6 1013/2/6
f 1012/1/6 993/1/6 1013/1/6
f 994/1/6 995/1/6 1014/1/6
f 1013/2/6 994/2/6 1014/2/6
f 995/2/6 996/2/6 1015/2/6
f 1014/1/6 995/1/6 1015/1/6
f 1015/2/6 996/2/6 1016/2/6
f 1005/2/6 974/2/6 1017/2/6
f 974/1/6 1006/1/6 1018/1/6
f 1017/2/6 974/2/6 1018/2/6
f 1006/1/6 1007/1/6 1018/1/6
f 1007/1/6 975/1/6 1019/1/6
f 1018/1/6 1007/1/6 1019/1/6
f 975/2/6 1008/2/6 1019/2/6
f 1019/2/6 1008/2/6 1020/2/6
f 1017/1/6 1018/1/6 1021/1/6
f 1018/1/6 1019/1/6 1021/1/6
f 1019/1/6 1020/1/6 1021/1/6
f 1021/1/6 1020/1/6 1022/1/6
f 1022/1/6 1020/1/6 1023/1/6
f 1023/1/6 1020/1/6 1024/1/6
f 1021/2/6 1022/2/6 1033/2/6
f 1023/2/6 1024/2/6 1034/2/6
f 1025/2/6 1026/2/6 1043/2/6
f 1026/1/6 1027/1/6 1044/1/6
f 1043/2/6 1026/2/6 1044/2/6
f 1027/2/6 1028/2/6 1045/2/6
f 1044/1/6 1027/1/6 1045/1/6
f 1028/1/6 1029/1/6 1046/1/6
f 1045/2/6 1028/2/6 1046/2/6
f 1029/2/6 1030/2/6 1047/2/6
f 1046/1/6 1029/1/6 1047/1/6
f 1030/1/6 1031/1/6 1048/1/6
f 1047/2/6 1030/2/6 1048/2/6
f 1031/2/6 1032/2/6 1049/2/6
f 1048/1/6 1031/1/6 1049/1/6
f 1032/1/6 1033/1/6 1050/1/6
f 1049/2/6 1032/2/6 1050/2/6
f 1033/2/6 1022/2/6 1051/2/6
f 1050/1/6 1033/1/6 1051/1/6
f 1023/2/6 1034/2/6 1052/2/6
f 1034/1/6 1035/1/6 1052/1/6
f 1035/2/6 1036/2/6 1053/2/6
f 1052/1/6 1035/1/6 1053/1/6
f 1036/1/6 1037/1/6 1054/1/6
f 1053/2/6 1036/2/6 1054/2/6
f 1037/2/6 1038/2/6 1055/2/6
f 1054/1/6 1037/1/6 1055/1/6
f 1038/1/6 1039/1/6 1056/1/6
f 1055/2/6 1038/2/6 1056/2/6
f 1039/2/6 1040/2/6 1057/2/6
f 1056/1/6 1039/1/6 1057/1/6
f 1040/1/6 1041/1/6 1058/1/6
f 1057/2/6 1040/2/6 1058/2/6
f 1041/2/6 1042/2/6 1059/2/6
f 1058/1/6 1041/1/6 1059/1/6
f 1059/2/6 1042/2/6 1060/2/6
f 1051/2/6 1022/2/6 1061/2/6
f 1022/1/6 1023/1/6 1062/1/6
f 1061/2/6 1022/2/6 1062/2/6
f 1023/2/6 1052/2/6 1063/2/6
f 1062/1/6 1023/1/6 1063/1/6
f 1063/2/6 1052/2/6 1064/2/6
f 1061/1/6 1062/1/6 1065/1/6
f 1062/1/6 1063/1/6 1065/1/6
f 1063/1/6 1064/1/6 1065/1/6
f 1065/1/6 1064/1/6 1066/1/6
f 1066/1/6 1064/1/6 1067/1/6
f 1067/1/6 1064/1/6 1068/1/6
f 1065/2/6 1066/2/6 1077/2/6
f 1067/2/6 1068/2/6 1078/2/6
f 1069/2/6 1070/2/6 1087/2/6
f 1070/1/6 1071/1/6 1088/1/6
f 1087/2/6 1070/2/6 1088/2/6
f 1071/2/6 1072/2/6 1089/2/6
f 1088/1/6 1071/1/6 1089/1/6
f 1072/1/6 1073/1/6 1090/1/6
f 1089/2/6 1072/2/6 1090/2/6
f 1073/2/6 1074/2/6 1091/2/6
f 1090/1/6 1073/1/6 1091/1/6
f 1074/1/6 1075/1/6 1092/1/6
f 1091/2/6 1074/2/6 1092/2/6
f 1075/2/6 1076/2/6 1093/2/6
f 1092/1/6 1075/1/6 1093/1/6
f 1076/1/6 1077/1/6 1094/1/6
f 1093/2/6 1076/2/6 1094/2/6
f 1077/2/6 1066/2/6 1095/2/6
f 1094/1/6 1077/1/6 1095/1/6
f 1067/2/6 1078/2/6 1096/2/6
f 1078/1/6 1079/1/6 1096/1/6
f 1079/2/6 1080/2/6 1097/2/6
f 1096/1/6 1079/1/6 1097/1/6
f 1080/1/6 1081/1/6 1098/1/6
f 1097/2/6 1080/2/6 1098/2/6
f 1081/2/6 1082/2/6 1099/2/6
f 1098/1/6 1081/1/6 1099/1/6
f 1082/1/6 1083/1/6 1100/1/6
f 1099/2/6 1082/2/6 1100/2/6
f 1083/2/6 1084/2/6 1101/2/6
f 1100/1/6 1083/1/6 1101/1/6
f 1084/1/6 1085/1/6 1102/1/6
f 1101/2/6 1084/2/6 1102/2/6
f 1085/2/6 1086/2/6 1103/2/6
f 1102/1/6 1085/1/6 1103/1/6
f 1103/2/6 1086/2/6 1104/2/6
f 1095/2/6 1066/2/6 1105/2/6
f 1066/1/6 1067/1/6 1106/1/6
f 1105/2/6 1066/2/6 1106/2/6
f 1067/2/6 1096/2/6 1107/2/6
f 1106/1/6 1067/1/6 1107/1/6
f 1107/2/6 1096/2/6 1108/2/6
f 1105/1/6 1106/1/6 1109/1/6
f 1106/1/6 1107/1/6 1109/1/6
f 1107/1/6 1108/1/6 1109/1/6
f 1109/1/6 1108/1/6 1110/1/6
f 1105/1/6 1109/1/6 1111/1/6
f 1109/2/6 1110/2/6 1112/2/6
f 1111/1/6 1109/1/6 1112/1/6
f 1112/2/6 1110/2/6 1113/2/6
f 1113/2/6 1110/2/6 1114/2/6
f 1110/1/6 1108/1/6 1115/1/6
f 1114/2/6 1110/2/6 1115/2/6
f 1115/1/6 1108/1/6 1116/1/6
f 1113/1/6 1114/1/6 1117/1/6
f 1117/1/6 1114/1/6 1118/1/6
f 1117/2/6 1118/2/6 1119/2/6
f 1119/2/6 1118/2/6 1120/2/6
f 1119/1/6 1120/1/6 1121/1/6
f 1121/1/6 1120/1/6 1122/1/6
f 1121/2/6 1122/2/6 1123/2/6
f 1123/2/6 1122/2/6 1124/2/6
f 1123/1/6 1124/1/6 1125/1/6
f 1125/1/6 1124/1/6 1126/1/6
f 1125/2/6 1126/2/6 1127/2/6
f 1127/2/6 1126/2/6 1128/2/6
f 1127/1/6 1128/1/6 1129/1/6
f 1129/1/6 1128/1/6 1130/1/6
f 1129/2/6 1130/2/6 1131/2/6
f 1131/2/6 1130/2/6 1132/2/6
f 1131/1/6 1132/1/6 1133/1/6
f 1133/1/6 1132/1/6 1134/1/6
f 1133/2/6 1134/2/6 1135/2/6
f 1135/2/6 1134/2/6 1136/2/6
f 1135/1/6 1136/1/6 1137/1/6
f 1137/1/6 1136/1/6 1138/1/6
f 1137/2/6 1138/2/6 1139/2/6
f 1139/2/6 1138/2/6 1140/2/6
f 1139/1/6 1140/1/6 1141/1/6
f 1141/1/6 1140/1/6 1142/1/6
f 1141/2/6 1142/2/6 1143/2/6
f 1143/2/6 1142/2/6 1144/2/6
f 1143/1/6 1144/1/6 1145/1/6
f 1145/1/6 1144/1/6 1146/1/6
f 1145/2/6 1146/2/6 1147/2/6
f 1147/2/6 1146/2/6 1148/2/6
