# MagicaVoxel @ Ephtracy

# material
mtllib snow-60-00.mtl
usemtl palette

# normals
vn -1 0 0
vn 1 0 0
vn 0 0 1
vn 0 0 -1
vn 0 -1 0
vn 0 1 0

# texcoords
vt 0.970703 0.5

# verts
v -30 2 28
v -30 2 -28
v -30 58 28
v -30 58 -28
v -29 0 29
v -29 0 -29
v -29 2 28
v -29 2 -28
v -29 58 28
v -29 58 -28
v -29 59 29
v -29 59 -29
v -28 2 30
v -28 2 29
v -28 2 -29
v -28 2 -30
v -28 58 30
v -28 58 29
v -28 58 -29
v -28 58 -30
v -28 59 28
v -28 59 -28
v -28 60 28
v -28 60 -28
v 28 2 30
v 28 2 29
v 28 2 -29
v 28 2 -30
v 28 58 30
v 28 58 29
v 28 58 -29
v 28 58 -30
v 28 59 28
v 28 59 -28
v 28 60 28
v 28 60 -28
v 29 0 29
v 29 0 -29
v 29 2 28
v 29 2 -28
v 29 58 28
v 29 58 -28
v 29 59 29
v 29 59 -29
v 30 2 28
v 30 2 -28
v 30 58 28
v 30 58 -28
v -28 2 30
v -28 58 30
v 28 2 30
v 28 58 30
v -29 0 29
v -29 59 29
v -28 2 29
v -28 58 29
v 28 2 29
v 28 58 29
v 29 0 29
v 29 59 29
v -30 2 28
v -30 58 28
v -29 2 28
v -29 58 28
v -28 59 28
v -28 60 28
v 28 59 28
v 28 60 28
v 29 2 28
v 29 58 28
v 30 2 28
v 30 58 28
v -30 2 -28
v -30 58 -28
v -29 2 -28
v -29 58 -28
v -28 59 -28
v -28 60 -28
v 28 59 -28
v 28 60 -28
v 29 2 -28
v 29 58 -28
v 30 2 -28
v 30 58 -28
v -29 0 -29
v -29 59 -29
v -28 2 -29
v -28 58 -29
v 28 2 -29
v 28 58 -29
v 29 0 -29
v 29 59 -29
v -28 2 -30
v -28 58 -30
v 28 2 -30
v 28 58 -30
v -29 0 29
v 29 0 29
v -29 0 -29
v 29 0 -29
v -28 2 30
v 28 2 30
v -28 2 29
v 28 2 29
v -30 2 28
v -29 2 28
v 29 2 28
v 30 2 28
v -30 2 -28
v -29 2 -28
v 29 2 -28
v 30 2 -28
v -28 2 -29
v 28 2 -29
v -28 2 -30
v 28 2 -30
v -28 58 30
v 28 58 30
v -28 58 29
v 28 58 29
v -30 58 28
v -29 58 28
v 29 58 28
v 30 58 28
v -30 58 -28
v -29 58 -28
v 29 58 -28
v 30 58 -28
v -28 58 -29
v 28 58 -29
v -28 58 -30
v 28 58 -30
v -29 59 29
v 29 59 29
v -28 59 28
v 28 59 28
v -28 59 -28
v 28 59 -28
v -29 59 -29
v 29 59 -29
v -28 60 28
v 28 60 28
v -28 60 -28
v 28 60 -28

# faces
f 3/1/1 2/1/1 1/1/1
f 4/1/1 2/1/1 3/1/1
f 7/1/1 6/1/1 5/1/1
f 8/1/1 6/1/1 7/1/1
f 9/1/1 7/1/1 5/1/1
f 10/1/1 6/1/1 8/1/1
f 11/1/1 9/1/1 5/1/1
f 11/1/1 10/1/1 9/1/1
f 12/1/1 6/1/1 10/1/1
f 12/1/1 10/1/1 11/1/1
f 17/1/1 14/1/1 13/1/1
f 18/1/1 14/1/1 17/1/1
f 19/1/1 16/1/1 15/1/1
f 20/1/1 16/1/1 19/1/1
f 23/1/1 22/1/1 21/1/1
f 24/1/1 22/1/1 23/1/1
f 25/1/2 26/1/2 29/1/2
f 29/1/2 26/1/2 30/1/2
f 27/1/2 28/1/2 31/1/2
f 31/1/2 28/1/2 32/1/2
f 33/1/2 34/1/2 35/1/2
f 35/1/2 34/1/2 36/1/2
f 37/1/2 38/1/2 39/1/2
f 39/1/2 38/1/2 40/1/2
f 37/1/2 39/1/2 41/1/2
f 40/1/2 38/1/2 42/1/2
f 37/1/2 41/1/2 43/1/2
f 41/1/2 42/1/2 43/1/2
f 42/1/2 38/1/2 44/1/2
f 43/1/2 42/1/2 44/1/2
f 45/1/2 46/1/2 47/1/2
f 47/1/2 46/1/2 48/1/2
f 51/1/3 50/1/3 49/1/3
f 52/1/3 50/1/3 51/1/3
f 55/1/3 54/1/3 53/1/3
f 56/1/3 54/1/3 55/1/3
f 57/1/3 55/1/3 53/1/3
f 58/1/3 54/1/3 56/1/3
f 59/1/3 57/1/3 53/1/3
f 59/1/3 58/1/3 57/1/3
f 60/1/3 54/1/3 58/1/3
f 60/1/3 58/1/3 59/1/3
f 63/1/3 62/1/3 61/1/3
f 64/1/3 62/1/3 63/1/3
f 67/1/3 66/1/3 65/1/3
f 68/1/3 66/1/3 67/1/3
f 71/1/3 70/1/3 69/1/3
f 72/1/3 70/1/3 71/1/3
f 73/1/4 74/1/4 75/1/4
f 75/1/4 74/1/4 76/1/4
f 77/1/4 78/1/4 79/1/4
f 79/1/4 78/1/4 80/1/4
f 81/1/4 82/1/4 83/1/4
f 83/1/4 82/1/4 84/1/4
f 85/1/4 86/1/4 87/1/4
f 87/1/4 86/1/4 88/1/4
f 85/1/4 87/1/4 89/1/4
f 88/1/4 86/1/4 90/1/4
f 85/1/4 89/1/4 91/1/4
f 89/1/4 90/1/4 91/1/4
f 90/1/4 86/1/4 92/1/4
f 91/1/4 90/1/4 92/1/4
f 93/1/4 94/1/4 95/1/4
f 95/1/4 94/1/4 96/1/4
f 99/1/5 98/1/5 97/1/5
f 100/1/5 98/1/5 99/1/5
f 103/1/5 102/1/5 101/1/5
f 104/1/5 102/1/5 103/1/5
f 109/1/5 106/1/5 105/1/5
f 110/1/5 106/1/5 109/1/5
f 111/1/5 108/1/5 107/1/5
f 112/1/5 108/1/5 111/1/5
f 115/1/5 114/1/5 113/1/5
f 116/1/5 114/1/5 115/1/5
f 117/1/6 118/1/6 119/1/6
f 119/1/6 118/1/6 120/1/6
f 121/1/6 122/1/6 125/1/6
f 125/1/6 122/1/6 126/1/6
f 123/1/6 124/1/6 127/1/6
f 127/1/6 124/1/6 128/1/6
f 129/1/6 130/1/6 131/1/6
f 131/1/6 130/1/6 132/1/6
f 133/1/6 134/1/6 135/1/6
f 135/1/6 134/1/6 136/1/6
f 133/1/6 135/1/6 137/1/6
f 136/1/6 134/1/6 138/1/6
f 133/1/6 137/1/6 139/1/6
f 137/1/6 138/1/6 139/1/6
f 138/1/6 134/1/6 140/1/6
f 139/1/6 138/1/6 140/1/6
f 141/1/6 142/1/6 143/1/6
f 143/1/6 142/1/6 144/1/6
