# MagicaVoxel @ Ephtracy

# material
mtllib fighter-body.mtl
usemtl palette

# normals
vn -1 0 0
vn 1 0 0
vn 0 0 1
vn 0 0 -1
vn 0 -1 0
vn 0 1 0

# texcoords
vt 0.861328 0.5
vt 0.939453 0.5

# verts
v -40 12 40
v -40 12 20
v -40 12 -20
v -40 12 -40
v -40 14 40
v -40 14 20
v -40 14 -20
v -40 14 -40
v -22 12 38
v -22 12 22
v -22 12 -22
v -22 12 -38
v -22 14 38
v -22 14 22
v -22 14 -22
v -22 14 -38
v -20 10 20
v -20 10 -20
v -20 12 20
v -20 12 -20
v -20 14 20
v -20 14 -20
v -18 0 18
v -18 0 -18
v -18 10 18
v -18 10 -18
v -10 14 10
v -10 14 -10
v -10 15 10
v -10 15 -10
v 20 12 40
v 20 12 20
v 20 12 -20
v 20 12 -40
v 20 14 40
v 20 14 20
v 20 14 -20
v 20 14 -40
v 38 12 38
v 38 12 22
v 38 12 -22
v 38 12 -38
v 38 14 38
v 38 14 22
v 38 14 -22
v 38 14 -38
v -38 12 38
v -38 12 22
v -38 12 -22
v -38 12 -38
v -38 14 38
v -38 14 22
v -38 14 -22
v -38 14 -38
v -20 12 40
v -20 12 20
v -20 12 -20
v -20 12 -40
v -20 14 40
v -20 14 20
v -20 14 -20
v -20 14 -40
v 10 14 10
v 10 14 -10
v 10 15 10
v 10 15 -10
v 18 0 18
v 18 0 -18
v 18 10 18
v 18 10 -18
v 20 10 20
v 20 10 -20
v 20 12 20
v 20 12 -20
v 20 14 20
v 20 14 -20
v 22 12 38
v 22 12 22
v 22 12 -22
v 22 12 -38
v 22 14 38
v 22 14 22
v 22 14 -22
v 22 14 -38
v 40 12 40
v 40 12 20
v 40 12 -20
v 40 12 -40
v 40 14 40
v 40 14 20
v 40 14 -20
v 40 14 -40
v -40 12 40
v -40 14 40
v -20 12 40
v -20 14 40
v 20 12 40
v 20 14 40
v 40 12 40
v 40 14 40
v -38 12 22
v -38 14 22
v -22 12 22
v -22 14 22
v 22 12 22
v 22 14 22
v 38 12 22
v 38 14 22
v -20 10 20
v -20 12 20
v -20 14 20
v 20 10 20
v 20 12 20
v 20 14 20
v -18 0 18
v -18 10 18
v 18 0 18
v 18 10 18
v -10 14 10
v -10 15 10
v 10 14 10
v 10 15 10
v -40 12 -20
v -40 14 -20
v -20 12 -20
v -20 14 -20
v 20 12 -20
v 20 14 -20
v 40 12 -20
v 40 14 -20
v -38 12 -38
v -38 14 -38
v -22 12 -38
v -22 14 -38
v 22 12 -38
v 22 14 -38
v 38 12 -38
v 38 14 -38
v -38 12 38
v -38 14 38
v -22 12 38
v -22 14 38
v 22 12 38
v 22 14 38
v 38 12 38
v 38 14 38
v -40 12 20
v -40 14 20
v -20 12 20
v -20 14 20
v 20 12 20
v 20 14 20
v 40 12 20
v 40 14 20
v -10 14 -10
v -10 15 -10
v 10 14 -10
v 10 15 -10
v -18 0 -18
v -18 10 -18
v 18 0 -18
v 18 10 -18
v -20 10 -20
v -20 12 -20
v -20 14 -20
v 20 10 -20
v 20 12 -20
v 20 14 -20
v -38 12 -22
v -38 14 -22
v -22 12 -22
v -22 14 -22
v 22 12 -22
v 22 14 -22
v 38 12 -22
v 38 14 -22
v -40 12 -40
v -40 14 -40
v -20 12 -40
v -20 14 -40
v 20 12 -40
v 20 14 -40
v 40 12 -40
v 40 14 -40
v -18 0 18
v 18 0 18
v -18 0 -18
v 18 0 -18
v -20 10 20
v 20 10 20
v -18 10 18
v 18 10 18
v -18 10 -18
v 18 10 -18
v -20 10 -20
v 20 10 -20
v -40 12 40
v -20 12 40
v 20 12 40
v 40 12 40
v -38 12 38
v -22 12 38
v 22 12 38
v 38 12 38
v -38 12 22
v -22 12 22
v 22 12 22
v 38 12 22
v -40 12 20
v -20 12 20
v 20 12 20
v 40 12 20
v -40 12 -20
v -20 12 -20
v 20 12 -20
v 40 12 -20
v -38 12 -22
v -22 12 -22
v 22 12 -22
v 38 12 -22
v -38 12 -38
v -22 12 -38
v 22 12 -38
v 38 12 -38
v -40 12 -40
v -20 12 -40
v 20 12 -40
v 40 12 -40
v -40 14 40
v -20 14 40
v 20 14 40
v 40 14 40
v -38 14 38
v -22 14 38
v 22 14 38
v 38 14 38
v -38 14 22
v -22 14 22
v 22 14 22
v 38 14 22
v -40 14 20
v -20 14 20
v 20 14 20
v 40 14 20
v -10 14 10
v 10 14 10
v -10 14 -10
v 10 14 -10
v -40 14 -20
v -20 14 -20
v 20 14 -20
v 40 14 -20
v -38 14 -22
v -22 14 -22
v 22 14 -22
v 38 14 -22
v -38 14 -38
v -22 14 -38
v 22 14 -38
v 38 14 -38
v -40 14 -40
v -20 14 -40
v 20 14 -40
v 40 14 -40
v -10 15 10
v 10 15 10
v -10 15 -10
v 10 15 -10

# faces
f 5/2/1 2/2/1 1/2/1
f 6/2/1 2/2/1 5/2/1
f 7/2/1 4/2/1 3/2/1
f 8/2/1 4/2/1 7/2/1
f 13/2/1 10/2/1 9/2/1
f 14/2/1 10/2/1 13/2/1
f 15/2/1 12/2/1 11/2/1
f 16/2/1 12/2/1 15/2/1
f 19/2/1 18/2/1 17/2/1
f 20/2/1 18/2/1 19/2/1
f 21/2/1 20/2/1 19/2/1
f 22/2/1 20/2/1 21/2/1
f 25/2/1 24/2/1 23/2/1
f 26/2/1 24/2/1 25/2/1
f 29/1/1 28/1/1 27/1/1
f 30/1/1 28/1/1 29/1/1
f 35/2/1 32/2/1 31/2/1
f 36/2/1 32/2/1 35/2/1
f 37/2/1 34/2/1 33/2/1
f 38/2/1 34/2/1 37/2/1
f 43/2/1 40/2/1 39/2/1
f 44/2/1 40/2/1 43/2/1
f 45/2/1 42/2/1 41/2/1
f 46/2/1 42/2/1 45/2/1
f 47/2/2 48/2/2 51/2/2
f 51/2/2 48/2/2 52/2/2
f 49/2/2 50/2/2 53/2/2
f 53/2/2 50/2/2 54/2/2
f 55/2/2 56/2/2 59/2/2
f 59/2/2 56/2/2 60/2/2
f 57/2/2 58/2/2 61/2/2
f 61/2/2 58/2/2 62/2/2
f 63/1/2 64/1/2 65/1/2
f 65/1/2 64/1/2 66/1/2
f 67/2/2 68/2/2 69/2/2
f 69/2/2 68/2/2 70/2/2
f 71/2/2 72/2/2 73/2/2
f 73/2/2 72/2/2 74/2/2
f 73/2/2 74/2/2 75/2/2
f 75/2/2 74/2/2 76/2/2
f 77/2/2 78/2/2 81/2/2
f 81/2/2 78/2/2 82/2/2
f 79/2/2 80/2/2 83/2/2
f 83/2/2 80/2/2 84/2/2
f 85/2/2 86/2/2 89/2/2
f 89/2/2 86/2/2 90/2/2
f 87/2/2 88/2/2 91/2/2
f 91/2/2 88/2/2 92/2/2
f 95/2/3 94/2/3 93/2/3
f 96/2/3 94/2/3 95/2/3
f 99/2/3 98/2/3 97/2/3
f 100/2/3 98/2/3 99/2/3
f 103/2/3 102/2/3 101/2/3
f 104/2/3 102/2/3 103/2/3
f 107/2/3 106/2/3 105/2/3
f 108/2/3 106/2/3 107/2/3
f 112/2/3 110/2/3 109/2/3
f 112/2/3 111/2/3 110/2/3
f 113/2/3 111/2/3 112/2/3
f 114/2/3 111/2/3 113/2/3
f 117/2/3 116/2/3 115/2/3
f 118/2/3 116/2/3 117/2/3
f 121/1/3 120/1/3 119/1/3
f 122/1/3 120/1/3 121/1/3
f 125/2/3 124/2/3 123/2/3
f 126/2/3 124/2/3 125/2/3
f 129/2/3 128/2/3 127/2/3
f 130/2/3 128/2/3 129/2/3
f 133/2/3 132/2/3 131/2/3
f 134/2/3 132/2/3 133/2/3
f 137/2/3 136/2/3 135/2/3
f 138/2/3 136/2/3 137/2/3
f 139/2/4 140/2/4 141/2/4
f 141/2/4 140/2/4 142/2/4
f 143/2/4 144/2/4 145/2/4
f 145/2/4 144/2/4 146/2/4
f 147/2/4 148/2/4 149/2/4
f 149/2/4 148/2/4 150/2/4
f 151/2/4 152/2/4 153/2/4
f 153/2/4 152/2/4 154/2/4
f 155/1/4 156/1/4 157/1/4
f 157/1/4 156/1/4 158/1/4
f 159/2/4 160/2/4 161/2/4
f 161/2/4 160/2/4 162/2/4
f 163/2/4 164/2/4 166/2/4
f 164/2/4 165/2/4 166/2/4
f 166/2/4 165/2/4 167/2/4
f 167/2/4 165/2/4 168/2/4
f 169/2/4 170/2/4 171/2/4
f 171/2/4 170/2/4 172/2/4
f 173/2/4 174/2/4 175/2/4
f 175/2/4 174/2/4 176/2/4
f 177/2/4 178/2/4 179/2/4
f 179/2/4 178/2/4 180/2/4
f 181/2/4 182/2/4 183/2/4
f 183/2/4 182/2/4 184/2/4
f 187/2/5 186/2/5 185/2/5
f 188/2/5 186/2/5 187/2/5
f 191/2/5 190/2/5 189/2/5
f 192/2/5 190/2/5 191/2/5
f 193/2/5 191/2/5 189/2/5
f 194/2/5 190/2/5 192/2/5
f 195/2/5 193/2/5 189/2/5
f 195/2/5 194/2/5 193/2/5
f 196/2/5 190/2/5 194/2/5
f 196/2/5 194/2/5 195/2/5
f 201/2/5 198/2/5 197/2/5
f 202/2/5 198/2/5 201/2/5
f 203/2/5 200/2/5 199/2/5
f 204/2/5 200/2/5 203/2/5
f 205/2/5 201/2/5 197/2/5
f 206/2/5 198/2/5 202/2/5
f 207/2/5 203/2/5 199/2/5
f 208/2/5 200/2/5 204/2/5
f 209/2/5 205/2/5 197/2/5
f 209/2/5 206/2/5 205/2/5
f 210/2/5 198/2/5 206/2/5
f 210/2/5 206/2/5 209/2/5
f 211/2/5 208/2/5 207/2/5
f 211/2/5 207/2/5 199/2/5
f 212/2/5 200/2/5 208/2/5
f 212/2/5 208/2/5 211/2/5
f 217/2/5 214/2/5 213/2/5
f 218/2/5 214/2/5 217/2/5
f 219/2/5 216/2/5 215/2/5
f 220/2/5 216/2/5 219/2/5
f 221/2/5 217/2/5 213/2/5
f 222/2/5 214/2/5 218/2/5
f 223/2/5 219/2/5 215/2/5
f 224/2/5 216/2/5 220/2/5
f 225/2/5 221/2/5 213/2/5
f 225/2/5 222/2/5 221/2/5
f 226/2/5 214/2/5 222/2/5
f 226/2/5 222/2/5 225/2/5
f 227/2/5 224/2/5 223/2/5
f 227/2/5 223/2/5 215/2/5
f 228/2/5 216/2/5 224/2/5
f 228/2/5 224/2/5 227/2/5
f 229/2/6 230/2/6 233/2/6
f 233/2/6 230/2/6 234/2/6
f 231/2/6 232/2/6 235/2/6
f 235/2/6 232/2/6 236/2/6
f 229/2/6 233/2/6 237/2/6
f 234/2/6 230/2/6 238/2/6
f 231/2/6 235/2/6 239/2/6
f 236/2/6 232/2/6 240/2/6
f 229/2/6 237/2/6 241/2/6
f 237/2/6 238/2/6 241/2/6
f 238/2/6 230/2/6 242/2/6
f 241/2/6 238/2/6 242/2/6
f 239/2/6 240/2/6 243/2/6
f 231/2/6 239/2/6 243/2/6
f 240/2/6 232/2/6 244/2/6
f 243/2/6 240/2/6 244/2/6
f 242/2/6 243/2/6 245/2/6
f 245/2/6 243/2/6 246/2/6
f 242/2/6 245/2/6 247/2/6
f 246/2/6 243/2/6 248/2/6
f 242/2/6 247/2/6 250/2/6
f 247/2/6 248/2/6 250/2/6
f 248/2/6 243/2/6 251/2/6
f 250/2/6 248/2/6 251/2/6
f 249/2/6 250/2/6 253/2/6
f 253/2/6 250/2/6 254/2/6
f 251/2/6 252/2/6 255/2/6
f 255/2/6 252/2/6 256/2/6
f 249/2/6 253/2/6 257/2/6
f 254/2/6 250/2/6 258/2/6
f 251/2/6 255/2/6 259/2/6
f 256/2/6 252/2/6 260/2/6
f 249/2/6 257/2/6 261/2/6
f 257/2/6 258/2/6 261/2/6
f 258/2/6 250/2/6 262/2/6
f 261/2/6 258/2/6 262/2/6
f 259/2/6 260/2/6 263/2/6
f 251/2/6 259/2/6 263/2/6
f 260/2/6 252/2/6 264/2/6
f 263/2/6 260/2/6 264/2/6
f 265/1/6 266/1/6 267/1/6
f 267/1/6 266/1/6 268/1/6
