# MagicaVoxel @ Ephtracy

# material
mtllib golem-hand-bottom-60.mtl
usemtl palette

# normals
vn -1 0 0
vn 1 0 0
vn 0 0 1
vn 0 0 -1
vn 0 -1 0
vn 0 1 0

# texcoords
vt 0.861328 0.5
vt 0.865234 0.5
vt 0.947266 0.5

# verts
v -7 0 2.5
v -7 0 -2.5
v -7 3 2.5
v -7 3 0.5
v -7 5 0.5
v -7 5 -2.5
v -4 3 2.5
v -4 3 0.5
v -4 5 2.5
v -4 5 0.5
v 4 3 2.5
v 4 3 0.5
v 4 5 2.5
v 4 5 0.5
v 3 3 2.5
v 3 3 0.5
v 3 5 2.5
v 3 5 0.5
v 7 0 2.5
v 7 0 -2.5
v 7 5 2.5
v 7 5 -2.5
v -7 0 2.5
v -7 3 2.5
v -6 0 2.5
v -6 2 2.5
v -4 0 2.5
v -4 2 2.5
v -4 3 2.5
v -4 5 2.5
v -3 2 2.5
v -3 5 2.5
v 2 2 2.5
v 2 5 2.5
v 3 3 2.5
v 3 5 2.5
v 4 3 2.5
v 4 5 2.5
v 5 0 2.5
v 5 2 2.5
v 7 0 2.5
v 7 5 2.5
v -7 3 0.5
v -7 5 0.5
v -4 3 0.5
v -4 5 0.5
v 3 3 0.5
v 3 5 0.5
v 4 3 0.5
v 4 5 0.5
v -7 0 -2.5
v -7 5 -2.5
v -6 0 -2.5
v -6 5 -2.5
v -5 0 -2.5
v -5 3 -2.5
v -4 3 -2.5
v -4 5 -2.5
v 3 0 -2.5
v 3 3 -2.5
v 5 0 -2.5
v 5 5 -2.5
v 7 0 -2.5
v 7 5 -2.5
v -7 0 2.5
v -6 0 2.5
v -4 0 2.5
v 5 0 2.5
v 7 0 2.5
v -5 0 -1.5
v -4 0 -1.5
v 3 0 -1.5
v -7 0 -2.5
v -6 0 -2.5
v -5 0 -2.5
v 3 0 -2.5
v 5 0 -2.5
v 7 0 -2.5
v -7 3 2.5
v -4 3 2.5
v 3 3 2.5
v 4 3 2.5
v -7 3 0.5
v -4 3 0.5
v 3 3 0.5
v 4 3 0.5
v -4 5 2.5
v -3 5 2.5
v 2 5 2.5
v 3 5 2.5
v 4 5 2.5
v 7 5 2.5
v -7 5 0.5
v -4 5 0.5
v 3 5 0.5
v 4 5 0.5
v -6 5 -0.5
v -4 5 -0.5
v -3 5 -0.5
v 2 5 -0.5
v 5 5 -0.5
v -7 5 -2.5
v -6 5 -2.5
v -4 5 -2.5
v 5 5 -2.5
v 7 5 -2.5

# faces
f 3/2/1 2/2/1 1/2/1
f 4/2/1 2/2/1 3/2/1
f 5/2/1 2/2/1 4/2/1
f 6/2/1 2/2/1 5/2/1
f 9/2/1 8/2/1 7/2/1
f 10/2/1 8/2/1 9/2/1
f 13/2/1 12/2/1 11/2/1
f 14/2/1 12/2/1 13/2/1
f 15/2/2 16/2/2 17/2/2
f 17/2/2 16/2/2 18/2/2
f 19/2/2 20/2/2 21/2/2
f 21/2/2 20/2/2 22/2/2
f 25/2/3 24/2/3 23/2/3
f 26/2/3 24/2/3 25/2/3
f 27/1/3 26/1/3 25/1/3
f 28/2/3 24/2/3 26/2/3
f 28/1/3 26/1/3 27/1/3
f 29/2/3 24/2/3 28/2/3
f 31/3/3 28/3/3 27/3/3
f 31/2/3 30/2/3 29/2/3
f 31/2/3 29/2/3 28/2/3
f 32/2/3 30/2/3 31/2/3
f 33/3/3 31/3/3 27/3/3
f 33/3/3 32/3/3 31/3/3
f 34/3/3 32/3/3 33/3/3
f 35/2/3 34/2/3 33/2/3
f 36/2/3 34/2/3 35/2/3
f 37/2/3 35/2/3 33/2/3
f 39/3/3 33/3/3 27/3/3
f 40/2/3 38/2/3 37/2/3
f 40/3/3 33/3/3 39/3/3
f 40/2/3 37/2/3 33/2/3
f 41/2/3 40/2/3 39/2/3
f 42/2/3 38/2/3 40/2/3
f 42/2/3 40/2/3 41/2/3
f 45/2/3 44/2/3 43/2/3
f 46/2/3 44/2/3 45/2/3
f 49/2/3 48/2/3 47/2/3
f 50/2/3 48/2/3 49/2/3
f 51/2/4 52/2/4 53/2/4
f 53/2/4 52/2/4 54/2/4
f 53/1/4 54/1/4 55/1/4
f 55/1/4 54/1/4 56/1/4
f 55/2/4 56/2/4 57/2/4
f 56/1/4 54/1/4 57/1/4
f 57/1/4 54/1/4 58/1/4
f 55/2/4 57/2/4 59/2/4
f 57/3/4 58/3/4 60/3/4
f 59/2/4 57/2/4 60/2/4
f 59/3/4 60/3/4 61/3/4
f 60/3/4 58/3/4 62/3/4
f 61/3/4 60/3/4 62/3/4
f 61/2/4 62/2/4 63/2/4
f 63/2/4 62/2/4 64/2/4
f 70/1/5 67/1/5 66/1/5
f 71/3/5 68/3/5 67/3/5
f 71/1/5 67/1/5 70/1/5
f 72/3/5 68/3/5 71/3/5
f 73/2/5 66/2/5 65/2/5
f 74/1/5 70/1/5 66/1/5
f 74/2/5 66/2/5 73/2/5
f 75/2/5 71/2/5 70/2/5
f 75/1/5 70/1/5 74/1/5
f 75/2/5 72/2/5 71/2/5
f 76/3/5 68/3/5 72/3/5
f 76/2/5 72/2/5 75/2/5
f 77/2/5 69/2/5 68/2/5
f 77/3/5 68/3/5 76/3/5
f 78/2/5 69/2/5 77/2/5
f 79/2/6 80/2/6 83/2/6
f 83/2/6 80/2/6 84/2/6
f 81/2/6 82/2/6 85/2/6
f 85/2/6 82/2/6 86/2/6
f 87/2/6 88/2/6 94/2/6
f 89/2/6 90/2/6 95/2/6
f 91/2/6 92/2/6 96/2/6
f 93/2/6 94/2/6 97/2/6
f 94/2/6 88/2/6 98/2/6
f 97/2/6 94/2/6 98/2/6
f 88/3/6 89/3/6 99/3/6
f 98/2/6 88/2/6 99/2/6
f 89/2/6 95/2/6 100/2/6
f 99/3/6 89/3/6 100/3/6
f 95/2/6 96/2/6 100/2/6
f 96/2/6 92/2/6 101/2/6
f 100/2/6 96/2/6 101/2/6
f 93/2/6 97/2/6 102/2/6
f 97/1/6 98/1/6 103/1/6
f 102/2/6 97/2/6 103/2/6
f 98/3/6 99/3/6 104/3/6
f 103/1/6 98/1/6 104/1/6
f 99/3/6 100/3/6 104/3/6
f 100/3/6 101/3/6 104/3/6
f 101/2/6 92/2/6 105/2/6
f 104/3/6 101/3/6 105/3/6
f 105/2/6 92/2/6 106/2/6
