# MagicaVoxel @ Ephtracy

# material
mtllib golem-leg-top-80.mtl
usemtl palette

# normals
vn -1 0 0
vn 1 0 0
vn 0 0 1
vn 0 0 -1
vn 0 -1 0
vn 0 1 0

# texcoords
vt 0.865234 0.5
vt 0.947266 0.5

# verts
v -4 0 3
v -4 0 -3
v -4 6 3
v -4 6 -3
v 2 3 -2
v 2 3 -3
v 2 6 -2
v 2 6 -3
v -2 5 -2
v -2 5 -3
v -2 6 -2
v -2 6 -3
v 0 3 -2
v 0 3 -3
v 0 5 -2
v 0 5 -3
v 4 0 3
v 4 0 -3
v 4 6 3
v 4 6 -3
v -4 0 3
v -4 6 3
v 4 0 3
v 4 6 3
v -2 5 -2
v -2 6 -2
v 0 3 -2
v 0 5 -2
v 2 3 -2
v 2 6 -2
v -4 0 -3
v -4 6 -3
v -3 4 -3
v -3 6 -3
v -2 5 -3
v -2 6 -3
v -1 2 -3
v -1 4 -3
v 0 3 -3
v 0 5 -3
v 2 3 -3
v 2 6 -3
v 3 2 -3
v 3 6 -3
v 4 0 -3
v 4 6 -3
v -4 0 3
v 4 0 3
v -4 0 -3
v 4 0 -3
v 0 3 -2
v 2 3 -2
v 0 3 -3
v 2 3 -3
v -2 5 -2
v 0 5 -2
v -2 5 -3
v 0 5 -3
v -4 6 3
v 4 6 3
v -3 6 -0
v -1 6 -0
v -1 6 -1
v 3 6 -1
v -2 6 -2
v 2 6 -2
v -4 6 -3
v -3 6 -3
v -2 6 -3
v 2 6 -3
v 3 6 -3
v 4 6 -3

# faces
f 3/2/1 2/2/1 1/2/1
f 4/2/1 2/2/1 3/2/1
f 7/1/1 6/1/1 5/1/1
f 8/1/1 6/1/1 7/1/1
f 9/1/2 10/1/2 11/1/2
f 11/1/2 10/1/2 12/1/2
f 13/1/2 14/1/2 15/1/2
f 15/1/2 14/1/2 16/1/2
f 17/2/2 18/2/2 19/2/2
f 19/2/2 18/2/2 20/2/2
f 23/2/3 22/2/3 21/2/3
f 24/2/3 22/2/3 23/2/3
f 25/1/4 26/1/4 28/1/4
f 27/1/4 28/1/4 29/1/4
f 28/1/4 26/1/4 30/1/4
f 29/1/4 28/1/4 30/1/4
f 31/2/4 32/2/4 33/2/4
f 33/2/4 32/2/4 34/2/4
f 33/1/4 34/1/4 35/1/4
f 35/1/4 34/1/4 36/1/4
f 31/2/4 33/2/4 37/2/4
f 33/1/4 35/1/4 38/1/4
f 37/2/4 33/2/4 38/2/4
f 37/1/4 38/1/4 39/1/4
f 38/1/4 35/1/4 40/1/4
f 39/1/4 38/1/4 40/1/4
f 37/1/4 39/1/4 41/1/4
f 31/2/4 37/2/4 43/2/4
f 41/1/4 42/1/4 43/1/4
f 37/1/4 41/1/4 43/1/4
f 43/1/4 42/1/4 44/1/4
f 31/2/4 43/2/4 45/2/4
f 43/2/4 44/2/4 45/2/4
f 45/2/4 44/2/4 46/2/4
f 49/2/5 48/2/5 47/2/5
f 50/2/5 48/2/5 49/2/5
f 51/1/6 52/1/6 53/1/6
f 53/1/6 52/1/6 54/1/6
f 55/1/6 56/1/6 57/1/6
f 57/1/6 56/1/6 58/1/6
f 59/2/6 60/2/6 61/2/6
f 61/2/6 60/2/6 62/2/6
f 61/1/6 62/1/6 63/1/6
f 62/2/6 60/2/6 63/2/6
f 63/2/6 60/2/6 64/2/6
f 61/1/6 63/1/6 65/1/6
f 63/1/6 64/1/6 65/1/6
f 65/1/6 64/1/6 66/1/6
f 59/2/6 61/2/6 67/2/6
f 61/1/6 65/1/6 68/1/6
f 67/2/6 61/2/6 68/2/6
f 68/1/6 65/1/6 69/1/6
f 66/1/6 64/1/6 70/1/6
f 64/2/6 60/2/6 71/2/6
f 70/1/6 64/1/6 71/1/6
f 71/2/6 60/2/6 72/2/6
