# MagicaVoxel @ Ephtracy

# material
mtllib golem-body-60.mtl
usemtl palette

# normals
vn -1 0 0
vn 1 0 0
vn 0 0 1
vn 0 0 -1
vn 0 -1 0
vn 0 1 0

# texcoords
vt 0.849609 0.5
vt 0.861328 0.5
vt 0.865234 0.5
vt 0.947266 0.5
vt 0.951172 0.5

# verts
v -5 0 5
v -5 0 4
v -5 0 -7
v -5 2 4
v -5 2 3
v -5 2 1
v -5 2 -1
v -5 2 -7
v -5 3 5
v -5 3 4
v -5 4 5
v -5 4 4
v -5 5 4
v -5 5 3
v -5 7 7
v -5 7 5
v -5 7 2
v -5 7 1
v -5 7 -1
v -5 7 -2
v -5 8 7
v -5 8 4
v -5 8 2
v -5 8 1
v -5 8 -1
v -5 8 -2
v -5 8 -7
v -5 10 7
v -5 10 2
v -5 10 1
v -5 10 -1
v -5 10 -2
v -5 10 -7
v -5 11 2
v -5 11 1
v -5 11 -1
v -5 11 -2
v -5 12 -3
v -5 12 -5
v -5 14 1
v -5 14 -1
v -5 14 -3
v -5 14 -5
v -5 14 -7
v -5 15 -0
v -5 15 -7
v -5 17 -0
v -5 17 -4
v -5 18 1
v -5 18 -1
v -5 18 -2
v -5 19 -4
v -5 19 -7
v -5 20 -2
v -5 20 -7
v -5 24 7
v -5 24 1
v -5 24 -1
v -5 24 -7
v -4 3 5
v -4 3 4
v -4 4 5
v -4 4 4
v -4 5 7
v -4 5 5
v -4 7 7
v -4 7 5
v -4 15 -0
v -4 15 -4
v -4 17 -0
v -4 17 -4
v 0 15 -4
v 0 15 -7
v 0 19 -4
v 0 19 -7
v 1 0 7
v 1 0 5
v 1 5 7
v 1 5 5
v 4 13 3
v 4 13 -0
v 4 17 3
v 4 17 -0
v 5 0 7
v 5 0 -7
v 5 2 7
v 5 2 -7
v 5 8 7
v 5 8 -7
v 5 10 7
v 5 10 -7
v 5 12 4
v 5 12 -1
v 5 13 3
v 5 13 -0
v 5 13 -1
v 5 13 -3
v 5 15 -1
v 5 15 -3
v 5 17 3
v 5 17 -0
v 5 18 4
v 5 18 -1
v 5 24 7
v 5 24 -7
v -5 7 7
v -5 8 7
v -5 10 7
v -5 24 7
v -4 5 7
v -4 7 7
v -3 6 7
v -3 8 7
v 1 0 7
v 1 5 7
v 2 2 7
v 2 6 7
v 4 0 7
v 4 2 7
v 5 0 7
v 5 2 7
v 5 8 7
v 5 10 7
v 5 24 7
v -5 0 5
v -5 3 5
v -5 4 5
v -5 7 5
v -4 3 5
v -4 4 5
v -4 5 5
v -4 7 5
v 1 0 5
v 1 5 5
v -5 3 4
v -5 4 4
v -4 3 4
v -4 4 4
v 4 13 -0
v 4 17 -0
v 5 13 -0
v 5 17 -0
v 4 13 3
v 4 17 3
v 5 13 3
v 5 17 3
v -5 15 -0
v -5 17 -0
v -4 15 -0
v -4 17 -0
v -5 17 -4
v -5 19 -4
v -4 15 -4
v -4 17 -4
v 0 15 -4
v 0 19 -4
v -5 0 -7
v -5 2 -7
v -5 8 -7
v -5 10 -7
v -5 14 -7
v -5 15 -7
v -5 19 -7
v -5 20 -7
v -5 24 -7
v 0 15 -7
v 0 19 -7
v 1 14 -7
v 1 20 -7
v 5 0 -7
v 5 2 -7
v 5 8 -7
v 5 10 -7
v 5 24 -7
v 1 0 7
v 4 0 7
v 5 0 7
v 2 0 6
v 4 0 6
v -5 0 5
v 1 0 5
v -5 0 4
v -4 0 4
v 2 0 4
v -4 0 -6
v 4 0 -6
v -5 0 -7
v 5 0 -7
v -5 4 5
v -4 4 5
v -5 4 4
v -4 4 4
v -4 5 7
v 1 5 7
v -4 5 5
v 1 5 5
v -5 7 7
v -4 7 7
v -5 7 5
v -4 7 5
v 4 17 3
v 5 17 3
v -5 17 -0
v -4 17 -0
v 4 17 -0
v 5 17 -0
v -5 17 -4
v -4 17 -4
v -5 19 -4
v 0 19 -4
v -5 19 -7
v 0 19 -7
v -5 3 5
v -4 3 5
v -5 3 4
v -4 3 4
v 4 13 3
v 5 13 3
v 4 13 -0
v 5 13 -0
v -5 15 -0
v -4 15 -0
v -4 15 -4
v 0 15 -4
v -5 15 -7
v 0 15 -7
v -5 24 7
v 5 24 7
v -5 24 1
v -4 24 1
v -5 24 -1
v -4 24 -1
v -5 24 -7
v 5 24 -7

# faces
f 4/3/1 2/3/1 1/3/1
f 4/2/1 3/2/1 2/2/1
f 5/2/1 3/2/1 4/2/1
f 6/2/1 3/2/1 5/2/1
f 7/2/1 3/2/1 6/2/1
f 8/2/1 3/2/1 7/2/1
f 9/3/1 4/3/1 1/3/1
f 9/3/1 5/3/1 4/3/1
f 10/3/1 5/3/1 9/3/1
f 12/3/1 5/3/1 10/3/1
f 13/3/1 5/3/1 12/3/1
f 13/3/1 12/3/1 11/3/1
f 14/4/1 6/4/1 5/4/1
f 14/3/1 5/3/1 13/3/1
f 16/3/1 13/3/1 11/3/1
f 17/4/1 6/4/1 14/4/1
f 17/4/1 14/4/1 13/4/1
f 18/2/1 7/2/1 6/2/1
f 18/4/1 6/4/1 17/4/1
f 19/4/1 8/4/1 7/4/1
f 19/2/1 7/2/1 18/2/1
f 20/4/1 8/4/1 19/4/1
f 21/3/1 16/3/1 15/3/1
f 22/4/1 17/4/1 13/4/1
f 22/3/1 16/3/1 21/3/1
f 22/3/1 13/3/1 16/3/1
f 23/5/1 18/5/1 17/5/1
f 23/4/1 17/4/1 22/4/1
f 23/5/1 20/5/1 19/5/1
f 23/5/1 19/5/1 18/5/1
f 24/5/1 20/5/1 23/5/1
f 25/5/1 20/5/1 24/5/1
f 26/4/1 8/4/1 20/4/1
f 26/5/1 20/5/1 25/5/1
f 27/4/1 8/4/1 26/4/1
f 28/1/1 22/1/1 21/1/1
f 28/1/1 23/1/1 22/1/1
f 29/5/1 24/5/1 23/5/1
f 29/1/1 23/1/1 28/1/1
f 30/1/1 25/1/1 24/1/1
f 30/5/1 24/5/1 29/5/1
f 31/5/1 26/5/1 25/5/1
f 31/1/1 25/1/1 30/1/1
f 32/1/1 27/1/1 26/1/1
f 32/5/1 26/5/1 31/5/1
f 33/1/1 27/1/1 32/1/1
f 34/4/1 29/4/1 28/4/1
f 34/5/1 31/5/1 30/5/1
f 34/5/1 30/5/1 29/5/1
f 34/5/1 32/5/1 31/5/1
f 35/5/1 32/5/1 34/5/1
f 36/5/1 32/5/1 35/5/1
f 37/4/1 33/4/1 32/4/1
f 37/5/1 32/5/1 36/5/1
f 38/4/1 37/4/1 36/4/1
f 38/4/1 33/4/1 37/4/1
f 39/4/1 33/4/1 38/4/1
f 40/2/1 36/2/1 35/2/1
f 40/4/1 35/4/1 34/4/1
f 41/4/1 38/4/1 36/4/1
f 41/2/1 36/2/1 40/2/1
f 42/3/1 39/3/1 38/3/1
f 42/4/1 38/4/1 41/4/1
f 43/4/1 33/4/1 39/4/1
f 43/3/1 39/3/1 42/3/1
f 44/4/1 33/4/1 43/4/1
f 45/3/1 42/3/1 41/3/1
f 45/3/1 41/3/1 40/3/1
f 45/3/1 44/3/1 43/3/1
f 45/3/1 43/3/1 42/3/1
f 46/3/1 44/3/1 45/3/1
f 47/3/1 45/3/1 40/3/1
f 49/4/1 40/4/1 34/4/1
f 49/3/1 48/3/1 47/3/1
f 49/3/1 47/3/1 40/3/1
f 50/3/1 48/3/1 49/3/1
f 51/3/1 48/3/1 50/3/1
f 52/3/1 48/3/1 51/3/1
f 54/4/1 51/4/1 50/4/1
f 54/3/1 53/3/1 52/3/1
f 54/3/1 52/3/1 51/3/1
f 55/3/1 53/3/1 54/3/1
f 56/4/1 34/4/1 28/4/1
f 56/4/1 49/4/1 34/4/1
f 57/2/1 50/2/1 49/2/1
f 57/4/1 49/4/1 56/4/1
f 58/4/1 55/4/1 54/4/1
f 58/2/1 50/2/1 57/2/1
f 58/4/1 54/4/1 50/4/1
f 59/4/1 55/4/1 58/4/1
f 62/3/1 61/3/1 60/3/1
f 63/3/1 61/3/1 62/3/1
f 66/3/1 65/3/1 64/3/1
f 67/3/1 65/3/1 66/3/1
f 70/3/1 69/3/1 68/3/1
f 71/3/1 69/3/1 70/3/1
f 74/3/1 73/3/1 72/3/1
f 75/3/1 73/3/1 74/3/1
f 78/3/1 77/3/1 76/3/1
f 79/3/1 77/3/1 78/3/1
f 80/3/2 81/3/2 82/3/2
f 82/3/2 81/3/2 83/3/2
f 84/2/2 85/2/2 86/2/2
f 86/2/2 85/2/2 87/2/2
f 86/4/2 87/4/2 88/4/2
f 88/4/2 87/4/2 89/4/2
f 88/1/2 89/1/2 90/1/2
f 90/1/2 89/1/2 91/1/2
f 90/4/2 91/4/2 92/4/2
f 92/4/2 91/4/2 93/4/2
f 92/3/2 93/3/2 94/3/2
f 94/3/2 93/3/2 95/3/2
f 93/4/2 91/4/2 96/4/2
f 95/3/2 93/3/2 96/3/2
f 96/4/2 91/4/2 97/4/2
f 95/3/2 96/3/2 98/3/2
f 96/3/2 97/3/2 98/3/2
f 97/4/2 91/4/2 99/4/2
f 98/3/2 97/3/2 99/3/2
f 92/3/2 94/3/2 100/3/2
f 95/3/2 98/3/2 101/3/2
f 90/4/2 92/4/2 102/4/2
f 100/3/2 101/3/2 102/3/2
f 92/3/2 100/3/2 102/3/2
f 101/3/2 98/3/2 103/3/2
f 102/3/2 101/3/2 103/3/2
f 98/4/2 99/4/2 103/4/2
f 90/4/2 102/4/2 104/4/2
f 102/4/2 103/4/2 104/4/2
f 103/4/2 99/4/2 105/4/2
f 104/4/2 103/4/2 105/4/2
f 99/4/2 91/4/2 105/4/2
f 111/3/3 107/3/3 106/3/3
f 112/3/3 111/3/3 110/3/3
f 113/1/3 108/1/3 107/1/3
f 113/3/3 111/3/3 112/3/3
f 113/3/3 107/3/3 111/3/3
f 115/3/3 112/3/3 110/3/3
f 116/3/3 115/3/3 114/3/3
f 117/4/3 113/4/3 112/4/3
f 117/3/3 115/3/3 116/3/3
f 117/3/3 112/3/3 115/3/3
f 118/3/3 116/3/3 114/3/3
f 119/4/3 117/4/3 116/4/3
f 119/3/3 116/3/3 118/3/3
f 120/2/3 119/2/3 118/2/3
f 121/4/3 117/4/3 119/4/3
f 121/2/3 119/2/3 120/2/3
f 122/1/3 108/1/3 113/1/3
f 122/4/3 117/4/3 121/4/3
f 122/4/3 113/4/3 117/4/3
f 123/4/3 109/4/3 108/4/3
f 123/1/3 108/1/3 122/1/3
f 124/4/3 109/4/3 123/4/3
f 129/3/3 126/3/3 125/3/3
f 130/3/3 128/3/3 127/3/3
f 131/3/3 128/3/3 130/3/3
f 132/3/3 128/3/3 131/3/3
f 133/3/3 129/3/3 125/3/3
f 133/3/3 130/3/3 129/3/3
f 133/3/3 131/3/3 130/3/3
f 134/3/3 131/3/3 133/3/3
f 137/3/3 136/3/3 135/3/3
f 138/3/3 136/3/3 137/3/3
f 141/3/3 140/3/3 139/3/3
f 142/3/3 140/3/3 141/3/3
f 143/3/4 144/3/4 145/3/4
f 145/3/4 144/3/4 146/3/4
f 147/3/4 148/3/4 149/3/4
f 149/3/4 148/3/4 150/3/4
f 151/3/4 152/3/4 154/3/4
f 153/3/4 154/3/4 155/3/4
f 154/3/4 152/3/4 156/3/4
f 155/3/4 154/3/4 156/3/4
f 161/3/4 162/3/4 166/3/4
f 163/3/4 164/3/4 167/3/4
f 160/4/4 161/4/4 168/4/4
f 166/3/4 167/3/4 168/3/4
f 161/3/4 166/3/4 168/3/4
f 167/3/4 164/3/4 169/3/4
f 168/3/4 167/3/4 169/3/4
f 164/4/4 165/4/4 169/4/4
f 157/2/4 158/2/4 170/2/4
f 158/4/4 159/4/4 171/4/4
f 170/2/4 158/2/4 171/2/4
f 159/1/4 160/1/4 172/1/4
f 171/4/4 159/4/4 172/4/4
f 160/4/4 168/4/4 173/4/4
f 172/1/4 160/1/4 173/1/4
f 168/4/4 169/4/4 173/4/4
f 169/4/4 165/4/4 174/4/4
f 173/4/4 169/4/4 174/4/4
f 178/3/5 176/3/5 175/3/5
f 179/2/5 177/2/5 176/2/5
f 179/3/5 176/3/5 178/3/5
f 181/3/5 178/3/5 175/3/5
f 182/3/5 181/3/5 180/3/5
f 183/3/5 181/3/5 182/3/5
f 184/4/5 179/4/5 178/4/5
f 184/3/5 181/3/5 183/3/5
f 184/3/5 178/3/5 181/3/5
f 185/2/5 183/2/5 182/2/5
f 185/4/5 184/4/5 183/4/5
f 186/2/5 177/2/5 179/2/5
f 186/4/5 184/4/5 185/4/5
f 186/4/5 179/4/5 184/4/5
f 187/2/5 185/2/5 182/2/5
f 187/2/5 186/2/5 185/2/5
f 188/2/5 177/2/5 186/2/5
f 188/2/5 186/2/5 187/2/5
f 191/3/5 190/3/5 189/3/5
f 192/3/5 190/3/5 191/3/5
f 195/3/5 194/3/5 193/3/5
f 196/3/5 194/3/5 195/3/5
f 199/3/5 198/3/5 197/3/5
f 200/3/5 198/3/5 199/3/5
f 205/3/5 202/3/5 201/3/5
f 206/3/5 202/3/5 205/3/5
f 207/3/5 204/3/5 203/3/5
f 208/3/5 204/3/5 207/3/5
f 211/3/5 210/3/5 209/3/5
f 212/3/5 210/3/5 211/3/5
f 213/3/6 214/3/6 215/3/6
f 215/3/6 214/3/6 216/3/6
f 217/3/6 218/3/6 219/3/6
f 219/3/6 218/3/6 220/3/6
f 221/3/6 222/3/6 223/3/6
f 221/3/6 223/3/6 225/3/6
f 223/3/6 224/3/6 225/3/6
f 225/3/6 224/3/6 226/3/6
f 227/4/6 228/4/6 229/4/6
f 229/4/6 228/4/6 230/4/6
f 229/2/6 230/2/6 231/2/6
f 230/4/6 228/4/6 232/4/6
f 231/2/6 230/2/6 232/2/6
f 231/4/6 232/4/6 233/4/6
f 232/4/6 228/4/6 234/4/6
f 233/4/6 232/4/6 234/4/6
