# MagicaVoxel @ Ephtracy

# material
mtllib golem-leg-bottom-100.mtl
usemtl palette

# normals
vn -1 0 0
vn 1 0 0
vn 0 0 1
vn 0 0 -1
vn 0 -1 0
vn 0 1 0

# texcoords
vt 0.849609 0.5
vt 0.861328 0.5
vt 0.947266 0.5

# verts
v -5 0 2
v -5 0 -2
v -5 5 2
v -5 5 -2
v -4 4 2
v -4 4 -2
v -4 5 2
v -4 5 -2
v 5 0 2
v 5 0 -2
v 5 4 2
v 5 4 -2
v -5 0 2
v -5 5 2
v -4 0 2
v -4 4 2
v -4 5 2
v -2 0 2
v -2 4 2
v 5 0 2
v 5 4 2
v -5 0 -2
v -5 5 -2
v -4 0 -2
v -4 4 -2
v -4 5 -2
v -2 0 -2
v -2 4 -2
v 5 0 -2
v 5 4 -2
v -5 0 2
v -4 0 2
v -2 0 2
v 5 0 2
v -5 0 -2
v -4 0 -2
v -2 0 -2
v 5 0 -2
v -4 4 2
v -2 4 2
v 5 4 2
v -4 4 -2
v -2 4 -2
v 5 4 -2
v -5 5 2
v -4 5 2
v -5 5 -2
v -4 5 -2

# faces
f 3/1/1 2/1/1 1/1/1
f 4/1/1 2/1/1 3/1/1
f 5/1/2 6/1/2 7/1/2
f 7/1/2 6/1/2 8/1/2
f 9/3/2 10/3/2 11/3/2
f 11/3/2 10/3/2 12/3/2
f 15/1/3 14/1/3 13/1/3
f 16/1/3 14/1/3 15/1/3
f 17/1/3 14/1/3 16/1/3
f 18/2/3 16/2/3 15/2/3
f 19/2/3 16/2/3 18/2/3
f 20/3/3 19/3/3 18/3/3
f 21/3/3 19/3/3 20/3/3
f 22/1/4 23/1/4 24/1/4
f 24/1/4 23/1/4 25/1/4
f 25/1/4 23/1/4 26/1/4
f 24/2/4 25/2/4 27/2/4
f 27/2/4 25/2/4 28/2/4
f 27/3/4 28/3/4 29/3/4
f 29/3/4 28/3/4 30/3/4
f 35/1/5 32/1/5 31/1/5
f 36/2/5 33/2/5 32/2/5
f 36/1/5 32/1/5 35/1/5
f 37/3/5 34/3/5 33/3/5
f 37/2/5 33/2/5 36/2/5
f 38/3/5 34/3/5 37/3/5
f 39/2/6 40/2/6 42/2/6
f 40/3/6 41/3/6 43/3/6
f 42/2/6 40/2/6 43/2/6
f 43/3/6 41/3/6 44/3/6
f 45/1/6 46/1/6 47/1/6
f 47/1/6 46/1/6 48/1/6
