# MagicaVoxel @ Ephtracy

# material
mtllib tower-00.mtl
usemtl palette

# normals
vn -1 0 0
vn 1 0 0
vn 0 0 1
vn 0 0 -1
vn 0 -1 0
vn 0 1 0

# texcoords
vt 0.939453 0.5
vt 0.951172 0.5

# verts
v -5 0 5
v -5 0 -5
v -5 10 5
v -5 10 -5
v -5 50 5
v -5 50 -5
v -5 60 5
v -5 60 -5
v -3 10 3
v -3 10 -3
v -3 11 1
v -3 11 -1
v -3 49 1
v -3 49 -1
v -3 50 3
v -3 50 -3
v -2 11 1
v -2 11 -1
v -2 49 1
v -2 49 -1
v 1 11 3
v 1 11 2
v 1 11 -2
v 1 11 -3
v 1 49 3
v 1 49 2
v 1 49 -2
v 1 49 -3
v -1 11 3
v -1 11 2
v -1 11 -2
v -1 11 -3
v -1 49 3
v -1 49 2
v -1 49 -2
v -1 49 -3
v 2 11 1
v 2 11 -1
v 2 49 1
v 2 49 -1
v 3 10 3
v 3 10 -3
v 3 11 1
v 3 11 -1
v 3 49 1
v 3 49 -1
v 3 50 3
v 3 50 -3
v 5 0 5
v 5 0 -5
v 5 10 5
v 5 10 -5
v 5 50 5
v 5 50 -5
v 5 60 5
v 5 60 -5
v -5 0 5
v -5 10 5
v -5 50 5
v -5 60 5
v 5 0 5
v 5 10 5
v 5 50 5
v 5 60 5
v -3 10 3
v -3 50 3
v -1 11 3
v -1 49 3
v 1 11 3
v 1 49 3
v 3 10 3
v 3 50 3
v -1 11 2
v -1 49 2
v 1 11 2
v 1 49 2
v -3 11 -1
v -3 49 -1
v -2 11 -1
v -2 49 -1
v 2 11 -1
v 2 49 -1
v 3 11 -1
v 3 49 -1
v -3 11 1
v -3 49 1
v -2 11 1
v -2 49 1
v 2 11 1
v 2 49 1
v 3 11 1
v 3 49 1
v -1 11 -2
v -1 49 -2
v 1 11 -2
v 1 49 -2
v -3 10 -3
v -3 50 -3
v -1 11 -3
v -1 49 -3
v 1 11 -3
v 1 49 -3
v 3 10 -3
v 3 50 -3
v -5 0 -5
v -5 10 -5
v -5 50 -5
v -5 60 -5
v 5 0 -5
v 5 10 -5
v 5 50 -5
v 5 60 -5
v -5 0 5
v 5 0 5
v -5 0 -5
v 5 0 -5
v -1 49 3
v 1 49 3
v -1 49 2
v 1 49 2
v -3 49 1
v -2 49 1
v 2 49 1
v 3 49 1
v -3 49 -1
v -2 49 -1
v 2 49 -1
v 3 49 -1
v -1 49 -2
v 1 49 -2
v -1 49 -3
v 1 49 -3
v -5 50 5
v 5 50 5
v -3 50 3
v 3 50 3
v -3 50 -3
v 3 50 -3
v -5 50 -5
v 5 50 -5
v -5 10 5
v 5 10 5
v -3 10 3
v 3 10 3
v -3 10 -3
v 3 10 -3
v -5 10 -5
v 5 10 -5
v -1 11 3
v 1 11 3
v -1 11 2
v 1 11 2
v -3 11 1
v -2 11 1
v 2 11 1
v 3 11 1
v -3 11 -1
v -2 11 -1
v 2 11 -1
v 3 11 -1
v -1 11 -2
v 1 11 -2
v -1 11 -3
v 1 11 -3
v -5 60 5
v 5 60 5
v -5 60 -5
v 5 60 -5

# faces
f 3/1/1 2/1/1 1/1/1
f 4/1/1 2/1/1 3/1/1
f 7/1/1 6/1/1 5/1/1
f 8/1/1 6/1/1 7/1/1
f 11/1/1 10/1/1 9/1/1
f 12/1/1 10/1/1 11/1/1
f 13/1/1 11/1/1 9/1/1
f 14/1/1 10/1/1 12/1/1
f 15/1/1 13/1/1 9/1/1
f 15/1/1 14/1/1 13/1/1
f 16/1/1 10/1/1 14/1/1
f 16/1/1 14/1/1 15/1/1
f 19/2/1 18/2/1 17/2/1
f 20/2/1 18/2/1 19/2/1
f 25/1/1 22/1/1 21/1/1
f 26/1/1 22/1/1 25/1/1
f 27/1/1 24/1/1 23/1/1
f 28/1/1 24/1/1 27/1/1
f 29/1/2 30/1/2 33/1/2
f 33/1/2 30/1/2 34/1/2
f 31/1/2 32/1/2 35/1/2
f 35/1/2 32/1/2 36/1/2
f 37/2/2 38/2/2 39/2/2
f 39/2/2 38/2/2 40/2/2
f 41/1/2 42/1/2 43/1/2
f 43/1/2 42/1/2 44/1/2
f 41/1/2 43/1/2 45/1/2
f 44/1/2 42/1/2 46/1/2
f 41/1/2 45/1/2 47/1/2
f 45/1/2 46/1/2 47/1/2
f 46/1/2 42/1/2 48/1/2
f 47/1/2 46/1/2 48/1/2
f 49/1/2 50/1/2 51/1/2
f 51/1/2 50/1/2 52/1/2
f 53/1/2 54/1/2 55/1/2
f 55/1/2 54/1/2 56/1/2
f 61/1/3 58/1/3 57/1/3
f 62/1/3 58/1/3 61/1/3
f 63/1/3 60/1/3 59/1/3
f 64/1/3 60/1/3 63/1/3
f 67/1/3 66/1/3 65/1/3
f 68/1/3 66/1/3 67/1/3
f 69/1/3 67/1/3 65/1/3
f 70/1/3 66/1/3 68/1/3
f 71/1/3 69/1/3 65/1/3
f 71/1/3 70/1/3 69/1/3
f 72/1/3 66/1/3 70/1/3
f 72/1/3 70/1/3 71/1/3
f 75/2/3 74/2/3 73/2/3
f 76/2/3 74/2/3 75/2/3
f 79/1/3 78/1/3 77/1/3
f 80/1/3 78/1/3 79/1/3
f 83/1/3 82/1/3 81/1/3
f 84/1/3 82/1/3 83/1/3
f 85/1/4 86/1/4 87/1/4
f 87/1/4 86/1/4 88/1/4
f 89/1/4 90/1/4 91/1/4
f 91/1/4 90/1/4 92/1/4
f 93/2/4 94/2/4 95/2/4
f 95/2/4 94/2/4 96/2/4
f 97/1/4 98/1/4 99/1/4
f 99/1/4 98/1/4 100/1/4
f 97/1/4 99/1/4 101/1/4
f 100/1/4 98/1/4 102/1/4
f 97/1/4 101/1/4 103/1/4
f 101/1/4 102/1/4 103/1/4
f 102/1/4 98/1/4 104/1/4
f 103/1/4 102/1/4 104/1/4
f 105/1/4 106/1/4 109/1/4
f 109/1/4 106/1/4 110/1/4
f 107/1/4 108/1/4 111/1/4
f 111/1/4 108/1/4 112/1/4
f 115/1/5 114/1/5 113/1/5
f 116/1/5 114/1/5 115/1/5
f 119/1/5 118/1/5 117/1/5
f 120/1/5 118/1/5 119/1/5
f 125/1/5 122/1/5 121/1/5
f 126/1/5 122/1/5 125/1/5
f 127/1/5 124/1/5 123/1/5
f 128/1/5 124/1/5 127/1/5
f 131/1/5 130/1/5 129/1/5
f 132/1/5 130/1/5 131/1/5
f 135/1/5 134/1/5 133/1/5
f 136/1/5 134/1/5 135/1/5
f 137/1/5 135/1/5 133/1/5
f 138/1/5 134/1/5 136/1/5
f 139/1/5 137/1/5 133/1/5
f 139/1/5 138/1/5 137/1/5
f 140/1/5 134/1/5 138/1/5
f 140/1/5 138/1/5 139/1/5
f 141/1/6 142/1/6 143/1/6
f 143/1/6 142/1/6 144/1/6
f 141/1/6 143/1/6 145/1/6
f 144/1/6 142/1/6 146/1/6
f 141/1/6 145/1/6 147/1/6
f 145/1/6 146/1/6 147/1/6
f 146/1/6 142/1/6 148/1/6
f 147/1/6 146/1/6 148/1/6
f 149/1/6 150/1/6 151/1/6
f 151/1/6 150/1/6 152/1/6
f 153/1/6 154/1/6 157/1/6
f 157/1/6 154/1/6 158/1/6
f 155/1/6 156/1/6 159/1/6
f 159/1/6 156/1/6 160/1/6
f 161/1/6 162/1/6 163/1/6
f 163/1/6 162/1/6 164/1/6
f 165/1/6 166/1/6 167/1/6
f 167/1/6 166/1/6 168/1/6
