%YAML 1.1
%TAG !u! tag:unity3d.com,2011:
--- !u!1 &11453514070013752
GameObject:
  m_ObjectHideFlags: 0
  m_CorrespondingSourceObject: {fileID: 0}
  m_PrefabInstance: {fileID: 0}
  m_PrefabAsset: {fileID: 0}
  serializedVersion: 6
  m_Component:
  - component: {fileID: 11453514070013735}
  - component: {fileID: 11453514070013734}
  - component: {fileID: 11453514070013753}
  m_Layer: 0
  m_Name: BlackBox
  m_TagString: Untagged
  m_Icon: {fileID: 0}
  m_NavMeshLayer: 0
  m_StaticEditorFlags: 0
  m_IsActive: 1
--- !u!4 &11453514070013735
Transform:
  m_ObjectHideFlags: 0
  m_CorrespondingSourceObject: {fileID: 0}
  m_PrefabInstance: {fileID: 0}
  m_PrefabAsset: {fileID: 0}
  m_GameObject: {fileID: 11453514070013752}
  m_LocalRotation: {x: 0, y: 0, z: 0, w: 1}
  m_LocalPosition: {x: 0, y: 0, z: 0}
  m_LocalScale: {x: 0.1, y: 0.1, z: 0.1}
  m_Children:
  - {fileID: 550012637376093731}
  - {fileID: 550012635792937891}
  m_Father: {fileID: 0}
  m_RootOrder: 0
  m_LocalEulerAnglesHint: {x: 0, y: 0, z: 0}
--- !u!114 &11453514070013734
MonoBehaviour:
  m_ObjectHideFlags: 0
  m_CorrespondingSourceObject: {fileID: 0}
  m_PrefabInstance: {fileID: 0}
  m_PrefabAsset: {fileID: 0}
  m_GameObject: {fileID: 11453514070013752}
  m_Enabled: 1
  m_EditorHideFlags: 0
  m_Script: {fileID: 11500000, guid: 31a78b5c380f0754e9183a8768ced224, type: 3}
  m_Name: 
  m_EditorClassIdentifier: 
  Type: 95
  SubType: 0
  ObjectRadius: 1
  withGravity: 1
  isFlyingObject: 0
  Lamp: {fileID: 930513635134556441}
--- !u!65 &11453514070013753
BoxCollider:
  m_ObjectHideFlags: 0
  m_CorrespondingSourceObject: {fileID: 0}
  m_PrefabInstance: {fileID: 0}
  m_PrefabAsset: {fileID: 0}
  m_GameObject: {fileID: 11453514070013752}
  m_Material: {fileID: 0}
  m_IsTrigger: 0
  m_Enabled: 1
  serializedVersion: 2
  m_Size: {x: 8, y: 4, z: 8}
  m_Center: {x: 0, y: 2, z: 0}
--- !u!1001 &11453514353637832
PrefabInstance:
  m_ObjectHideFlags: 0
  serializedVersion: 2
  m_Modification:
    m_TransformParent: {fileID: 11453514070013735}
    m_Modifications:
    - target: {fileID: -8679921383154817045, guid: 308f7f70d5937d44da13eb0afd7a47ca,
        type: 3}
      propertyPath: m_RootOrder
      value: 0
      objectReference: {fileID: 0}
    - target: {fileID: -8679921383154817045, guid: 308f7f70d5937d44da13eb0afd7a47ca,
        type: 3}
      propertyPath: m_LocalPosition.x
      value: -0
      objectReference: {fileID: 0}
    - target: {fileID: -8679921383154817045, guid: 308f7f70d5937d44da13eb0afd7a47ca,
        type: 3}
      propertyPath: m_LocalPosition.y
      value: 0
      objectReference: {fileID: 0}
    - target: {fileID: -8679921383154817045, guid: 308f7f70d5937d44da13eb0afd7a47ca,
        type: 3}
      propertyPath: m_LocalPosition.z
      value: 0
      objectReference: {fileID: 0}
    - target: {fileID: -8679921383154817045, guid: 308f7f70d5937d44da13eb0afd7a47ca,
        type: 3}
      propertyPath: m_LocalRotation.w
      value: 1
      objectReference: {fileID: 0}
    - target: {fileID: -8679921383154817045, guid: 308f7f70d5937d44da13eb0afd7a47ca,
        type: 3}
      propertyPath: m_LocalRotation.x
      value: 0
      objectReference: {fileID: 0}
    - target: {fileID: -8679921383154817045, guid: 308f7f70d5937d44da13eb0afd7a47ca,
        type: 3}
      propertyPath: m_LocalRotation.y
      value: -0
      objectReference: {fileID: 0}
    - target: {fileID: -8679921383154817045, guid: 308f7f70d5937d44da13eb0afd7a47ca,
        type: 3}
      propertyPath: m_LocalRotation.z
      value: -0
      objectReference: {fileID: 0}
    - target: {fileID: -8679921383154817045, guid: 308f7f70d5937d44da13eb0afd7a47ca,
        type: 3}
      propertyPath: m_LocalEulerAnglesHint.x
      value: 0
      objectReference: {fileID: 0}
    - target: {fileID: -8679921383154817045, guid: 308f7f70d5937d44da13eb0afd7a47ca,
        type: 3}
      propertyPath: m_LocalEulerAnglesHint.y
      value: 0
      objectReference: {fileID: 0}
    - target: {fileID: -8679921383154817045, guid: 308f7f70d5937d44da13eb0afd7a47ca,
        type: 3}
      propertyPath: m_LocalEulerAnglesHint.z
      value: 0
      objectReference: {fileID: 0}
    - target: {fileID: 919132149155446097, guid: 308f7f70d5937d44da13eb0afd7a47ca,
        type: 3}
      propertyPath: m_Name
      value: black_box_body
      objectReference: {fileID: 0}
    m_RemovedComponents: []
  m_SourcePrefab: {fileID: 100100000, guid: 308f7f70d5937d44da13eb0afd7a47ca, type: 3}
--- !u!4 &550012637376093731 stripped
Transform:
  m_CorrespondingSourceObject: {fileID: -8679921383154817045, guid: 308f7f70d5937d44da13eb0afd7a47ca,
    type: 3}
  m_PrefabInstance: {fileID: 11453514353637832}
  m_PrefabAsset: {fileID: 0}
--- !u!1001 &11453515936789576
PrefabInstance:
  m_ObjectHideFlags: 0
  serializedVersion: 2
  m_Modification:
    m_TransformParent: {fileID: 11453514070013735}
    m_Modifications:
    - target: {fileID: -8679921383154817045, guid: 396a84f763d1c9945967f8dfd6e10306,
        type: 3}
      propertyPath: m_RootOrder
      value: 1
      objectReference: {fileID: 0}
    - target: {fileID: -8679921383154817045, guid: 396a84f763d1c9945967f8dfd6e10306,
        type: 3}
      propertyPath: m_LocalPosition.x
      value: -0
      objectReference: {fileID: 0}
    - target: {fileID: -8679921383154817045, guid: 396a84f763d1c9945967f8dfd6e10306,
        type: 3}
      propertyPath: m_LocalPosition.y
      value: 0
      objectReference: {fileID: 0}
    - target: {fileID: -8679921383154817045, guid: 396a84f763d1c9945967f8dfd6e10306,
        type: 3}
      propertyPath: m_LocalPosition.z
      value: 0
      objectReference: {fileID: 0}
    - target: {fileID: -8679921383154817045, guid: 396a84f763d1c9945967f8dfd6e10306,
        type: 3}
      propertyPath: m_LocalRotation.w
      value: 1
      objectReference: {fileID: 0}
    - target: {fileID: -8679921383154817045, guid: 396a84f763d1c9945967f8dfd6e10306,
        type: 3}
      propertyPath: m_LocalRotation.x
      value: 0
      objectReference: {fileID: 0}
    - target: {fileID: -8679921383154817045, guid: 396a84f763d1c9945967f8dfd6e10306,
        type: 3}
      propertyPath: m_LocalRotation.y
      value: -0
      objectReference: {fileID: 0}
    - target: {fileID: -8679921383154817045, guid: 396a84f763d1c9945967f8dfd6e10306,
        type: 3}
      propertyPath: m_LocalRotation.z
      value: -0
      objectReference: {fileID: 0}
    - target: {fileID: -8679921383154817045, guid: 396a84f763d1c9945967f8dfd6e10306,
        type: 3}
      propertyPath: m_LocalEulerAnglesHint.x
      value: 0
      objectReference: {fileID: 0}
    - target: {fileID: -8679921383154817045, guid: 396a84f763d1c9945967f8dfd6e10306,
        type: 3}
      propertyPath: m_LocalEulerAnglesHint.y
      value: 0
      objectReference: {fileID: 0}
    - target: {fileID: -8679921383154817045, guid: 396a84f763d1c9945967f8dfd6e10306,
        type: 3}
      propertyPath: m_LocalEulerAnglesHint.z
      value: 0
      objectReference: {fileID: 0}
    - target: {fileID: 919132149155446097, guid: 396a84f763d1c9945967f8dfd6e10306,
        type: 3}
      propertyPath: m_Name
      value: black_box_lamp
      objectReference: {fileID: 0}
    m_RemovedComponents: []
  m_SourcePrefab: {fileID: 100100000, guid: 396a84f763d1c9945967f8dfd6e10306, type: 3}
--- !u!1 &930513635134556441 stripped
GameObject:
  m_CorrespondingSourceObject: {fileID: 919132149155446097, guid: 396a84f763d1c9945967f8dfd6e10306,
    type: 3}
  m_PrefabInstance: {fileID: 11453515936789576}
  m_PrefabAsset: {fileID: 0}
--- !u!4 &550012635792937891 stripped
Transform:
  m_CorrespondingSourceObject: {fileID: -8679921383154817045, guid: 396a84f763d1c9945967f8dfd6e10306,
    type: 3}
  m_PrefabInstance: {fileID: 11453515936789576}
  m_PrefabAsset: {fileID: 0}
