# MagicaVoxel @ Ephtracy

# material
mtllib assistant-wheel-2.mtl
usemtl palette

# normals
vn -1 0 0
vn 1 0 0
vn 0 0 1
vn 0 0 -1
vn 0 -1 0
vn 0 1 0

# texcoords
vt 0.849609 0.5
vt 0.861328 0.5

# verts
v -12 0 9
v -12 0 8
v -12 0 7
v -12 0 5
v -12 0 4
v -12 0 2
v -12 0 1
v -12 0 -1
v -12 0 -2
v -12 0 -4
v -12 0 -5
v -12 0 -7
v -12 0 -8
v -12 0 -10
v -12 1 10
v -12 1 9
v -12 1 8
v -12 1 7
v -12 1 5
v -12 1 4
v -12 1 2
v -12 1 1
v -12 1 -1
v -12 1 -2
v -12 1 -4
v -12 1 -5
v -12 1 -7
v -12 1 -8
v -12 1 -10
v -12 1 -11
v -12 1 -12
v -12 2 10
v -12 2 9
v -12 3 10
v -12 3 9
v -12 3 -11
v -12 3 -12
v -12 4 -11
v -12 4 -12
v -12 5 10
v -12 5 9
v -12 5 8
v -12 5 6
v -12 5 5
v -12 5 3
v -12 5 2
v -12 5 -0
v -12 5 -1
v -12 5 -3
v -12 5 -4
v -12 5 -6
v -12 5 -7
v -12 5 -9
v -12 5 -10
v -12 5 -11
v -12 5 -12
v -12 6 8
v -12 6 6
v -12 6 5
v -12 6 3
v -12 6 2
v -12 6 -0
v -12 6 -1
v -12 6 -3
v -12 6 -4
v -12 6 -6
v -12 6 -7
v -12 6 -9
v -12 6 -10
v -12 6 -11
v -11 1 9
v -11 1 8
v -11 1 7
v -11 1 5
v -11 1 4
v -11 1 2
v -11 1 1
v -11 1 -1
v -11 1 -2
v -11 1 -4
v -11 1 -5
v -11 1 -7
v -11 1 -8
v -11 1 -10
v -11 1 -11
v -11 2 9
v -11 3 9
v -11 3 -11
v -11 4 -11
v -11 5 9
v -11 5 8
v -11 5 6
v -11 5 5
v -11 5 3
v -11 5 2
v -11 5 -0
v -11 5 -1
v -11 5 -3
v -11 5 -4
v -11 5 -6
v -11 5 -7
v -11 5 -9
v -11 5 -10
v -11 5 -11
v 6 0 9
v 6 0 8
v 6 0 7
v 6 0 5
v 6 0 4
v 6 0 2
v 6 0 1
v 6 0 -1
v 6 0 -2
v 6 0 -4
v 6 0 -5
v 6 0 -7
v 6 0 -8
v 6 0 -10
v 6 1 10
v 6 1 9
v 6 1 8
v 6 1 7
v 6 1 5
v 6 1 4
v 6 1 2
v 6 1 1
v 6 1 -1
v 6 1 -2
v 6 1 -4
v 6 1 -5
v 6 1 -7
v 6 1 -8
v 6 1 -10
v 6 1 -11
v 6 1 -12
v 6 2 10
v 6 2 9
v 6 3 10
v 6 3 9
v 6 3 -11
v 6 3 -12
v 6 4 -11
v 6 4 -12
v 6 5 10
v 6 5 9
v 6 5 8
v 6 5 6
v 6 5 5
v 6 5 3
v 6 5 2
v 6 5 -0
v 6 5 -1
v 6 5 -3
v 6 5 -4
v 6 5 -6
v 6 5 -7
v 6 5 -9
v 6 5 -10
v 6 5 -11
v 6 5 -12
v 6 6 8
v 6 6 6
v 6 6 5
v 6 6 3
v 6 6 2
v 6 6 -0
v 6 6 -1
v 6 6 -3
v 6 6 -4
v 6 6 -6
v 6 6 -7
v 6 6 -9
v 6 6 -10
v 6 6 -11
v 7 1 9
v 7 1 8
v 7 1 7
v 7 1 5
v 7 1 4
v 7 1 2
v 7 1 1
v 7 1 -1
v 7 1 -2
v 7 1 -4
v 7 1 -5
v 7 1 -7
v 7 1 -8
v 7 1 -10
v 7 1 -11
v 7 2 9
v 7 3 9
v 7 3 -11
v 7 4 -11
v 7 5 9
v 7 5 8
v 7 5 6
v 7 5 5
v 7 5 3
v 7 5 2
v 7 5 -0
v 7 5 -1
v 7 5 -3
v 7 5 -4
v 7 5 -6
v 7 5 -7
v 7 5 -9
v 7 5 -10
v 7 5 -11
v -7 1 9
v -7 1 8
v -7 1 7
v -7 1 5
v -7 1 4
v -7 1 2
v -7 1 1
v -7 1 -1
v -7 1 -2
v -7 1 -4
v -7 1 -5
v -7 1 -7
v -7 1 -8
v -7 1 -10
v -7 1 -11
v -7 2 9
v -7 3 9
v -7 3 -11
v -7 4 -11
v -7 5 9
v -7 5 8
v -7 5 6
v -7 5 5
v -7 5 3
v -7 5 2
v -7 5 -0
v -7 5 -1
v -7 5 -3
v -7 5 -4
v -7 5 -6
v -7 5 -7
v -7 5 -9
v -7 5 -10
v -7 5 -11
v -6 0 9
v -6 0 8
v -6 0 7
v -6 0 5
v -6 0 4
v -6 0 2
v -6 0 1
v -6 0 -1
v -6 0 -2
v -6 0 -4
v -6 0 -5
v -6 0 -7
v -6 0 -8
v -6 0 -10
v -6 1 10
v -6 1 9
v -6 1 8
v -6 1 7
v -6 1 5
v -6 1 4
v -6 1 2
v -6 1 1
v -6 1 -1
v -6 1 -2
v -6 1 -4
v -6 1 -5
v -6 1 -7
v -6 1 -8
v -6 1 -10
v -6 1 -11
v -6 1 -12
v -6 2 10
v -6 2 9
v -6 3 10
v -6 3 9
v -6 3 -11
v -6 3 -12
v -6 4 -11
v -6 4 -12
v -6 5 10
v -6 5 9
v -6 5 8
v -6 5 6
v -6 5 5
v -6 5 3
v -6 5 2
v -6 5 -0
v -6 5 -1
v -6 5 -3
v -6 5 -4
v -6 5 -6
v -6 5 -7
v -6 5 -9
v -6 5 -10
v -6 5 -11
v -6 5 -12
v -6 6 8
v -6 6 6
v -6 6 5
v -6 6 3
v -6 6 2
v -6 6 -0
v -6 6 -1
v -6 6 -3
v -6 6 -4
v -6 6 -6
v -6 6 -7
v -6 6 -9
v -6 6 -10
v -6 6 -11
v 11 1 9
v 11 1 8
v 11 1 7
v 11 1 5
v 11 1 4
v 11 1 2
v 11 1 1
v 11 1 -1
v 11 1 -2
v 11 1 -4
v 11 1 -5
v 11 1 -7
v 11 1 -8
v 11 1 -10
v 11 1 -11
v 11 2 9
v 11 3 9
v 11 3 -11
v 11 4 -11
v 11 5 9
v 11 5 8
v 11 5 6
v 11 5 5
v 11 5 3
v 11 5 2
v 11 5 -0
v 11 5 -1
v 11 5 -3
v 11 5 -4
v 11 5 -6
v 11 5 -7
v 11 5 -9
v 11 5 -10
v 11 5 -11
v 12 0 9
v 12 0 8
v 12 0 7
v 12 0 5
v 12 0 4
v 12 0 2
v 12 0 1
v 12 0 -1
v 12 0 -2
v 12 0 -4
v 12 0 -5
v 12 0 -7
v 12 0 -8
v 12 0 -10
v 12 1 10
v 12 1 9
v 12 1 8
v 12 1 7
v 12 1 5
v 12 1 4
v 12 1 2
v 12 1 1
v 12 1 -1
v 12 1 -2
v 12 1 -4
v 12 1 -5
v 12 1 -7
v 12 1 -8
v 12 1 -10
v 12 1 -11
v 12 1 -12
v 12 2 10
v 12 2 9
v 12 3 10
v 12 3 9
v 12 3 -11
v 12 3 -12
v 12 4 -11
v 12 4 -12
v 12 5 10
v 12 5 9
v 12 5 8
v 12 5 6
v 12 5 5
v 12 5 3
v 12 5 2
v 12 5 -0
v 12 5 -1
v 12 5 -3
v 12 5 -4
v 12 5 -6
v 12 5 -7
v 12 5 -9
v 12 5 -10
v 12 5 -11
v 12 5 -12
v 12 6 8
v 12 6 6
v 12 6 5
v 12 6 3
v 12 6 2
v 12 6 -0
v 12 6 -1
v 12 6 -3
v 12 6 -4
v 12 6 -6
v 12 6 -7
v 12 6 -9
v 12 6 -10
v 12 6 -11
v -12 1 10
v -12 2 10
v -12 3 10
v -12 5 10
v -6 1 10
v -6 2 10
v -6 3 10
v -6 5 10
v 6 1 10
v 6 2 10
v 6 3 10
v 6 5 10
v 12 1 10
v 12 2 10
v 12 3 10
v 12 5 10
v -12 0 9
v -12 1 9
v -11 2 9
v -11 3 9
v -7 2 9
v -7 3 9
v -6 0 9
v -6 1 9
v 6 0 9
v 6 1 9
v 7 2 9
v 7 3 9
v 11 2 9
v 11 3 9
v 12 0 9
v 12 1 9
v -12 5 8
v -12 6 8
v -11 5 8
v -7 5 8
v -6 5 8
v -6 6 8
v 6 5 8
v 6 6 8
v 7 5 8
v 11 5 8
v 12 5 8
v 12 6 8
v -12 0 7
v -12 1 7
v -11 1 7
v -7 1 7
v -6 0 7
v -6 1 7
v 6 0 7
v 6 1 7
v 7 1 7
v 11 1 7
v 12 0 7
v 12 1 7
v -12 5 5
v -12 6 5
v -11 5 5
v -7 5 5
v -6 5 5
v -6 6 5
v 6 5 5
v 6 6 5
v 7 5 5
v 11 5 5
v 12 5 5
v 12 6 5
v -12 0 4
v -12 1 4
v -11 1 4
v -7 1 4
v -6 0 4
v -6 1 4
v 6 0 4
v 6 1 4
v 7 1 4
v 11 1 4
v 12 0 4
v 12 1 4
v -12 5 2
v -12 6 2
v -11 5 2
v -7 5 2
v -6 5 2
v -6 6 2
v 6 5 2
v 6 6 2
v 7 5 2
v 11 5 2
v 12 5 2
v 12 6 2
v -12 0 1
v -12 1 1
v -11 1 1
v -7 1 1
v -6 0 1
v -6 1 1
v 6 0 1
v 6 1 1
v 7 1 1
v 11 1 1
v 12 0 1
v 12 1 1
v -12 5 -1
v -12 6 -1
v -11 5 -1
v -7 5 -1
v -6 5 -1
v -6 6 -1
v 6 5 -1
v 6 6 -1
v 7 5 -1
v 11 5 -1
v 12 5 -1
v 12 6 -1
v -12 0 -2
v -12 1 -2
v -11 1 -2
v -7 1 -2
v -6 0 -2
v -6 1 -2
v 6 0 -2
v 6 1 -2
v 7 1 -2
v 11 1 -2
v 12 0 -2
v 12 1 -2
v -12 5 -4
v -12 6 -4
v -11 5 -4
v -7 5 -4
v -6 5 -4
v -6 6 -4
v 6 5 -4
v 6 6 -4
v 7 5 -4
v 11 5 -4
v 12 5 -4
v 12 6 -4
v -12 0 -5
v -12 1 -5
v -11 1 -5
v -7 1 -5
v -6 0 -5
v -6 1 -5
v 6 0 -5
v 6 1 -5
v 7 1 -5
v 11 1 -5
v 12 0 -5
v 12 1 -5
v -12 5 -7
v -12 6 -7
v -11 5 -7
v -7 5 -7
v -6 5 -7
v -6 6 -7
v 6 5 -7
v 6 6 -7
v 7 5 -7
v 11 5 -7
v 12 5 -7
v 12 6 -7
v -12 0 -8
v -12 1 -8
v -11 1 -8
v -7 1 -8
v -6 0 -8
v -6 1 -8
v 6 0 -8
v 6 1 -8
v 7 1 -8
v 11 1 -8
v 12 0 -8
v 12 1 -8
v -12 5 -10
v -12 6 -10
v -11 5 -10
v -7 5 -10
v -6 5 -10
v -6 6 -10
v 6 5 -10
v 6 6 -10
v 7 5 -10
v 11 5 -10
v 12 5 -10
v 12 6 -10
v -12 1 -11
v -12 3 -11
v -12 4 -11
v -12 5 -11
v -11 1 -11
v -11 3 -11
v -11 4 -11
v -11 5 -11
v -7 1 -11
v -7 3 -11
v -7 4 -11
v -7 5 -11
v -6 1 -11
v -6 3 -11
v -6 4 -11
v -6 5 -11
v 6 1 -11
v 6 3 -11
v 6 4 -11
v 6 5 -11
v 7 1 -11
v 7 3 -11
v 7 4 -11
v 7 5 -11
v 11 1 -11
v 11 3 -11
v 11 4 -11
v 11 5 -11
v 12 1 -11
v 12 3 -11
v 12 4 -11
v 12 5 -11
v -12 1 9
v -12 2 9
v -12 3 9
v -12 5 9
v -11 1 9
v -11 2 9
v -11 3 9
v -11 5 9
v -7 1 9
v -7 2 9
v -7 3 9
v -7 5 9
v -6 1 9
v -6 2 9
v -6 3 9
v -6 5 9
v 6 1 9
v 6 2 9
v 6 3 9
v 6 5 9
v 7 1 9
v 7 2 9
v 7 3 9
v 7 5 9
v 11 1 9
v 11 2 9
v 11 3 9
v 11 5 9
v 12 1 9
v 12 2 9
v 12 3 9
v 12 5 9
v -12 0 8
v -12 1 8
v -11 1 8
v -7 1 8
v -6 0 8
v -6 1 8
v 6 0 8
v 6 1 8
v 7 1 8
v 11 1 8
v 12 0 8
v 12 1 8
v -12 5 6
v -12 6 6
v -11 5 6
v -7 5 6
v -6 5 6
v -6 6 6
v 6 5 6
v 6 6 6
v 7 5 6
v 11 5 6
v 12 5 6
v 12 6 6
v -12 0 5
v -12 1 5
v -11 1 5
v -7 1 5
v -6 0 5
v -6 1 5
v 6 0 5
v 6 1 5
v 7 1 5
v 11 1 5
v 12 0 5
v 12 1 5
v -12 5 3
v -12 6 3
v -11 5 3
v -7 5 3
v -6 5 3
v -6 6 3
v 6 5 3
v 6 6 3
v 7 5 3
v 11 5 3
v 12 5 3
v 12 6 3
v -12 0 2
v -12 1 2
v -11 1 2
v -7 1 2
v -6 0 2
v -6 1 2
v 6 0 2
v 6 1 2
v 7 1 2
v 11 1 2
v 12 0 2
v 12 1 2
v -12 5 -0
v -12 6 -0
v -11 5 -0
v -7 5 -0
v -6 5 -0
v -6 6 -0
v 6 5 -0
v 6 6 -0
v 7 5 -0
v 11 5 -0
v 12 5 -0
v 12 6 -0
v -12 0 -1
v -12 1 -1
v -11 1 -1
v -7 1 -1
v -6 0 -1
v -6 1 -1
v 6 0 -1
v 6 1 -1
v 7 1 -1
v 11 1 -1
v 12 0 -1
v 12 1 -1
v -12 5 -3
v -12 6 -3
v -11 5 -3
v -7 5 -3
v -6 5 -3
v -6 6 -3
v 6 5 -3
v 6 6 -3
v 7 5 -3
v 11 5 -3
v 12 5 -3
v 12 6 -3
v -12 0 -4
v -12 1 -4
v -11 1 -4
v -7 1 -4
v -6 0 -4
v -6 1 -4
v 6 0 -4
v 6 1 -4
v 7 1 -4
v 11 1 -4
v 12 0 -4
v 12 1 -4
v -12 5 -6
v -12 6 -6
v -11 5 -6
v -7 5 -6
v -6 5 -6
v -6 6 -6
v 6 5 -6
v 6 6 -6
v 7 5 -6
v 11 5 -6
v 12 5 -6
v 12 6 -6
v -12 0 -7
v -12 1 -7
v -11 1 -7
v -7 1 -7
v -6 0 -7
v -6 1 -7
v 6 0 -7
v 6 1 -7
v 7 1 -7
v 11 1 -7
v 12 0 -7
v 12 1 -7
v -12 5 -9
v -12 6 -9
v -11 5 -9
v -7 5 -9
v -6 5 -9
v -6 6 -9
v 6 5 -9
v 6 6 -9
v 7 5 -9
v 11 5 -9
v 12 5 -9
v 12 6 -9
v -12 0 -10
v -12 1 -10
v -11 1 -10
v -7 1 -10
v -6 0 -10
v -6 1 -10
v 6 0 -10
v 6 1 -10
v 7 1 -10
v 11 1 -10
v 12 0 -10
v 12 1 -10
v -12 5 -11
v -12 6 -11
v -11 3 -11
v -11 4 -11
v -7 3 -11
v -7 4 -11
v -6 5 -11
v -6 6 -11
v 6 5 -11
v 6 6 -11
v 7 3 -11
v 7 4 -11
v 11 3 -11
v 11 4 -11
v 12 5 -11
v 12 6 -11
v -12 1 -12
v -12 3 -12
v -12 4 -12
v -12 5 -12
v -6 1 -12
v -6 3 -12
v -6 4 -12
v -6 5 -12
v 6 1 -12
v 6 3 -12
v 6 4 -12
v 6 5 -12
v 12 1 -12
v 12 3 -12
v 12 4 -12
v 12 5 -12
v -12 0 9
v -6 0 9
v 6 0 9
v 12 0 9
v -12 0 8
v -6 0 8
v 6 0 8
v 12 0 8
v -12 0 7
v -6 0 7
v 6 0 7
v 12 0 7
v -12 0 5
v -6 0 5
v 6 0 5
v 12 0 5
v -12 0 4
v -6 0 4
v 6 0 4
v 12 0 4
v -12 0 2
v -6 0 2
v 6 0 2
v 12 0 2
v -12 0 1
v -6 0 1
v 6 0 1
v 12 0 1
v -12 0 -1
v -6 0 -1
v 6 0 -1
v 12 0 -1
v -12 0 -2
v -6 0 -2
v 6 0 -2
v 12 0 -2
v -12 0 -4
v -6 0 -4
v 6 0 -4
v 12 0 -4
v -12 0 -5
v -6 0 -5
v 6 0 -5
v 12 0 -5
v -12 0 -7
v -6 0 -7
v 6 0 -7
v 12 0 -7
v -12 0 -8
v -6 0 -8
v 6 0 -8
v 12 0 -8
v -12 0 -10
v -6 0 -10
v 6 0 -10
v 12 0 -10
v -12 1 10
v -6 1 10
v 6 1 10
v 12 1 10
v -12 1 9
v -6 1 9
v 6 1 9
v 12 1 9
v -11 1 8
v -7 1 8
v 7 1 8
v 11 1 8
v -11 1 7
v -7 1 7
v 7 1 7
v 11 1 7
v -11 1 5
v -7 1 5
v 7 1 5
v 11 1 5
v -11 1 4
v -7 1 4
v 7 1 4
v 11 1 4
v -11 1 2
v -7 1 2
v 7 1 2
v 11 1 2
v -11 1 1
v -7 1 1
v 7 1 1
v 11 1 1
v -11 1 -1
v -7 1 -1
v 7 1 -1
v 11 1 -1
v -11 1 -2
v -7 1 -2
v 7 1 -2
v 11 1 -2
v -11 1 -4
v -7 1 -4
v 7 1 -4
v 11 1 -4
v -11 1 -5
v -7 1 -5
v 7 1 -5
v 11 1 -5
v -11 1 -7
v -7 1 -7
v 7 1 -7
v 11 1 -7
v -11 1 -8
v -7 1 -8
v 7 1 -8
v 11 1 -8
v -11 1 -10
v -7 1 -10
v 7 1 -10
v 11 1 -10
v -12 1 -11
v -11 1 -11
v -7 1 -11
v -6 1 -11
v 6 1 -11
v 7 1 -11
v 11 1 -11
v 12 1 -11
v -12 1 -12
v -6 1 -12
v 6 1 -12
v 12 1 -12
v -12 3 10
v -6 3 10
v 6 3 10
v 12 3 10
v -12 3 9
v -11 3 9
v -7 3 9
v -6 3 9
v 6 3 9
v 7 3 9
v 11 3 9
v 12 3 9
v -12 4 -11
v -11 4 -11
v -7 4 -11
v -6 4 -11
v 6 4 -11
v 7 4 -11
v 11 4 -11
v 12 4 -11
v -12 4 -12
v -6 4 -12
v 6 4 -12
v 12 4 -12
v -12 5 8
v -11 5 8
v -7 5 8
v -6 5 8
v 6 5 8
v 7 5 8
v 11 5 8
v 12 5 8
v -12 5 6
v -11 5 6
v -7 5 6
v -6 5 6
v 6 5 6
v 7 5 6
v 11 5 6
v 12 5 6
v -12 5 5
v -11 5 5
v -7 5 5
v -6 5 5
v 6 5 5
v 7 5 5
v 11 5 5
v 12 5 5
v -12 5 3
v -11 5 3
v -7 5 3
v -6 5 3
v 6 5 3
v 7 5 3
v 11 5 3
v 12 5 3
v -12 5 2
v -11 5 2
v -7 5 2
v -6 5 2
v 6 5 2
v 7 5 2
v 11 5 2
v 12 5 2
v -12 5 -0
v -11 5 -0
v -7 5 -0
v -6 5 -0
v 6 5 -0
v 7 5 -0
v 11 5 -0
v 12 5 -0
v -12 5 -1
v -11 5 -1
v -7 5 -1
v -6 5 -1
v 6 5 -1
v 7 5 -1
v 11 5 -1
v 12 5 -1
v -12 5 -3
v -11 5 -3
v -7 5 -3
v -6 5 -3
v 6 5 -3
v 7 5 -3
v 11 5 -3
v 12 5 -3
v -12 5 -4
v -11 5 -4
v -7 5 -4
v -6 5 -4
v 6 5 -4
v 7 5 -4
v 11 5 -4
v 12 5 -4
v -12 5 -6
v -11 5 -6
v -7 5 -6
v -6 5 -6
v 6 5 -6
v 7 5 -6
v 11 5 -6
v 12 5 -6
v -12 5 -7
v -11 5 -7
v -7 5 -7
v -6 5 -7
v 6 5 -7
v 7 5 -7
v 11 5 -7
v 12 5 -7
v -12 5 -9
v -11 5 -9
v -7 5 -9
v -6 5 -9
v 6 5 -9
v 7 5 -9
v 11 5 -9
v 12 5 -9
v -12 5 -10
v -11 5 -10
v -7 5 -10
v -6 5 -10
v 6 5 -10
v 7 5 -10
v 11 5 -10
v 12 5 -10
v -12 5 -11
v -11 5 -11
v -7 5 -11
v -6 5 -11
v 6 5 -11
v 7 5 -11
v 11 5 -11
v 12 5 -11
v -12 1 9
v -11 1 9
v -7 1 9
v -6 1 9
v 6 1 9
v 7 1 9
v 11 1 9
v 12 1 9
v -12 1 8
v -11 1 8
v -7 1 8
v -6 1 8
v 6 1 8
v 7 1 8
v 11 1 8
v 12 1 8
v -12 1 7
v -11 1 7
v -7 1 7
v -6 1 7
v 6 1 7
v 7 1 7
v 11 1 7
v 12 1 7
v -12 1 5
v -11 1 5
v -7 1 5
v -6 1 5
v 6 1 5
v 7 1 5
v 11 1 5
v 12 1 5
v -12 1 4
v -11 1 4
v -7 1 4
v -6 1 4
v 6 1 4
v 7 1 4
v 11 1 4
v 12 1 4
v -12 1 2
v -11 1 2
v -7 1 2
v -6 1 2
v 6 1 2
v 7 1 2
v 11 1 2
v 12 1 2
v -12 1 1
v -11 1 1
v -7 1 1
v -6 1 1
v 6 1 1
v 7 1 1
v 11 1 1
v 12 1 1
v -12 1 -1
v -11 1 -1
v -7 1 -1
v -6 1 -1
v 6 1 -1
v 7 1 -1
v 11 1 -1
v 12 1 -1
v -12 1 -2
v -11 1 -2
v -7 1 -2
v -6 1 -2
v 6 1 -2
v 7 1 -2
v 11 1 -2
v 12 1 -2
v -12 1 -4
v -11 1 -4
v -7 1 -4
v -6 1 -4
v 6 1 -4
v 7 1 -4
v 11 1 -4
v 12 1 -4
v -12 1 -5
v -11 1 -5
v -7 1 -5
v -6 1 -5
v 6 1 -5
v 7 1 -5
v 11 1 -5
v 12 1 -5
v -12 1 -7
v -11 1 -7
v -7 1 -7
v -6 1 -7
v 6 1 -7
v 7 1 -7
v 11 1 -7
v 12 1 -7
v -12 1 -8
v -11 1 -8
v -7 1 -8
v -6 1 -8
v 6 1 -8
v 7 1 -8
v 11 1 -8
v 12 1 -8
v -12 1 -10
v -11 1 -10
v -7 1 -10
v -6 1 -10
v 6 1 -10
v 7 1 -10
v 11 1 -10
v 12 1 -10
v -12 2 10
v -6 2 10
v 6 2 10
v 12 2 10
v -12 2 9
v -11 2 9
v -7 2 9
v -6 2 9
v 6 2 9
v 7 2 9
v 11 2 9
v 12 2 9
v -12 3 -11
v -11 3 -11
v -7 3 -11
v -6 3 -11
v 6 3 -11
v 7 3 -11
v 11 3 -11
v 12 3 -11
v -12 3 -12
v -6 3 -12
v 6 3 -12
v 12 3 -12
v -12 5 10
v -6 5 10
v 6 5 10
v 12 5 10
v -12 5 9
v -11 5 9
v -7 5 9
v -6 5 9
v 6 5 9
v 7 5 9
v 11 5 9
v 12 5 9
v -11 5 8
v -7 5 8
v 7 5 8
v 11 5 8
v -11 5 6
v -7 5 6
v 7 5 6
v 11 5 6
v -11 5 5
v -7 5 5
v 7 5 5
v 11 5 5
v -11 5 3
v -7 5 3
v 7 5 3
v 11 5 3
v -11 5 2
v -7 5 2
v 7 5 2
v 11 5 2
v -11 5 -0
v -7 5 -0
v 7 5 -0
v 11 5 -0
v -11 5 -1
v -7 5 -1
v 7 5 -1
v 11 5 -1
v -11 5 -3
v -7 5 -3
v 7 5 -3
v 11 5 -3
v -11 5 -4
v -7 5 -4
v 7 5 -4
v 11 5 -4
v -11 5 -6
v -7 5 -6
v 7 5 -6
v 11 5 -6
v -11 5 -7
v -7 5 -7
v 7 5 -7
v 11 5 -7
v -11 5 -9
v -7 5 -9
v 7 5 -9
v 11 5 -9
v -11 5 -10
v -7 5 -10
v 7 5 -10
v 11 5 -10
v -12 5 -11
v -6 5 -11
v 6 5 -11
v 12 5 -11
v -12 5 -12
v -6 5 -12
v 6 5 -12
v 12 5 -12
v -12 6 8
v -6 6 8
v 6 6 8
v 12 6 8
v -12 6 6
v -6 6 6
v 6 6 6
v 12 6 6
v -12 6 5
v -6 6 5
v 6 6 5
v 12 6 5
v -12 6 3
v -6 6 3
v 6 6 3
v 12 6 3
v -12 6 2
v -6 6 2
v 6 6 2
v 12 6 2
v -12 6 -0
v -6 6 -0
v 6 6 -0
v 12 6 -0
v -12 6 -1
v -6 6 -1
v 6 6 -1
v 12 6 -1
v -12 6 -3
v -6 6 -3
v 6 6 -3
v 12 6 -3
v -12 6 -4
v -6 6 -4
v 6 6 -4
v 12 6 -4
v -12 6 -6
v -6 6 -6
v 6 6 -6
v 12 6 -6
v -12 6 -7
v -6 6 -7
v 6 6 -7
v 12 6 -7
v -12 6 -9
v -6 6 -9
v 6 6 -9
v 12 6 -9
v -12 6 -10
v -6 6 -10
v 6 6 -10
v 12 6 -10
v -12 6 -11
v -6 6 -11
v 6 6 -11
v 12 6 -11

# faces
f 16/1/1 2/1/1 1/1/1
f 17/1/1 2/1/1 16/1/1
f 18/1/1 4/1/1 3/1/1
f 19/1/1 4/1/1 18/1/1
f 20/1/1 6/1/1 5/1/1
f 21/1/1 6/1/1 20/1/1
f 22/1/1 8/1/1 7/1/1
f 23/1/1 8/1/1 22/1/1
f 24/1/1 10/1/1 9/1/1
f 25/1/1 10/1/1 24/1/1
f 26/1/1 12/1/1 11/1/1
f 27/1/1 12/1/1 26/1/1
f 28/1/1 14/1/1 13/1/1
f 29/1/1 14/1/1 28/1/1
f 32/1/1 16/1/1 15/1/1
f 33/1/1 16/1/1 32/1/1
f 36/1/1 31/1/1 30/1/1
f 37/1/1 31/1/1 36/1/1
f 40/1/1 35/1/1 34/1/1
f 41/1/1 35/1/1 40/1/1
f 55/1/1 39/1/1 38/1/1
f 56/1/1 39/1/1 55/1/1
f 57/1/1 43/1/1 42/1/1
f 58/1/1 43/1/1 57/1/1
f 59/1/1 45/1/1 44/1/1
f 60/1/1 45/1/1 59/1/1
f 61/1/1 47/1/1 46/1/1
f 62/1/1 47/1/1 61/1/1
f 63/1/1 49/1/1 48/1/1
f 64/1/1 49/1/1 63/1/1
f 65/1/1 51/1/1 50/1/1
f 66/1/1 51/1/1 65/1/1
f 67/1/1 53/1/1 52/1/1
f 68/1/1 53/1/1 67/1/1
f 69/1/1 55/1/1 54/1/1
f 70/1/1 55/1/1 69/1/1
f 86/2/1 72/2/1 71/2/1
f 86/2/1 85/2/1 84/2/1
f 86/2/1 84/2/1 83/2/1
f 86/2/1 83/2/1 82/2/1
f 86/2/1 82/2/1 81/2/1
f 86/2/1 81/2/1 80/2/1
f 86/2/1 80/2/1 79/2/1
f 86/2/1 79/2/1 78/2/1
f 86/2/1 78/2/1 77/2/1
f 86/2/1 77/2/1 76/2/1
f 86/2/1 76/2/1 75/2/1
f 86/2/1 75/2/1 74/2/1
f 86/2/1 74/2/1 73/2/1
f 86/2/1 73/2/1 72/2/1
f 87/2/1 85/2/1 86/2/1
f 88/2/1 85/2/1 87/2/1
f 89/2/1 88/2/1 87/2/1
f 90/2/1 89/2/1 87/2/1
f 91/2/1 89/2/1 90/2/1
f 92/2/1 89/2/1 91/2/1
f 93/2/1 89/2/1 92/2/1
f 94/2/1 89/2/1 93/2/1
f 95/2/1 89/2/1 94/2/1
f 96/2/1 89/2/1 95/2/1
f 97/2/1 89/2/1 96/2/1
f 98/2/1 89/2/1 97/2/1
f 99/2/1 89/2/1 98/2/1
f 100/2/1 89/2/1 99/2/1
f 101/2/1 89/2/1 100/2/1
f 102/2/1 89/2/1 101/2/1
f 103/2/1 89/2/1 102/2/1
f 104/2/1 89/2/1 103/2/1
f 120/1/1 106/1/1 105/1/1
f 121/1/1 106/1/1 120/1/1
f 122/1/1 108/1/1 107/1/1
f 123/1/1 108/1/1 122/1/1
f 124/1/1 110/1/1 109/1/1
f 125/1/1 110/1/1 124/1/1
f 126/1/1 112/1/1 111/1/1
f 127/1/1 112/1/1 126/1/1
f 128/1/1 114/1/1 113/1/1
f 129/1/1 114/1/1 128/1/1
f 130/1/1 116/1/1 115/1/1
f 131/1/1 116/1/1 130/1/1
f 132/1/1 118/1/1 117/1/1
f 133/1/1 118/1/1 132/1/1
f 136/1/1 120/1/1 119/1/1
f 137/1/1 120/1/1 136/1/1
f 140/1/1 135/1/1 134/1/1
f 141/1/1 135/1/1 140/1/1
f 144/1/1 139/1/1 138/1/1
f 145/1/1 139/1/1 144/1/1
f 159/1/1 143/1/1 142/1/1
f 160/1/1 143/1/1 159/1/1
f 161/1/1 147/1/1 146/1/1
f 162/1/1 147/1/1 161/1/1
f 163/1/1 149/1/1 148/1/1
f 164/1/1 149/1/1 163/1/1
f 165/1/1 151/1/1 150/1/1
f 166/1/1 151/1/1 165/1/1
f 167/1/1 153/1/1 152/1/1
f 168/1/1 153/1/1 167/1/1
f 169/1/1 155/1/1 154/1/1
f 170/1/1 155/1/1 169/1/1
f 171/1/1 157/1/1 156/1/1
f 172/1/1 157/1/1 171/1/1
f 173/1/1 159/1/1 158/1/1
f 174/1/1 159/1/1 173/1/1
f 190/2/1 176/2/1 175/2/1
f 190/2/1 189/2/1 188/2/1
f 190/2/1 188/2/1 187/2/1
f 190/2/1 187/2/1 186/2/1
f 190/2/1 186/2/1 185/2/1
f 190/2/1 185/2/1 184/2/1
f 190/2/1 184/2/1 183/2/1
f 190/2/1 183/2/1 182/2/1
f 190/2/1 182/2/1 181/2/1
f 190/2/1 181/2/1 180/2/1
f 190/2/1 180/2/1 179/2/1
f 190/2/1 179/2/1 178/2/1
f 190/2/1 178/2/1 177/2/1
f 190/2/1 177/2/1 176/2/1
f 191/2/1 189/2/1 190/2/1
f 192/2/1 189/2/1 191/2/1
f 193/2/1 192/2/1 191/2/1
f 194/2/1 193/2/1 191/2/1
f 195/2/1 193/2/1 194/2/1
f 196/2/1 193/2/1 195/2/1
f 197/2/1 193/2/1 196/2/1
f 198/2/1 193/2/1 197/2/1
f 199/2/1 193/2/1 198/2/1
f 200/2/1 193/2/1 199/2/1
f 201/2/1 193/2/1 200/2/1
f 202/2/1 193/2/1 201/2/1
f 203/2/1 193/2/1 202/2/1
f 204/2/1 193/2/1 203/2/1
f 205/2/1 193/2/1 204/2/1
f 206/2/1 193/2/1 205/2/1
f 207/2/1 193/2/1 206/2/1
f 208/2/1 193/2/1 207/2/1
f 209/2/2 210/2/2 224/2/2
f 222/2/2 223/2/2 224/2/2
f 221/2/2 222/2/2 224/2/2
f 220/2/2 221/2/2 224/2/2
f 219/2/2 220/2/2 224/2/2
f 218/2/2 219/2/2 224/2/2
f 217/2/2 218/2/2 224/2/2
f 216/2/2 217/2/2 224/2/2
f 215/2/2 216/2/2 224/2/2
f 214/2/2 215/2/2 224/2/2
f 213/2/2 214/2/2 224/2/2
f 212/2/2 213/2/2 224/2/2
f 211/2/2 212/2/2 224/2/2
f 210/2/2 211/2/2 224/2/2
f 224/2/2 223/2/2 225/2/2
f 225/2/2 223/2/2 226/2/2
f 225/2/2 226/2/2 227/2/2
f 225/2/2 227/2/2 228/2/2
f 228/2/2 227/2/2 229/2/2
f 229/2/2 227/2/2 230/2/2
f 230/2/2 227/2/2 231/2/2
f 231/2/2 227/2/2 232/2/2
f 232/2/2 227/2/2 233/2/2
f 233/2/2 227/2/2 234/2/2
f 234/2/2 227/2/2 235/2/2
f 235/2/2 227/2/2 236/2/2
f 236/2/2 227/2/2 237/2/2
f 237/2/2 227/2/2 238/2/2
f 238/2/2 227/2/2 239/2/2
f 239/2/2 227/2/2 240/2/2
f 240/2/2 227/2/2 241/2/2
f 241/2/2 227/2/2 242/2/2
f 243/1/2 244/1/2 258/1/2
f 258/1/2 244/1/2 259/1/2
f 245/1/2 246/1/2 260/1/2
f 260/1/2 246/1/2 261/1/2
f 247/1/2 248/1/2 262/1/2
f 262/1/2 248/1/2 263/1/2
f 249/1/2 250/1/2 264/1/2
f 264/1/2 250/1/2 265/1/2
f 251/1/2 252/1/2 266/1/2
f 266/1/2 252/1/2 267/1/2
f 253/1/2 254/1/2 268/1/2
f 268/1/2 254/1/2 269/1/2
f 255/1/2 256/1/2 270/1/2
f 270/1/2 256/1/2 271/1/2
f 257/1/2 258/1/2 274/1/2
f 274/1/2 258/1/2 275/1/2
f 272/1/2 273/1/2 278/1/2
f 278/1/2 273/1/2 279/1/2
f 276/1/2 277/1/2 282/1/2
f 282/1/2 277/1/2 283/1/2
f 280/1/2 281/1/2 297/1/2
f 297/1/2 281/1/2 298/1/2
f 284/1/2 285/1/2 299/1/2
f 299/1/2 285/1/2 300/1/2
f 286/1/2 287/1/2 301/1/2
f 301/1/2 287/1/2 302/1/2
f 288/1/2 289/1/2 303/1/2
f 303/1/2 289/1/2 304/1/2
f 290/1/2 291/1/2 305/1/2
f 305/1/2 291/1/2 306/1/2
f 292/1/2 293/1/2 307/1/2
f 307/1/2 293/1/2 308/1/2
f 294/1/2 295/1/2 309/1/2
f 309/1/2 295/1/2 310/1/2
f 296/1/2 297/1/2 311/1/2
f 311/1/2 297/1/2 312/1/2
f 313/2/2 314/2/2 328/2/2
f 326/2/2 327/2/2 328/2/2
f 325/2/2 326/2/2 328/2/2
f 324/2/2 325/2/2 328/2/2
f 323/2/2 324/2/2 328/2/2
f 322/2/2 323/2/2 328/2/2
f 321/2/2 322/2/2 328/2/2
f 320/2/2 321/2/2 328/2/2
f 319/2/2 320/2/2 328/2/2
f 318/2/2 319/2/2 328/2/2
f 317/2/2 318/2/2 328/2/2
f 316/2/2 317/2/2 328/2/2
f 315/2/2 316/2/2 328/2/2
f 314/2/2 315/2/2 328/2/2
f 328/2/2 327/2/2 329/2/2
f 329/2/2 327/2/2 330/2/2
f 329/2/2 330/2/2 331/2/2
f 329/2/2 331/2/2 332/2/2
f 332/2/2 331/2/2 333/2/2
f 333/2/2 331/2/2 334/2/2
f 334/2/2 331/2/2 335/2/2
f 335/2/2 331/2/2 336/2/2
f 336/2/2 331/2/2 337/2/2
f 337/2/2 331/2/2 338/2/2
f 338/2/2 331/2/2 339/2/2
f 339/2/2 331/2/2 340/2/2
f 340/2/2 331/2/2 341/2/2
f 341/2/2 331/2/2 342/2/2
f 342/2/2 331/2/2 343/2/2
f 343/2/2 331/2/2 344/2/2
f 344/2/2 331/2/2 345/2/2
f 345/2/2 331/2/2 346/2/2
f 347/1/2 348/1/2 362/1/2
f 362/1/2 348/1/2 363/1/2
f 349/1/2 350/1/2 364/1/2
f 364/1/2 350/1/2 365/1/2
f 351/1/2 352/1/2 366/1/2
f 366/1/2 352/1/2 367/1/2
f 353/1/2 354/1/2 368/1/2
f 368/1/2 354/1/2 369/1/2
f 355/1/2 356/1/2 370/1/2
f 370/1/2 356/1/2 371/1/2
f 357/1/2 358/1/2 372/1/2
f 372/1/2 358/1/2 373/1/2
f 359/1/2 360/1/2 374/1/2
f 374/1/2 360/1/2 375/1/2
f 361/1/2 362/1/2 378/1/2
f 378/1/2 362/1/2 379/1/2
f 376/1/2 377/1/2 382/1/2
f 382/1/2 377/1/2 383/1/2
f 380/1/2 381/1/2 386/1/2
f 386/1/2 381/1/2 387/1/2
f 384/1/2 385/1/2 401/1/2
f 401/1/2 385/1/2 402/1/2
f 388/1/2 389/1/2 403/1/2
f 403/1/2 389/1/2 404/1/2
f 390/1/2 391/1/2 405/1/2
f 405/1/2 391/1/2 406/1/2
f 392/1/2 393/1/2 407/1/2
f 407/1/2 393/1/2 408/1/2
f 394/1/2 395/1/2 409/1/2
f 409/1/2 395/1/2 410/1/2
f 396/1/2 397/1/2 411/1/2
f 411/1/2 397/1/2 412/1/2
f 398/1/2 399/1/2 413/1/2
f 413/1/2 399/1/2 414/1/2
f 400/1/2 401/1/2 415/1/2
f 415/1/2 401/1/2 416/1/2
f 421/1/3 418/1/3 417/1/3
f 422/1/3 418/1/3 421/1/3
f 423/1/3 420/1/3 419/1/3
f 424/1/3 420/1/3 423/1/3
f 429/1/3 426/1/3 425/1/3
f 430/1/3 426/1/3 429/1/3
f 431/1/3 428/1/3 427/1/3
f 432/1/3 428/1/3 431/1/3
f 437/2/3 436/2/3 435/2/3
f 438/2/3 436/2/3 437/2/3
f 439/1/3 434/1/3 433/1/3
f 440/1/3 434/1/3 439/1/3
f 445/2/3 444/2/3 443/2/3
f 446/2/3 444/2/3 445/2/3
f 447/1/3 442/1/3 441/1/3
f 448/1/3 442/1/3 447/1/3
f 451/1/3 450/1/3 449/1/3
f 452/1/3 450/1/3 451/1/3
f 453/1/3 450/1/3 452/1/3
f 454/1/3 450/1/3 453/1/3
f 457/1/3 456/1/3 455/1/3
f 458/1/3 456/1/3 457/1/3
f 459/1/3 456/1/3 458/1/3
f 460/1/3 456/1/3 459/1/3
f 463/1/3 462/1/3 461/1/3
f 464/1/3 463/1/3 461/1/3
f 465/1/3 464/1/3 461/1/3
f 466/1/3 464/1/3 465/1/3
f 469/1/3 468/1/3 467/1/3
f 470/1/3 469/1/3 467/1/3
f 471/1/3 470/1/3 467/1/3
f 472/1/3 470/1/3 471/1/3
f 475/1/3 474/1/3 473/1/3
f 476/1/3 474/1/3 475/1/3
f 477/1/3 474/1/3 476/1/3
f 478/1/3 474/1/3 477/1/3
f 481/1/3 480/1/3 479/1/3
f 482/1/3 480/1/3 481/1/3
f 483/1/3 480/1/3 482/1/3
f 484/1/3 480/1/3 483/1/3
f 487/1/3 486/1/3 485/1/3
f 488/1/3 487/1/3 485/1/3
f 489/1/3 488/1/3 485/1/3
f 490/1/3 488/1/3 489/1/3
f 493/1/3 492/1/3 491/1/3
f 494/1/3 493/1/3 491/1/3
f 495/1/3 494/1/3 491/1/3
f 496/1/3 494/1/3 495/1/3
f 499/1/3 498/1/3 497/1/3
f 500/1/3 498/1/3 499/1/3
f 501/1/3 498/1/3 500/1/3
f 502/1/3 498/1/3 501/1/3
f 505/1/3 504/1/3 503/1/3
f 506/1/3 504/1/3 505/1/3
f 507/1/3 504/1/3 506/1/3
f 508/1/3 504/1/3 507/1/3
f 511/1/3 510/1/3 509/1/3
f 512/1/3 511/1/3 509/1/3
f 513/1/3 512/1/3 509/1/3
f 514/1/3 512/1/3 513/1/3
f 517/1/3 516/1/3 515/1/3
f 518/1/3 517/1/3 515/1/3
f 519/1/3 518/1/3 515/1/3
f 520/1/3 518/1/3 519/1/3
f 523/1/3 522/1/3 521/1/3
f 524/1/3 522/1/3 523/1/3
f 525/1/3 522/1/3 524/1/3
f 526/1/3 522/1/3 525/1/3
f 529/1/3 528/1/3 527/1/3
f 530/1/3 528/1/3 529/1/3
f 531/1/3 528/1/3 530/1/3
f 532/1/3 528/1/3 531/1/3
f 535/1/3 534/1/3 533/1/3
f 536/1/3 535/1/3 533/1/3
f 537/1/3 536/1/3 533/1/3
f 538/1/3 536/1/3 537/1/3
f 541/1/3 540/1/3 539/1/3
f 542/1/3 541/1/3 539/1/3
f 543/1/3 542/1/3 539/1/3
f 544/1/3 542/1/3 543/1/3
f 547/1/3 546/1/3 545/1/3
f 548/1/3 546/1/3 547/1/3
f 549/1/3 546/1/3 548/1/3
f 550/1/3 546/1/3 549/1/3
f 553/1/3 552/1/3 551/1/3
f 554/1/3 552/1/3 553/1/3
f 555/1/3 552/1/3 554/1/3
f 556/1/3 552/1/3 555/1/3
f 559/1/3 558/1/3 557/1/3
f 560/1/3 559/1/3 557/1/3
f 561/1/3 560/1/3 557/1/3
f 562/1/3 560/1/3 561/1/3
f 565/1/3 564/1/3 563/1/3
f 566/1/3 565/1/3 563/1/3
f 567/1/3 566/1/3 563/1/3
f 568/1/3 566/1/3 567/1/3
f 571/1/3 570/1/3 569/1/3
f 572/1/3 570/1/3 571/1/3
f 573/1/3 570/1/3 572/1/3
f 574/1/3 570/1/3 573/1/3
f 577/1/3 576/1/3 575/1/3
f 578/1/3 576/1/3 577/1/3
f 579/1/3 576/1/3 578/1/3
f 580/1/3 576/1/3 579/1/3
f 583/1/3 582/1/3 581/1/3
f 584/1/3 583/1/3 581/1/3
f 585/1/3 584/1/3 581/1/3
f 586/1/3 584/1/3 585/1/3
f 589/1/3 588/1/3 587/1/3
f 590/1/3 589/1/3 587/1/3
f 591/1/3 590/1/3 587/1/3
f 592/1/3 590/1/3 591/1/3
f 595/1/3 594/1/3 593/1/3
f 596/1/3 594/1/3 595/1/3
f 597/1/3 594/1/3 596/1/3
f 598/1/3 594/1/3 597/1/3
f 601/1/3 600/1/3 599/1/3
f 602/1/3 600/1/3 601/1/3
f 603/1/3 600/1/3 602/1/3
f 604/1/3 600/1/3 603/1/3
f 609/1/3 606/1/3 605/1/3
f 610/1/3 606/1/3 609/1/3
f 611/1/3 608/1/3 607/1/3
f 612/1/3 608/1/3 611/1/3
f 617/1/3 614/1/3 613/1/3
f 618/1/3 614/1/3 617/1/3
f 619/1/3 616/1/3 615/1/3
f 620/1/3 616/1/3 619/1/3
f 625/1/3 622/1/3 621/1/3
f 626/1/3 622/1/3 625/1/3
f 627/1/3 624/1/3 623/1/3
f 628/1/3 624/1/3 627/1/3
f 633/1/3 630/1/3 629/1/3
f 634/1/3 630/1/3 633/1/3
f 635/1/3 632/1/3 631/1/3
f 636/1/3 632/1/3 635/1/3
f 637/1/4 638/1/4 641/1/4
f 641/1/4 638/1/4 642/1/4
f 639/1/4 640/1/4 643/1/4
f 643/1/4 640/1/4 644/1/4
f 645/1/4 646/1/4 649/1/4
f 649/1/4 646/1/4 650/1/4
f 647/1/4 648/1/4 651/1/4
f 651/1/4 648/1/4 652/1/4
f 653/1/4 654/1/4 657/1/4
f 657/1/4 654/1/4 658/1/4
f 655/1/4 656/1/4 659/1/4
f 659/1/4 656/1/4 660/1/4
f 661/1/4 662/1/4 665/1/4
f 665/1/4 662/1/4 666/1/4
f 663/1/4 664/1/4 667/1/4
f 667/1/4 664/1/4 668/1/4
f 669/1/4 670/1/4 671/1/4
f 669/1/4 671/1/4 672/1/4
f 669/1/4 672/1/4 673/1/4
f 673/1/4 672/1/4 674/1/4
f 675/1/4 676/1/4 677/1/4
f 675/1/4 677/1/4 678/1/4
f 675/1/4 678/1/4 679/1/4
f 679/1/4 678/1/4 680/1/4
f 681/1/4 682/1/4 683/1/4
f 683/1/4 682/1/4 684/1/4
f 684/1/4 682/1/4 685/1/4
f 685/1/4 682/1/4 686/1/4
f 687/1/4 688/1/4 689/1/4
f 689/1/4 688/1/4 690/1/4
f 690/1/4 688/1/4 691/1/4
f 691/1/4 688/1/4 692/1/4
f 693/1/4 694/1/4 695/1/4
f 693/1/4 695/1/4 696/1/4
f 693/1/4 696/1/4 697/1/4
f 697/1/4 696/1/4 698/1/4
f 699/1/4 700/1/4 701/1/4
f 699/1/4 701/1/4 702/1/4
f 699/1/4 702/1/4 703/1/4
f 703/1/4 702/1/4 704/1/4
f 705/1/4 706/1/4 707/1/4
f 707/1/4 706/1/4 708/1/4
f 708/1/4 706/1/4 709/1/4
f 709/1/4 706/1/4 710/1/4
f 711/1/4 712/1/4 713/1/4
f 713/1/4 712/1/4 714/1/4
f 714/1/4 712/1/4 715/1/4
f 715/1/4 712/1/4 716/1/4
f 717/1/4 718/1/4 719/1/4
f 717/1/4 719/1/4 720/1/4
f 717/1/4 720/1/4 721/1/4
f 721/1/4 720/1/4 722/1/4
f 723/1/4 724/1/4 725/1/4
f 723/1/4 725/1/4 726/1/4
f 723/1/4 726/1/4 727/1/4
f 727/1/4 726/1/4 728/1/4
f 729/1/4 730/1/4 731/1/4
f 731/1/4 730/1/4 732/1/4
f 732/1/4 730/1/4 733/1/4
f 733/1/4 730/1/4 734/1/4
f 735/1/4 736/1/4 737/1/4
f 737/1/4 736/1/4 738/1/4
f 738/1/4 736/1/4 739/1/4
f 739/1/4 736/1/4 740/1/4
f 741/1/4 742/1/4 743/1/4
f 741/1/4 743/1/4 744/1/4
f 741/1/4 744/1/4 745/1/4
f 745/1/4 744/1/4 746/1/4
f 747/1/4 748/1/4 749/1/4
f 747/1/4 749/1/4 750/1/4
f 747/1/4 750/1/4 751/1/4
f 751/1/4 750/1/4 752/1/4
f 753/1/4 754/1/4 755/1/4
f 755/1/4 754/1/4 756/1/4
f 756/1/4 754/1/4 757/1/4
f 757/1/4 754/1/4 758/1/4
f 759/1/4 760/1/4 761/1/4
f 761/1/4 760/1/4 762/1/4
f 762/1/4 760/1/4 763/1/4
f 763/1/4 760/1/4 764/1/4
f 765/1/4 766/1/4 767/1/4
f 765/1/4 767/1/4 768/1/4
f 765/1/4 768/1/4 769/1/4
f 769/1/4 768/1/4 770/1/4
f 771/1/4 772/1/4 773/1/4
f 771/1/4 773/1/4 774/1/4
f 771/1/4 774/1/4 775/1/4
f 775/1/4 774/1/4 776/1/4
f 777/1/4 778/1/4 779/1/4
f 779/1/4 778/1/4 780/1/4
f 780/1/4 778/1/4 781/1/4
f 781/1/4 778/1/4 782/1/4
f 783/1/4 784/1/4 785/1/4
f 785/1/4 784/1/4 786/1/4
f 786/1/4 784/1/4 787/1/4
f 787/1/4 784/1/4 788/1/4
f 789/1/4 790/1/4 791/1/4
f 789/1/4 791/1/4 792/1/4
f 789/1/4 792/1/4 793/1/4
f 793/1/4 792/1/4 794/1/4
f 795/1/4 796/1/4 797/1/4
f 795/1/4 797/1/4 798/1/4
f 795/1/4 798/1/4 799/1/4
f 799/1/4 798/1/4 800/1/4
f 801/1/4 802/1/4 803/1/4
f 803/1/4 802/1/4 804/1/4
f 804/1/4 802/1/4 805/1/4
f 805/1/4 802/1/4 806/1/4
f 807/1/4 808/1/4 809/1/4
f 809/1/4 808/1/4 810/1/4
f 810/1/4 808/1/4 811/1/4
f 811/1/4 808/1/4 812/1/4
f 813/1/4 814/1/4 815/1/4
f 813/1/4 815/1/4 816/1/4
f 813/1/4 816/1/4 817/1/4
f 817/1/4 816/1/4 818/1/4
f 819/1/4 820/1/4 821/1/4
f 819/1/4 821/1/4 822/1/4
f 819/1/4 822/1/4 823/1/4
f 823/1/4 822/1/4 824/1/4
f 827/2/4 828/2/4 829/2/4
f 829/2/4 828/2/4 830/2/4
f 825/1/4 826/1/4 831/1/4
f 831/1/4 826/1/4 832/1/4
f 835/2/4 836/2/4 837/2/4
f 837/2/4 836/2/4 838/2/4
f 833/1/4 834/1/4 839/1/4
f 839/1/4 834/1/4 840/1/4
f 841/1/4 842/1/4 845/1/4
f 845/1/4 842/1/4 846/1/4
f 843/1/4 844/1/4 847/1/4
f 847/1/4 844/1/4 848/1/4
f 849/1/4 850/1/4 853/1/4
f 853/1/4 850/1/4 854/1/4
f 851/1/4 852/1/4 855/1/4
f 855/1/4 852/1/4 856/1/4
f 861/1/5 858/1/5 857/1/5
f 862/1/5 858/1/5 861/1/5
f 863/1/5 860/1/5 859/1/5
f 864/1/5 860/1/5 863/1/5
f 869/1/5 866/1/5 865/1/5
f 870/1/5 866/1/5 869/1/5
f 871/1/5 868/1/5 867/1/5
f 872/1/5 868/1/5 871/1/5
f 877/1/5 874/1/5 873/1/5
f 878/1/5 874/1/5 877/1/5
f 879/1/5 876/1/5 875/1/5
f 880/1/5 876/1/5 879/1/5
f 885/1/5 882/1/5 881/1/5
f 886/1/5 882/1/5 885/1/5
f 887/1/5 884/1/5 883/1/5
f 888/1/5 884/1/5 887/1/5
f 893/1/5 890/1/5 889/1/5
f 894/1/5 890/1/5 893/1/5
f 895/1/5 892/1/5 891/1/5
f 896/1/5 892/1/5 895/1/5
f 901/1/5 898/1/5 897/1/5
f 902/1/5 898/1/5 901/1/5
f 903/1/5 900/1/5 899/1/5
f 904/1/5 900/1/5 903/1/5
f 909/1/5 906/1/5 905/1/5
f 910/1/5 906/1/5 909/1/5
f 911/1/5 908/1/5 907/1/5
f 912/1/5 908/1/5 911/1/5
f 917/1/5 914/1/5 913/1/5
f 918/1/5 914/1/5 917/1/5
f 919/1/5 916/1/5 915/1/5
f 920/1/5 916/1/5 919/1/5
f 925/2/5 922/2/5 921/2/5
f 926/2/5 922/2/5 925/2/5
f 927/2/5 924/2/5 923/2/5
f 928/2/5 924/2/5 927/2/5
f 933/2/5 930/2/5 929/2/5
f 934/2/5 930/2/5 933/2/5
f 935/2/5 932/2/5 931/2/5
f 936/2/5 932/2/5 935/2/5
f 941/2/5 938/2/5 937/2/5
f 942/2/5 938/2/5 941/2/5
f 943/2/5 940/2/5 939/2/5
f 944/2/5 940/2/5 943/2/5
f 949/2/5 946/2/5 945/2/5
f 950/2/5 946/2/5 949/2/5
f 951/2/5 948/2/5 947/2/5
f 952/2/5 948/2/5 951/2/5
f 957/2/5 954/2/5 953/2/5
f 958/2/5 954/2/5 957/2/5
f 959/2/5 956/2/5 955/2/5
f 960/2/5 956/2/5 959/2/5
f 965/2/5 962/2/5 961/2/5
f 966/2/5 962/2/5 965/2/5
f 967/2/5 964/2/5 963/2/5
f 968/2/5 964/2/5 967/2/5
f 974/2/5 970/2/5 969/2/5
f 975/2/5 970/2/5 974/2/5
f 978/2/5 972/2/5 971/2/5
f 979/2/5 972/2/5 978/2/5
f 981/1/5 975/1/5 974/1/5
f 981/1/5 974/1/5 973/1/5
f 981/1/5 976/1/5 975/1/5
f 982/1/5 976/1/5 981/1/5
f 983/1/5 979/1/5 978/1/5
f 983/1/5 978/1/5 977/1/5
f 983/1/5 980/1/5 979/1/5
f 984/1/5 980/1/5 983/1/5
f 989/1/5 986/1/5 985/1/5
f 990/1/5 986/1/5 989/1/5
f 991/1/5 986/1/5 990/1/5
f 992/1/5 986/1/5 991/1/5
f 993/1/5 988/1/5 987/1/5
f 994/1/5 988/1/5 993/1/5
f 995/1/5 988/1/5 994/1/5
f 996/1/5 988/1/5 995/1/5
f 1005/1/5 998/1/5 997/1/5
f 1005/1/5 999/1/5 998/1/5
f 1005/1/5 1000/1/5 999/1/5
f 1006/1/5 1000/1/5 1005/1/5
f 1007/1/5 1004/1/5 1003/1/5
f 1007/1/5 1003/1/5 1002/1/5
f 1007/1/5 1002/1/5 1001/1/5
f 1008/1/5 1004/1/5 1007/1/5
f 1017/1/5 1010/1/5 1009/1/5
f 1018/1/5 1010/1/5 1017/1/5
f 1019/1/5 1012/1/5 1011/1/5
f 1020/1/5 1012/1/5 1019/1/5
f 1021/1/5 1014/1/5 1013/1/5
f 1022/1/5 1014/1/5 1021/1/5
f 1023/1/5 1016/1/5 1015/1/5
f 1024/1/5 1016/1/5 1023/1/5
f 1033/1/5 1026/1/5 1025/1/5
f 1034/1/5 1026/1/5 1033/1/5
f 1035/1/5 1028/1/5 1027/1/5
f 1036/1/5 1028/1/5 1035/1/5
f 1037/1/5 1030/1/5 1029/1/5
f 1038/1/5 1030/1/5 1037/1/5
f 1039/1/5 1032/1/5 1031/1/5
f 1040/1/5 1032/1/5 1039/1/5
f 1049/1/5 1042/1/5 1041/1/5
f 1050/1/5 1042/1/5 1049/1/5
f 1051/1/5 1044/1/5 1043/1/5
f 1052/1/5 1044/1/5 1051/1/5
f 1053/1/5 1046/1/5 1045/1/5
f 1054/1/5 1046/1/5 1053/1/5
f 1055/1/5 1048/1/5 1047/1/5
f 1056/1/5 1048/1/5 1055/1/5
f 1065/1/5 1058/1/5 1057/1/5
f 1066/1/5 1058/1/5 1065/1/5
f 1067/1/5 1060/1/5 1059/1/5
f 1068/1/5 1060/1/5 1067/1/5
f 1069/1/5 1062/1/5 1061/1/5
f 1070/1/5 1062/1/5 1069/1/5
f 1071/1/5 1064/1/5 1063/1/5
f 1072/1/5 1064/1/5 1071/1/5
f 1081/1/5 1074/1/5 1073/1/5
f 1082/1/5 1074/1/5 1081/1/5
f 1083/1/5 1076/1/5 1075/1/5
f 1084/1/5 1076/1/5 1083/1/5
f 1085/1/5 1078/1/5 1077/1/5
f 1086/1/5 1078/1/5 1085/1/5
f 1087/1/5 1080/1/5 1079/1/5
f 1088/1/5 1080/1/5 1087/1/5
f 1097/1/5 1090/1/5 1089/1/5
f 1098/1/5 1090/1/5 1097/1/5
f 1099/1/5 1092/1/5 1091/1/5
f 1100/1/5 1092/1/5 1099/1/5
f 1101/1/5 1094/1/5 1093/1/5
f 1102/1/5 1094/1/5 1101/1/5
f 1103/1/5 1096/1/5 1095/1/5
f 1104/1/5 1096/1/5 1103/1/5
f 1113/1/5 1106/1/5 1105/1/5
f 1114/1/5 1106/1/5 1113/1/5
f 1115/1/5 1108/1/5 1107/1/5
f 1116/1/5 1108/1/5 1115/1/5
f 1117/1/5 1110/1/5 1109/1/5
f 1118/1/5 1110/1/5 1117/1/5
f 1119/1/5 1112/1/5 1111/1/5
f 1120/1/5 1112/1/5 1119/1/5
f 1121/1/6 1122/1/6 1129/1/6
f 1129/1/6 1122/1/6 1130/1/6
f 1123/1/6 1124/1/6 1131/1/6
f 1131/1/6 1124/1/6 1132/1/6
f 1125/1/6 1126/1/6 1133/1/6
f 1133/1/6 1126/1/6 1134/1/6
f 1127/1/6 1128/1/6 1135/1/6
f 1135/1/6 1128/1/6 1136/1/6
f 1137/1/6 1138/1/6 1145/1/6
f 1145/1/6 1138/1/6 1146/1/6
f 1139/1/6 1140/1/6 1147/1/6
f 1147/1/6 1140/1/6 1148/1/6
f 1141/1/6 1142/1/6 1149/1/6
f 1149/1/6 1142/1/6 1150/1/6
f 1143/1/6 1144/1/6 1151/1/6
f 1151/1/6 1144/1/6 1152/1/6
f 1153/1/6 1154/1/6 1161/1/6
f 1161/1/6 1154/1/6 1162/1/6
f 1155/1/6 1156/1/6 1163/1/6
f 1163/1/6 1156/1/6 1164/1/6
f 1157/1/6 1158/1/6 1165/1/6
f 1165/1/6 1158/1/6 1166/1/6
f 1159/1/6 1160/1/6 1167/1/6
f 1167/1/6 1160/1/6 1168/1/6
f 1169/1/6 1170/1/6 1177/1/6
f 1177/1/6 1170/1/6 1178/1/6
f 1171/1/6 1172/1/6 1179/1/6
f 1179/1/6 1172/1/6 1180/1/6
f 1173/1/6 1174/1/6 1181/1/6
f 1181/1/6 1174/1/6 1182/1/6
f 1175/1/6 1176/1/6 1183/1/6
f 1183/1/6 1176/1/6 1184/1/6
f 1185/1/6 1186/1/6 1193/1/6
f 1193/1/6 1186/1/6 1194/1/6
f 1187/1/6 1188/1/6 1195/1/6
f 1195/1/6 1188/1/6 1196/1/6
f 1189/1/6 1190/1/6 1197/1/6
f 1197/1/6 1190/1/6 1198/1/6
f 1191/1/6 1192/1/6 1199/1/6
f 1199/1/6 1192/1/6 1200/1/6
f 1201/1/6 1202/1/6 1209/1/6
f 1209/1/6 1202/1/6 1210/1/6
f 1203/1/6 1204/1/6 1211/1/6
f 1211/1/6 1204/1/6 1212/1/6
f 1205/1/6 1206/1/6 1213/1/6
f 1213/1/6 1206/1/6 1214/1/6
f 1207/1/6 1208/1/6 1215/1/6
f 1215/1/6 1208/1/6 1216/1/6
f 1217/1/6 1218/1/6 1225/1/6
f 1225/1/6 1218/1/6 1226/1/6
f 1219/1/6 1220/1/6 1227/1/6
f 1227/1/6 1220/1/6 1228/1/6
f 1221/1/6 1222/1/6 1229/1/6
f 1229/1/6 1222/1/6 1230/1/6
f 1223/1/6 1224/1/6 1231/1/6
f 1231/1/6 1224/1/6 1232/1/6
f 1233/1/6 1234/1/6 1237/1/6
f 1237/1/6 1234/1/6 1238/1/6
f 1238/1/6 1234/1/6 1239/1/6
f 1239/1/6 1234/1/6 1240/1/6
f 1235/1/6 1236/1/6 1241/1/6
f 1241/1/6 1236/1/6 1242/1/6
f 1242/1/6 1236/1/6 1243/1/6
f 1243/1/6 1236/1/6 1244/1/6
f 1245/1/6 1246/1/6 1253/1/6
f 1246/1/6 1247/1/6 1253/1/6
f 1247/1/6 1248/1/6 1253/1/6
f 1253/1/6 1248/1/6 1254/1/6
f 1251/1/6 1252/1/6 1255/1/6
f 1250/1/6 1251/1/6 1255/1/6
f 1249/1/6 1250/1/6 1255/1/6
f 1255/1/6 1252/1/6 1256/1/6
f 1257/1/6 1258/1/6 1261/1/6
f 1261/1/6 1258/1/6 1262/1/6
f 1262/1/6 1258/1/6 1263/1/6
f 1263/1/6 1258/1/6 1264/1/6
f 1259/1/6 1260/1/6 1265/1/6
f 1265/1/6 1260/1/6 1266/1/6
f 1266/1/6 1260/1/6 1267/1/6
f 1267/1/6 1260/1/6 1268/1/6
f 1262/2/6 1263/2/6 1269/2/6
f 1269/2/6 1263/2/6 1270/2/6
f 1266/2/6 1267/2/6 1271/2/6
f 1271/2/6 1267/2/6 1272/2/6
f 1273/2/6 1274/2/6 1277/2/6
f 1277/2/6 1274/2/6 1278/2/6
f 1275/2/6 1276/2/6 1279/2/6
f 1279/2/6 1276/2/6 1280/2/6
f 1281/2/6 1282/2/6 1285/2/6
f 1285/2/6 1282/2/6 1286/2/6
f 1283/2/6 1284/2/6 1287/2/6
f 1287/2/6 1284/2/6 1288/2/6
f 1289/2/6 1290/2/6 1293/2/6
f 1293/2/6 1290/2/6 1294/2/6
f 1291/2/6 1292/2/6 1295/2/6
f 1295/2/6 1292/2/6 1296/2/6
f 1297/2/6 1298/2/6 1301/2/6
f 1301/2/6 1298/2/6 1302/2/6
f 1299/2/6 1300/2/6 1303/2/6
f 1303/2/6 1300/2/6 1304/2/6
f 1305/2/6 1306/2/6 1309/2/6
f 1309/2/6 1306/2/6 1310/2/6
f 1307/2/6 1308/2/6 1311/2/6
f 1311/2/6 1308/2/6 1312/2/6
f 1313/2/6 1314/2/6 1317/2/6
f 1317/2/6 1314/2/6 1318/2/6
f 1315/2/6 1316/2/6 1319/2/6
f 1319/2/6 1316/2/6 1320/2/6
f 1321/1/6 1322/1/6 1325/1/6
f 1325/1/6 1322/1/6 1326/1/6
f 1323/1/6 1324/1/6 1327/1/6
f 1327/1/6 1324/1/6 1328/1/6
f 1329/1/6 1330/1/6 1333/1/6
f 1333/1/6 1330/1/6 1334/1/6
f 1331/1/6 1332/1/6 1335/1/6
f 1335/1/6 1332/1/6 1336/1/6
f 1337/1/6 1338/1/6 1341/1/6
f 1341/1/6 1338/1/6 1342/1/6
f 1339/1/6 1340/1/6 1343/1/6
f 1343/1/6 1340/1/6 1344/1/6
f 1345/1/6 1346/1/6 1349/1/6
f 1349/1/6 1346/1/6 1350/1/6
f 1347/1/6 1348/1/6 1351/1/6
f 1351/1/6 1348/1/6 1352/1/6
f 1353/1/6 1354/1/6 1357/1/6
f 1357/1/6 1354/1/6 1358/1/6
f 1355/1/6 1356/1/6 1359/1/6
f 1359/1/6 1356/1/6 1360/1/6
f 1361/1/6 1362/1/6 1365/1/6
f 1365/1/6 1362/1/6 1366/1/6
f 1363/1/6 1364/1/6 1367/1/6
f 1367/1/6 1364/1/6 1368/1/6
f 1369/1/6 1370/1/6 1373/1/6
f 1373/1/6 1370/1/6 1374/1/6
f 1371/1/6 1372/1/6 1375/1/6
f 1375/1/6 1372/1/6 1376/1/6
f 1377/1/6 1378/1/6 1381/1/6
f 1381/1/6 1378/1/6 1382/1/6
f 1379/1/6 1380/1/6 1383/1/6
f 1383/1/6 1380/1/6 1384/1/6
