# MagicaVoxel @ Ephtracy

# material
mtllib cannon-head.mtl
usemtl palette

# normals
vn -1 0 0
vn 1 0 0
vn 0 0 1
vn 0 0 -1
vn 0 -1 0
vn 0 1 0

# texcoords
vt 0.861328 0.5
vt 0.939453 0.5
vt 0.947266 0.5

# verts
v -22 1 18
v -22 1 -20
v -22 15 18
v -22 15 -20
v -20 0 19
v -20 0 -21
v -20 1 18
v -20 1 -20
v -20 15 18
v -20 15 -20
v -20 16 19
v -20 16 -21
v -19 1 20
v -19 1 19
v -19 15 20
v -19 15 19
v -17 3 21
v -17 3 20
v -17 5 21
v -17 5 20
v -17 7 21
v -17 7 20
v -17 9 21
v -17 9 20
v -17 11 21
v -17 11 20
v -17 13 21
v -17 13 20
v -13 3 21
v -13 3 20
v -13 5 21
v -13 5 20
v -13 7 21
v -13 7 20
v -13 9 21
v -13 9 20
v -13 11 21
v -13 11 20
v -13 13 21
v -13 13 20
v -9 3 21
v -9 3 20
v -9 5 21
v -9 5 20
v -9 7 21
v -9 7 20
v -9 9 21
v -9 9 20
v -9 11 21
v -9 11 20
v -9 13 21
v -9 13 20
v -5 3 21
v -5 3 20
v -5 5 21
v -5 5 20
v -5 7 21
v -5 7 20
v -5 9 21
v -5 9 20
v -5 11 21
v -5 11 20
v -5 13 21
v -5 13 20
v -1 3 21
v -1 3 20
v -1 5 21
v -1 5 20
v -1 7 21
v -1 7 20
v -1 9 21
v -1 9 20
v -1 11 21
v -1 11 20
v -1 13 21
v -1 13 20
v 3 3 21
v 3 3 20
v 3 5 21
v 3 5 20
v 3 7 21
v 3 7 20
v 3 9 21
v 3 9 20
v 3 11 21
v 3 11 20
v 3 13 21
v 3 13 20
v 7 3 21
v 7 3 20
v 7 5 21
v 7 5 20
v 7 7 21
v 7 7 20
v 7 9 21
v 7 9 20
v 7 11 21
v 7 11 20
v 7 13 21
v 7 13 20
v 11 3 21
v 11 3 20
v 11 5 21
v 11 5 20
v 11 7 21
v 11 7 20
v 11 9 21
v 11 9 20
v 11 11 21
v 11 11 20
v 11 13 21
v 11 13 20
v 15 3 21
v 15 3 20
v 15 5 21
v 15 5 20
v 15 7 21
v 15 7 20
v 15 9 21
v 15 9 20
v 15 11 21
v 15 11 20
v 15 13 21
v 15 13 20
v 19 15 -19
v 19 15 -20
v 19 16 -19
v 19 16 -20
v -19 15 -19
v -19 15 -20
v -19 16 -19
v -19 16 -20
v -15 3 21
v -15 3 20
v -15 5 21
v -15 5 20
v -15 7 21
v -15 7 20
v -15 9 21
v -15 9 20
v -15 11 21
v -15 11 20
v -15 13 21
v -15 13 20
v -11 3 21
v -11 3 20
v -11 5 21
v -11 5 20
v -11 7 21
v -11 7 20
v -11 9 21
v -11 9 20
v -11 11 21
v -11 11 20
v -11 13 21
v -11 13 20
v -7 3 21
v -7 3 20
v -7 5 21
v -7 5 20
v -7 7 21
v -7 7 20
v -7 9 21
v -7 9 20
v -7 11 21
v -7 11 20
v -7 13 21
v -7 13 20
v -3 3 21
v -3 3 20
v -3 5 21
v -3 5 20
v -3 7 21
v -3 7 20
v -3 9 21
v -3 9 20
v -3 11 21
v -3 11 20
v -3 13 21
v -3 13 20
v 1 3 21
v 1 3 20
v 1 5 21
v 1 5 20
v 1 7 21
v 1 7 20
v 1 9 21
v 1 9 20
v 1 11 21
v 1 11 20
v 1 13 21
v 1 13 20
v 5 3 21
v 5 3 20
v 5 5 21
v 5 5 20
v 5 7 21
v 5 7 20
v 5 9 21
v 5 9 20
v 5 11 21
v 5 11 20
v 5 13 21
v 5 13 20
v 9 3 21
v 9 3 20
v 9 5 21
v 9 5 20
v 9 7 21
v 9 7 20
v 9 9 21
v 9 9 20
v 9 11 21
v 9 11 20
v 9 13 21
v 9 13 20
v 13 3 21
v 13 3 20
v 13 5 21
v 13 5 20
v 13 7 21
v 13 7 20
v 13 9 21
v 13 9 20
v 13 11 21
v 13 11 20
v 13 13 21
v 13 13 20
v 17 3 21
v 17 3 20
v 17 5 21
v 17 5 20
v 17 7 21
v 17 7 20
v 17 9 21
v 17 9 20
v 17 11 21
v 17 11 20
v 17 13 21
v 17 13 20
v 19 1 20
v 19 1 19
v 19 15 20
v 19 15 19
v 20 0 19
v 20 0 -21
v 20 1 18
v 20 1 -20
v 20 15 18
v 20 15 -20
v 20 16 19
v 20 16 -21
v 22 1 18
v 22 1 -20
v 22 15 18
v 22 15 -20
v -17 3 21
v -17 5 21
v -17 7 21
v -17 9 21
v -17 11 21
v -17 13 21
v -15 3 21
v -15 5 21
v -15 7 21
v -15 9 21
v -15 11 21
v -15 13 21
v -13 3 21
v -13 5 21
v -13 7 21
v -13 9 21
v -13 11 21
v -13 13 21
v -11 3 21
v -11 5 21
v -11 7 21
v -11 9 21
v -11 11 21
v -11 13 21
v -9 3 21
v -9 5 21
v -9 7 21
v -9 9 21
v -9 11 21
v -9 13 21
v -7 3 21
v -7 5 21
v -7 7 21
v -7 9 21
v -7 11 21
v -7 13 21
v -5 3 21
v -5 5 21
v -5 7 21
v -5 9 21
v -5 11 21
v -5 13 21
v -3 3 21
v -3 5 21
v -3 7 21
v -3 9 21
v -3 11 21
v -3 13 21
v -1 3 21
v -1 5 21
v -1 7 21
v -1 9 21
v -1 11 21
v -1 13 21
v 1 3 21
v 1 5 21
v 1 7 21
v 1 9 21
v 1 11 21
v 1 13 21
v 3 3 21
v 3 5 21
v 3 7 21
v 3 9 21
v 3 11 21
v 3 13 21
v 5 3 21
v 5 5 21
v 5 7 21
v 5 9 21
v 5 11 21
v 5 13 21
v 7 3 21
v 7 5 21
v 7 7 21
v 7 9 21
v 7 11 21
v 7 13 21
v 9 3 21
v 9 5 21
v 9 7 21
v 9 9 21
v 9 11 21
v 9 13 21
v 11 3 21
v 11 5 21
v 11 7 21
v 11 9 21
v 11 11 21
v 11 13 21
v 13 3 21
v 13 5 21
v 13 7 21
v 13 9 21
v 13 11 21
v 13 13 21
v 15 3 21
v 15 5 21
v 15 7 21
v 15 9 21
v 15 11 21
v 15 13 21
v 17 3 21
v 17 5 21
v 17 7 21
v 17 9 21
v 17 11 21
v 17 13 21
v -19 1 20
v -19 15 20
v -17 3 20
v -17 5 20
v -17 7 20
v -17 9 20
v -17 11 20
v -17 13 20
v -15 3 20
v -15 5 20
v -15 7 20
v -15 9 20
v -15 11 20
v -15 13 20
v -13 3 20
v -13 5 20
v -13 7 20
v -13 9 20
v -13 11 20
v -13 13 20
v -11 3 20
v -11 5 20
v -11 7 20
v -11 9 20
v -11 11 20
v -11 13 20
v -9 3 20
v -9 5 20
v -9 7 20
v -9 9 20
v -9 11 20
v -9 13 20
v -7 3 20
v -7 5 20
v -7 7 20
v -7 9 20
v -7 11 20
v -7 13 20
v -5 3 20
v -5 5 20
v -5 7 20
v -5 9 20
v -5 11 20
v -5 13 20
v -3 3 20
v -3 5 20
v -3 7 20
v -3 9 20
v -3 11 20
v -3 13 20
v -1 3 20
v -1 5 20
v -1 7 20
v -1 9 20
v -1 11 20
v -1 13 20
v 1 3 20
v 1 5 20
v 1 7 20
v 1 9 20
v 1 11 20
v 1 13 20
v 3 3 20
v 3 5 20
v 3 7 20
v 3 9 20
v 3 11 20
v 3 13 20
v 5 3 20
v 5 5 20
v 5 7 20
v 5 9 20
v 5 11 20
v 5 13 20
v 7 3 20
v 7 5 20
v 7 7 20
v 7 9 20
v 7 11 20
v 7 13 20
v 9 3 20
v 9 5 20
v 9 7 20
v 9 9 20
v 9 11 20
v 9 13 20
v 11 3 20
v 11 5 20
v 11 7 20
v 11 9 20
v 11 11 20
v 11 13 20
v 13 3 20
v 13 5 20
v 13 7 20
v 13 9 20
v 13 11 20
v 13 13 20
v 15 3 20
v 15 5 20
v 15 7 20
v 15 9 20
v 15 11 20
v 15 13 20
v 17 3 20
v 17 5 20
v 17 7 20
v 17 9 20
v 17 11 20
v 17 13 20
v 19 1 20
v 19 15 20
v -20 0 19
v -20 16 19
v -19 1 19
v -19 15 19
v 19 1 19
v 19 15 19
v 20 0 19
v 20 16 19
v -22 1 18
v -22 15 18
v -20 1 18
v -20 15 18
v 20 1 18
v 20 15 18
v 22 1 18
v 22 15 18
v -19 15 -20
v -19 16 -20
v 19 15 -20
v 19 16 -20
v -19 15 -19
v -19 16 -19
v 19 15 -19
v 19 16 -19
v -22 1 -20
v -22 15 -20
v -20 1 -20
v -20 15 -20
v 20 1 -20
v 20 15 -20
v 22 1 -20
v 22 15 -20
v -20 0 -21
v -20 16 -21
v 20 0 -21
v 20 16 -21
v -20 0 19
v 20 0 19
v -20 0 -21
v 20 0 -21
v -19 1 20
v 19 1 20
v -19 1 19
v 19 1 19
v -22 1 18
v -20 1 18
v 20 1 18
v 22 1 18
v -22 1 -20
v -20 1 -20
v 20 1 -20
v 22 1 -20
v -17 3 21
v -15 3 21
v -13 3 21
v -11 3 21
v -9 3 21
v -7 3 21
v -5 3 21
v -3 3 21
v -1 3 21
v 1 3 21
v 3 3 21
v 5 3 21
v 7 3 21
v 9 3 21
v 11 3 21
v 13 3 21
v 15 3 21
v 17 3 21
v -17 3 20
v -15 3 20
v -13 3 20
v -11 3 20
v -9 3 20
v -7 3 20
v -5 3 20
v -3 3 20
v -1 3 20
v 1 3 20
v 3 3 20
v 5 3 20
v 7 3 20
v 9 3 20
v 11 3 20
v 13 3 20
v 15 3 20
v 17 3 20
v -17 7 21
v -15 7 21
v -13 7 21
v -11 7 21
v -9 7 21
v -7 7 21
v -5 7 21
v -3 7 21
v -1 7 21
v 1 7 21
v 3 7 21
v 5 7 21
v 7 7 21
v 9 7 21
v 11 7 21
v 13 7 21
v 15 7 21
v 17 7 21
v -17 7 20
v -15 7 20
v -13 7 20
v -11 7 20
v -9 7 20
v -7 7 20
v -5 7 20
v -3 7 20
v -1 7 20
v 1 7 20
v 3 7 20
v 5 7 20
v 7 7 20
v 9 7 20
v 11 7 20
v 13 7 20
v 15 7 20
v 17 7 20
v -17 11 21
v -15 11 21
v -13 11 21
v -11 11 21
v -9 11 21
v -7 11 21
v -5 11 21
v -3 11 21
v -1 11 21
v 1 11 21
v 3 11 21
v 5 11 21
v 7 11 21
v 9 11 21
v 11 11 21
v 13 11 21
v 15 11 21
v 17 11 21
v -17 11 20
v -15 11 20
v -13 11 20
v -11 11 20
v -9 11 20
v -7 11 20
v -5 11 20
v -3 11 20
v -1 11 20
v 1 11 20
v 3 11 20
v 5 11 20
v 7 11 20
v 9 11 20
v 11 11 20
v 13 11 20
v 15 11 20
v 17 11 20
v -17 5 21
v -15 5 21
v -13 5 21
v -11 5 21
v -9 5 21
v -7 5 21
v -5 5 21
v -3 5 21
v -1 5 21
v 1 5 21
v 3 5 21
v 5 5 21
v 7 5 21
v 9 5 21
v 11 5 21
v 13 5 21
v 15 5 21
v 17 5 21
v -17 5 20
v -15 5 20
v -13 5 20
v -11 5 20
v -9 5 20
v -7 5 20
v -5 5 20
v -3 5 20
v -1 5 20
v 1 5 20
v 3 5 20
v 5 5 20
v 7 5 20
v 9 5 20
v 11 5 20
v 13 5 20
v 15 5 20
v 17 5 20
v -17 9 21
v -15 9 21
v -13 9 21
v -11 9 21
v -9 9 21
v -7 9 21
v -5 9 21
v -3 9 21
v -1 9 21
v 1 9 21
v 3 9 21
v 5 9 21
v 7 9 21
v 9 9 21
v 11 9 21
v 13 9 21
v 15 9 21
v 17 9 21
v -17 9 20
v -15 9 20
v -13 9 20
v -11 9 20
v -9 9 20
v -7 9 20
v -5 9 20
v -3 9 20
v -1 9 20
v 1 9 20
v 3 9 20
v 5 9 20
v 7 9 20
v 9 9 20
v 11 9 20
v 13 9 20
v 15 9 20
v 17 9 20
v -17 13 21
v -15 13 21
v -13 13 21
v -11 13 21
v -9 13 21
v -7 13 21
v -5 13 21
v -3 13 21
v -1 13 21
v 1 13 21
v 3 13 21
v 5 13 21
v 7 13 21
v 9 13 21
v 11 13 21
v 13 13 21
v 15 13 21
v 17 13 21
v -17 13 20
v -15 13 20
v -13 13 20
v -11 13 20
v -9 13 20
v -7 13 20
v -5 13 20
v -3 13 20
v -1 13 20
v 1 13 20
v 3 13 20
v 5 13 20
v 7 13 20
v 9 13 20
v 11 13 20
v 13 13 20
v 15 13 20
v 17 13 20
v -19 15 20
v 19 15 20
v -19 15 19
v 19 15 19
v -22 15 18
v -20 15 18
v 20 15 18
v 22 15 18
v -19 15 -19
v 19 15 -19
v -22 15 -20
v -20 15 -20
v -19 15 -20
v 19 15 -20
v 20 15 -20
v 22 15 -20
v -20 16 19
v 20 16 19
v -9 16 6
v -7 16 6
v -5 16 6
v 5 16 6
v -9 16 4
v -7 16 4
v -3 16 4
v 3 16 4
v -9 16 2
v -7 16 2
v -1 16 2
v 1 16 2
v -9 16 -0
v -7 16 -0
v 1 16 -0
v 3 16 -0
v -9 16 -2
v -7 16 -2
v -1 16 -2
v 5 16 -2
v -9 16 -4
v -7 16 -4
v -3 16 -4
v 5 16 -4
v -5 16 -6
v 5 16 -6
v -19 16 -19
v 19 16 -19
v -19 16 -20
v 19 16 -20
v -20 16 -21
v 20 16 -21

# faces
f 3/3/1 2/3/1 1/3/1
f 4/3/1 2/3/1 3/3/1
f 7/3/1 6/3/1 5/3/1
f 8/3/1 6/3/1 7/3/1
f 9/3/1 7/3/1 5/3/1
f 10/3/1 6/3/1 8/3/1
f 11/3/1 9/3/1 5/3/1
f 11/3/1 10/3/1 9/3/1
f 12/3/1 6/3/1 10/3/1
f 12/3/1 10/3/1 11/3/1
f 15/2/1 14/2/1 13/2/1
f 16/2/1 14/2/1 15/2/1
f 19/3/1 18/3/1 17/3/1
f 20/3/1 18/3/1 19/3/1
f 23/3/1 22/3/1 21/3/1
f 24/3/1 22/3/1 23/3/1
f 27/3/1 26/3/1 25/3/1
f 28/3/1 26/3/1 27/3/1
f 31/3/1 30/3/1 29/3/1
f 32/3/1 30/3/1 31/3/1
f 35/3/1 34/3/1 33/3/1
f 36/3/1 34/3/1 35/3/1
f 39/3/1 38/3/1 37/3/1
f 40/3/1 38/3/1 39/3/1
f 43/3/1 42/3/1 41/3/1
f 44/3/1 42/3/1 43/3/1
f 47/3/1 46/3/1 45/3/1
f 48/3/1 46/3/1 47/3/1
f 51/3/1 50/3/1 49/3/1
f 52/3/1 50/3/1 51/3/1
f 55/3/1 54/3/1 53/3/1
f 56/3/1 54/3/1 55/3/1
f 59/3/1 58/3/1 57/3/1
f 60/3/1 58/3/1 59/3/1
f 63/3/1 62/3/1 61/3/1
f 64/3/1 62/3/1 63/3/1
f 67/3/1 66/3/1 65/3/1
f 68/3/1 66/3/1 67/3/1
f 71/3/1 70/3/1 69/3/1
f 72/3/1 70/3/1 71/3/1
f 75/3/1 74/3/1 73/3/1
f 76/3/1 74/3/1 75/3/1
f 79/3/1 78/3/1 77/3/1
f 80/3/1 78/3/1 79/3/1
f 83/3/1 82/3/1 81/3/1
f 84/3/1 82/3/1 83/3/1
f 87/3/1 86/3/1 85/3/1
f 88/3/1 86/3/1 87/3/1
f 91/3/1 90/3/1 89/3/1
f 92/3/1 90/3/1 91/3/1
f 95/3/1 94/3/1 93/3/1
f 96/3/1 94/3/1 95/3/1
f 99/3/1 98/3/1 97/3/1
f 100/3/1 98/3/1 99/3/1
f 103/3/1 102/3/1 101/3/1
f 104/3/1 102/3/1 103/3/1
f 107/3/1 106/3/1 105/3/1
f 108/3/1 106/3/1 107/3/1
f 111/3/1 110/3/1 109/3/1
f 112/3/1 110/3/1 111/3/1
f 115/3/1 114/3/1 113/3/1
f 116/3/1 114/3/1 115/3/1
f 119/3/1 118/3/1 117/3/1
f 120/3/1 118/3/1 119/3/1
f 123/3/1 122/3/1 121/3/1
f 124/3/1 122/3/1 123/3/1
f 127/3/1 126/3/1 125/3/1
f 128/3/1 126/3/1 127/3/1
f 129/3/2 130/3/2 131/3/2
f 131/3/2 130/3/2 132/3/2
f 133/3/2 134/3/2 135/3/2
f 135/3/2 134/3/2 136/3/2
f 137/3/2 138/3/2 139/3/2
f 139/3/2 138/3/2 140/3/2
f 141/3/2 142/3/2 143/3/2
f 143/3/2 142/3/2 144/3/2
f 145/3/2 146/3/2 147/3/2
f 147/3/2 146/3/2 148/3/2
f 149/3/2 150/3/2 151/3/2
f 151/3/2 150/3/2 152/3/2
f 153/3/2 154/3/2 155/3/2
f 155/3/2 154/3/2 156/3/2
f 157/3/2 158/3/2 159/3/2
f 159/3/2 158/3/2 160/3/2
f 161/3/2 162/3/2 163/3/2
f 163/3/2 162/3/2 164/3/2
f 165/3/2 166/3/2 167/3/2
f 167/3/2 166/3/2 168/3/2
f 169/3/2 170/3/2 171/3/2
f 171/3/2 170/3/2 172/3/2
f 173/3/2 174/3/2 175/3/2
f 175/3/2 174/3/2 176/3/2
f 177/3/2 178/3/2 179/3/2
f 179/3/2 178/3/2 180/3/2
f 181/3/2 182/3/2 183/3/2
f 183/3/2 182/3/2 184/3/2
f 185/3/2 186/3/2 187/3/2
f 187/3/2 186/3/2 188/3/2
f 189/3/2 190/3/2 191/3/2
f 191/3/2 190/3/2 192/3/2
f 193/3/2 194/3/2 195/3/2
f 195/3/2 194/3/2 196/3/2
f 197/3/2 198/3/2 199/3/2
f 199/3/2 198/3/2 200/3/2
f 201/3/2 202/3/2 203/3/2
f 203/3/2 202/3/2 204/3/2
f 205/3/2 206/3/2 207/3/2
f 207/3/2 206/3/2 208/3/2
f 209/3/2 210/3/2 211/3/2
f 211/3/2 210/3/2 212/3/2
f 213/3/2 214/3/2 215/3/2
f 215/3/2 214/3/2 216/3/2
f 217/3/2 218/3/2 219/3/2
f 219/3/2 218/3/2 220/3/2
f 221/3/2 222/3/2 223/3/2
f 223/3/2 222/3/2 224/3/2
f 225/3/2 226/3/2 227/3/2
f 227/3/2 226/3/2 228/3/2
f 229/3/2 230/3/2 231/3/2
f 231/3/2 230/3/2 232/3/2
f 233/3/2 234/3/2 235/3/2
f 235/3/2 234/3/2 236/3/2
f 237/3/2 238/3/2 239/3/2
f 239/3/2 238/3/2 240/3/2
f 241/2/2 242/2/2 243/2/2
f 243/2/2 242/2/2 244/2/2
f 245/3/2 246/3/2 247/3/2
f 247/3/2 246/3/2 248/3/2
f 245/3/2 247/3/2 249/3/2
f 248/3/2 246/3/2 250/3/2
f 245/3/2 249/3/2 251/3/2
f 249/3/2 250/3/2 251/3/2
f 250/3/2 246/3/2 252/3/2
f 251/3/2 250/3/2 252/3/2
f 253/3/2 254/3/2 255/3/2
f 255/3/2 254/3/2 256/3/2
f 263/3/3 258/3/3 257/3/3
f 264/3/3 258/3/3 263/3/3
f 265/3/3 260/3/3 259/3/3
f 266/3/3 260/3/3 265/3/3
f 267/3/3 262/3/3 261/3/3
f 268/3/3 262/3/3 267/3/3
f 275/3/3 270/3/3 269/3/3
f 276/3/3 270/3/3 275/3/3
f 277/3/3 272/3/3 271/3/3
f 278/3/3 272/3/3 277/3/3
f 279/3/3 274/3/3 273/3/3
f 280/3/3 274/3/3 279/3/3
f 287/3/3 282/3/3 281/3/3
f 288/3/3 282/3/3 287/3/3
f 289/3/3 284/3/3 283/3/3
f 290/3/3 284/3/3 289/3/3
f 291/3/3 286/3/3 285/3/3
f 292/3/3 286/3/3 291/3/3
f 299/3/3 294/3/3 293/3/3
f 300/3/3 294/3/3 299/3/3
f 301/3/3 296/3/3 295/3/3
f 302/3/3 296/3/3 301/3/3
f 303/3/3 298/3/3 297/3/3
f 304/3/3 298/3/3 303/3/3
f 311/3/3 306/3/3 305/3/3
f 312/3/3 306/3/3 311/3/3
f 313/3/3 308/3/3 307/3/3
f 314/3/3 308/3/3 313/3/3
f 315/3/3 310/3/3 309/3/3
f 316/3/3 310/3/3 315/3/3
f 323/3/3 318/3/3 317/3/3
f 324/3/3 318/3/3 323/3/3
f 325/3/3 320/3/3 319/3/3
f 326/3/3 320/3/3 325/3/3
f 327/3/3 322/3/3 321/3/3
f 328/3/3 322/3/3 327/3/3
f 335/3/3 330/3/3 329/3/3
f 336/3/3 330/3/3 335/3/3
f 337/3/3 332/3/3 331/3/3
f 338/3/3 332/3/3 337/3/3
f 339/3/3 334/3/3 333/3/3
f 340/3/3 334/3/3 339/3/3
f 347/3/3 342/3/3 341/3/3
f 348/3/3 342/3/3 347/3/3
f 349/3/3 344/3/3 343/3/3
f 350/3/3 344/3/3 349/3/3
f 351/3/3 346/3/3 345/3/3
f 352/3/3 346/3/3 351/3/3
f 359/3/3 354/3/3 353/3/3
f 360/3/3 354/3/3 359/3/3
f 361/3/3 356/3/3 355/3/3
f 362/3/3 356/3/3 361/3/3
f 363/3/3 358/3/3 357/3/3
f 364/3/3 358/3/3 363/3/3
f 367/2/3 366/2/3 365/2/3
f 368/2/3 366/2/3 367/2/3
f 369/2/3 366/2/3 368/2/3
f 370/2/3 366/2/3 369/2/3
f 371/2/3 366/2/3 370/2/3
f 372/2/3 366/2/3 371/2/3
f 373/2/3 367/2/3 365/2/3
f 374/2/3 369/2/3 368/2/3
f 375/2/3 369/2/3 374/2/3
f 376/2/3 371/2/3 370/2/3
f 377/2/3 371/2/3 376/2/3
f 378/2/3 366/2/3 372/2/3
f 379/2/3 377/2/3 376/2/3
f 379/2/3 378/2/3 377/2/3
f 379/2/3 375/2/3 374/2/3
f 379/2/3 373/2/3 365/2/3
f 379/2/3 376/2/3 375/2/3
f 379/2/3 374/2/3 373/2/3
f 380/2/3 378/2/3 379/2/3
f 381/2/3 378/2/3 380/2/3
f 382/2/3 378/2/3 381/2/3
f 383/2/3 378/2/3 382/2/3
f 384/2/3 366/2/3 378/2/3
f 384/2/3 378/2/3 383/2/3
f 385/2/3 379/2/3 365/2/3
f 386/2/3 381/2/3 380/2/3
f 387/2/3 381/2/3 386/2/3
f 388/2/3 383/2/3 382/2/3
f 389/2/3 383/2/3 388/2/3
f 390/2/3 366/2/3 384/2/3
f 391/2/3 387/2/3 386/2/3
f 391/2/3 390/2/3 389/2/3
f 391/2/3 389/2/3 388/2/3
f 391/2/3 385/2/3 365/2/3
f 391/2/3 388/2/3 387/2/3
f 391/2/3 386/2/3 385/2/3
f 392/2/3 390/2/3 391/2/3
f 393/2/3 390/2/3 392/2/3
f 394/2/3 390/2/3 393/2/3
f 395/2/3 390/2/3 394/2/3
f 396/2/3 366/2/3 390/2/3
f 396/2/3 390/2/3 395/2/3
f 397/2/3 391/2/3 365/2/3
f 398/2/3 393/2/3 392/2/3
f 399/2/3 393/2/3 398/2/3
f 400/2/3 395/2/3 394/2/3
f 401/2/3 395/2/3 400/2/3
f 402/2/3 366/2/3 396/2/3
f 403/2/3 399/2/3 398/2/3
f 403/2/3 402/2/3 401/2/3
f 403/2/3 401/2/3 400/2/3
f 403/2/3 397/2/3 365/2/3
f 403/2/3 400/2/3 399/2/3
f 403/2/3 398/2/3 397/2/3
f 404/2/3 402/2/3 403/2/3
f 405/2/3 402/2/3 404/2/3
f 406/2/3 402/2/3 405/2/3
f 407/2/3 402/2/3 406/2/3
f 408/2/3 366/2/3 402/2/3
f 408/2/3 402/2/3 407/2/3
f 409/2/3 403/2/3 365/2/3
f 410/2/3 405/2/3 404/2/3
f 411/2/3 405/2/3 410/2/3
f 412/2/3 407/2/3 406/2/3
f 413/2/3 407/2/3 412/2/3
f 414/2/3 366/2/3 408/2/3
f 415/2/3 411/2/3 410/2/3
f 415/2/3 414/2/3 413/2/3
f 415/2/3 413/2/3 412/2/3
f 415/2/3 409/2/3 365/2/3
f 415/2/3 412/2/3 411/2/3
f 415/2/3 410/2/3 409/2/3
f 416/2/3 414/2/3 415/2/3
f 417/2/3 414/2/3 416/2/3
f 418/2/3 414/2/3 417/2/3
f 419/2/3 414/2/3 418/2/3
f 420/2/3 366/2/3 414/2/3
f 420/2/3 414/2/3 419/2/3
f 421/2/3 415/2/3 365/2/3
f 422/2/3 417/2/3 416/2/3
f 423/2/3 417/2/3 422/2/3
f 424/2/3 419/2/3 418/2/3
f 425/2/3 419/2/3 424/2/3
f 426/2/3 366/2/3 420/2/3
f 427/2/3 423/2/3 422/2/3
f 427/2/3 426/2/3 425/2/3
f 427/2/3 425/2/3 424/2/3
f 427/2/3 421/2/3 365/2/3
f 427/2/3 424/2/3 423/2/3
f 427/2/3 422/2/3 421/2/3
f 428/2/3 426/2/3 427/2/3
f 429/2/3 426/2/3 428/2/3
f 430/2/3 426/2/3 429/2/3
f 431/2/3 426/2/3 430/2/3
f 432/2/3 366/2/3 426/2/3
f 432/2/3 426/2/3 431/2/3
f 433/2/3 427/2/3 365/2/3
f 434/2/3 429/2/3 428/2/3
f 435/2/3 429/2/3 434/2/3
f 436/2/3 431/2/3 430/2/3
f 437/2/3 431/2/3 436/2/3
f 438/2/3 366/2/3 432/2/3
f 439/2/3 435/2/3 434/2/3
f 439/2/3 438/2/3 437/2/3
f 439/2/3 437/2/3 436/2/3
f 439/2/3 433/2/3 365/2/3
f 439/2/3 436/2/3 435/2/3
f 439/2/3 434/2/3 433/2/3
f 440/2/3 438/2/3 439/2/3
f 441/2/3 438/2/3 440/2/3
f 442/2/3 438/2/3 441/2/3
f 443/2/3 438/2/3 442/2/3
f 444/2/3 366/2/3 438/2/3
f 444/2/3 438/2/3 443/2/3
f 445/2/3 439/2/3 365/2/3
f 446/2/3 441/2/3 440/2/3
f 447/2/3 441/2/3 446/2/3
f 448/2/3 443/2/3 442/2/3
f 449/2/3 443/2/3 448/2/3
f 450/2/3 366/2/3 444/2/3
f 451/2/3 447/2/3 446/2/3
f 451/2/3 450/2/3 449/2/3
f 451/2/3 449/2/3 448/2/3
f 451/2/3 445/2/3 365/2/3
f 451/2/3 448/2/3 447/2/3
f 451/2/3 446/2/3 445/2/3
f 452/2/3 450/2/3 451/2/3
f 453/2/3 450/2/3 452/2/3
f 454/2/3 450/2/3 453/2/3
f 455/2/3 450/2/3 454/2/3
f 456/2/3 366/2/3 450/2/3
f 456/2/3 450/2/3 455/2/3
f 457/2/3 451/2/3 365/2/3
f 458/2/3 453/2/3 452/2/3
f 459/2/3 453/2/3 458/2/3
f 460/2/3 455/2/3 454/2/3
f 461/2/3 455/2/3 460/2/3
f 462/2/3 366/2/3 456/2/3
f 463/2/3 459/2/3 458/2/3
f 463/2/3 462/2/3 461/2/3
f 463/2/3 461/2/3 460/2/3
f 463/2/3 457/2/3 365/2/3
f 463/2/3 460/2/3 459/2/3
f 463/2/3 458/2/3 457/2/3
f 464/2/3 462/2/3 463/2/3
f 465/2/3 462/2/3 464/2/3
f 466/2/3 462/2/3 465/2/3
f 467/2/3 462/2/3 466/2/3
f 468/2/3 366/2/3 462/2/3
f 468/2/3 462/2/3 467/2/3
f 469/2/3 463/2/3 365/2/3
f 470/2/3 465/2/3 464/2/3
f 471/2/3 465/2/3 470/2/3
f 472/2/3 467/2/3 466/2/3
f 473/2/3 467/2/3 472/2/3
f 474/2/3 366/2/3 468/2/3
f 475/2/3 471/2/3 470/2/3
f 475/2/3 474/2/3 473/2/3
f 475/2/3 473/2/3 472/2/3
f 475/2/3 469/2/3 365/2/3
f 475/2/3 472/2/3 471/2/3
f 475/2/3 470/2/3 469/2/3
f 476/2/3 366/2/3 474/2/3
f 476/2/3 474/2/3 475/2/3
f 479/3/3 478/3/3 477/3/3
f 480/3/3 478/3/3 479/3/3
f 481/3/3 479/3/3 477/3/3
f 482/3/3 478/3/3 480/3/3
f 483/3/3 481/3/3 477/3/3
f 483/3/3 482/3/3 481/3/3
f 484/3/3 478/3/3 482/3/3
f 484/3/3 482/3/3 483/3/3
f 487/3/3 486/3/3 485/3/3
f 488/3/3 486/3/3 487/3/3
f 491/3/3 490/3/3 489/3/3
f 492/3/3 490/3/3 491/3/3
f 495/3/3 494/3/3 493/3/3
f 496/3/3 494/3/3 495/3/3
f 497/3/4 498/3/4 499/3/4
f 499/3/4 498/3/4 500/3/4
f 501/3/4 502/3/4 503/3/4
f 503/3/4 502/3/4 504/3/4
f 505/3/4 506/3/4 507/3/4
f 507/3/4 506/3/4 508/3/4
f 509/3/4 510/3/4 511/3/4
f 511/3/4 510/3/4 512/3/4
f 515/3/5 514/3/5 513/3/5
f 516/3/5 514/3/5 515/3/5
f 519/2/5 518/2/5 517/2/5
f 520/2/5 518/2/5 519/2/5
f 525/3/5 522/3/5 521/3/5
f 526/3/5 522/3/5 525/3/5
f 527/3/5 524/3/5 523/3/5
f 528/3/5 524/3/5 527/3/5
f 547/3/5 530/3/5 529/3/5
f 548/3/5 530/3/5 547/3/5
f 549/3/5 532/3/5 531/3/5
f 550/3/5 532/3/5 549/3/5
f 551/3/5 534/3/5 533/3/5
f 552/3/5 534/3/5 551/3/5
f 553/3/5 536/3/5 535/3/5
f 554/3/5 536/3/5 553/3/5
f 555/3/5 538/3/5 537/3/5
f 556/3/5 538/3/5 555/3/5
f 557/3/5 540/3/5 539/3/5
f 558/3/5 540/3/5 557/3/5
f 559/3/5 542/3/5 541/3/5
f 560/3/5 542/3/5 559/3/5
f 561/3/5 544/3/5 543/3/5
f 562/3/5 544/3/5 561/3/5
f 563/3/5 546/3/5 545/3/5
f 564/3/5 546/3/5 563/3/5
f 583/3/5 566/3/5 565/3/5
f 584/3/5 566/3/5 583/3/5
f 585/3/5 568/3/5 567/3/5
f 586/3/5 568/3/5 585/3/5
f 587/3/5 570/3/5 569/3/5
f 588/3/5 570/3/5 587/3/5
f 589/3/5 572/3/5 571/3/5
f 590/3/5 572/3/5 589/3/5
f 591/3/5 574/3/5 573/3/5
f 592/3/5 574/3/5 591/3/5
f 593/3/5 576/3/5 575/3/5
f 594/3/5 576/3/5 593/3/5
f 595/3/5 578/3/5 577/3/5
f 596/3/5 578/3/5 595/3/5
f 597/3/5 580/3/5 579/3/5
f 598/3/5 580/3/5 597/3/5
f 599/3/5 582/3/5 581/3/5
f 600/3/5 582/3/5 599/3/5
f 619/3/5 602/3/5 601/3/5
f 620/3/5 602/3/5 619/3/5
f 621/3/5 604/3/5 603/3/5
f 622/3/5 604/3/5 621/3/5
f 623/3/5 606/3/5 605/3/5
f 624/3/5 606/3/5 623/3/5
f 625/3/5 608/3/5 607/3/5
f 626/3/5 608/3/5 625/3/5
f 627/3/5 610/3/5 609/3/5
f 628/3/5 610/3/5 627/3/5
f 629/3/5 612/3/5 611/3/5
f 630/3/5 612/3/5 629/3/5
f 631/3/5 614/3/5 613/3/5
f 632/3/5 614/3/5 631/3/5
f 633/3/5 616/3/5 615/3/5
f 634/3/5 616/3/5 633/3/5
f 635/3/5 618/3/5 617/3/5
f 636/3/5 618/3/5 635/3/5
f 637/3/6 638/3/6 655/3/6
f 655/3/6 638/3/6 656/3/6
f 639/3/6 640/3/6 657/3/6
f 657/3/6 640/3/6 658/3/6
f 641/3/6 642/3/6 659/3/6
f 659/3/6 642/3/6 660/3/6
f 643/3/6 644/3/6 661/3/6
f 661/3/6 644/3/6 662/3/6
f 645/3/6 646/3/6 663/3/6
f 663/3/6 646/3/6 664/3/6
f 647/3/6 648/3/6 665/3/6
f 665/3/6 648/3/6 666/3/6
f 649/3/6 650/3/6 667/3/6
f 667/3/6 650/3/6 668/3/6
f 651/3/6 652/3/6 669/3/6
f 669/3/6 652/3/6 670/3/6
f 653/3/6 654/3/6 671/3/6
f 671/3/6 654/3/6 672/3/6
f 673/3/6 674/3/6 691/3/6
f 691/3/6 674/3/6 692/3/6
f 675/3/6 676/3/6 693/3/6
f 693/3/6 676/3/6 694/3/6
f 677/3/6 678/3/6 695/3/6
f 695/3/6 678/3/6 696/3/6
f 679/3/6 680/3/6 697/3/6
f 697/3/6 680/3/6 698/3/6
f 681/3/6 682/3/6 699/3/6
f 699/3/6 682/3/6 700/3/6
f 683/3/6 684/3/6 701/3/6
f 701/3/6 684/3/6 702/3/6
f 685/3/6 686/3/6 703/3/6
f 703/3/6 686/3/6 704/3/6
f 687/3/6 688/3/6 705/3/6
f 705/3/6 688/3/6 706/3/6
f 689/3/6 690/3/6 707/3/6
f 707/3/6 690/3/6 708/3/6
f 709/3/6 710/3/6 727/3/6
f 727/3/6 710/3/6 728/3/6
f 711/3/6 712/3/6 729/3/6
f 729/3/6 712/3/6 730/3/6
f 713/3/6 714/3/6 731/3/6
f 731/3/6 714/3/6 732/3/6
f 715/3/6 716/3/6 733/3/6
f 733/3/6 716/3/6 734/3/6
f 717/3/6 718/3/6 735/3/6
f 735/3/6 718/3/6 736/3/6
f 719/3/6 720/3/6 737/3/6
f 737/3/6 720/3/6 738/3/6
f 721/3/6 722/3/6 739/3/6
f 739/3/6 722/3/6 740/3/6
f 723/3/6 724/3/6 741/3/6
f 741/3/6 724/3/6 742/3/6
f 725/3/6 726/3/6 743/3/6
f 743/3/6 726/3/6 744/3/6
f 745/2/6 746/2/6 747/2/6
f 747/2/6 746/2/6 748/2/6
f 749/3/6 750/3/6 755/3/6
f 755/3/6 750/3/6 756/3/6
f 753/3/6 754/3/6 757/3/6
f 757/3/6 754/3/6 758/3/6
f 751/3/6 752/3/6 759/3/6
f 759/3/6 752/3/6 760/3/6
f 761/3/6 762/3/6 763/3/6
f 763/3/6 762/3/6 764/3/6
f 764/3/6 762/3/6 765/3/6
f 765/3/6 762/3/6 766/3/6
f 761/3/6 763/3/6 767/3/6
f 763/1/6 764/1/6 767/1/6
f 764/3/6 765/3/6 768/3/6
f 767/1/6 764/1/6 768/1/6
f 765/1/6 766/1/6 769/1/6
f 769/1/6 766/1/6 770/1/6
f 761/3/6 767/3/6 771/3/6
f 767/3/6 768/3/6 771/3/6
f 768/3/6 765/3/6 772/3/6
f 771/3/6 768/3/6 772/3/6
f 769/3/6 770/3/6 773/3/6
f 773/3/6 770/3/6 774/3/6
f 761/3/6 771/3/6 775/3/6
f 771/1/6 772/1/6 775/1/6
f 772/3/6 765/3/6 776/3/6
f 775/1/6 772/1/6 776/1/6
f 774/3/6 770/3/6 777/3/6
f 773/1/6 774/1/6 777/1/6
f 770/1/6 766/1/6 778/1/6
f 777/3/6 770/3/6 778/3/6
f 761/3/6 775/3/6 779/3/6
f 775/3/6 776/3/6 779/3/6
f 776/3/6 765/3/6 780/3/6
f 779/3/6 776/3/6 780/3/6
f 773/1/6 777/1/6 781/1/6
f 777/1/6 778/1/6 781/1/6
f 769/3/6 773/3/6 781/3/6
f 766/3/6 762/3/6 782/3/6
f 781/1/6 778/1/6 782/1/6
f 778/1/6 766/1/6 782/1/6
f 761/3/6 779/3/6 783/3/6
f 779/1/6 780/1/6 783/1/6
f 780/3/6 765/3/6 784/3/6
f 783/1/6 780/1/6 784/1/6
f 769/3/6 781/3/6 785/3/6
f 781/3/6 782/3/6 785/3/6
f 765/1/6 769/1/6 785/1/6
f 782/3/6 762/3/6 786/3/6
f 785/3/6 782/3/6 786/3/6
f 784/3/6 765/3/6 787/3/6
f 765/1/6 785/1/6 787/1/6
f 785/1/6 786/1/6 787/1/6
f 783/3/6 784/3/6 787/3/6
f 786/3/6 762/3/6 788/3/6
f 787/1/6 786/1/6 788/1/6
f 783/3/6 787/3/6 789/3/6
f 761/3/6 783/3/6 789/3/6
f 787/3/6 788/3/6 789/3/6
f 788/3/6 762/3/6 790/3/6
f 789/3/6 788/3/6 790/3/6
f 761/3/6 789/3/6 791/3/6
f 790/3/6 762/3/6 792/3/6
f 761/3/6 791/3/6 793/3/6
f 791/3/6 792/3/6 793/3/6
f 792/3/6 762/3/6 794/3/6
f 793/3/6 792/3/6 794/3/6
